Ctibor	Ctibor	SSms1
Ctibor	Ctibor	SSms5
Ctibor	Ctibora	SSms2
Ctibor	Ctibora	SSms4
Ctibor	Ctibormi	SSmp7
Ctibor	Ctiboroch	SSmp6
Ctibor	Ctiborom	SSms7
Ctibor	Ctiborom	SSmp3
Ctibor	Ctiborov	SSmp2
Ctibor	Ctiborov	SSmp4
Ctibor	Ctiborovi	SSms3
Ctibor	Ctiborovi	SSms6
Ctibor	Ctiborovia	SSmp1
Ctibor	Ctiborovia	SSmp5
ctený	ctenej	AAfs2x
ctený	ctenej	AAfs3x
ctený	ctenej	AAfs6x
ctený	ctenom	AAms6x
ctený	ctenom	AAis6x
ctený	ctenom	AAns6x
ctený	ctenou	AAfs7x
ctený	ctená	AAfs1x
ctený	ctená	AAfs5x
ctený	ctené	AAip1x
ctený	ctené	AAip4x
ctený	ctené	AAip5x
ctený	ctené	AAfp1x
ctený	ctené	AAfp4x
ctený	ctené	AAfp5x
ctený	ctené	AAns1x
ctený	ctené	AAns4x
ctený	ctené	AAns5x
ctený	ctené	AAnp1x
ctený	ctené	AAnp4x
ctený	ctené	AAnp5x
ctený	cteného	AAms2x
ctený	cteného	AAms4x
ctený	cteného	AAis2x
ctený	cteného	AAns2x
ctený	ctenému	AAms3x
ctený	ctenému	AAis3x
ctený	ctenému	AAns3x
ctený	ctení	AAmp1x
ctený	ctení	AAmp5x
ctený	ctenú	AAfs4x
ctený	ctený	AAms1x
ctený	ctený	AAms5x
ctený	ctený	AAis1x
ctený	ctený	AAis4x
ctený	ctený	AAis5x
ctený	ctených	AAmp2x
ctený	ctených	AAmp4x
ctený	ctených	AAmp6x
ctený	ctených	AAip2x
ctený	ctených	AAip6x
ctený	ctených	AAfp2x
ctený	ctených	AAfp6x
ctený	ctených	AAnp2x
ctený	ctených	AAnp6x
ctený	cteným	AAms7x
ctený	cteným	AAmp3x
ctený	cteným	AAis7x
ctený	cteným	AAip3x
ctený	cteným	AAfp3x
ctený	cteným	AAns7x
ctený	cteným	AAnp3x
ctený	ctenými	AAmp7x
ctený	ctenými	AAip7x
ctený	ctenými	AAfp7x
ctený	ctenými	AAnp7x
ctiť	cti	VMesb+
česť	cti	SSfs2
česť	cti	SSfs3
česť	cti	SSfs6
česť	cti	SSfp1
česť	cti	SSfp4
česť	cti	SSfp5
ctiť	ctia	VKepc+
ctiť	ctiac	VHe+
česť	ctiach	SSfp6
česť	ctiam	SSfp3
ctibažne	ctibažne	Dx
ctibažný	ctibažnej	AAfs2x
ctibažný	ctibažnej	AAfs3x
ctibažný	ctibažnej	AAfs6x
ctibažný	ctibažnejšej	AAfs2y
ctibažný	ctibažnejšej	AAfs3y
ctibažný	ctibažnejšej	AAfs6y
ctibažný	ctibažnejšia	AAfs1y
ctibažný	ctibažnejšia	AAfs5y
ctibažne	ctibažnejšie	Dy
ctibažný	ctibažnejšie	AAip1y
ctibažný	ctibažnejšie	AAip4y
ctibažný	ctibažnejšie	AAip5y
ctibažný	ctibažnejšie	AAfp1y
ctibažný	ctibažnejšie	AAfp4y
ctibažný	ctibažnejšie	AAfp5y
ctibažný	ctibažnejšie	AAns1y
ctibažný	ctibažnejšie	AAns4y
ctibažný	ctibažnejšie	AAns5y
ctibažný	ctibažnejšie	AAnp1y
ctibažný	ctibažnejšie	AAnp4y
ctibažný	ctibažnejšie	AAnp5y
ctibažný	ctibažnejšieho	AAms2y
ctibažný	ctibažnejšieho	AAms4y
ctibažný	ctibažnejšieho	AAis2y
ctibažný	ctibažnejšieho	AAns2y
ctibažný	ctibažnejšiemu	AAms3y
ctibažný	ctibažnejšiemu	AAis3y
ctibažný	ctibažnejšiemu	AAns3y
ctibažný	ctibažnejšiu	AAfs4y
ctibažný	ctibažnejšom	AAms6y
ctibažný	ctibažnejšom	AAis6y
ctibažný	ctibažnejšom	AAns6y
ctibažný	ctibažnejšou	AAfs7y
ctibažný	ctibažnejší	AAms1y
ctibažný	ctibažnejší	AAms5y
ctibažný	ctibažnejší	AAmp1y
ctibažný	ctibažnejší	AAmp5y
ctibažný	ctibažnejší	AAis1y
ctibažný	ctibažnejší	AAis4y
ctibažný	ctibažnejší	AAis5y
ctibažný	ctibažnejších	AAmp2y
ctibažný	ctibažnejších	AAmp4y
ctibažný	ctibažnejších	AAmp6y
ctibažný	ctibažnejších	AAip2y
ctibažný	ctibažnejších	AAip6y
ctibažný	ctibažnejších	AAfp2y
ctibažný	ctibažnejších	AAfp6y
ctibažný	ctibažnejších	AAnp2y
ctibažný	ctibažnejších	AAnp6y
ctibažný	ctibažnejším	AAms7y
ctibažný	ctibažnejším	AAmp3y
ctibažný	ctibažnejším	AAis7y
ctibažný	ctibažnejším	AAip3y
ctibažný	ctibažnejším	AAfp3y
ctibažný	ctibažnejším	AAns7y
ctibažný	ctibažnejším	AAnp3y
ctibažný	ctibažnejšími	AAmp7y
ctibažný	ctibažnejšími	AAip7y
ctibažný	ctibažnejšími	AAfp7y
ctibažný	ctibažnejšími	AAnp7y
ctibažný	ctibažnom	AAms6x
ctibažný	ctibažnom	AAis6x
ctibažný	ctibažnom	AAns6x
ctibažnosť	ctibažnosti	SSfs2
ctibažnosť	ctibažnosti	SSfs3
ctibažnosť	ctibažnosti	SSfs6
ctibažnosť	ctibažnosti	SSfp1
ctibažnosť	ctibažnosti	SSfp4
ctibažnosť	ctibažnosti	SSfp5
ctibažnosť	ctibažnostiach	SSfp6
ctibažnosť	ctibažnostiam	SSfp3
ctibažnosť	ctibažností	SSfp2
ctibažnosť	ctibažnosť	SSfs1
ctibažnosť	ctibažnosť	SSfs4
ctibažnosť	ctibažnosť	SSfs5
ctibažnosť	ctibažnosťami	SSfp7
ctibažnosť	ctibažnosťou	SSfs7
ctibažný	ctibažnou	AAfs7x
ctibažný	ctibažná	AAfs1x
ctibažný	ctibažná	AAfs5x
ctibažný	ctibažné	AAip1x
ctibažný	ctibažné	AAip4x
ctibažný	ctibažné	AAip5x
ctibažný	ctibažné	AAfp1x
ctibažný	ctibažné	AAfp4x
ctibažný	ctibažné	AAfp5x
ctibažný	ctibažné	AAns1x
ctibažný	ctibažné	AAns4x
ctibažný	ctibažné	AAns5x
ctibažný	ctibažné	AAnp1x
ctibažný	ctibažné	AAnp4x
ctibažný	ctibažné	AAnp5x
ctibažný	ctibažného	AAms2x
ctibažný	ctibažného	AAms4x
ctibažný	ctibažného	AAis2x
ctibažný	ctibažného	AAns2x
ctibažný	ctibažnému	AAms3x
ctibažný	ctibažnému	AAis3x
ctibažný	ctibažnému	AAns3x
ctibažný	ctibažní	AAmp1x
ctibažný	ctibažní	AAmp5x
ctibažník	ctibažníci	SSmp1
ctibažník	ctibažníci	SSmp5
ctibažník	ctibažník	SSms1
ctibažník	ctibažník	SSms5
ctibažník	ctibažníka	SSms2
ctibažník	ctibažníka	SSms4
ctibažník	ctibažníkmi	SSmp7
ctibažník	ctibažníkoch	SSmp6
ctibažník	ctibažníkom	SSms7
ctibažník	ctibažníkom	SSmp3
ctibažník	ctibažníkov	SSmp2
ctibažník	ctibažníkov	SSmp4
ctibažník	ctibažníkovi	SSms3
ctibažník	ctibažníkovi	SSms6
ctibažný	ctibažnú	AAfs4x
ctibažný	ctibažný	AAms1x
ctibažný	ctibažný	AAms5x
ctibažný	ctibažný	AAis1x
ctibažný	ctibažný	AAis4x
ctibažný	ctibažný	AAis5x
ctibažný	ctibažných	AAmp2x
ctibažný	ctibažných	AAmp4x
ctibažný	ctibažných	AAmp6x
ctibažný	ctibažných	AAip2x
ctibažný	ctibažných	AAip6x
ctibažný	ctibažných	AAfp2x
ctibažný	ctibažných	AAfp6x
ctibažný	ctibažných	AAnp2x
ctibažný	ctibažných	AAnp6x
ctibažný	ctibažným	AAms7x
ctibažný	ctibažným	AAmp3x
ctibažný	ctibažným	AAis7x
ctibažný	ctibažným	AAip3x
ctibažný	ctibažným	AAfp3x
ctibažný	ctibažným	AAns7x
ctibažný	ctibažným	AAnp3x
ctibažný	ctibažnými	AAmp7x
ctibažný	ctibažnými	AAip7x
ctibažný	ctibažnými	AAfp7x
ctibažný	ctibažnými	AAnp7x
ctihodne	ctihodne	Dx
ctihodný	ctihodnej	AAfs2x
ctihodný	ctihodnej	AAfs3x
ctihodný	ctihodnej	AAfs6x
ctihodný	ctihodnejšej	AAfs2y
ctihodný	ctihodnejšej	AAfs3y
ctihodný	ctihodnejšej	AAfs6y
ctihodný	ctihodnejšia	AAfs1y
ctihodný	ctihodnejšia	AAfs5y
ctihodne	ctihodnejšie	Dy
ctihodný	ctihodnejšie	AAip1y
ctihodný	ctihodnejšie	AAip4y
ctihodný	ctihodnejšie	AAip5y
ctihodný	ctihodnejšie	AAfp1y
ctihodný	ctihodnejšie	AAfp4y
ctihodný	ctihodnejšie	AAfp5y
ctihodný	ctihodnejšie	AAns1y
ctihodný	ctihodnejšie	AAns4y
ctihodný	ctihodnejšie	AAns5y
ctihodný	ctihodnejšie	AAnp1y
ctihodný	ctihodnejšie	AAnp4y
ctihodný	ctihodnejšie	AAnp5y
ctihodný	ctihodnejšieho	AAms2y
ctihodný	ctihodnejšieho	AAms4y
ctihodný	ctihodnejšieho	AAis2y
ctihodný	ctihodnejšieho	AAns2y
ctihodný	ctihodnejšiemu	AAms3y
ctihodný	ctihodnejšiemu	AAis3y
ctihodný	ctihodnejšiemu	AAns3y
ctihodný	ctihodnejšiu	AAfs4y
ctihodný	ctihodnejšom	AAms6y
ctihodný	ctihodnejšom	AAis6y
ctihodný	ctihodnejšom	AAns6y
ctihodný	ctihodnejšou	AAfs7y
ctihodný	ctihodnejší	AAms1y
ctihodný	ctihodnejší	AAms5y
ctihodný	ctihodnejší	AAmp1y
ctihodný	ctihodnejší	AAmp5y
ctihodný	ctihodnejší	AAis1y
ctihodný	ctihodnejší	AAis4y
ctihodný	ctihodnejší	AAis5y
ctihodný	ctihodnejších	AAmp2y
ctihodný	ctihodnejších	AAmp4y
ctihodný	ctihodnejších	AAmp6y
ctihodný	ctihodnejších	AAip2y
ctihodný	ctihodnejších	AAip6y
ctihodný	ctihodnejších	AAfp2y
ctihodný	ctihodnejších	AAfp6y
ctihodný	ctihodnejších	AAnp2y
ctihodný	ctihodnejších	AAnp6y
ctihodný	ctihodnejším	AAms7y
ctihodný	ctihodnejším	AAmp3y
ctihodný	ctihodnejším	AAis7y
ctihodný	ctihodnejším	AAip3y
ctihodný	ctihodnejším	AAfp3y
ctihodný	ctihodnejším	AAns7y
ctihodný	ctihodnejším	AAnp3y
ctihodný	ctihodnejšími	AAmp7y
ctihodný	ctihodnejšími	AAip7y
ctihodný	ctihodnejšími	AAfp7y
ctihodný	ctihodnejšími	AAnp7y
ctihodný	ctihodnom	AAms6x
ctihodný	ctihodnom	AAis6x
ctihodný	ctihodnom	AAns6x
ctihodnosť	ctihodnosti	SSfs2
ctihodnosť	ctihodnosti	SSfs3
ctihodnosť	ctihodnosti	SSfs6
ctihodnosť	ctihodnosti	SSfp1
ctihodnosť	ctihodnosti	SSfp4
ctihodnosť	ctihodnosti	SSfp5
ctihodnosť	ctihodnostiach	SSfp6
ctihodnosť	ctihodnostiam	SSfp3
ctihodnosť	ctihodností	SSfp2
ctihodnosť	ctihodnosť	SSfs1
ctihodnosť	ctihodnosť	SSfs4
ctihodnosť	ctihodnosť	SSfs5
ctihodnosť	ctihodnosťami	SSfp7
ctihodnosť	ctihodnosťou	SSfs7
ctihodný	ctihodnou	AAfs7x
ctihodný	ctihodná	AAfs1x
ctihodný	ctihodná	AAfs5x
ctihodný	ctihodné	AAip1x
ctihodný	ctihodné	AAip4x
ctihodný	ctihodné	AAip5x
ctihodný	ctihodné	AAfp1x
ctihodný	ctihodné	AAfp4x
ctihodný	ctihodné	AAfp5x
ctihodný	ctihodné	AAns1x
ctihodný	ctihodné	AAns4x
ctihodný	ctihodné	AAns5x
ctihodný	ctihodné	AAnp1x
ctihodný	ctihodné	AAnp4x
ctihodný	ctihodné	AAnp5x
ctihodný	ctihodného	AAms2x
ctihodný	ctihodného	AAms4x
ctihodný	ctihodného	AAis2x
ctihodný	ctihodného	AAns2x
ctihodný	ctihodnému	AAms3x
ctihodný	ctihodnému	AAis3x
ctihodný	ctihodnému	AAns3x
ctihodný	ctihodní	AAmp1x
ctihodný	ctihodní	AAmp5x
ctihodný	ctihodnú	AAfs4x
ctihodný	ctihodný	AAms1x
ctihodný	ctihodný	AAms5x
ctihodný	ctihodný	AAis1x
ctihodný	ctihodný	AAis4x
ctihodný	ctihodný	AAis5x
ctihodný	ctihodných	AAmp2x
ctihodný	ctihodných	AAmp4x
ctihodný	ctihodných	AAmp6x
ctihodný	ctihodných	AAip2x
ctihodný	ctihodných	AAip6x
ctihodný	ctihodných	AAfp2x
ctihodný	ctihodných	AAfp6x
ctihodný	ctihodných	AAnp2x
ctihodný	ctihodných	AAnp6x
ctihodný	ctihodným	AAms7x
ctihodný	ctihodným	AAmp3x
ctihodný	ctihodným	AAis7x
ctihodný	ctihodným	AAip3x
ctihodný	ctihodným	AAfp3x
ctihodný	ctihodným	AAns7x
ctihodný	ctihodným	AAnp3x
ctihodný	ctihodnými	AAmp7x
ctihodný	ctihodnými	AAip7x
ctihodný	ctihodnými	AAfp7x
ctihodný	ctihodnými	AAnp7x
ctiť	ctil	VLesam+
ctiť	ctil	VLesai+
ctiť	ctil	VLesbm+
ctiť	ctil	VLesbi+
ctiť	ctil	VLescm+
ctiť	ctil	VLesci+
ctiť	ctila	VLesaf+
ctiť	ctila	VLesbf+
ctiť	ctila	VLescf+
ctiť	ctili	VLepah+
ctiť	ctili	VLepbh+
ctiť	ctili	VLepcm+
ctiť	ctili	VLepci+
ctiť	ctili	VLepcf+
ctiť	ctili	VLepcn+
ctiť	ctili	VLepco+
ctiť	ctilo	VLesan+
ctiť	ctilo	VLesbn+
ctiť	ctilo	VLescn+
ctiť	ctime	VMepa+
ctiť	ctite	VMepb+
ctiteľ	ctitelia	SSmp1
ctiteľ	ctitelia	SSmp5
ctiteľka	ctiteliek	SSfp2
ctiteľ	ctiteľ	SSms1
ctiteľ	ctiteľ	SSms5
ctiteľ	ctiteľa	SSms2
ctiteľ	ctiteľa	SSms4
ctiteľka	ctiteľka	SSfs1
ctiteľka	ctiteľka	SSfs5
ctiteľka	ctiteľkami	SSfp7
ctiteľka	ctiteľke	SSfs3
ctiteľka	ctiteľke	SSfs6
ctiteľka	ctiteľkou	SSfs7
ctiteľka	ctiteľku	SSfs4
ctiteľka	ctiteľky	SSfs2
ctiteľka	ctiteľky	SSfp1
ctiteľka	ctiteľky	SSfp4
ctiteľka	ctiteľky	SSfp5
ctiteľka	ctiteľkách	SSfp6
ctiteľka	ctiteľkám	SSfp3
ctiteľ	ctiteľmi	SSmp7
ctiteľ	ctiteľoch	SSmp6
ctiteľ	ctiteľom	SSms7
ctiteľ	ctiteľom	SSmp3
ctiteľ	ctiteľov	SSmp2
ctiteľ	ctiteľov	SSmp4
ctiteľ	ctiteľovi	SSms3
ctiteľ	ctiteľovi	SSms6
ctiť	ctiť	VIe+
ctižiadosť	ctižiadosti	SSfs2
ctižiadosť	ctižiadosti	SSfs3
ctižiadosť	ctižiadosti	SSfs6
ctižiadosť	ctižiadosti	SSfp1
ctižiadosť	ctižiadosti	SSfp4
ctižiadosť	ctižiadosti	SSfp5
ctižiadosť	ctižiadostiach	SSfp6
ctižiadosť	ctižiadostiam	SSfp3
ctižiadostivý	ctižiadostivej	AAfs2x
ctižiadostivý	ctižiadostivej	AAfs3x
ctižiadostivý	ctižiadostivej	AAfs6x
ctižiadostivý	ctižiadostivejšej	AAfs2y
ctižiadostivý	ctižiadostivejšej	AAfs3y
ctižiadostivý	ctižiadostivejšej	AAfs6y
ctižiadostivý	ctižiadostivejšia	AAfs1y
ctižiadostivý	ctižiadostivejšia	AAfs5y
ctižiadostivo	ctižiadostivejšie	Dy
ctižiadostivý	ctižiadostivejšie	AAip1y
ctižiadostivý	ctižiadostivejšie	AAip4y
ctižiadostivý	ctižiadostivejšie	AAip5y
ctižiadostivý	ctižiadostivejšie	AAfp1y
ctižiadostivý	ctižiadostivejšie	AAfp4y
ctižiadostivý	ctižiadostivejšie	AAfp5y
ctižiadostivý	ctižiadostivejšie	AAns1y
ctižiadostivý	ctižiadostivejšie	AAns4y
ctižiadostivý	ctižiadostivejšie	AAns5y
ctižiadostivý	ctižiadostivejšie	AAnp1y
ctižiadostivý	ctižiadostivejšie	AAnp4y
ctižiadostivý	ctižiadostivejšie	AAnp5y
ctižiadostivý	ctižiadostivejšieho	AAms2y
ctižiadostivý	ctižiadostivejšieho	AAms4y
ctižiadostivý	ctižiadostivejšieho	AAis2y
ctižiadostivý	ctižiadostivejšieho	AAns2y
ctižiadostivý	ctižiadostivejšiemu	AAms3y
ctižiadostivý	ctižiadostivejšiemu	AAis3y
ctižiadostivý	ctižiadostivejšiemu	AAns3y
ctižiadostivý	ctižiadostivejšiu	AAfs4y
ctižiadostivý	ctižiadostivejšom	AAms6y
ctižiadostivý	ctižiadostivejšom	AAis6y
ctižiadostivý	ctižiadostivejšom	AAns6y
ctižiadostivý	ctižiadostivejšou	AAfs7y
ctižiadostivý	ctižiadostivejší	AAms1y
ctižiadostivý	ctižiadostivejší	AAms5y
ctižiadostivý	ctižiadostivejší	AAmp1y
ctižiadostivý	ctižiadostivejší	AAmp5y
ctižiadostivý	ctižiadostivejší	AAis1y
ctižiadostivý	ctižiadostivejší	AAis4y
ctižiadostivý	ctižiadostivejší	AAis5y
ctižiadostivý	ctižiadostivejších	AAmp2y
ctižiadostivý	ctižiadostivejších	AAmp4y
ctižiadostivý	ctižiadostivejších	AAmp6y
ctižiadostivý	ctižiadostivejších	AAip2y
ctižiadostivý	ctižiadostivejších	AAip6y
ctižiadostivý	ctižiadostivejších	AAfp2y
ctižiadostivý	ctižiadostivejších	AAfp6y
ctižiadostivý	ctižiadostivejších	AAnp2y
ctižiadostivý	ctižiadostivejších	AAnp6y
ctižiadostivý	ctižiadostivejším	AAms7y
ctižiadostivý	ctižiadostivejším	AAmp3y
ctižiadostivý	ctižiadostivejším	AAis7y
ctižiadostivý	ctižiadostivejším	AAip3y
ctižiadostivý	ctižiadostivejším	AAfp3y
ctižiadostivý	ctižiadostivejším	AAns7y
ctižiadostivý	ctižiadostivejším	AAnp3y
ctižiadostivý	ctižiadostivejšími	AAmp7y
ctižiadostivý	ctižiadostivejšími	AAip7y
ctižiadostivý	ctižiadostivejšími	AAfp7y
ctižiadostivý	ctižiadostivejšími	AAnp7y
ctižiadostivo	ctižiadostivo	Dx
ctižiadostivý	ctižiadostivom	AAms6x
ctižiadostivý	ctižiadostivom	AAis6x
ctižiadostivý	ctižiadostivom	AAns6x
ctižiadostivosť	ctižiadostivosti	SSfs2
ctižiadostivosť	ctižiadostivosti	SSfs3
ctižiadostivosť	ctižiadostivosti	SSfs6
ctižiadostivosť	ctižiadostivosti	SSfp1
ctižiadostivosť	ctižiadostivosti	SSfp4
ctižiadostivosť	ctižiadostivosti	SSfp5
ctižiadostivosť	ctižiadostivostiach	SSfp6
ctižiadostivosť	ctižiadostivostiam	SSfp3
ctižiadostivosť	ctižiadostivostí	SSfp2
ctižiadostivosť	ctižiadostivosť	SSfs1
ctižiadostivosť	ctižiadostivosť	SSfs4
ctižiadostivosť	ctižiadostivosť	SSfs5
ctižiadostivosť	ctižiadostivosťami	SSfp7
ctižiadostivosť	ctižiadostivosťou	SSfs7
ctižiadostivý	ctižiadostivou	AAfs7x
ctižiadostivý	ctižiadostivá	AAfs1x
ctižiadostivý	ctižiadostivá	AAfs5x
ctižiadostivý	ctižiadostivé	AAip1x
ctižiadostivý	ctižiadostivé	AAip4x
ctižiadostivý	ctižiadostivé	AAip5x
ctižiadostivý	ctižiadostivé	AAfp1x
ctižiadostivý	ctižiadostivé	AAfp4x
ctižiadostivý	ctižiadostivé	AAfp5x
ctižiadostivý	ctižiadostivé	AAns1x
ctižiadostivý	ctižiadostivé	AAns4x
ctižiadostivý	ctižiadostivé	AAns5x
ctižiadostivý	ctižiadostivé	AAnp1x
ctižiadostivý	ctižiadostivé	AAnp4x
ctižiadostivý	ctižiadostivé	AAnp5x
ctižiadostivý	ctižiadostivého	AAms2x
ctižiadostivý	ctižiadostivého	AAms4x
ctižiadostivý	ctižiadostivého	AAis2x
ctižiadostivý	ctižiadostivého	AAns2x
ctižiadostivý	ctižiadostivému	AAms3x
ctižiadostivý	ctižiadostivému	AAis3x
ctižiadostivý	ctižiadostivému	AAns3x
ctižiadostivý	ctižiadostiví	AAmp1x
ctižiadostivý	ctižiadostiví	AAmp5x
ctižiadostivý	ctižiadostivú	AAfs4x
ctižiadostivý	ctižiadostivý	AAms1x
ctižiadostivý	ctižiadostivý	AAms5x
ctižiadostivý	ctižiadostivý	AAis1x
ctižiadostivý	ctižiadostivý	AAis4x
ctižiadostivý	ctižiadostivý	AAis5x
ctižiadostivý	ctižiadostivých	AAmp2x
ctižiadostivý	ctižiadostivých	AAmp4x
ctižiadostivý	ctižiadostivých	AAmp6x
ctižiadostivý	ctižiadostivých	AAip2x
ctižiadostivý	ctižiadostivých	AAip6x
ctižiadostivý	ctižiadostivých	AAfp2x
ctižiadostivý	ctižiadostivých	AAfp6x
ctižiadostivý	ctižiadostivých	AAnp2x
ctižiadostivý	ctižiadostivých	AAnp6x
ctižiadostivý	ctižiadostivým	AAms7x
ctižiadostivý	ctižiadostivým	AAmp3x
ctižiadostivý	ctižiadostivým	AAis7x
ctižiadostivý	ctižiadostivým	AAip3x
ctižiadostivý	ctižiadostivým	AAfp3x
ctižiadostivý	ctižiadostivým	AAns7x
ctižiadostivý	ctižiadostivým	AAnp3x
ctižiadostivý	ctižiadostivými	AAmp7x
ctižiadostivý	ctižiadostivými	AAip7x
ctižiadostivý	ctižiadostivými	AAfp7x
ctižiadostivý	ctižiadostivými	AAnp7x
ctižiadosť	ctižiadostí	SSfp2
ctižiadosť	ctižiadosť	SSfs1
ctižiadosť	ctižiadosť	SSfs4
ctižiadosť	ctižiadosť	SSfs5
ctižiadosť	ctižiadosťami	SSfp7
ctižiadosť	ctižiadosťou	SSfs7
ctiť	ctí	VKesc+
česť	ctí	SSfp2
ctiť	ctím	VKesa+
ctiť	ctíme	VKepa+
ctiť	ctíte	VKepb+
ctiť	ctíš	VKesb+
česť	cťami	SSfp7
česť	cťou	SSfs7
ČT	ČT	W
ČT2	ČT2	W
ČTK	ČTK	W
čt	čt	J
