HIL	HIL	W
HIV	HIV	W
Hilda	Hilda	SSfs1
Hilda	Hilda	SSfs5
Hilda	Hildami	SSfp7
Hilda	Hilde	SSfs3
Hilda	Hilde	SSfs6
Hilda	Hildou	SSfs7
Hilda	Hildu	SSfs4
Hilda	Hildy	SSfs2
Hilda	Hildy	SSfp1
Hilda	Hildy	SSfp4
Hilda	Hildy	SSfp5
Hilda	Hildách	SSfp6
Hilda	Hildám	SSfp3
Hilda	Híld	SSfp2
hi	hi	J
hiadeľský	hiadeľskej	AAfs2x
hiadeľský	hiadeľskej	AAfs3x
hiadeľský	hiadeľskej	AAfs6x
hiadeľský	hiadeľskom	AAms6x
hiadeľský	hiadeľskom	AAis6x
hiadeľský	hiadeľskom	AAns6x
hiadeľský	hiadeľskou	AAfs7x
hiadeľský	hiadeľská	AAfs1x
hiadeľský	hiadeľská	AAfs5x
hiadeľský	hiadeľské	AAip1x
hiadeľský	hiadeľské	AAip4x
hiadeľský	hiadeľské	AAip5x
hiadeľský	hiadeľské	AAfp1x
hiadeľský	hiadeľské	AAfp4x
hiadeľský	hiadeľské	AAfp5x
hiadeľský	hiadeľské	AAns1x
hiadeľský	hiadeľské	AAns4x
hiadeľský	hiadeľské	AAns5x
hiadeľský	hiadeľské	AAnp1x
hiadeľský	hiadeľské	AAnp4x
hiadeľský	hiadeľské	AAnp5x
hiadeľský	hiadeľského	AAms2x
hiadeľský	hiadeľského	AAms4x
hiadeľský	hiadeľského	AAis2x
hiadeľský	hiadeľského	AAns2x
hiadeľský	hiadeľskému	AAms3x
hiadeľský	hiadeľskému	AAis3x
hiadeľský	hiadeľskému	AAns3x
hiadeľský	hiadeľskí	AAmp1x
hiadeľský	hiadeľskí	AAmp5x
hiadeľský	hiadeľskú	AAfs4x
hiadeľský	hiadeľský	AAms1x
hiadeľský	hiadeľský	AAms5x
hiadeľský	hiadeľský	AAis1x
hiadeľský	hiadeľský	AAis4x
hiadeľský	hiadeľský	AAis5x
hiadeľský	hiadeľských	AAmp2x
hiadeľský	hiadeľských	AAmp4x
hiadeľský	hiadeľských	AAmp6x
hiadeľský	hiadeľských	AAip2x
hiadeľský	hiadeľských	AAip6x
hiadeľský	hiadeľských	AAfp2x
hiadeľský	hiadeľských	AAfp6x
hiadeľský	hiadeľských	AAnp2x
hiadeľský	hiadeľských	AAnp6x
hiadeľský	hiadeľským	AAms7x
hiadeľský	hiadeľským	AAmp3x
hiadeľský	hiadeľským	AAis7x
hiadeľský	hiadeľským	AAip3x
hiadeľský	hiadeľským	AAfp3x
hiadeľský	hiadeľským	AAns7x
hiadeľský	hiadeľským	AAnp3x
hiadeľský	hiadeľskými	AAmp7x
hiadeľský	hiadeľskými	AAip7x
hiadeľský	hiadeľskými	AAfp7x
hiadeľský	hiadeľskými	AAnp7x
hidalgo	hidalga	SSms2
hidalgo	hidalga	SSms4
hidalgo	hidalgami	SSmp7
hidalgo	hidalgo	SSms1
hidalgo	hidalgo	SSms5
hidalgo	hidalgoch	SSmp6
hidalgo	hidalgom	SSms7
hidalgo	hidalgom	SSmp3
hidalgo	hidalgov	SSmp2
hidalgo	hidalgov	SSmp4
hidalgo	hidalgovi	SSms3
hidalgo	hidalgovi	SSms6
hidalgo	hidalgovia	SSmp1
hidalgo	hidalgovia	SSmp5
hra	hier	SSfp2
hierarchia	hierarchia	SSfs1
hierarchia	hierarchia	SSfs5
hierarchia	hierarchiami	SSfp7
hierarchický	hierarchickej	AAfs2x
hierarchický	hierarchickej	AAfs3x
hierarchický	hierarchickej	AAfs6x
hierarchický	hierarchickom	AAms6x
hierarchický	hierarchickom	AAis6x
hierarchický	hierarchickom	AAns6x
hierarchickosť	hierarchickosti	SSfs2
hierarchickosť	hierarchickosti	SSfs3
hierarchickosť	hierarchickosti	SSfs6
hierarchickosť	hierarchickosti	SSfp1
hierarchickosť	hierarchickosti	SSfp4
hierarchickosť	hierarchickosti	SSfp5
hierarchickosť	hierarchickostiach	SSfp6
hierarchickosť	hierarchickostiam	SSfp3
hierarchickosť	hierarchickostí	SSfp2
hierarchickosť	hierarchickosť	SSfs1
hierarchickosť	hierarchickosť	SSfs4
hierarchickosť	hierarchickosť	SSfs5
hierarchickosť	hierarchickosťami	SSfp7
hierarchickosť	hierarchickosťou	SSfs7
hierarchický	hierarchickou	AAfs7x
hierarchicky	hierarchicky	Dx
hierarchický	hierarchická	AAfs1x
hierarchický	hierarchická	AAfs5x
hierarchický	hierarchické	AAip1x
hierarchický	hierarchické	AAip4x
hierarchický	hierarchické	AAip5x
hierarchický	hierarchické	AAfp1x
hierarchický	hierarchické	AAfp4x
hierarchický	hierarchické	AAfp5x
hierarchický	hierarchické	AAns1x
hierarchický	hierarchické	AAns4x
hierarchický	hierarchické	AAns5x
hierarchický	hierarchické	AAnp1x
hierarchický	hierarchické	AAnp4x
hierarchický	hierarchické	AAnp5x
hierarchický	hierarchického	AAms2x
hierarchický	hierarchického	AAms4x
hierarchický	hierarchického	AAis2x
hierarchický	hierarchického	AAns2x
hierarchický	hierarchickému	AAms3x
hierarchický	hierarchickému	AAis3x
hierarchický	hierarchickému	AAns3x
hierarchický	hierarchickí	AAmp1x
hierarchický	hierarchickí	AAmp5x
hierarchický	hierarchickú	AAfs4x
hierarchický	hierarchický	AAms1x
hierarchický	hierarchický	AAms5x
hierarchický	hierarchický	AAis1x
hierarchický	hierarchický	AAis4x
hierarchický	hierarchický	AAis5x
hierarchický	hierarchických	AAmp2x
hierarchický	hierarchických	AAmp4x
hierarchický	hierarchických	AAmp6x
hierarchický	hierarchických	AAip2x
hierarchický	hierarchických	AAip6x
hierarchický	hierarchických	AAfp2x
hierarchický	hierarchických	AAfp6x
hierarchický	hierarchických	AAnp2x
hierarchický	hierarchických	AAnp6x
hierarchický	hierarchickým	AAms7x
hierarchický	hierarchickým	AAmp3x
hierarchický	hierarchickým	AAis7x
hierarchický	hierarchickým	AAip3x
hierarchický	hierarchickým	AAfp3x
hierarchický	hierarchickým	AAns7x
hierarchický	hierarchickým	AAnp3x
hierarchický	hierarchickými	AAmp7x
hierarchický	hierarchickými	AAip7x
hierarchický	hierarchickými	AAfp7x
hierarchický	hierarchickými	AAnp7x
hierarchia	hierarchie	SSfs2
hierarchia	hierarchie	SSfp1
hierarchia	hierarchie	SSfp4
hierarchia	hierarchie	SSfp5
hierarchia	hierarchii	SSfs3
hierarchia	hierarchii	SSfs6
hierarchia	hierarchiou	SSfs7
hierarchia	hierarchiu	SSfs4
hierarchizovať	hierarchizoval	VLjsam+
hierarchizovať	hierarchizoval	VLjsai+
hierarchizovať	hierarchizoval	VLjsbm+
hierarchizovať	hierarchizoval	VLjsbi+
hierarchizovať	hierarchizoval	VLjscm+
hierarchizovať	hierarchizoval	VLjsci+
hierarchizovať	hierarchizovala	VLjsaf+
hierarchizovať	hierarchizovala	VLjsbf+
hierarchizovať	hierarchizovala	VLjscf+
hierarchizovať	hierarchizovali	VLjpah+
hierarchizovať	hierarchizovali	VLjpbh+
hierarchizovať	hierarchizovali	VLjpcm+
hierarchizovať	hierarchizovali	VLjpci+
hierarchizovať	hierarchizovali	VLjpcf+
hierarchizovať	hierarchizovali	VLjpcn+
hierarchizovať	hierarchizovali	VLjpco+
hierarchizovať	hierarchizovalo	VLjsan+
hierarchizovať	hierarchizovalo	VLjsbn+
hierarchizovať	hierarchizovalo	VLjscn+
hierarchizovať	hierarchizovať	VIj+
hierarchizovať	hierarchizuj	VMjsb+
hierarchizovať	hierarchizuje	VKjsc+
hierarchizovať	hierarchizujem	VKjsa+
hierarchizovať	hierarchizujeme	VKjpa+
hierarchizovať	hierarchizujete	VKjpb+
hierarchizovať	hierarchizuješ	VKjsb+
hierarchizovať	hierarchizujme	VMjpa+
hierarchizovať	hierarchizujte	VMjpb+
hierarchizovať	hierarchizujú	VKjpc+
hierarchizovať	hierarchizujúc	VHj+
hierarchia	hierarchiách	SSfp6
hierarchia	hierarchiám	SSfp3
hierarchia	hierarchií	SSfp2
hieroglyf	hieroglyf	SSis1
hieroglyf	hieroglyf	SSis4
hieroglyf	hieroglyf	SSis5
hieroglyf	hieroglyfe	SSis6
hieroglyfický	hieroglyfickej	AAfs2x
hieroglyfický	hieroglyfickej	AAfs3x
hieroglyfický	hieroglyfickej	AAfs6x
hieroglyfický	hieroglyfickom	AAms6x
hieroglyfický	hieroglyfickom	AAis6x
hieroglyfický	hieroglyfickom	AAns6x
hieroglyfický	hieroglyfickou	AAfs7x
hieroglyfický	hieroglyfická	AAfs1x
hieroglyfický	hieroglyfická	AAfs5x
hieroglyfický	hieroglyfické	AAip1x
hieroglyfický	hieroglyfické	AAip4x
hieroglyfický	hieroglyfické	AAip5x
hieroglyfický	hieroglyfické	AAfp1x
hieroglyfický	hieroglyfické	AAfp4x
hieroglyfický	hieroglyfické	AAfp5x
hieroglyfický	hieroglyfické	AAns1x
hieroglyfický	hieroglyfické	AAns4x
hieroglyfický	hieroglyfické	AAns5x
hieroglyfický	hieroglyfické	AAnp1x
hieroglyfický	hieroglyfické	AAnp4x
hieroglyfický	hieroglyfické	AAnp5x
hieroglyfický	hieroglyfického	AAms2x
hieroglyfický	hieroglyfického	AAms4x
hieroglyfický	hieroglyfického	AAis2x
hieroglyfický	hieroglyfického	AAns2x
hieroglyfický	hieroglyfickému	AAms3x
hieroglyfický	hieroglyfickému	AAis3x
hieroglyfický	hieroglyfickému	AAns3x
hieroglyfický	hieroglyfickí	AAmp1x
hieroglyfický	hieroglyfickí	AAmp5x
hieroglyfický	hieroglyfickú	AAfs4x
hieroglyfický	hieroglyfický	AAms1x
hieroglyfický	hieroglyfický	AAms5x
hieroglyfický	hieroglyfický	AAis1x
hieroglyfický	hieroglyfický	AAis4x
hieroglyfický	hieroglyfický	AAis5x
hieroglyfický	hieroglyfických	AAmp2x
hieroglyfický	hieroglyfických	AAmp4x
hieroglyfický	hieroglyfických	AAmp6x
hieroglyfický	hieroglyfických	AAip2x
hieroglyfický	hieroglyfických	AAip6x
hieroglyfický	hieroglyfických	AAfp2x
hieroglyfický	hieroglyfických	AAfp6x
hieroglyfický	hieroglyfických	AAnp2x
hieroglyfický	hieroglyfických	AAnp6x
hieroglyfický	hieroglyfickým	AAms7x
hieroglyfický	hieroglyfickým	AAmp3x
hieroglyfický	hieroglyfickým	AAis7x
hieroglyfický	hieroglyfickým	AAip3x
hieroglyfický	hieroglyfickým	AAfp3x
hieroglyfický	hieroglyfickým	AAns7x
hieroglyfický	hieroglyfickým	AAnp3x
hieroglyfický	hieroglyfickými	AAmp7x
hieroglyfický	hieroglyfickými	AAip7x
hieroglyfický	hieroglyfickými	AAfp7x
hieroglyfický	hieroglyfickými	AAnp7x
hieroglyf	hieroglyfmi	SSip7
hieroglyf	hieroglyfoch	SSip6
hieroglyf	hieroglyfom	SSis7
hieroglyf	hieroglyfom	SSip3
hieroglyf	hieroglyfov	SSip2
hieroglyf	hieroglyfu	SSis2
hieroglyf	hieroglyfu	SSis3
hieroglyf	hieroglyfy	SSip1
hieroglyf	hieroglyfy	SSip4
hieroglyf	hieroglyfy	SSip5
hihi	hihi	J
hihihi	hihihi	J
hihúňať	hihúňa	VKesc+
hihúňať	hihúňaj	VMesb+
hihúňať	hihúňajme	VMepa+
hihúňať	hihúňajte	VMepb+
hihúňať	hihúňajú	VKepc+
hihúňať	hihúňajúc	VHe+
hihúňať	hihúňal	VLesam+
hihúňať	hihúňal	VLesai+
hihúňať	hihúňal	VLesbm+
hihúňať	hihúňal	VLesbi+
hihúňať	hihúňal	VLescm+
hihúňať	hihúňal	VLesci+
hihúňať	hihúňala	VLesaf+
hihúňať	hihúňala	VLesbf+
hihúňať	hihúňala	VLescf+
hihúňať	hihúňali	VLepah+
hihúňať	hihúňali	VLepbh+
hihúňať	hihúňali	VLepcm+
hihúňať	hihúňali	VLepci+
hihúňať	hihúňali	VLepcf+
hihúňať	hihúňali	VLepcn+
hihúňať	hihúňali	VLepco+
hihúňať	hihúňalo	VLesan+
hihúňať	hihúňalo	VLesbn+
hihúňať	hihúňalo	VLescn+
hihúňať	hihúňam	VKesa+
hihúňať	hihúňame	VKepa+
hihúňať	hihúňate	VKepb+
hihúňať	hihúňaš	VKesb+
hihúňať	hihúňať	VIe+
hijo	hijo	J
hijó	hijó	J
himalájsky	himalájska	AAfs1x
himalájsky	himalájska	AAfs5x
himalájsky	himalájske	AAip1x
himalájsky	himalájske	AAip4x
himalájsky	himalájske	AAip5x
himalájsky	himalájske	AAfp1x
himalájsky	himalájske	AAfp4x
himalájsky	himalájske	AAfp5x
himalájsky	himalájske	AAns1x
himalájsky	himalájske	AAns4x
himalájsky	himalájske	AAns5x
himalájsky	himalájske	AAnp1x
himalájsky	himalájske	AAnp4x
himalájsky	himalájske	AAnp5x
himalájsky	himalájskeho	AAms2x
himalájsky	himalájskeho	AAms4x
himalájsky	himalájskeho	AAis2x
himalájsky	himalájskeho	AAns2x
himalájsky	himalájskej	AAfs2x
himalájsky	himalájskej	AAfs3x
himalájsky	himalájskej	AAfs6x
himalájsky	himalájskemu	AAms3x
himalájsky	himalájskemu	AAis3x
himalájsky	himalájskemu	AAns3x
himalájsky	himalájski	AAmp1x
himalájsky	himalájski	AAmp5x
himalájsky	himalájskom	AAms6x
himalájsky	himalájskom	AAis6x
himalájsky	himalájskom	AAns6x
himalájsky	himalájskou	AAfs7x
himalájsky	himalájsku	AAfs4x
himalájsky	himalájsky	AAms1x
himalájsky	himalájsky	AAms5x
himalájsky	himalájsky	AAis1x
himalájsky	himalájsky	AAis4x
himalájsky	himalájsky	AAis5x
himalájsky	himalájskych	AAmp2x
himalájsky	himalájskych	AAmp4x
himalájsky	himalájskych	AAmp6x
himalájsky	himalájskych	AAip2x
himalájsky	himalájskych	AAip6x
himalájsky	himalájskych	AAfp2x
himalájsky	himalájskych	AAfp6x
himalájsky	himalájskych	AAnp2x
himalájsky	himalájskych	AAnp6x
himalájsky	himalájskym	AAms7x
himalájsky	himalájskym	AAmp3x
himalájsky	himalájskym	AAis7x
himalájsky	himalájskym	AAip3x
himalájsky	himalájskym	AAfp3x
himalájsky	himalájskym	AAns7x
himalájsky	himalájskym	AAnp3x
himalájsky	himalájskymi	AAmp7x
himalájsky	himalájskymi	AAip7x
himalájsky	himalájskymi	AAfp7x
himalájsky	himalájskymi	AAnp7x
himelhergot	himelhergot	J
himlhergot	himlhergot	J
hincovský	hincovskej	AAfs2x
hincovský	hincovskej	AAfs3x
hincovský	hincovskej	AAfs6x
hincovský	hincovskom	AAms6x
hincovský	hincovskom	AAis6x
hincovský	hincovskom	AAns6x
hincovský	hincovskou	AAfs7x
hincovský	hincovská	AAfs1x
hincovský	hincovská	AAfs5x
hincovský	hincovské	AAip1x
hincovský	hincovské	AAip4x
hincovský	hincovské	AAip5x
hincovský	hincovské	AAfp1x
hincovský	hincovské	AAfp4x
hincovský	hincovské	AAfp5x
hincovský	hincovské	AAns1x
hincovský	hincovské	AAns4x
hincovský	hincovské	AAns5x
hincovský	hincovské	AAnp1x
hincovský	hincovské	AAnp4x
hincovský	hincovské	AAnp5x
hincovský	hincovského	AAms2x
hincovský	hincovského	AAms4x
hincovský	hincovského	AAis2x
hincovský	hincovského	AAns2x
hincovský	hincovskému	AAms3x
hincovský	hincovskému	AAis3x
hincovský	hincovskému	AAns3x
hincovský	hincovskí	AAmp1x
hincovský	hincovskí	AAmp5x
hincovský	hincovskú	AAfs4x
hincovský	hincovský	AAms1x
hincovský	hincovský	AAms5x
hincovský	hincovský	AAis1x
hincovský	hincovský	AAis4x
hincovský	hincovský	AAis5x
hincovský	hincovských	AAmp2x
hincovský	hincovských	AAmp4x
hincovský	hincovských	AAmp6x
hincovský	hincovských	AAip2x
hincovský	hincovských	AAip6x
hincovský	hincovských	AAfp2x
hincovský	hincovských	AAfp6x
hincovský	hincovských	AAnp2x
hincovský	hincovských	AAnp6x
hincovský	hincovským	AAms7x
hincovský	hincovským	AAmp3x
hincovský	hincovským	AAis7x
hincovský	hincovským	AAip3x
hincovský	hincovským	AAfp3x
hincovský	hincovským	AAns7x
hincovský	hincovským	AAnp3x
hincovský	hincovskými	AAmp7x
hincovský	hincovskými	AAip7x
hincovský	hincovskými	AAfp7x
hincovský	hincovskými	AAnp7x
hind	hind	W
hindský	hindskej	AAfs2x
hindský	hindskej	AAfs3x
hindský	hindskej	AAfs6x
hindský	hindskom	AAms6x
hindský	hindskom	AAis6x
hindský	hindskom	AAns6x
hindský	hindskou	AAfs7x
hindský	hindská	AAfs1x
hindský	hindská	AAfs5x
hindský	hindské	AAip1x
hindský	hindské	AAip4x
hindský	hindské	AAip5x
hindský	hindské	AAfp1x
hindský	hindské	AAfp4x
hindský	hindské	AAfp5x
hindský	hindské	AAns1x
hindský	hindské	AAns4x
hindský	hindské	AAns5x
hindský	hindské	AAnp1x
hindský	hindské	AAnp4x
hindský	hindské	AAnp5x
hindský	hindského	AAms2x
hindský	hindského	AAms4x
hindský	hindského	AAis2x
hindský	hindského	AAns2x
hindský	hindskému	AAms3x
hindský	hindskému	AAis3x
hindský	hindskému	AAns3x
hindský	hindskí	AAmp1x
hindský	hindskí	AAmp5x
hindský	hindskú	AAfs4x
hindský	hindský	AAms1x
hindský	hindský	AAms5x
hindský	hindský	AAis1x
hindský	hindský	AAis4x
hindský	hindský	AAis5x
hindský	hindských	AAmp2x
hindský	hindských	AAmp4x
hindský	hindských	AAmp6x
hindský	hindských	AAip2x
hindský	hindských	AAip6x
hindský	hindských	AAfp2x
hindský	hindských	AAfp6x
hindský	hindských	AAnp2x
hindský	hindských	AAnp6x
hindský	hindským	AAms7x
hindský	hindským	AAmp3x
hindský	hindským	AAis7x
hindský	hindským	AAip3x
hindský	hindským	AAfp3x
hindský	hindským	AAns7x
hindský	hindským	AAnp3x
hindský	hindskými	AAmp7x
hindský	hindskými	AAip7x
hindský	hindskými	AAfp7x
hindský	hindskými	AAnp7x
hinduista	hinduista	SSms1
hinduista	hinduista	SSms5
hinduista	hinduistami	SSmp7
hinduista	hinduisti	SSmp1
hinduista	hinduisti	SSmp5
hinduistický	hinduistickej	AAfs2x
hinduistický	hinduistickej	AAfs3x
hinduistický	hinduistickej	AAfs6x
hinduistický	hinduistickom	AAms6x
hinduistický	hinduistickom	AAis6x
hinduistický	hinduistickom	AAns6x
hinduistický	hinduistickou	AAfs7x
hinduistický	hinduistická	AAfs1x
hinduistický	hinduistická	AAfs5x
hinduistický	hinduistické	AAip1x
hinduistický	hinduistické	AAip4x
hinduistický	hinduistické	AAip5x
hinduistický	hinduistické	AAfp1x
hinduistický	hinduistické	AAfp4x
hinduistický	hinduistické	AAfp5x
hinduistický	hinduistické	AAns1x
hinduistický	hinduistické	AAns4x
hinduistický	hinduistické	AAns5x
hinduistický	hinduistické	AAnp1x
hinduistický	hinduistické	AAnp4x
hinduistický	hinduistické	AAnp5x
hinduistický	hinduistického	AAms2x
hinduistický	hinduistického	AAms4x
hinduistický	hinduistického	AAis2x
hinduistický	hinduistického	AAns2x
hinduistický	hinduistickému	AAms3x
hinduistický	hinduistickému	AAis3x
hinduistický	hinduistickému	AAns3x
hinduistický	hinduistickí	AAmp1x
hinduistický	hinduistickí	AAmp5x
hinduistický	hinduistickú	AAfs4x
hinduistický	hinduistický	AAms1x
hinduistický	hinduistický	AAms5x
hinduistický	hinduistický	AAis1x
hinduistický	hinduistický	AAis4x
hinduistický	hinduistický	AAis5x
hinduistický	hinduistických	AAmp2x
hinduistický	hinduistických	AAmp4x
hinduistický	hinduistických	AAmp6x
hinduistický	hinduistických	AAip2x
hinduistický	hinduistických	AAip6x
hinduistický	hinduistických	AAfp2x
hinduistický	hinduistických	AAfp6x
hinduistický	hinduistických	AAnp2x
hinduistický	hinduistických	AAnp6x
hinduistický	hinduistickým	AAms7x
hinduistický	hinduistickým	AAmp3x
hinduistický	hinduistickým	AAis7x
hinduistický	hinduistickým	AAip3x
hinduistický	hinduistickým	AAfp3x
hinduistický	hinduistickým	AAns7x
hinduistický	hinduistickým	AAnp3x
hinduistický	hinduistickými	AAmp7x
hinduistický	hinduistickými	AAip7x
hinduistický	hinduistickými	AAfp7x
hinduistický	hinduistickými	AAnp7x
hinduista	hinduistoch	SSmp6
hinduista	hinduistom	SSms7
hinduista	hinduistom	SSmp3
hinduista	hinduistov	SSmp2
hinduista	hinduistov	SSmp4
hinduista	hinduistovi	SSms3
hinduista	hinduistovi	SSms6
hinduista	hinduistu	SSms2
hinduista	hinduistu	SSms4
hinduizmus	hinduizmami	SSip7
hinduizmus	hinduizme	SSis6
hinduizmus	hinduizmoch	SSip6
hinduizmus	hinduizmom	SSis7
hinduizmus	hinduizmom	SSip3
hinduizmus	hinduizmov	SSip2
hinduizmus	hinduizmu	SSis2
hinduizmus	hinduizmu	SSis3
hinduizmus	hinduizmus	SSis1
hinduizmus	hinduizmus	SSis4
hinduizmus	hinduizmus	SSis5
hinduizmus	hinduizmy	SSip1
hinduizmus	hinduizmy	SSip4
hinduizmus	hinduizmy	SSip5
hindčina	hindčina	SSfs1
hindčina	hindčina	SSfs5
hindčina	hindčinami	SSfp7
hindčina	hindčine	SSfs3
hindčina	hindčine	SSfs6
hindčina	hindčinou	SSfs7
hindčina	hindčinu	SSfs4
hindčina	hindčiny	SSfs2
hindčina	hindčiny	SSfp1
hindčina	hindčiny	SSfp4
hindčina	hindčiny	SSfp5
hindčina	hindčinách	SSfp6
hindčina	hindčinám	SSfp3
hindčina	hindčín	SSfp2
hio	hio	J
hip	hip	J
hipodróm	hipodróm	SSis1
hipodróm	hipodróm	SSis4
hipodróm	hipodróm	SSis5
hipodróm	hipodróme	SSis6
hipodróm	hipodrómmi	SSip7
hipodróm	hipodrómoch	SSip6
hipodróm	hipodrómom	SSis7
hipodróm	hipodrómom	SSip3
hipodróm	hipodrómov	SSip2
hipodróm	hipodrómu	SSis2
hipodróm	hipodrómu	SSis3
hipodróm	hipodrómy	SSip1
hipodróm	hipodrómy	SSip4
hipodróm	hipodrómy	SSip5
hipoterapeutický	hipoterapeutickej	AAfs2x
hipoterapeutický	hipoterapeutickej	AAfs3x
hipoterapeutický	hipoterapeutickej	AAfs6x
hipoterapeutický	hipoterapeutickom	AAms6x
hipoterapeutický	hipoterapeutickom	AAis6x
hipoterapeutický	hipoterapeutickom	AAns6x
hipoterapeutický	hipoterapeutickou	AAfs7x
hipoterapeutický	hipoterapeutická	AAfs1x
hipoterapeutický	hipoterapeutická	AAfs5x
hipoterapeutický	hipoterapeutické	AAip1x
hipoterapeutický	hipoterapeutické	AAip4x
hipoterapeutický	hipoterapeutické	AAip5x
hipoterapeutický	hipoterapeutické	AAfp1x
hipoterapeutický	hipoterapeutické	AAfp4x
hipoterapeutický	hipoterapeutické	AAfp5x
hipoterapeutický	hipoterapeutické	AAns1x
hipoterapeutický	hipoterapeutické	AAns4x
hipoterapeutický	hipoterapeutické	AAns5x
hipoterapeutický	hipoterapeutické	AAnp1x
hipoterapeutický	hipoterapeutické	AAnp4x
hipoterapeutický	hipoterapeutické	AAnp5x
hipoterapeutický	hipoterapeutického	AAms2x
hipoterapeutický	hipoterapeutického	AAms4x
hipoterapeutický	hipoterapeutického	AAis2x
hipoterapeutický	hipoterapeutického	AAns2x
hipoterapeutický	hipoterapeutickému	AAms3x
hipoterapeutický	hipoterapeutickému	AAis3x
hipoterapeutický	hipoterapeutickému	AAns3x
hipoterapeutický	hipoterapeutickí	AAmp1x
hipoterapeutický	hipoterapeutickí	AAmp5x
hipoterapeutický	hipoterapeutickú	AAfs4x
hipoterapeutický	hipoterapeutický	AAms1x
hipoterapeutický	hipoterapeutický	AAms5x
hipoterapeutický	hipoterapeutický	AAis1x
hipoterapeutický	hipoterapeutický	AAis4x
hipoterapeutický	hipoterapeutický	AAis5x
hipoterapeutický	hipoterapeutických	AAmp2x
hipoterapeutický	hipoterapeutických	AAmp4x
hipoterapeutický	hipoterapeutických	AAmp6x
hipoterapeutický	hipoterapeutických	AAip2x
hipoterapeutický	hipoterapeutických	AAip6x
hipoterapeutický	hipoterapeutických	AAfp2x
hipoterapeutický	hipoterapeutických	AAfp6x
hipoterapeutický	hipoterapeutických	AAnp2x
hipoterapeutický	hipoterapeutických	AAnp6x
hipoterapeutický	hipoterapeutickým	AAms7x
hipoterapeutický	hipoterapeutickým	AAmp3x
hipoterapeutický	hipoterapeutickým	AAis7x
hipoterapeutický	hipoterapeutickým	AAip3x
hipoterapeutický	hipoterapeutickým	AAfp3x
hipoterapeutický	hipoterapeutickým	AAns7x
hipoterapeutický	hipoterapeutickým	AAnp3x
hipoterapeutický	hipoterapeutickými	AAmp7x
hipoterapeutický	hipoterapeutickými	AAip7x
hipoterapeutický	hipoterapeutickými	AAfp7x
hipoterapeutický	hipoterapeutickými	AAnp7x
hipoterapia	hipoterapia	SSfs1
hipoterapia	hipoterapia	SSfs5
hipoterapia	hipoterapiami	SSfp7
hipoterapia	hipoterapie	SSfs2
hipoterapia	hipoterapie	SSfp1
hipoterapia	hipoterapie	SSfp4
hipoterapia	hipoterapie	SSfp5
hipoterapia	hipoterapii	SSfs3
hipoterapia	hipoterapii	SSfs6
hipoterapia	hipoterapiou	SSfs7
hipoterapia	hipoterapiu	SSfs4
hipoterapia	hipoterapiách	SSfp6
hipoterapia	hipoterapiám	SSfp3
hipoterapia	hipoterapií	SSfp2
hirošimský	hirošimskej	AAfs2x
hirošimský	hirošimskej	AAfs3x
hirošimský	hirošimskej	AAfs6x
hirošimský	hirošimskom	AAms6x
hirošimský	hirošimskom	AAis6x
hirošimský	hirošimskom	AAns6x
hirošimský	hirošimskou	AAfs7x
hirošimský	hirošimská	AAfs1x
hirošimský	hirošimská	AAfs5x
hirošimský	hirošimské	AAip1x
hirošimský	hirošimské	AAip4x
hirošimský	hirošimské	AAip5x
hirošimský	hirošimské	AAfp1x
hirošimský	hirošimské	AAfp4x
hirošimský	hirošimské	AAfp5x
hirošimský	hirošimské	AAns1x
hirošimský	hirošimské	AAns4x
hirošimský	hirošimské	AAns5x
hirošimský	hirošimské	AAnp1x
hirošimský	hirošimské	AAnp4x
hirošimský	hirošimské	AAnp5x
hirošimský	hirošimského	AAms2x
hirošimský	hirošimského	AAms4x
hirošimský	hirošimského	AAis2x
hirošimský	hirošimského	AAns2x
hirošimský	hirošimskému	AAms3x
hirošimský	hirošimskému	AAis3x
hirošimský	hirošimskému	AAns3x
hirošimský	hirošimskí	AAmp1x
hirošimský	hirošimskí	AAmp5x
hirošimský	hirošimskú	AAfs4x
hirošimský	hirošimský	AAms1x
hirošimský	hirošimský	AAms5x
hirošimský	hirošimský	AAis1x
hirošimský	hirošimský	AAis4x
hirošimský	hirošimský	AAis5x
hirošimský	hirošimských	AAmp2x
hirošimský	hirošimských	AAmp4x
hirošimský	hirošimských	AAmp6x
hirošimský	hirošimských	AAip2x
hirošimský	hirošimských	AAip6x
hirošimský	hirošimských	AAfp2x
hirošimský	hirošimských	AAfp6x
hirošimský	hirošimských	AAnp2x
hirošimský	hirošimských	AAnp6x
hirošimský	hirošimským	AAms7x
hirošimský	hirošimským	AAmp3x
hirošimský	hirošimským	AAis7x
hirošimský	hirošimským	AAip3x
hirošimský	hirošimským	AAfp3x
hirošimský	hirošimským	AAns7x
hirošimský	hirošimským	AAnp3x
hirošimský	hirošimskými	AAmp7x
hirošimský	hirošimskými	AAip7x
hirošimský	hirošimskými	AAfp7x
hirošimský	hirošimskými	AAnp7x
his	his	%
his	his	SUns1
his	his	SUns2
his	his	SUns3
his	his	SUns4
his	his	SUns5
his	his	SUns6
his	his	SUns7
his	his	SUnp1
his	his	SUnp2
his	his	SUnp3
his	his	SUnp4
his	his	SUnp5
his	his	SUnp6
his	his	SUnp7
hispanista	hispanista	SSms1
hispanista	hispanista	SSms5
hispanista	hispanistami	SSmp7
hispanista	hispanisti	SSmp1
hispanista	hispanisti	SSmp5
hispanistický	hispanistickej	AAfs2x
hispanistický	hispanistickej	AAfs3x
hispanistický	hispanistickej	AAfs6x
hispanistický	hispanistickom	AAms6x
hispanistický	hispanistickom	AAis6x
hispanistický	hispanistickom	AAns6x
hispanistický	hispanistickou	AAfs7x
hispanistický	hispanistická	AAfs1x
hispanistický	hispanistická	AAfs5x
hispanistický	hispanistické	AAip1x
hispanistický	hispanistické	AAip4x
hispanistický	hispanistické	AAip5x
hispanistický	hispanistické	AAfp1x
hispanistický	hispanistické	AAfp4x
hispanistický	hispanistické	AAfp5x
hispanistický	hispanistické	AAns1x
hispanistický	hispanistické	AAns4x
hispanistický	hispanistické	AAns5x
hispanistický	hispanistické	AAnp1x
hispanistický	hispanistické	AAnp4x
hispanistický	hispanistické	AAnp5x
hispanistický	hispanistického	AAms2x
hispanistický	hispanistického	AAms4x
hispanistický	hispanistického	AAis2x
hispanistický	hispanistického	AAns2x
hispanistický	hispanistickému	AAms3x
hispanistický	hispanistickému	AAis3x
hispanistický	hispanistickému	AAns3x
hispanistický	hispanistickí	AAmp1x
hispanistický	hispanistickí	AAmp5x
hispanistický	hispanistickú	AAfs4x
hispanistický	hispanistický	AAms1x
hispanistický	hispanistický	AAms5x
hispanistický	hispanistický	AAis1x
hispanistický	hispanistický	AAis4x
hispanistický	hispanistický	AAis5x
hispanistický	hispanistických	AAmp2x
hispanistický	hispanistických	AAmp4x
hispanistický	hispanistických	AAmp6x
hispanistický	hispanistických	AAip2x
hispanistický	hispanistických	AAip6x
hispanistický	hispanistických	AAfp2x
hispanistický	hispanistických	AAfp6x
hispanistický	hispanistických	AAnp2x
hispanistický	hispanistických	AAnp6x
hispanistický	hispanistickým	AAms7x
hispanistický	hispanistickým	AAmp3x
hispanistický	hispanistickým	AAis7x
hispanistický	hispanistickým	AAip3x
hispanistický	hispanistickým	AAfp3x
hispanistický	hispanistickým	AAns7x
hispanistický	hispanistickým	AAnp3x
hispanistický	hispanistickými	AAmp7x
hispanistický	hispanistickými	AAip7x
hispanistický	hispanistickými	AAfp7x
hispanistický	hispanistickými	AAnp7x
hispanistka	hispanistiek	SSfp2
hispanistika	hispanistika	SSfs1
hispanistika	hispanistika	SSfs5
hispanistika	hispanistikami	SSfp7
hispanistika	hispanistike	SSfs3
hispanistika	hispanistike	SSfs6
hispanistika	hispanistikou	SSfs7
hispanistika	hispanistiku	SSfs4
hispanistika	hispanistiky	SSfs2
hispanistika	hispanistiky	SSfp1
hispanistika	hispanistiky	SSfp4
hispanistika	hispanistiky	SSfp5
hispanistika	hispanistikách	SSfp6
hispanistika	hispanistikám	SSfp3
hispanistka	hispanistka	SSfs1
hispanistka	hispanistka	SSfs5
hispanistka	hispanistkami	SSfp7
hispanistka	hispanistke	SSfs3
hispanistka	hispanistke	SSfs6
hispanistka	hispanistkou	SSfs7
hispanistka	hispanistku	SSfs4
hispanistka	hispanistky	SSfs2
hispanistka	hispanistky	SSfp1
hispanistka	hispanistky	SSfp4
hispanistka	hispanistky	SSfp5
hispanistka	hispanistkách	SSfp6
hispanistka	hispanistkám	SSfp3
hispanista	hispanistoch	SSmp6
hispanista	hispanistom	SSms7
hispanista	hispanistom	SSmp3
hispanista	hispanistov	SSmp2
hispanista	hispanistov	SSmp4
hispanista	hispanistovi	SSms3
hispanista	hispanistovi	SSms6
hispanista	hispanistu	SSms2
hispanista	hispanistu	SSms4
hispanistika	hispanistík	SSfp2
hist	hist	W
histamín	histamín	SSis1
histamín	histamín	SSis4
histamín	histamín	SSis5
histamín	histamíne	SSis6
histamín	histamínmi	SSip7
histamín	histamínoch	SSip6
histamín	histamínom	SSis7
histamín	histamínom	SSip3
histamín	histamínov	SSip2
histamínový	histamínovej	AAfs2x
histamínový	histamínovej	AAfs3x
histamínový	histamínovej	AAfs6x
histamínový	histamínovom	AAms6x
histamínový	histamínovom	AAis6x
histamínový	histamínovom	AAns6x
histamínový	histamínovou	AAfs7x
histamínový	histamínová	AAfs1x
histamínový	histamínová	AAfs5x
histamínový	histamínové	AAip1x
histamínový	histamínové	AAip4x
histamínový	histamínové	AAip5x
histamínový	histamínové	AAfp1x
histamínový	histamínové	AAfp4x
histamínový	histamínové	AAfp5x
histamínový	histamínové	AAns1x
histamínový	histamínové	AAns4x
histamínový	histamínové	AAns5x
histamínový	histamínové	AAnp1x
histamínový	histamínové	AAnp4x
histamínový	histamínové	AAnp5x
histamínový	histamínového	AAms2x
histamínový	histamínového	AAms4x
histamínový	histamínového	AAis2x
histamínový	histamínového	AAns2x
histamínový	histamínovému	AAms3x
histamínový	histamínovému	AAis3x
histamínový	histamínovému	AAns3x
histamínový	histamínoví	AAmp1x
histamínový	histamínoví	AAmp5x
histamínový	histamínovú	AAfs4x
histamínový	histamínový	AAms1x
histamínový	histamínový	AAms5x
histamínový	histamínový	AAis1x
histamínový	histamínový	AAis4x
histamínový	histamínový	AAis5x
histamínový	histamínových	AAmp2x
histamínový	histamínových	AAmp4x
histamínový	histamínových	AAmp6x
histamínový	histamínových	AAip2x
histamínový	histamínových	AAip6x
histamínový	histamínových	AAfp2x
histamínový	histamínových	AAfp6x
histamínový	histamínových	AAnp2x
histamínový	histamínových	AAnp6x
histamínový	histamínovým	AAms7x
histamínový	histamínovým	AAmp3x
histamínový	histamínovým	AAis7x
histamínový	histamínovým	AAip3x
histamínový	histamínovým	AAfp3x
histamínový	histamínovým	AAns7x
histamínový	histamínovým	AAnp3x
histamínový	histamínovými	AAmp7x
histamínový	histamínovými	AAip7x
histamínový	histamínovými	AAfp7x
histamínový	histamínovými	AAnp7x
histamín	histamínu	SSis2
histamín	histamínu	SSis3
histamín	histamíny	SSip1
histamín	histamíny	SSip4
histamín	histamíny	SSip5
histologický	histologickej	AAfs2x
histologický	histologickej	AAfs3x
histologický	histologickej	AAfs6x
histologický	histologickom	AAms6x
histologický	histologickom	AAis6x
histologický	histologickom	AAns6x
histologický	histologickou	AAfs7x
histologický	histologická	AAfs1x
histologický	histologická	AAfs5x
histologický	histologické	AAip1x
histologický	histologické	AAip4x
histologický	histologické	AAip5x
histologický	histologické	AAfp1x
histologický	histologické	AAfp4x
histologický	histologické	AAfp5x
histologický	histologické	AAns1x
histologický	histologické	AAns4x
histologický	histologické	AAns5x
histologický	histologické	AAnp1x
histologický	histologické	AAnp4x
histologický	histologické	AAnp5x
histologický	histologického	AAms2x
histologický	histologického	AAms4x
histologický	histologického	AAis2x
histologický	histologického	AAns2x
histologický	histologickému	AAms3x
histologický	histologickému	AAis3x
histologický	histologickému	AAns3x
histologický	histologickí	AAmp1x
histologický	histologickí	AAmp5x
histologický	histologickú	AAfs4x
histologický	histologický	AAms1x
histologický	histologický	AAms5x
histologický	histologický	AAis1x
histologický	histologický	AAis4x
histologický	histologický	AAis5x
histologický	histologických	AAmp2x
histologický	histologických	AAmp4x
histologický	histologických	AAmp6x
histologický	histologických	AAip2x
histologický	histologických	AAip6x
histologický	histologických	AAfp2x
histologický	histologických	AAfp6x
histologický	histologických	AAnp2x
histologický	histologických	AAnp6x
histologický	histologickým	AAms7x
histologický	histologickým	AAmp3x
histologický	histologickým	AAis7x
histologický	histologickým	AAip3x
histologický	histologickým	AAfp3x
histologický	histologickým	AAns7x
histologický	histologickým	AAnp3x
histologický	histologickými	AAmp7x
histologický	histologickými	AAip7x
histologický	histologickými	AAfp7x
histologický	histologickými	AAnp7x
histologička	histologičiek	SSfp2
histologička	histologička	SSfs1
histologička	histologička	SSfs5
histologička	histologičkami	SSfp7
histologička	histologičke	SSfs3
histologička	histologičke	SSfs6
histologička	histologičkou	SSfs7
histologička	histologičku	SSfs4
histologička	histologičky	SSfs2
histologička	histologičky	SSfp1
histologička	histologičky	SSfp4
histologička	histologičky	SSfp5
histologička	histologičkách	SSfp6
histologička	histologičkám	SSfp3
histológ	histológ	SSms1
histológ	histológ	SSms5
histológ	histológa	SSms2
histológ	histológa	SSms4
histológia	histológia	SSfs1
histológia	histológia	SSfs5
histológia	histológiami	SSfp7
histológia	histológie	SSfs2
histológia	histológie	SSfp1
histológia	histológie	SSfp4
histológia	histológie	SSfp5
histológia	histológii	SSfs3
histológia	histológii	SSfs6
histológia	histológiou	SSfs7
histológia	histológiu	SSfs4
histológia	histológiách	SSfp6
histológia	histológiám	SSfp3
histológia	histológií	SSfp2
histológ	histológmi	SSmp7
histológ	histológoch	SSmp6
histológ	histológom	SSms7
histológ	histológom	SSmp3
histológ	histológov	SSmp2
histológ	histológov	SSmp4
histológ	histológovi	SSms3
histológ	histológovi	SSms6
histológ	histológovia	SSmp1
histológ	histológovia	SSmp5
historik	historici	SSmp1
historik	historici	SSmp5
historický	historickej	AAfs2x
historický	historickej	AAfs3x
historický	historickej	AAfs6x
historický	historickejšej	AAfs2y
historický	historickejšej	AAfs3y
historický	historickejšej	AAfs6y
historický	historickejšia	AAfs1y
historický	historickejšia	AAfs5y
historicky	historickejšie	Dy
historický	historickejšie	AAip1y
historický	historickejšie	AAip4y
historický	historickejšie	AAip5y
historický	historickejšie	AAfp1y
historický	historickejšie	AAfp4y
historický	historickejšie	AAfp5y
historický	historickejšie	AAns1y
historický	historickejšie	AAns4y
historický	historickejšie	AAns5y
historický	historickejšie	AAnp1y
historický	historickejšie	AAnp4y
historický	historickejšie	AAnp5y
historický	historickejšieho	AAms2y
historický	historickejšieho	AAms4y
historický	historickejšieho	AAis2y
historický	historickejšieho	AAns2y
historický	historickejšiemu	AAms3y
historický	historickejšiemu	AAis3y
historický	historickejšiemu	AAns3y
historický	historickejšiu	AAfs4y
historický	historickejšom	AAms6y
historický	historickejšom	AAis6y
historický	historickejšom	AAns6y
historický	historickejšou	AAfs7y
historický	historickejší	AAms1y
historický	historickejší	AAms5y
historický	historickejší	AAmp1y
historický	historickejší	AAmp5y
historický	historickejší	AAis1y
historický	historickejší	AAis4y
historický	historickejší	AAis5y
historický	historickejších	AAmp2y
historický	historickejších	AAmp4y
historický	historickejších	AAmp6y
historický	historickejších	AAip2y
historický	historickejších	AAip6y
historický	historickejších	AAfp2y
historický	historickejších	AAfp6y
historický	historickejších	AAnp2y
historický	historickejších	AAnp6y
historický	historickejším	AAms7y
historický	historickejším	AAmp3y
historický	historickejším	AAis7y
historický	historickejším	AAip3y
historický	historickejším	AAfp3y
historický	historickejším	AAns7y
historický	historickejším	AAnp3y
historický	historickejšími	AAmp7y
historický	historickejšími	AAip7y
historický	historickejšími	AAfp7y
historický	historickejšími	AAnp7y
historicko	historicko	Q
historický	historickom	AAms6x
historický	historickom	AAis6x
historický	historickom	AAns6x
historickomaterialistický	historickomaterialistickej	AAfs2x
historickomaterialistický	historickomaterialistickej	AAfs3x
historickomaterialistický	historickomaterialistickej	AAfs6x
historickomaterialistický	historickomaterialistickom	AAms6x
historickomaterialistický	historickomaterialistickom	AAis6x
historickomaterialistický	historickomaterialistickom	AAns6x
historickomaterialistický	historickomaterialistickou	AAfs7x
historickomaterialistický	historickomaterialistická	AAfs1x
historickomaterialistický	historickomaterialistická	AAfs5x
historickomaterialistický	historickomaterialistické	AAip1x
historickomaterialistický	historickomaterialistické	AAip4x
historickomaterialistický	historickomaterialistické	AAip5x
historickomaterialistický	historickomaterialistické	AAfp1x
historickomaterialistický	historickomaterialistické	AAfp4x
historickomaterialistický	historickomaterialistické	AAfp5x
historickomaterialistický	historickomaterialistické	AAns1x
historickomaterialistický	historickomaterialistické	AAns4x
historickomaterialistický	historickomaterialistické	AAns5x
historickomaterialistický	historickomaterialistické	AAnp1x
historickomaterialistický	historickomaterialistické	AAnp4x
historickomaterialistický	historickomaterialistické	AAnp5x
historickomaterialistický	historickomaterialistického	AAms2x
historickomaterialistický	historickomaterialistického	AAms4x
historickomaterialistický	historickomaterialistického	AAis2x
historickomaterialistický	historickomaterialistického	AAns2x
historickomaterialistický	historickomaterialistickému	AAms3x
historickomaterialistický	historickomaterialistickému	AAis3x
historickomaterialistický	historickomaterialistickému	AAns3x
historickomaterialistický	historickomaterialistickí	AAmp1x
historickomaterialistický	historickomaterialistickí	AAmp5x
historickomaterialistický	historickomaterialistickú	AAfs4x
historickomaterialistický	historickomaterialistický	AAms1x
historickomaterialistický	historickomaterialistický	AAms5x
historickomaterialistický	historickomaterialistický	AAis1x
historickomaterialistický	historickomaterialistický	AAis4x
historickomaterialistický	historickomaterialistický	AAis5x
historickomaterialistický	historickomaterialistických	AAmp2x
historickomaterialistický	historickomaterialistických	AAmp4x
historickomaterialistický	historickomaterialistických	AAmp6x
historickomaterialistický	historickomaterialistických	AAip2x
historickomaterialistický	historickomaterialistických	AAip6x
historickomaterialistický	historickomaterialistických	AAfp2x
historickomaterialistický	historickomaterialistických	AAfp6x
historickomaterialistický	historickomaterialistických	AAnp2x
historickomaterialistický	historickomaterialistických	AAnp6x
historickomaterialistický	historickomaterialistickým	AAms7x
historickomaterialistický	historickomaterialistickým	AAmp3x
historickomaterialistický	historickomaterialistickým	AAis7x
historickomaterialistický	historickomaterialistickým	AAip3x
historickomaterialistický	historickomaterialistickým	AAfp3x
historickomaterialistický	historickomaterialistickým	AAns7x
historickomaterialistický	historickomaterialistickým	AAnp3x
historickomaterialistický	historickomaterialistickými	AAmp7x
historickomaterialistický	historickomaterialistickými	AAip7x
historickomaterialistický	historickomaterialistickými	AAfp7x
historickomaterialistický	historickomaterialistickými	AAnp7x
historickosť	historickosti	SSfs2
historickosť	historickosti	SSfs3
historickosť	historickosti	SSfs6
historickosť	historickosti	SSfp1
historickosť	historickosti	SSfp4
historickosť	historickosti	SSfp5
historickosť	historickostiach	SSfp6
historickosť	historickostiam	SSfp3
historickosť	historickostí	SSfp2
historickosť	historickosť	SSfs1
historickosť	historickosť	SSfs4
historickosť	historickosť	SSfs5
historickosť	historickosťami	SSfp7
historickosť	historickosťou	SSfs7
historický	historickou	AAfs7x
historicky	historicky	Dx
historický	historická	AAfs1x
historický	historická	AAfs5x
historický	historické	AAip1x
historický	historické	AAip4x
historický	historické	AAip5x
historický	historické	AAfp1x
historický	historické	AAfp4x
historický	historické	AAfp5x
historický	historické	AAns1x
historický	historické	AAns4x
historický	historické	AAns5x
historický	historické	AAnp1x
historický	historické	AAnp4x
historický	historické	AAnp5x
historický	historického	AAms2x
historický	historického	AAms4x
historický	historického	AAis2x
historický	historického	AAns2x
historický	historickému	AAms3x
historický	historickému	AAis3x
historický	historickému	AAns3x
historický	historickí	AAmp1x
historický	historickí	AAmp5x
historický	historickú	AAfs4x
historický	historický	AAms1x
historický	historický	AAms5x
historický	historický	AAis1x
historický	historický	AAis4x
historický	historický	AAis5x
historický	historických	AAmp2x
historický	historických	AAmp4x
historický	historických	AAmp6x
historický	historických	AAip2x
historický	historických	AAip6x
historický	historických	AAfp2x
historický	historických	AAfp6x
historický	historických	AAnp2x
historický	historických	AAnp6x
historický	historickým	AAms7x
historický	historickým	AAmp3x
historický	historickým	AAis7x
historický	historickým	AAip3x
historický	historickým	AAfp3x
historický	historickým	AAns7x
historický	historickým	AAnp3x
historický	historickými	AAmp7x
historický	historickými	AAip7x
historický	historickými	AAfp7x
historický	historickými	AAnp7x
historka	historiek	SSfp2
historik	historik	SSms1
historik	historik	SSms5
historik	historika	SSms2
historik	historika	SSms4
historik	historikmi	SSmp7
historik	historikoch	SSmp6
historik	historikom	SSms7
historik	historikom	SSmp3
historik	historikov	SSmp2
historik	historikov	SSmp4
historikov	historikov	AFis1x
historikov	historikov	AFis4x
historikov	historikov	AFis5x
historikov	historikov	AFms1x
historikov	historikov	AFms5x
historikov	historikova	AFfs1x
historikov	historikova	AFfs5x
historikov	historikove	AFfp1x
historikov	historikove	AFfp4x
historikov	historikove	AFfp5x
historikov	historikove	AFip1x
historikov	historikove	AFip4x
historikov	historikove	AFip5x
historikov	historikove	AFnp1x
historikov	historikove	AFnp4x
historikov	historikove	AFnp5x
historikov	historikovej	AFfs2x
historikov	historikovej	AFfs3x
historikov	historikovej	AFfs6x
historikov	historikovho	AFis2x
historikov	historikovho	AFms2x
historikov	historikovho	AFms4x
historikov	historikovho	AFns2x
historik	historikovi	SSms3
historik	historikovi	SSms6
historikov	historikovi	AFmp1x
historikov	historikovi	AFmp5x
historikov	historikovmu	AFis3x
historikov	historikovmu	AFms3x
historikov	historikovmu	AFns3x
historikov	historikovo	AFns1x
historikov	historikovo	AFns4x
historikov	historikovo	AFns5x
historikov	historikovom	AFis6x
historikov	historikovom	AFms6x
historikov	historikovom	AFns6x
historikov	historikovou	AFfs7x
historikov	historikovu	AFfs4x
historikov	historikových	AFfp2x
historikov	historikových	AFfp6x
historikov	historikových	AFip2x
historikov	historikových	AFip6x
historikov	historikových	AFmp2x
historikov	historikových	AFmp4x
historikov	historikových	AFmp6x
historikov	historikových	AFnp2x
historikov	historikových	AFnp6x
historikov	historikovým	AFfp3x
historikov	historikovým	AFip3x
historikov	historikovým	AFis7x
historikov	historikovým	AFmp3x
historikov	historikovým	AFms7x
historikov	historikovým	AFnp3x
historikov	historikovým	AFns7x
historikov	historikovými	AFfp7x
historikov	historikovými	AFip7x
historikov	historikovými	AFmp7x
historikov	historikovými	AFnp7x
historiograf	historiograf	SSms1
historiograf	historiograf	SSms5
historiograf	historiografa	SSms2
historiograf	historiografa	SSms4
historiograf	historiografi	SSmp1
historiograf	historiografi	SSmp5
historiografia	historiografia	SSfs1
historiografia	historiografia	SSfs5
historiografia	historiografiami	SSfp7
historiografický	historiografickej	AAfs2x
historiografický	historiografickej	AAfs3x
historiografický	historiografickej	AAfs6x
historiografický	historiografickom	AAms6x
historiografický	historiografickom	AAis6x
historiografický	historiografickom	AAns6x
historiografický	historiografickou	AAfs7x
historiografický	historiografická	AAfs1x
historiografický	historiografická	AAfs5x
historiografický	historiografické	AAip1x
historiografický	historiografické	AAip4x
historiografický	historiografické	AAip5x
historiografický	historiografické	AAfp1x
historiografický	historiografické	AAfp4x
historiografický	historiografické	AAfp5x
historiografický	historiografické	AAns1x
historiografický	historiografické	AAns4x
historiografický	historiografické	AAns5x
historiografický	historiografické	AAnp1x
historiografický	historiografické	AAnp4x
historiografický	historiografické	AAnp5x
historiografický	historiografického	AAms2x
historiografický	historiografického	AAms4x
historiografický	historiografického	AAis2x
historiografický	historiografického	AAns2x
historiografický	historiografickému	AAms3x
historiografický	historiografickému	AAis3x
historiografický	historiografickému	AAns3x
historiografický	historiografickí	AAmp1x
historiografický	historiografickí	AAmp5x
historiografický	historiografickú	AAfs4x
historiografický	historiografický	AAms1x
historiografický	historiografický	AAms5x
historiografický	historiografický	AAis1x
historiografický	historiografický	AAis4x
historiografický	historiografický	AAis5x
historiografický	historiografických	AAmp2x
historiografický	historiografických	AAmp4x
historiografický	historiografických	AAmp6x
historiografický	historiografických	AAip2x
historiografický	historiografických	AAip6x
historiografický	historiografických	AAfp2x
historiografický	historiografických	AAfp6x
historiografický	historiografických	AAnp2x
historiografický	historiografických	AAnp6x
historiografický	historiografickým	AAms7x
historiografický	historiografickým	AAmp3x
historiografický	historiografickým	AAis7x
historiografický	historiografickým	AAip3x
historiografický	historiografickým	AAfp3x
historiografický	historiografickým	AAns7x
historiografický	historiografickým	AAnp3x
historiografický	historiografickými	AAmp7x
historiografický	historiografickými	AAip7x
historiografický	historiografickými	AAfp7x
historiografický	historiografickými	AAnp7x
historiografia	historiografie	SSfs2
historiografia	historiografie	SSfp1
historiografia	historiografie	SSfp4
historiografia	historiografie	SSfp5
historiografka	historiografiek	SSfp2
historiografia	historiografii	SSfs3
historiografia	historiografii	SSfs6
historiografia	historiografiou	SSfs7
historiografia	historiografiu	SSfs4
historiografia	historiografiách	SSfp6
historiografia	historiografiám	SSfp3
historiografia	historiografií	SSfp2
historiografka	historiografka	SSfs1
historiografka	historiografka	SSfs5
historiografka	historiografkami	SSfp7
historiografka	historiografke	SSfs3
historiografka	historiografke	SSfs6
historiografka	historiografkou	SSfs7
historiografka	historiografku	SSfs4
historiografka	historiografky	SSfs2
historiografka	historiografky	SSfp1
historiografka	historiografky	SSfp4
historiografka	historiografky	SSfp5
historiografka	historiografkách	SSfp6
historiografka	historiografkám	SSfp3
historiograf	historiografmi	SSmp7
historiograf	historiografoch	SSmp6
historiograf	historiografom	SSms7
historiograf	historiografom	SSmp3
historiograf	historiografov	SSmp2
historiograf	historiografov	SSmp4
historiograf	historiografovi	SSms3
historiograf	historiografovi	SSms6
historiograf	historiografovia	SSmp1
historizmus	historizmami	SSip7
historizmus	historizme	SSis6
historizmus	historizmoch	SSip6
historizmus	historizmom	SSis7
historizmus	historizmom	SSip3
historizmus	historizmov	SSip2
historizmus	historizmu	SSis2
historizmus	historizmu	SSis3
historizmus	historizmus	SSis1
historizmus	historizmus	SSis4
historizmus	historizmus	SSis5
historizmus	historizmy	SSip1
historizmus	historizmy	SSip4
historizmus	historizmy	SSip5
historizovať	historizoval	VLesam+
historizovať	historizoval	VLesai+
historizovať	historizoval	VLesbm+
historizovať	historizoval	VLesbi+
historizovať	historizoval	VLescm+
historizovať	historizoval	VLesci+
historizovať	historizovala	VLesaf+
historizovať	historizovala	VLesbf+
historizovať	historizovala	VLescf+
historizovať	historizovali	VLepah+
historizovať	historizovali	VLepbh+
historizovať	historizovali	VLepcm+
historizovať	historizovali	VLepci+
historizovať	historizovali	VLepcf+
historizovať	historizovali	VLepcn+
historizovať	historizovali	VLepco+
historizovať	historizovalo	VLesan+
historizovať	historizovalo	VLesbn+
historizovať	historizovalo	VLescn+
historizovať	historizovať	VIe+
historizovať	historizuj	VMesb+
historizovať	historizuje	VKesc+
historizovať	historizujem	VKesa+
historizovať	historizujeme	VKepa+
historizovať	historizujete	VKepb+
historizovať	historizuješ	VKesb+
historizovať	historizujme	VMepa+
historizovať	historizujte	VMepb+
historizovať	historizujú	VKepc+
historizovať	historizujúc	VHe+
historička	historičiek	SSfp2
historička	historička	SSfs1
historička	historička	SSfs5
historička	historičkami	SSfp7
historička	historičke	SSfs3
historička	historičke	SSfs6
historička	historičkou	SSfs7
historička	historičku	SSfs4
historička	historičky	SSfs2
historička	historičky	SSfp1
historička	historičky	SSfp4
historička	historičky	SSfp5
historička	historičkách	SSfp6
historička	historičkám	SSfp3
historka	historka	SSfs1
historka	historka	SSfs5
historka	historkami	SSfp7
historka	historke	SSfs3
historka	historke	SSfs6
historka	historkou	SSfs7
historka	historku	SSfs4
historka	historky	SSfs2
historka	historky	SSfp1
historka	historky	SSfp4
historka	historky	SSfp5
historka	historkách	SSfp6
historka	historkám	SSfp3
história	história	SSfs1
história	história	SSfs5
história	históriami	SSfp7
história	histórie	SSfs2
história	histórie	SSfp1
história	histórie	SSfp4
história	histórie	SSfp5
história	histórii	SSfs3
história	histórii	SSfs6
história	históriou	SSfs7
história	históriu	SSfs4
história	históriách	SSfp6
história	históriám	SSfp3
história	histórií	SSfp2
hit	hit	SSis1
hit	hit	SSis4
hit	hit	SSis5
hit	hite	SSis6
hit	hitmi	SSip7
hit	hitoch	SSip6
hit	hitom	SSis7
hit	hitom	SSip3
hit	hitov	SSip2
hitparáda	hitparád	SSfp2
hitparáda	hitparáda	SSfs1
hitparáda	hitparáda	SSfs5
hitparáda	hitparádach	SSfp6
hitparáda	hitparádam	SSfp3
hitparáda	hitparádami	SSfp7
hitparáda	hitparáde	SSfs3
hitparáda	hitparáde	SSfs6
hitparáda	hitparádou	SSfs7
hitparádový	hitparádovej	AAfs2x
hitparádový	hitparádovej	AAfs3x
hitparádový	hitparádovej	AAfs6x
hitparádový	hitparádovom	AAms6x
hitparádový	hitparádovom	AAis6x
hitparádový	hitparádovom	AAns6x
hitparádový	hitparádovou	AAfs7x
hitparádový	hitparádová	AAfs1x
hitparádový	hitparádová	AAfs5x
hitparádový	hitparádové	AAip1x
hitparádový	hitparádové	AAip4x
hitparádový	hitparádové	AAip5x
hitparádový	hitparádové	AAfp1x
hitparádový	hitparádové	AAfp4x
hitparádový	hitparádové	AAfp5x
hitparádový	hitparádové	AAns1x
hitparádový	hitparádové	AAns4x
hitparádový	hitparádové	AAns5x
hitparádový	hitparádové	AAnp1x
hitparádový	hitparádové	AAnp4x
hitparádový	hitparádové	AAnp5x
hitparádový	hitparádového	AAms2x
hitparádový	hitparádového	AAms4x
hitparádový	hitparádového	AAis2x
hitparádový	hitparádového	AAns2x
hitparádový	hitparádovému	AAms3x
hitparádový	hitparádovému	AAis3x
hitparádový	hitparádovému	AAns3x
hitparádový	hitparádoví	AAmp1x
hitparádový	hitparádoví	AAmp5x
hitparádový	hitparádovú	AAfs4x
hitparádový	hitparádový	AAms1x
hitparádový	hitparádový	AAms5x
hitparádový	hitparádový	AAis1x
hitparádový	hitparádový	AAis4x
hitparádový	hitparádový	AAis5x
hitparádový	hitparádových	AAmp2x
hitparádový	hitparádových	AAmp4x
hitparádový	hitparádových	AAmp6x
hitparádový	hitparádových	AAip2x
hitparádový	hitparádových	AAip6x
hitparádový	hitparádových	AAfp2x
hitparádový	hitparádových	AAfp6x
hitparádový	hitparádových	AAnp2x
hitparádový	hitparádových	AAnp6x
hitparádový	hitparádovým	AAms7x
hitparádový	hitparádovým	AAmp3x
hitparádový	hitparádovým	AAis7x
hitparádový	hitparádovým	AAip3x
hitparádový	hitparádovým	AAfp3x
hitparádový	hitparádovým	AAns7x
hitparádový	hitparádovým	AAnp3x
hitparádový	hitparádovými	AAmp7x
hitparádový	hitparádovými	AAip7x
hitparádový	hitparádovými	AAfp7x
hitparádový	hitparádovými	AAnp7x
hitparáda	hitparádu	SSfs4
hitparáda	hitparády	SSfs2
hitparáda	hitparády	SSfp1
hitparáda	hitparády	SSfp4
hitparáda	hitparády	SSfp5
hit	hitu	SSis2
hit	hitu	SSis3
hit	hity	SSip1
hit	hity	SSip4
hit	hity	SSip5
hiát	hiát	SSis1
hiát	hiát	SSis4
hiát	hiát	SSis5
hiát	hiáte	SSis6
hiát	hiátmi	SSip7
hiát	hiátoch	SSip6
hiát	hiátom	SSis7
hiát	hiátom	SSip3
hiát	hiátov	SSip2
hiátový	hiátovej	AAfs2x
hiátový	hiátovej	AAfs3x
hiátový	hiátovej	AAfs6x
hiátový	hiátovom	AAms6x
hiátový	hiátovom	AAis6x
hiátový	hiátovom	AAns6x
hiátový	hiátovou	AAfs7x
hiátový	hiátová	AAfs1x
hiátový	hiátová	AAfs5x
hiátový	hiátové	AAip1x
hiátový	hiátové	AAip4x
hiátový	hiátové	AAip5x
hiátový	hiátové	AAfp1x
hiátový	hiátové	AAfp4x
hiátový	hiátové	AAfp5x
hiátový	hiátové	AAns1x
hiátový	hiátové	AAns4x
hiátový	hiátové	AAns5x
hiátový	hiátové	AAnp1x
hiátový	hiátové	AAnp4x
hiátový	hiátové	AAnp5x
hiátový	hiátového	AAms2x
hiátový	hiátového	AAms4x
hiátový	hiátového	AAis2x
hiátový	hiátového	AAns2x
hiátový	hiátovému	AAms3x
hiátový	hiátovému	AAis3x
hiátový	hiátovému	AAns3x
hiátový	hiátoví	AAmp1x
hiátový	hiátoví	AAmp5x
hiátový	hiátovú	AAfs4x
hiátový	hiátový	AAms1x
hiátový	hiátový	AAms5x
hiátový	hiátový	AAis1x
hiátový	hiátový	AAis4x
hiátový	hiátový	AAis5x
hiátový	hiátových	AAmp2x
hiátový	hiátových	AAmp4x
hiátový	hiátových	AAmp6x
hiátový	hiátových	AAip2x
hiátový	hiátových	AAip6x
hiátový	hiátových	AAfp2x
hiátový	hiátových	AAfp6x
hiátový	hiátových	AAnp2x
hiátový	hiátových	AAnp6x
hiátový	hiátovým	AAms7x
hiátový	hiátovým	AAmp3x
hiátový	hiátovým	AAis7x
hiátový	hiátovým	AAip3x
hiátový	hiátovým	AAfp3x
hiátový	hiátovým	AAns7x
hiátový	hiátovým	AAnp3x
hiátový	hiátovými	AAmp7x
hiátový	hiátovými	AAip7x
hiátový	hiátovými	AAfp7x
hiátový	hiátovými	AAnp7x
hiát	hiátu	SSis2
hiát	hiátu	SSis3
hiát	hiáty	SSip1
hiát	hiáty	SSip4
hiát	hiáty	SSip5
hió	hió	J
hí	hí	J
híha	híha	J
híkať	híka	VKesc+
híkať	híkaj	VMesb+
híkať	híkajme	VMepa+
híkať	híkajte	VMepb+
híkať	híkajú	VKepc+
híkať	híkajúc	VHe+
híkať	híkal	VLesam+
híkať	híkal	VLesai+
híkať	híkal	VLesbm+
híkať	híkal	VLesbi+
híkať	híkal	VLescm+
híkať	híkal	VLesci+
híkať	híkala	VLesaf+
híkať	híkala	VLesbf+
híkať	híkala	VLescf+
híkať	híkali	VLepah+
híkať	híkali	VLepbh+
híkať	híkali	VLepcm+
híkať	híkali	VLepci+
híkať	híkali	VLepcf+
híkať	híkali	VLepcn+
híkať	híkali	VLepco+
híkať	híkalo	VLesan+
híkať	híkalo	VLesbn+
híkať	híkalo	VLescn+
híkať	híkam	VKesa+
híkať	híkame	VKepa+
híkať	híkate	VKepb+
híkať	híkaš	VKesb+
híkať	híkať	VIe+
híí	híí	J
