JUDr	JUDr	W
Judita	Judita	SSfs1
Judita	Judita	SSfs5
Judita	Juditami	SSfp7
Judita	Judite	SSfs3
Judita	Judite	SSfs6
Judita	Juditou	SSfs7
Judita	Juditu	SSfs4
Judita	Judity	SSfs2
Judita	Judity	SSfp1
Judita	Judity	SSfp4
Judita	Judity	SSfp5
Judita	Juditách	SSfp6
Judita	Juditám	SSfp3
Judita	Judít	SSfp2
Juliana	Juliana	SSfs1
Juliana	Juliana	SSfs5
Juliana	Julianami	SSfp7
Juliana	Juliane	SSfs3
Juliana	Juliane	SSfs6
Juliana	Julianou	SSfs7
Juliana	Julianu	SSfs4
Juliana	Juliany	SSfs2
Juliana	Juliany	SSfp1
Juliana	Juliany	SSfp4
Juliana	Juliany	SSfp5
Juliana	Julianách	SSfp6
Juliana	Julianám	SSfp3
Julka	Juliek	SSfp2
Juliana	Julián	SSfp2
Julka	Julka	SSfs1
Julka	Julka	SSfs5
Julka	Julkami	SSfp7
Julka	Julke	SSfs3
Julka	Julke	SSfs6
Julka	Julkou	SSfs7
Julka	Julku	SSfs4
Julka	Julky	SSfs2
Julka	Julky	SSfp1
Julka	Julky	SSfp4
Julka	Julky	SSfp5
Julka	Julkách	SSfp6
Julka	Julkám	SSfp3
Juraj	Juraj	SSms1
Juraj	Juraj	SSms5
Juraj	Juraja	SSms2
Juraj	Juraja	SSms4
Juraj	Jurajmi	SSmp7
Juraj	Jurajoch	SSmp6
Juraj	Jurajom	SSms7
Juraj	Jurajom	SSmp3
Juraj	Jurajov	SSmp2
Juraj	Jurajov	SSmp4
Juraj	Jurajovi	SSms3
Juraj	Jurajovi	SSms6
Juraj	Jurajovia	SSmp1
Juraj	Jurajovia	SSmp5
Jurko	Jurka	SSms2
Jurko	Jurka	SSms4
Jurko	Jurkami	SSmp7
Jurko	Jurko	SSms1
Jurko	Jurko	SSms5
Jurko	Jurkoch	SSmp6
Jurko	Jurkom	SSms7
Jurko	Jurkom	SSmp3
Jurko	Jurkov	SSmp2
Jurko	Jurkov	SSmp4
Jurko	Jurkovi	SSms3
Jurko	Jurkovi	SSms6
Jurko	Jurkovia	SSmp1
Jurko	Jurkovia	SSmp5
Justína	Justín	SSfp2
Justína	Justína	SSfs1
Justína	Justína	SSfs5
Justína	Justínach	SSfp6
Justína	Justínam	SSfp3
Justína	Justínami	SSfp7
Justína	Justíne	SSfs3
Justína	Justíne	SSfs6
Justína	Justínou	SSfs7
Justína	Justínu	SSfs4
Justína	Justíny	SSfs2
Justína	Justíny	SSfp1
Justína	Justíny	SSfp4
Justína	Justíny	SSfp5
Júlia	Júlia	SSfs1
Júlia	Júlia	SSfs5
Júlia	Júliami	SSfp7
Júlia	Júlie	SSfs2
Júlia	Júlie	SSfp1
Júlia	Júlie	SSfp4
Júlia	Júlie	SSfp5
Júlia	Júlii	SSfs3
Júlia	Júlii	SSfs6
Júlia	Júliou	SSfs7
Júlia	Júliu	SSfs4
Július	Július	SSms1
Július	Július	SSms5
Július	Júliusa	SSms2
Július	Júliusa	SSms4
Július	Júliusmi	SSmp7
Július	Júliusoch	SSmp6
Július	Júliusom	SSms7
Július	Júliusom	SSmp3
Július	Júliusov	SSmp2
Július	Júliusov	SSmp4
Július	Júliusovi	SSms3
Július	Júliusovi	SSms6
Július	Júliusovia	SSmp1
Július	Júliusovia	SSmp5
Júlia	Júliách	SSfp6
Júlia	Júliám	SSfp3
Júlia	Júlií	SSfp2
ona	ju	PFfs4
jubilant	jubilant	SSms1
jubilant	jubilant	SSms5
jubilant	jubilanta	SSms2
jubilant	jubilanta	SSms4
jubilant	jubilanti	SSmp1
jubilant	jubilanti	SSmp5
jubilantka	jubilantiek	SSfp2
jubilantka	jubilantka	SSfs1
jubilantka	jubilantka	SSfs5
jubilantka	jubilantkami	SSfp7
jubilantka	jubilantke	SSfs3
jubilantka	jubilantke	SSfs6
jubilantka	jubilantkou	SSfs7
jubilantka	jubilantku	SSfs4
jubilantka	jubilantky	SSfs2
jubilantka	jubilantky	SSfp1
jubilantka	jubilantky	SSfp4
jubilantka	jubilantky	SSfp5
jubilantka	jubilantkách	SSfp6
jubilantka	jubilantkám	SSfp3
jubilant	jubilantmi	SSmp7
jubilant	jubilantoch	SSmp6
jubilant	jubilantom	SSms7
jubilant	jubilantom	SSmp3
jubilant	jubilantov	SSmp2
jubilant	jubilantov	SSmp4
jubilant	jubilantovi	SSms3
jubilant	jubilantovi	SSms6
jubilantský	jubilantskej	AAfs2x
jubilantský	jubilantskej	AAfs3x
jubilantský	jubilantskej	AAfs6x
jubilantský	jubilantskom	AAms6x
jubilantský	jubilantskom	AAis6x
jubilantský	jubilantskom	AAns6x
jubilantský	jubilantskou	AAfs7x
jubilantský	jubilantská	AAfs1x
jubilantský	jubilantská	AAfs5x
jubilantský	jubilantské	AAip1x
jubilantský	jubilantské	AAip4x
jubilantský	jubilantské	AAip5x
jubilantský	jubilantské	AAfp1x
jubilantský	jubilantské	AAfp4x
jubilantský	jubilantské	AAfp5x
jubilantský	jubilantské	AAns1x
jubilantský	jubilantské	AAns4x
jubilantský	jubilantské	AAns5x
jubilantský	jubilantské	AAnp1x
jubilantský	jubilantské	AAnp4x
jubilantský	jubilantské	AAnp5x
jubilantský	jubilantského	AAms2x
jubilantský	jubilantského	AAms4x
jubilantský	jubilantského	AAis2x
jubilantský	jubilantského	AAns2x
jubilantský	jubilantskému	AAms3x
jubilantský	jubilantskému	AAis3x
jubilantský	jubilantskému	AAns3x
jubilantský	jubilantskí	AAmp1x
jubilantský	jubilantskí	AAmp5x
jubilantský	jubilantskú	AAfs4x
jubilantský	jubilantský	AAms1x
jubilantský	jubilantský	AAms5x
jubilantský	jubilantský	AAis1x
jubilantský	jubilantský	AAis4x
jubilantský	jubilantský	AAis5x
jubilantský	jubilantských	AAmp2x
jubilantský	jubilantských	AAmp4x
jubilantský	jubilantských	AAmp6x
jubilantský	jubilantských	AAip2x
jubilantský	jubilantských	AAip6x
jubilantský	jubilantských	AAfp2x
jubilantský	jubilantských	AAfp6x
jubilantský	jubilantských	AAnp2x
jubilantský	jubilantských	AAnp6x
jubilantský	jubilantským	AAms7x
jubilantský	jubilantským	AAmp3x
jubilantský	jubilantským	AAis7x
jubilantský	jubilantským	AAip3x
jubilantský	jubilantským	AAfp3x
jubilantský	jubilantským	AAns7x
jubilantský	jubilantským	AAnp3x
jubilantský	jubilantskými	AAmp7x
jubilantský	jubilantskými	AAip7x
jubilantský	jubilantskými	AAfp7x
jubilantský	jubilantskými	AAnp7x
jubileum	jubilea	SSns2
jubileum	jubileami	SSnp7
jubilejný	jubilejnej	AAfs2x
jubilejný	jubilejnej	AAfs3x
jubilejný	jubilejnej	AAfs6x
jubilejný	jubilejnom	AAms6x
jubilejný	jubilejnom	AAis6x
jubilejný	jubilejnom	AAns6x
jubilejný	jubilejnou	AAfs7x
jubilejný	jubilejná	AAfs1x
jubilejný	jubilejná	AAfs5x
jubilejný	jubilejné	AAip1x
jubilejný	jubilejné	AAip4x
jubilejný	jubilejné	AAip5x
jubilejný	jubilejné	AAfp1x
jubilejný	jubilejné	AAfp4x
jubilejný	jubilejné	AAfp5x
jubilejný	jubilejné	AAns1x
jubilejný	jubilejné	AAns4x
jubilejný	jubilejné	AAns5x
jubilejný	jubilejné	AAnp1x
jubilejný	jubilejné	AAnp4x
jubilejný	jubilejné	AAnp5x
jubilejný	jubilejného	AAms2x
jubilejný	jubilejného	AAms4x
jubilejný	jubilejného	AAis2x
jubilejný	jubilejného	AAns2x
jubilejný	jubilejnému	AAms3x
jubilejný	jubilejnému	AAis3x
jubilejný	jubilejnému	AAns3x
jubilejný	jubilejní	AAmp1x
jubilejný	jubilejní	AAmp5x
jubilejný	jubilejnú	AAfs4x
jubilejný	jubilejný	AAms1x
jubilejný	jubilejný	AAms5x
jubilejný	jubilejný	AAis1x
jubilejný	jubilejný	AAis4x
jubilejný	jubilejný	AAis5x
jubilejný	jubilejných	AAmp2x
jubilejný	jubilejných	AAmp4x
jubilejný	jubilejných	AAmp6x
jubilejný	jubilejných	AAip2x
jubilejný	jubilejných	AAip6x
jubilejný	jubilejných	AAfp2x
jubilejný	jubilejných	AAfp6x
jubilejný	jubilejných	AAnp2x
jubilejný	jubilejných	AAnp6x
jubilejný	jubilejným	AAms7x
jubilejný	jubilejným	AAmp3x
jubilejný	jubilejným	AAis7x
jubilejný	jubilejným	AAip3x
jubilejný	jubilejným	AAfp3x
jubilejný	jubilejným	AAns7x
jubilejný	jubilejným	AAnp3x
jubilejný	jubilejnými	AAmp7x
jubilejný	jubilejnými	AAip7x
jubilejný	jubilejnými	AAfp7x
jubilejný	jubilejnými	AAnp7x
jubileum	jubileom	SSns7
jubileum	jubileu	SSns3
jubileum	jubileu	SSns6
jubileum	jubileum	SSns1
jubileum	jubileum	SSns4
jubileum	jubileum	SSns5
jubileum	jubileá	SSnp1
jubileum	jubileá	SSnp4
jubileum	jubileá	SSnp5
jubileum	jubileách	SSnp6
jubileum	jubileám	SSnp3
jubileum	jubileí	SSnp2
jubilovať	jubiloval	VLesam+
jubilovať	jubiloval	VLesai+
jubilovať	jubiloval	VLesbm+
jubilovať	jubiloval	VLesbi+
jubilovať	jubiloval	VLescm+
jubilovať	jubiloval	VLesci+
jubilovať	jubilovala	VLesaf+
jubilovať	jubilovala	VLesbf+
jubilovať	jubilovala	VLescf+
jubilovať	jubilovali	VLepah+
jubilovať	jubilovali	VLepbh+
jubilovať	jubilovali	VLepcm+
jubilovať	jubilovali	VLepci+
jubilovať	jubilovali	VLepcf+
jubilovať	jubilovali	VLepcn+
jubilovať	jubilovali	VLepco+
jubilovať	jubilovalo	VLesan+
jubilovať	jubilovalo	VLesbn+
jubilovať	jubilovalo	VLescn+
jubilovať	jubilovať	VIe+
jubilovať	jubiluj	VMesb+
jubilovať	jubiluje	VKesc+
jubilovať	jubilujem	VKesa+
jubilovať	jubilujeme	VKepa+
jubilovať	jubilujete	VKepb+
jubilovať	jubiluješ	VKesb+
jubilovať	jubilujme	VMepa+
jubilovať	jubilujte	VMepb+
jubilovať	jubilujú	VKepc+
jubilovať	jubilujúc	VHe+
juchta	juchta	SSfs1
juchta	juchta	SSfs5
juchta	juchtami	SSfp7
juchta	juchte	SSfs3
juchta	juchte	SSfs6
juchta	juchtou	SSfs7
juchtový	juchtovej	AAfs2x
juchtový	juchtovej	AAfs3x
juchtový	juchtovej	AAfs6x
juchtovina	juchtovina	SSfs1
juchtovina	juchtovina	SSfs5
juchtovina	juchtovinami	SSfp7
juchtovina	juchtovine	SSfs3
juchtovina	juchtovine	SSfs6
juchtovina	juchtovinou	SSfs7
juchtovina	juchtovinu	SSfs4
juchtovina	juchtoviny	SSfs2
juchtovina	juchtoviny	SSfp1
juchtovina	juchtoviny	SSfp4
juchtovina	juchtoviny	SSfp5
juchtovina	juchtovinách	SSfp6
juchtovina	juchtovinám	SSfp3
juchtový	juchtovom	AAms6x
juchtový	juchtovom	AAis6x
juchtový	juchtovom	AAns6x
juchtový	juchtovou	AAfs7x
juchtový	juchtová	AAfs1x
juchtový	juchtová	AAfs5x
juchtový	juchtové	AAip1x
juchtový	juchtové	AAip4x
juchtový	juchtové	AAip5x
juchtový	juchtové	AAfp1x
juchtový	juchtové	AAfp4x
juchtový	juchtové	AAfp5x
juchtový	juchtové	AAns1x
juchtový	juchtové	AAns4x
juchtový	juchtové	AAns5x
juchtový	juchtové	AAnp1x
juchtový	juchtové	AAnp4x
juchtový	juchtové	AAnp5x
juchtový	juchtového	AAms2x
juchtový	juchtového	AAms4x
juchtový	juchtového	AAis2x
juchtový	juchtového	AAns2x
juchtový	juchtovému	AAms3x
juchtový	juchtovému	AAis3x
juchtový	juchtovému	AAns3x
juchtový	juchtoví	AAmp1x
juchtový	juchtoví	AAmp5x
juchtovina	juchtovín	SSfp2
juchtový	juchtovú	AAfs4x
juchtový	juchtový	AAms1x
juchtový	juchtový	AAms5x
juchtový	juchtový	AAis1x
juchtový	juchtový	AAis4x
juchtový	juchtový	AAis5x
juchtový	juchtových	AAmp2x
juchtový	juchtových	AAmp4x
juchtový	juchtových	AAmp6x
juchtový	juchtových	AAip2x
juchtový	juchtových	AAip6x
juchtový	juchtových	AAfp2x
juchtový	juchtových	AAfp6x
juchtový	juchtových	AAnp2x
juchtový	juchtových	AAnp6x
juchtový	juchtovým	AAms7x
juchtový	juchtovým	AAmp3x
juchtový	juchtovým	AAis7x
juchtový	juchtovým	AAip3x
juchtový	juchtovým	AAfp3x
juchtový	juchtovým	AAns7x
juchtový	juchtovým	AAnp3x
juchtový	juchtovými	AAmp7x
juchtový	juchtovými	AAip7x
juchtový	juchtovými	AAfp7x
juchtový	juchtovými	AAnp7x
juchta	juchtu	SSfs4
juchta	juchty	SSfs2
juchta	juchty	SSfp1
juchta	juchty	SSfp4
juchta	juchty	SSfp5
juchta	juchtách	SSfp6
juchta	juchtám	SSfp3
judo	juda	SSns2
judaista	judaista	SSms1
judaista	judaista	SSms5
judaista	judaistami	SSmp7
judaista	judaisti	SSmp1
judaista	judaisti	SSmp5
judaistický	judaistickej	AAfs2x
judaistický	judaistickej	AAfs3x
judaistický	judaistickej	AAfs6x
judaistický	judaistickom	AAms6x
judaistický	judaistickom	AAis6x
judaistický	judaistickom	AAns6x
judaistický	judaistickou	AAfs7x
judaistický	judaistická	AAfs1x
judaistický	judaistická	AAfs5x
judaistický	judaistické	AAip1x
judaistický	judaistické	AAip4x
judaistický	judaistické	AAip5x
judaistický	judaistické	AAfp1x
judaistický	judaistické	AAfp4x
judaistický	judaistické	AAfp5x
judaistický	judaistické	AAns1x
judaistický	judaistické	AAns4x
judaistický	judaistické	AAns5x
judaistický	judaistické	AAnp1x
judaistický	judaistické	AAnp4x
judaistický	judaistické	AAnp5x
judaistický	judaistického	AAms2x
judaistický	judaistického	AAms4x
judaistický	judaistického	AAis2x
judaistický	judaistického	AAns2x
judaistický	judaistickému	AAms3x
judaistický	judaistickému	AAis3x
judaistický	judaistickému	AAns3x
judaistický	judaistickí	AAmp1x
judaistický	judaistickí	AAmp5x
judaistický	judaistickú	AAfs4x
judaistický	judaistický	AAms1x
judaistický	judaistický	AAms5x
judaistický	judaistický	AAis1x
judaistický	judaistický	AAis4x
judaistický	judaistický	AAis5x
judaistický	judaistických	AAmp2x
judaistický	judaistických	AAmp4x
judaistický	judaistických	AAmp6x
judaistický	judaistických	AAip2x
judaistický	judaistických	AAip6x
judaistický	judaistických	AAfp2x
judaistický	judaistických	AAfp6x
judaistický	judaistických	AAnp2x
judaistický	judaistických	AAnp6x
judaistický	judaistickým	AAms7x
judaistický	judaistickým	AAmp3x
judaistický	judaistickým	AAis7x
judaistický	judaistickým	AAip3x
judaistický	judaistickým	AAfp3x
judaistický	judaistickým	AAns7x
judaistický	judaistickým	AAnp3x
judaistický	judaistickými	AAmp7x
judaistický	judaistickými	AAip7x
judaistický	judaistickými	AAfp7x
judaistický	judaistickými	AAnp7x
judaista	judaistoch	SSmp6
judaista	judaistom	SSms7
judaista	judaistom	SSmp3
judaista	judaistov	SSmp2
judaista	judaistov	SSmp4
judaista	judaistovi	SSms3
judaista	judaistovi	SSms6
judaista	judaistu	SSms2
judaista	judaistu	SSms4
judaizmus	judaizmami	SSip7
judaizmus	judaizme	SSis6
judaizmus	judaizmoch	SSip6
judaizmus	judaizmom	SSis7
judaizmus	judaizmom	SSip3
judaizmus	judaizmov	SSip2
judaizmus	judaizmu	SSis2
judaizmus	judaizmu	SSis3
judaizmus	judaizmus	SSis1
judaizmus	judaizmus	SSis4
judaizmus	judaizmus	SSis5
judaizmus	judaizmy	SSip1
judaizmus	judaizmy	SSip4
judaizmus	judaizmy	SSip5
judo	judami	SSnp7
judo	jude	SSns6
judikatúra	judikatúr	SSfp2
judikatúra	judikatúra	SSfs1
judikatúra	judikatúra	SSfs5
judikatúra	judikatúrach	SSfp6
judikatúra	judikatúram	SSfp3
judikatúra	judikatúrami	SSfp7
judikatúra	judikatúre	SSfs3
judikatúra	judikatúre	SSfs6
judikatúra	judikatúrou	SSfs7
judikatúra	judikatúru	SSfs4
judikatúra	judikatúry	SSfs2
judikatúra	judikatúry	SSfp1
judikatúra	judikatúry	SSfp4
judikatúra	judikatúry	SSfp5
judista	judista	SSms1
judista	judista	SSms5
judista	judistami	SSmp7
judista	judisti	SSmp1
judista	judisti	SSmp5
judista	judistoch	SSmp6
judista	judistom	SSms7
judista	judistom	SSmp3
judista	judistov	SSmp2
judista	judistov	SSmp4
judista	judistovi	SSms3
judista	judistovi	SSms6
judista	judistu	SSms2
judista	judistu	SSms4
judo	judo	SSns1
judo	judo	SSns4
judo	judo	SSns5
judo	judom	SSns7
judský	judskej	AAfs2x
judský	judskej	AAfs3x
judský	judskej	AAfs6x
judský	judskom	AAms6x
judský	judskom	AAis6x
judský	judskom	AAns6x
judský	judskou	AAfs7x
judský	judská	AAfs1x
judský	judská	AAfs5x
judský	judské	AAip1x
judský	judské	AAip4x
judský	judské	AAip5x
judský	judské	AAfp1x
judský	judské	AAfp4x
judský	judské	AAfp5x
judský	judské	AAns1x
judský	judské	AAns4x
judský	judské	AAns5x
judský	judské	AAnp1x
judský	judské	AAnp4x
judský	judské	AAnp5x
judský	judského	AAms2x
judský	judského	AAms4x
judský	judského	AAis2x
judský	judského	AAns2x
judský	judskému	AAms3x
judský	judskému	AAis3x
judský	judskému	AAns3x
judský	judskí	AAmp1x
judský	judskí	AAmp5x
judský	judskú	AAfs4x
judský	judský	AAms1x
judský	judský	AAms5x
judský	judský	AAis1x
judský	judský	AAis4x
judský	judský	AAis5x
judský	judských	AAmp2x
judský	judských	AAmp4x
judský	judských	AAmp6x
judský	judských	AAip2x
judský	judských	AAip6x
judský	judských	AAfp2x
judský	judských	AAfp6x
judský	judských	AAnp2x
judský	judských	AAnp6x
judský	judským	AAms7x
judský	judským	AAmp3x
judský	judským	AAis7x
judský	judským	AAip3x
judský	judským	AAfp3x
judský	judským	AAns7x
judský	judským	AAnp3x
judský	judskými	AAmp7x
judský	judskými	AAip7x
judský	judskými	AAfp7x
judský	judskými	AAnp7x
judo	judu	SSns3
judo	judá	SSnp1
judo	judá	SSnp4
judo	judá	SSnp5
judo	judách	SSnp6
judo	judám	SSnp3
judáš	judáš	SSms1
judáš	judáš	SSms5
judáš	judáša	SSms2
judáš	judáša	SSms4
judáš	judáši	SSmp1
judáš	judáši	SSmp5
judáš	judášmi	SSmp7
judáš	judášoch	SSmp6
judáš	judášom	SSms7
judáš	judášom	SSmp3
judáš	judášov	SSmp2
judáš	judášov	SSmp4
judáš	judášovi	SSms3
judáš	judášovi	SSms6
judášsky	judášska	AAfs1x
judášsky	judášska	AAfs5x
judášsky	judášske	AAip1x
judášsky	judášske	AAip4x
judášsky	judášske	AAip5x
judášsky	judášske	AAfp1x
judášsky	judášske	AAfp4x
judášsky	judášske	AAfp5x
judášsky	judášske	AAns1x
judášsky	judášske	AAns4x
judášsky	judášske	AAns5x
judášsky	judášske	AAnp1x
judášsky	judášske	AAnp4x
judášsky	judášske	AAnp5x
judášsky	judášskeho	AAms2x
judášsky	judášskeho	AAms4x
judášsky	judášskeho	AAis2x
judášsky	judášskeho	AAns2x
judášsky	judášskej	AAfs2x
judášsky	judášskej	AAfs3x
judášsky	judášskej	AAfs6x
judášsky	judášskejšej	AAfs2y
judášsky	judášskejšej	AAfs3y
judášsky	judášskejšej	AAfs6y
judášsky	judášskejšia	AAfs1y
judášsky	judášskejšia	AAfs5y
judášsky	judášskejšie	AAip1y
judášsky	judášskejšie	AAip4y
judášsky	judášskejšie	AAip5y
judášsky	judášskejšie	AAfp1y
judášsky	judášskejšie	AAfp4y
judášsky	judášskejšie	AAfp5y
judášsky	judášskejšie	AAns1y
judášsky	judášskejšie	AAns4y
judášsky	judášskejšie	AAns5y
judášsky	judášskejšie	AAnp1y
judášsky	judášskejšie	AAnp4y
judášsky	judášskejšie	AAnp5y
judášsky	judášskejšieho	AAms2y
judášsky	judášskejšieho	AAms4y
judášsky	judášskejšieho	AAis2y
judášsky	judášskejšieho	AAns2y
judášsky	judášskejšiemu	AAms3y
judášsky	judášskejšiemu	AAis3y
judášsky	judášskejšiemu	AAns3y
judášsky	judášskejšiu	AAfs4y
judášsky	judášskejšom	AAms6y
judášsky	judášskejšom	AAis6y
judášsky	judášskejšom	AAns6y
judášsky	judášskejšou	AAfs7y
judášsky	judášskejší	AAms1y
judášsky	judášskejší	AAms5y
judášsky	judášskejší	AAmp1y
judášsky	judášskejší	AAmp5y
judášsky	judášskejší	AAis1y
judášsky	judášskejší	AAis4y
judášsky	judášskejší	AAis5y
judášsky	judášskejších	AAmp2y
judášsky	judášskejších	AAmp4y
judášsky	judášskejších	AAmp6y
judášsky	judášskejších	AAip2y
judášsky	judášskejších	AAip6y
judášsky	judášskejších	AAfp2y
judášsky	judášskejších	AAfp6y
judášsky	judášskejších	AAnp2y
judášsky	judášskejších	AAnp6y
judášsky	judášskejším	AAms7y
judášsky	judášskejším	AAmp3y
judášsky	judášskejším	AAis7y
judášsky	judášskejším	AAip3y
judášsky	judášskejším	AAfp3y
judášsky	judášskejším	AAns7y
judášsky	judášskejším	AAnp3y
judášsky	judášskejšími	AAmp7y
judášsky	judášskejšími	AAip7y
judášsky	judášskejšími	AAfp7y
judášsky	judášskejšími	AAnp7y
judášsky	judášskemu	AAms3x
judášsky	judášskemu	AAis3x
judášsky	judášskemu	AAns3x
judášsky	judášski	AAmp1x
judášsky	judášski	AAmp5x
judášsky	judášskom	AAms6x
judášsky	judášskom	AAis6x
judášsky	judášskom	AAns6x
judášsky	judášskou	AAfs7x
judášsky	judášsku	AAfs4x
judášsky	judášsky	AAms1x
judášsky	judášsky	AAms5x
judášsky	judášsky	AAis1x
judášsky	judášsky	AAis4x
judášsky	judášsky	AAis5x
judášsky	judášskych	AAmp2x
judášsky	judášskych	AAmp4x
judášsky	judášskych	AAmp6x
judášsky	judášskych	AAip2x
judášsky	judášskych	AAip6x
judášsky	judášskych	AAfp2x
judášsky	judášskych	AAfp6x
judášsky	judášskych	AAnp2x
judášsky	judášskych	AAnp6x
judášsky	judášskym	AAms7x
judášsky	judášskym	AAmp3x
judášsky	judášskym	AAis7x
judášsky	judášskym	AAip3x
judášsky	judášskym	AAfp3x
judášsky	judášskym	AAns7x
judášsky	judášskym	AAnp3x
judášsky	judášskymi	AAmp7x
judášsky	judášskymi	AAip7x
judášsky	judášskymi	AAfp7x
judášsky	judášskymi	AAnp7x
juh	juh	SSis1
juh	juh	SSis4
juh	juh	SSis5
juh	juhmi	SSip7
juhoafr	juhoafr	W
juhoafrický	juhoafrickej	AAfs2x
juhoafrický	juhoafrickej	AAfs3x
juhoafrický	juhoafrickej	AAfs6x
juhoafrický	juhoafrickom	AAms6x
juhoafrický	juhoafrickom	AAis6x
juhoafrický	juhoafrickom	AAns6x
juhoafrický	juhoafrickou	AAfs7x
juhoafrický	juhoafrická	AAfs1x
juhoafrický	juhoafrická	AAfs5x
juhoafrický	juhoafrické	AAip1x
juhoafrický	juhoafrické	AAip4x
juhoafrický	juhoafrické	AAip5x
juhoafrický	juhoafrické	AAfp1x
juhoafrický	juhoafrické	AAfp4x
juhoafrický	juhoafrické	AAfp5x
juhoafrický	juhoafrické	AAns1x
juhoafrický	juhoafrické	AAns4x
juhoafrický	juhoafrické	AAns5x
juhoafrický	juhoafrické	AAnp1x
juhoafrický	juhoafrické	AAnp4x
juhoafrický	juhoafrické	AAnp5x
juhoafrický	juhoafrického	AAms2x
juhoafrický	juhoafrického	AAms4x
juhoafrický	juhoafrického	AAis2x
juhoafrický	juhoafrického	AAns2x
juhoafrický	juhoafrickému	AAms3x
juhoafrický	juhoafrickému	AAis3x
juhoafrický	juhoafrickému	AAns3x
juhoafrický	juhoafrickí	AAmp1x
juhoafrický	juhoafrickí	AAmp5x
juhoafrický	juhoafrickú	AAfs4x
juhoafrický	juhoafrický	AAms1x
juhoafrický	juhoafrický	AAms5x
juhoafrický	juhoafrický	AAis1x
juhoafrický	juhoafrický	AAis4x
juhoafrický	juhoafrický	AAis5x
juhoafrický	juhoafrických	AAmp2x
juhoafrický	juhoafrických	AAmp4x
juhoafrický	juhoafrických	AAmp6x
juhoafrický	juhoafrických	AAip2x
juhoafrický	juhoafrických	AAip6x
juhoafrický	juhoafrických	AAfp2x
juhoafrický	juhoafrických	AAfp6x
juhoafrický	juhoafrických	AAnp2x
juhoafrický	juhoafrických	AAnp6x
juhoafrický	juhoafrickým	AAms7x
juhoafrický	juhoafrickým	AAmp3x
juhoafrický	juhoafrickým	AAis7x
juhoafrický	juhoafrickým	AAip3x
juhoafrický	juhoafrickým	AAfp3x
juhoafrický	juhoafrickým	AAns7x
juhoafrický	juhoafrickým	AAnp3x
juhoafrický	juhoafrickými	AAmp7x
juhoafrický	juhoafrickými	AAip7x
juhoafrický	juhoafrickými	AAfp7x
juhoafrický	juhoafrickými	AAnp7x
juhoamer	juhoamer	W
juhoamerický	juhoamerickej	AAfs2x
juhoamerický	juhoamerickej	AAfs3x
juhoamerický	juhoamerickej	AAfs6x
juhoamerický	juhoamerickom	AAms6x
juhoamerický	juhoamerickom	AAis6x
juhoamerický	juhoamerickom	AAns6x
juhoamerický	juhoamerickou	AAfs7x
juhoamerický	juhoamerická	AAfs1x
juhoamerický	juhoamerická	AAfs5x
juhoamerický	juhoamerické	AAip1x
juhoamerický	juhoamerické	AAip4x
juhoamerický	juhoamerické	AAip5x
juhoamerický	juhoamerické	AAfp1x
juhoamerický	juhoamerické	AAfp4x
juhoamerický	juhoamerické	AAfp5x
juhoamerický	juhoamerické	AAns1x
juhoamerický	juhoamerické	AAns4x
juhoamerický	juhoamerické	AAns5x
juhoamerický	juhoamerické	AAnp1x
juhoamerický	juhoamerické	AAnp4x
juhoamerický	juhoamerické	AAnp5x
juhoamerický	juhoamerického	AAms2x
juhoamerický	juhoamerického	AAms4x
juhoamerický	juhoamerického	AAis2x
juhoamerický	juhoamerického	AAns2x
juhoamerický	juhoamerickému	AAms3x
juhoamerický	juhoamerickému	AAis3x
juhoamerický	juhoamerickému	AAns3x
juhoamerický	juhoamerickí	AAmp1x
juhoamerický	juhoamerickí	AAmp5x
juhoamerický	juhoamerickú	AAfs4x
juhoamerický	juhoamerický	AAms1x
juhoamerický	juhoamerický	AAms5x
juhoamerický	juhoamerický	AAis1x
juhoamerický	juhoamerický	AAis4x
juhoamerický	juhoamerický	AAis5x
juhoamerický	juhoamerických	AAmp2x
juhoamerický	juhoamerických	AAmp4x
juhoamerický	juhoamerických	AAmp6x
juhoamerický	juhoamerických	AAip2x
juhoamerický	juhoamerických	AAip6x
juhoamerický	juhoamerických	AAfp2x
juhoamerický	juhoamerických	AAfp6x
juhoamerický	juhoamerických	AAnp2x
juhoamerický	juhoamerických	AAnp6x
juhoamerický	juhoamerickým	AAms7x
juhoamerický	juhoamerickým	AAmp3x
juhoamerický	juhoamerickým	AAis7x
juhoamerický	juhoamerickým	AAip3x
juhoamerický	juhoamerickým	AAfp3x
juhoamerický	juhoamerickým	AAns7x
juhoamerický	juhoamerickým	AAnp3x
juhoamerický	juhoamerickými	AAmp7x
juhoamerický	juhoamerickými	AAip7x
juhoamerický	juhoamerickými	AAfp7x
juhoamerický	juhoamerickými	AAnp7x
juh	juhoch	SSip6
juhoeuróp	juhoeuróp	W
juhoeurópsky	juhoeurópska	AAfs1x
juhoeurópsky	juhoeurópska	AAfs5x
juhoeurópsky	juhoeurópske	AAip1x
juhoeurópsky	juhoeurópske	AAip4x
juhoeurópsky	juhoeurópske	AAip5x
juhoeurópsky	juhoeurópske	AAfp1x
juhoeurópsky	juhoeurópske	AAfp4x
juhoeurópsky	juhoeurópske	AAfp5x
juhoeurópsky	juhoeurópske	AAns1x
juhoeurópsky	juhoeurópske	AAns4x
juhoeurópsky	juhoeurópske	AAns5x
juhoeurópsky	juhoeurópske	AAnp1x
juhoeurópsky	juhoeurópske	AAnp4x
juhoeurópsky	juhoeurópske	AAnp5x
juhoeurópsky	juhoeurópskeho	AAms2x
juhoeurópsky	juhoeurópskeho	AAms4x
juhoeurópsky	juhoeurópskeho	AAis2x
juhoeurópsky	juhoeurópskeho	AAns2x
juhoeurópsky	juhoeurópskej	AAfs2x
juhoeurópsky	juhoeurópskej	AAfs3x
juhoeurópsky	juhoeurópskej	AAfs6x
juhoeurópsky	juhoeurópskemu	AAms3x
juhoeurópsky	juhoeurópskemu	AAis3x
juhoeurópsky	juhoeurópskemu	AAns3x
juhoeurópsky	juhoeurópski	AAmp1x
juhoeurópsky	juhoeurópski	AAmp5x
juhoeurópsky	juhoeurópskom	AAms6x
juhoeurópsky	juhoeurópskom	AAis6x
juhoeurópsky	juhoeurópskom	AAns6x
juhoeurópsky	juhoeurópskou	AAfs7x
juhoeurópsky	juhoeurópsku	AAfs4x
juhoeurópsky	juhoeurópsky	AAms1x
juhoeurópsky	juhoeurópsky	AAms5x
juhoeurópsky	juhoeurópsky	AAis1x
juhoeurópsky	juhoeurópsky	AAis4x
juhoeurópsky	juhoeurópsky	AAis5x
juhoeurópsky	juhoeurópskych	AAmp2x
juhoeurópsky	juhoeurópskych	AAmp4x
juhoeurópsky	juhoeurópskych	AAmp6x
juhoeurópsky	juhoeurópskych	AAip2x
juhoeurópsky	juhoeurópskych	AAip6x
juhoeurópsky	juhoeurópskych	AAfp2x
juhoeurópsky	juhoeurópskych	AAfp6x
juhoeurópsky	juhoeurópskych	AAnp2x
juhoeurópsky	juhoeurópskych	AAnp6x
juhoeurópsky	juhoeurópskym	AAms7x
juhoeurópsky	juhoeurópskym	AAmp3x
juhoeurópsky	juhoeurópskym	AAis7x
juhoeurópsky	juhoeurópskym	AAip3x
juhoeurópsky	juhoeurópskym	AAfp3x
juhoeurópsky	juhoeurópskym	AAns7x
juhoeurópsky	juhoeurópskym	AAnp3x
juhoeurópsky	juhoeurópskymi	AAmp7x
juhoeurópsky	juhoeurópskymi	AAip7x
juhoeurópsky	juhoeurópskymi	AAfp7x
juhoeurópsky	juhoeurópskymi	AAnp7x
juhofranc	juhofranc	W
juh	juhom	SSis7
juh	juhom	SSip3
juhonem	juhonem	W
juhoslavizmus	juhoslavizmami	SSip7
juhoslavizmus	juhoslavizme	SSis6
juhoslavizmus	juhoslavizmoch	SSip6
juhoslavizmus	juhoslavizmom	SSis7
juhoslavizmus	juhoslavizmom	SSip3
juhoslavizmus	juhoslavizmov	SSip2
juhoslavizmus	juhoslavizmu	SSis2
juhoslavizmus	juhoslavizmu	SSis3
juhoslavizmus	juhoslavizmus	SSis1
juhoslavizmus	juhoslavizmus	SSis4
juhoslavizmus	juhoslavizmus	SSis5
juhoslavizmus	juhoslavizmy	SSip1
juhoslavizmus	juhoslavizmy	SSip4
juhoslavizmus	juhoslavizmy	SSip5
juhoslov	juhoslov	W
juhoslovan	juhoslovan	W
juhoslovanský	juhoslovanskej	AAfs2x
juhoslovanský	juhoslovanskej	AAfs3x
juhoslovanský	juhoslovanskej	AAfs6x
juhoslovanský	juhoslovanskom	AAms6x
juhoslovanský	juhoslovanskom	AAis6x
juhoslovanský	juhoslovanskom	AAns6x
juhoslovanský	juhoslovanskou	AAfs7x
juhoslovanský	juhoslovanská	AAfs1x
juhoslovanský	juhoslovanská	AAfs5x
juhoslovanský	juhoslovanské	AAip1x
juhoslovanský	juhoslovanské	AAip4x
juhoslovanský	juhoslovanské	AAip5x
juhoslovanský	juhoslovanské	AAfp1x
juhoslovanský	juhoslovanské	AAfp4x
juhoslovanský	juhoslovanské	AAfp5x
juhoslovanský	juhoslovanské	AAns1x
juhoslovanský	juhoslovanské	AAns4x
juhoslovanský	juhoslovanské	AAns5x
juhoslovanský	juhoslovanské	AAnp1x
juhoslovanský	juhoslovanské	AAnp4x
juhoslovanský	juhoslovanské	AAnp5x
juhoslovanský	juhoslovanského	AAms2x
juhoslovanský	juhoslovanského	AAms4x
juhoslovanský	juhoslovanského	AAis2x
juhoslovanský	juhoslovanského	AAns2x
juhoslovanský	juhoslovanskému	AAms3x
juhoslovanský	juhoslovanskému	AAis3x
juhoslovanský	juhoslovanskému	AAns3x
juhoslovanský	juhoslovanskí	AAmp1x
juhoslovanský	juhoslovanskí	AAmp5x
juhoslovanský	juhoslovanskú	AAfs4x
juhoslovanský	juhoslovanský	AAms1x
juhoslovanský	juhoslovanský	AAms5x
juhoslovanský	juhoslovanský	AAis1x
juhoslovanský	juhoslovanský	AAis4x
juhoslovanský	juhoslovanský	AAis5x
juhoslovanský	juhoslovanských	AAmp2x
juhoslovanský	juhoslovanských	AAmp4x
juhoslovanský	juhoslovanských	AAmp6x
juhoslovanský	juhoslovanských	AAip2x
juhoslovanský	juhoslovanských	AAip6x
juhoslovanský	juhoslovanských	AAfp2x
juhoslovanský	juhoslovanských	AAfp6x
juhoslovanský	juhoslovanských	AAnp2x
juhoslovanský	juhoslovanských	AAnp6x
juhoslovanský	juhoslovanským	AAms7x
juhoslovanský	juhoslovanským	AAmp3x
juhoslovanský	juhoslovanským	AAis7x
juhoslovanský	juhoslovanským	AAip3x
juhoslovanský	juhoslovanským	AAfp3x
juhoslovanský	juhoslovanským	AAns7x
juhoslovanský	juhoslovanským	AAnp3x
juhoslovanský	juhoslovanskými	AAmp7x
juhoslovanský	juhoslovanskými	AAip7x
juhoslovanský	juhoslovanskými	AAfp7x
juhoslovanský	juhoslovanskými	AAnp7x
juhoslovenský	juhoslovenskej	AAfs2x
juhoslovenský	juhoslovenskej	AAfs3x
juhoslovenský	juhoslovenskej	AAfs6x
juhoslovenský	juhoslovenskom	AAms6x
juhoslovenský	juhoslovenskom	AAis6x
juhoslovenský	juhoslovenskom	AAns6x
juhoslovenský	juhoslovenskou	AAfs7x
juhoslovenský	juhoslovenská	AAfs1x
juhoslovenský	juhoslovenská	AAfs5x
juhoslovenský	juhoslovenské	AAip1x
juhoslovenský	juhoslovenské	AAip4x
juhoslovenský	juhoslovenské	AAip5x
juhoslovenský	juhoslovenské	AAfp1x
juhoslovenský	juhoslovenské	AAfp4x
juhoslovenský	juhoslovenské	AAfp5x
juhoslovenský	juhoslovenské	AAns1x
juhoslovenský	juhoslovenské	AAns4x
juhoslovenský	juhoslovenské	AAns5x
juhoslovenský	juhoslovenské	AAnp1x
juhoslovenský	juhoslovenské	AAnp4x
juhoslovenský	juhoslovenské	AAnp5x
juhoslovenský	juhoslovenského	AAms2x
juhoslovenský	juhoslovenského	AAms4x
juhoslovenský	juhoslovenského	AAis2x
juhoslovenský	juhoslovenského	AAns2x
juhoslovenský	juhoslovenskému	AAms3x
juhoslovenský	juhoslovenskému	AAis3x
juhoslovenský	juhoslovenskému	AAns3x
juhoslovenský	juhoslovenskí	AAmp1x
juhoslovenský	juhoslovenskí	AAmp5x
juhoslovenský	juhoslovenskú	AAfs4x
juhoslovenský	juhoslovenský	AAms1x
juhoslovenský	juhoslovenský	AAms5x
juhoslovenský	juhoslovenský	AAis1x
juhoslovenský	juhoslovenský	AAis4x
juhoslovenský	juhoslovenský	AAis5x
juhoslovenský	juhoslovenských	AAmp2x
juhoslovenský	juhoslovenských	AAmp4x
juhoslovenský	juhoslovenských	AAmp6x
juhoslovenský	juhoslovenských	AAip2x
juhoslovenský	juhoslovenských	AAip6x
juhoslovenský	juhoslovenských	AAfp2x
juhoslovenský	juhoslovenských	AAfp6x
juhoslovenský	juhoslovenských	AAnp2x
juhoslovenský	juhoslovenských	AAnp6x
juhoslovenský	juhoslovenským	AAms7x
juhoslovenský	juhoslovenským	AAmp3x
juhoslovenský	juhoslovenským	AAis7x
juhoslovenský	juhoslovenským	AAip3x
juhoslovenský	juhoslovenským	AAfp3x
juhoslovenský	juhoslovenským	AAns7x
juhoslovenský	juhoslovenským	AAnp3x
juhoslovenský	juhoslovenskými	AAmp7x
juhoslovenský	juhoslovenskými	AAip7x
juhoslovenský	juhoslovenskými	AAfp7x
juhoslovenský	juhoslovenskými	AAnp7x
juhotal	juhotal	W
juh	juhov	SSip2
juhovietnam	juhovietnam	W
juhových	juhových	W
juhovýchod	juhovýchod	SSis1
juhovýchod	juhovýchod	SSis4
juhovýchod	juhovýchod	SSis5
juhovýchod	juhovýchode	SSis6
juhovýchod	juhovýchodmi	SSip7
juhovýchodne	juhovýchodne	Dx
juhovýchodný	juhovýchodnej	AAfs2x
juhovýchodný	juhovýchodnej	AAfs3x
juhovýchodný	juhovýchodnej	AAfs6x
juhovýchodný	juhovýchodnejšej	AAfs2y
juhovýchodný	juhovýchodnejšej	AAfs3y
juhovýchodný	juhovýchodnejšej	AAfs6y
juhovýchodný	juhovýchodnejšia	AAfs1y
juhovýchodný	juhovýchodnejšia	AAfs5y
juhovýchodne	juhovýchodnejšie	Dy
juhovýchodný	juhovýchodnejšie	AAip1y
juhovýchodný	juhovýchodnejšie	AAip4y
juhovýchodný	juhovýchodnejšie	AAip5y
juhovýchodný	juhovýchodnejšie	AAfp1y
juhovýchodný	juhovýchodnejšie	AAfp4y
juhovýchodný	juhovýchodnejšie	AAfp5y
juhovýchodný	juhovýchodnejšie	AAns1y
juhovýchodný	juhovýchodnejšie	AAns4y
juhovýchodný	juhovýchodnejšie	AAns5y
juhovýchodný	juhovýchodnejšie	AAnp1y
juhovýchodný	juhovýchodnejšie	AAnp4y
juhovýchodný	juhovýchodnejšie	AAnp5y
juhovýchodný	juhovýchodnejšieho	AAms2y
juhovýchodný	juhovýchodnejšieho	AAms4y
juhovýchodný	juhovýchodnejšieho	AAis2y
juhovýchodný	juhovýchodnejšieho	AAns2y
juhovýchodný	juhovýchodnejšiemu	AAms3y
juhovýchodný	juhovýchodnejšiemu	AAis3y
juhovýchodný	juhovýchodnejšiemu	AAns3y
juhovýchodný	juhovýchodnejšiu	AAfs4y
juhovýchodný	juhovýchodnejšom	AAms6y
juhovýchodný	juhovýchodnejšom	AAis6y
juhovýchodný	juhovýchodnejšom	AAns6y
juhovýchodný	juhovýchodnejšou	AAfs7y
juhovýchodný	juhovýchodnejší	AAms1y
juhovýchodný	juhovýchodnejší	AAms5y
juhovýchodný	juhovýchodnejší	AAmp1y
juhovýchodný	juhovýchodnejší	AAmp5y
juhovýchodný	juhovýchodnejší	AAis1y
juhovýchodný	juhovýchodnejší	AAis4y
juhovýchodný	juhovýchodnejší	AAis5y
juhovýchodný	juhovýchodnejších	AAmp2y
juhovýchodný	juhovýchodnejších	AAmp4y
juhovýchodný	juhovýchodnejších	AAmp6y
juhovýchodný	juhovýchodnejších	AAip2y
juhovýchodný	juhovýchodnejších	AAip6y
juhovýchodný	juhovýchodnejších	AAfp2y
juhovýchodný	juhovýchodnejších	AAfp6y
juhovýchodný	juhovýchodnejších	AAnp2y
juhovýchodný	juhovýchodnejších	AAnp6y
juhovýchodný	juhovýchodnejším	AAms7y
juhovýchodný	juhovýchodnejším	AAmp3y
juhovýchodný	juhovýchodnejším	AAis7y
juhovýchodný	juhovýchodnejším	AAip3y
juhovýchodný	juhovýchodnejším	AAfp3y
juhovýchodný	juhovýchodnejším	AAns7y
juhovýchodný	juhovýchodnejším	AAnp3y
juhovýchodný	juhovýchodnejšími	AAmp7y
juhovýchodný	juhovýchodnejšími	AAip7y
juhovýchodný	juhovýchodnejšími	AAfp7y
juhovýchodný	juhovýchodnejšími	AAnp7y
juhovýchodný	juhovýchodnom	AAms6x
juhovýchodný	juhovýchodnom	AAis6x
juhovýchodný	juhovýchodnom	AAns6x
juhovýchodný	juhovýchodnou	AAfs7x
juhovýchodný	juhovýchodná	AAfs1x
juhovýchodný	juhovýchodná	AAfs5x
juhovýchodný	juhovýchodné	AAip1x
juhovýchodný	juhovýchodné	AAip4x
juhovýchodný	juhovýchodné	AAip5x
juhovýchodný	juhovýchodné	AAfp1x
juhovýchodný	juhovýchodné	AAfp4x
juhovýchodný	juhovýchodné	AAfp5x
juhovýchodný	juhovýchodné	AAns1x
juhovýchodný	juhovýchodné	AAns4x
juhovýchodný	juhovýchodné	AAns5x
juhovýchodný	juhovýchodné	AAnp1x
juhovýchodný	juhovýchodné	AAnp4x
juhovýchodný	juhovýchodné	AAnp5x
juhovýchodný	juhovýchodného	AAms2x
juhovýchodný	juhovýchodného	AAms4x
juhovýchodný	juhovýchodného	AAis2x
juhovýchodný	juhovýchodného	AAns2x
juhovýchodný	juhovýchodnému	AAms3x
juhovýchodný	juhovýchodnému	AAis3x
juhovýchodný	juhovýchodnému	AAns3x
juhovýchodný	juhovýchodní	AAmp1x
juhovýchodný	juhovýchodní	AAmp5x
juhovýchodný	juhovýchodnú	AAfs4x
juhovýchodný	juhovýchodný	AAms1x
juhovýchodný	juhovýchodný	AAms5x
juhovýchodný	juhovýchodný	AAis1x
juhovýchodný	juhovýchodný	AAis4x
juhovýchodný	juhovýchodný	AAis5x
juhovýchodný	juhovýchodných	AAmp2x
juhovýchodný	juhovýchodných	AAmp4x
juhovýchodný	juhovýchodných	AAmp6x
juhovýchodný	juhovýchodných	AAip2x
juhovýchodný	juhovýchodných	AAip6x
juhovýchodný	juhovýchodných	AAfp2x
juhovýchodný	juhovýchodných	AAfp6x
juhovýchodný	juhovýchodných	AAnp2x
juhovýchodný	juhovýchodných	AAnp6x
juhovýchodný	juhovýchodným	AAms7x
juhovýchodný	juhovýchodným	AAmp3x
juhovýchodný	juhovýchodným	AAis7x
juhovýchodný	juhovýchodným	AAip3x
juhovýchodný	juhovýchodným	AAfp3x
juhovýchodný	juhovýchodným	AAns7x
juhovýchodný	juhovýchodným	AAnp3x
juhovýchodný	juhovýchodnými	AAmp7x
juhovýchodný	juhovýchodnými	AAip7x
juhovýchodný	juhovýchodnými	AAfp7x
juhovýchodný	juhovýchodnými	AAnp7x
juhovýchod	juhovýchodoch	SSip6
juhovýchod	juhovýchodom	SSis7
juhovýchod	juhovýchodom	SSip3
juhovýchod	juhovýchodov	SSip2
juhovýchod	juhovýchodu	SSis2
juhovýchod	juhovýchodu	SSis3
juhovýchod	juhovýchody	SSip1
juhovýchod	juhovýchody	SSip4
juhovýchod	juhovýchody	SSip5
juhozáp	juhozáp	W
juhozápad	juhozápad	SSis1
juhozápad	juhozápad	SSis4
juhozápad	juhozápad	SSis5
juhozápad	juhozápade	SSis6
juhozápad	juhozápadmi	SSip7
juhozápadne	juhozápadne	Dx
juhozápadný	juhozápadnej	AAfs2x
juhozápadný	juhozápadnej	AAfs3x
juhozápadný	juhozápadnej	AAfs6x
juhozápadný	juhozápadnejšej	AAfs2y
juhozápadný	juhozápadnejšej	AAfs3y
juhozápadný	juhozápadnejšej	AAfs6y
juhozápadný	juhozápadnejšia	AAfs1y
juhozápadný	juhozápadnejšia	AAfs5y
juhozápadne	juhozápadnejšie	Dy
juhozápadný	juhozápadnejšie	AAip1y
juhozápadný	juhozápadnejšie	AAip4y
juhozápadný	juhozápadnejšie	AAip5y
juhozápadný	juhozápadnejšie	AAfp1y
juhozápadný	juhozápadnejšie	AAfp4y
juhozápadný	juhozápadnejšie	AAfp5y
juhozápadný	juhozápadnejšie	AAns1y
juhozápadný	juhozápadnejšie	AAns4y
juhozápadný	juhozápadnejšie	AAns5y
juhozápadný	juhozápadnejšie	AAnp1y
juhozápadný	juhozápadnejšie	AAnp4y
juhozápadný	juhozápadnejšie	AAnp5y
juhozápadný	juhozápadnejšieho	AAms2y
juhozápadný	juhozápadnejšieho	AAms4y
juhozápadný	juhozápadnejšieho	AAis2y
juhozápadný	juhozápadnejšieho	AAns2y
juhozápadný	juhozápadnejšiemu	AAms3y
juhozápadný	juhozápadnejšiemu	AAis3y
juhozápadný	juhozápadnejšiemu	AAns3y
juhozápadný	juhozápadnejšiu	AAfs4y
juhozápadný	juhozápadnejšom	AAms6y
juhozápadný	juhozápadnejšom	AAis6y
juhozápadný	juhozápadnejšom	AAns6y
juhozápadný	juhozápadnejšou	AAfs7y
juhozápadný	juhozápadnejší	AAms1y
juhozápadný	juhozápadnejší	AAms5y
juhozápadný	juhozápadnejší	AAmp1y
juhozápadný	juhozápadnejší	AAmp5y
juhozápadný	juhozápadnejší	AAis1y
juhozápadný	juhozápadnejší	AAis4y
juhozápadný	juhozápadnejší	AAis5y
juhozápadný	juhozápadnejších	AAmp2y
juhozápadný	juhozápadnejších	AAmp4y
juhozápadný	juhozápadnejších	AAmp6y
juhozápadný	juhozápadnejších	AAip2y
juhozápadný	juhozápadnejších	AAip6y
juhozápadný	juhozápadnejších	AAfp2y
juhozápadný	juhozápadnejších	AAfp6y
juhozápadný	juhozápadnejších	AAnp2y
juhozápadný	juhozápadnejších	AAnp6y
juhozápadný	juhozápadnejším	AAms7y
juhozápadný	juhozápadnejším	AAmp3y
juhozápadný	juhozápadnejším	AAis7y
juhozápadný	juhozápadnejším	AAip3y
juhozápadný	juhozápadnejším	AAfp3y
juhozápadný	juhozápadnejším	AAns7y
juhozápadný	juhozápadnejším	AAnp3y
juhozápadný	juhozápadnejšími	AAmp7y
juhozápadný	juhozápadnejšími	AAip7y
juhozápadný	juhozápadnejšími	AAfp7y
juhozápadný	juhozápadnejšími	AAnp7y
juhozápadný	juhozápadnom	AAms6x
juhozápadný	juhozápadnom	AAis6x
juhozápadný	juhozápadnom	AAns6x
juhozápadný	juhozápadnou	AAfs7x
juhozápadný	juhozápadná	AAfs1x
juhozápadný	juhozápadná	AAfs5x
juhozápadný	juhozápadné	AAip1x
juhozápadný	juhozápadné	AAip4x
juhozápadný	juhozápadné	AAip5x
juhozápadný	juhozápadné	AAfp1x
juhozápadný	juhozápadné	AAfp4x
juhozápadný	juhozápadné	AAfp5x
juhozápadný	juhozápadné	AAns1x
juhozápadný	juhozápadné	AAns4x
juhozápadný	juhozápadné	AAns5x
juhozápadný	juhozápadné	AAnp1x
juhozápadný	juhozápadné	AAnp4x
juhozápadný	juhozápadné	AAnp5x
juhozápadný	juhozápadného	AAms2x
juhozápadný	juhozápadného	AAms4x
juhozápadný	juhozápadného	AAis2x
juhozápadný	juhozápadného	AAns2x
juhozápadný	juhozápadnému	AAms3x
juhozápadný	juhozápadnému	AAis3x
juhozápadný	juhozápadnému	AAns3x
juhozápadný	juhozápadní	AAmp1x
juhozápadný	juhozápadní	AAmp5x
juhozápadný	juhozápadnú	AAfs4x
juhozápadný	juhozápadný	AAms1x
juhozápadný	juhozápadný	AAms5x
juhozápadný	juhozápadný	AAis1x
juhozápadný	juhozápadný	AAis4x
juhozápadný	juhozápadný	AAis5x
juhozápadný	juhozápadných	AAmp2x
juhozápadný	juhozápadných	AAmp4x
juhozápadný	juhozápadných	AAmp6x
juhozápadný	juhozápadných	AAip2x
juhozápadný	juhozápadných	AAip6x
juhozápadný	juhozápadných	AAfp2x
juhozápadný	juhozápadných	AAfp6x
juhozápadný	juhozápadných	AAnp2x
juhozápadný	juhozápadných	AAnp6x
juhozápadný	juhozápadným	AAms7x
juhozápadný	juhozápadným	AAmp3x
juhozápadný	juhozápadným	AAis7x
juhozápadný	juhozápadným	AAip3x
juhozápadný	juhozápadným	AAfp3x
juhozápadný	juhozápadným	AAns7x
juhozápadný	juhozápadným	AAnp3x
juhozápadný	juhozápadnými	AAmp7x
juhozápadný	juhozápadnými	AAip7x
juhozápadný	juhozápadnými	AAfp7x
juhozápadný	juhozápadnými	AAnp7x
juhozápad	juhozápadoch	SSip6
juhozápad	juhozápadom	SSis7
juhozápad	juhozápadom	SSip3
juhozápad	juhozápadov	SSip2
juhozápad	juhozápadu	SSis2
juhozápad	juhozápadu	SSis3
juhozápad	juhozápady	SSip1
juhozápad	juhozápady	SSip4
juhozápad	juhozápady	SSip5
juhoázij	juhoázij	W
juhočeský	juhočeskej	AAfs2x
juhočeský	juhočeskej	AAfs3x
juhočeský	juhočeskej	AAfs6x
juhočeský	juhočeskom	AAms6x
juhočeský	juhočeskom	AAis6x
juhočeský	juhočeskom	AAns6x
juhočeský	juhočeskou	AAfs7x
juhočeský	juhočeská	AAfs1x
juhočeský	juhočeská	AAfs5x
juhočeský	juhočeské	AAip1x
juhočeský	juhočeské	AAip4x
juhočeský	juhočeské	AAip5x
juhočeský	juhočeské	AAfp1x
juhočeský	juhočeské	AAfp4x
juhočeský	juhočeské	AAfp5x
juhočeský	juhočeské	AAns1x
juhočeský	juhočeské	AAns4x
juhočeský	juhočeské	AAns5x
juhočeský	juhočeské	AAnp1x
juhočeský	juhočeské	AAnp4x
juhočeský	juhočeské	AAnp5x
juhočeský	juhočeského	AAms2x
juhočeský	juhočeského	AAms4x
juhočeský	juhočeského	AAis2x
juhočeský	juhočeského	AAns2x
juhočeský	juhočeskému	AAms3x
juhočeský	juhočeskému	AAis3x
juhočeský	juhočeskému	AAns3x
juhočeský	juhočeskí	AAmp1x
juhočeský	juhočeskí	AAmp5x
juhočeský	juhočeskú	AAfs4x
juhočeský	juhočeský	AAms1x
juhočeský	juhočeský	AAms5x
juhočeský	juhočeský	AAis1x
juhočeský	juhočeský	AAis4x
juhočeský	juhočeský	AAis5x
juhočeský	juhočeských	AAmp2x
juhočeský	juhočeských	AAmp4x
juhočeský	juhočeských	AAmp6x
juhočeský	juhočeských	AAip2x
juhočeský	juhočeských	AAip6x
juhočeský	juhočeských	AAfp2x
juhočeský	juhočeských	AAfp6x
juhočeský	juhočeských	AAnp2x
juhočeský	juhočeských	AAnp6x
juhočeský	juhočeským	AAms7x
juhočeský	juhočeským	AAmp3x
juhočeský	juhočeským	AAis7x
juhočeský	juhočeským	AAip3x
juhočeský	juhočeským	AAfp3x
juhočeský	juhočeským	AAns7x
juhočeský	juhočeským	AAnp3x
juhočeský	juhočeskými	AAmp7x
juhočeský	juhočeskými	AAip7x
juhočeský	juhočeskými	AAfp7x
juhočeský	juhočeskými	AAnp7x
juhošpan	juhošpan	W
juh	juhu	SSis2
juh	juhu	SSis3
juh	juhu	SSis6
juh	juhy	SSip1
juh	juhy	SSip4
juh	juhy	SSip5
juj	juj	J
jujkať	jujkaj	VMesb+
jujkať	jujkajme	VMepa+
jujkať	jujkajte	VMepb+
jujkať	jujkajú	VKepc+
jujkať	jujkajúc	VHe+
jujkať	jujkal	VLesam+
jujkať	jujkal	VLesai+
jujkať	jujkal	VLesbm+
jujkať	jujkal	VLesbi+
jujkať	jujkal	VLescm+
jujkať	jujkal	VLesci+
jujkať	jujkala	VLesaf+
jujkať	jujkala	VLesbf+
jujkať	jujkala	VLescf+
jujkať	jujkali	VLepah+
jujkať	jujkali	VLepbh+
jujkať	jujkali	VLepcm+
jujkať	jujkali	VLepci+
jujkať	jujkali	VLepcf+
jujkať	jujkali	VLepcn+
jujkať	jujkali	VLepco+
jujkať	jujkalo	VLesan+
jujkať	jujkalo	VLesbn+
jujkať	jujkalo	VLescn+
jujkať	jujkať	VIe+
jujkať	jujká	VKesc+
jujkať	jujkám	VKesa+
jujkať	jujkáme	VKepa+
jujkať	jujkáte	VKepb+
jujkať	jujkáš	VKesb+
jujuj	jujuj	J
juliánsky	juliánska	AAfs1x
juliánsky	juliánska	AAfs5x
juliánsky	juliánske	AAip1x
juliánsky	juliánske	AAip4x
juliánsky	juliánske	AAip5x
juliánsky	juliánske	AAfp1x
juliánsky	juliánske	AAfp4x
juliánsky	juliánske	AAfp5x
juliánsky	juliánske	AAns1x
juliánsky	juliánske	AAns4x
juliánsky	juliánske	AAns5x
juliánsky	juliánske	AAnp1x
juliánsky	juliánske	AAnp4x
juliánsky	juliánske	AAnp5x
juliánsky	juliánskeho	AAms2x
juliánsky	juliánskeho	AAms4x
juliánsky	juliánskeho	AAis2x
juliánsky	juliánskeho	AAns2x
juliánsky	juliánskej	AAfs2x
juliánsky	juliánskej	AAfs3x
juliánsky	juliánskej	AAfs6x
juliánsky	juliánskemu	AAms3x
juliánsky	juliánskemu	AAis3x
juliánsky	juliánskemu	AAns3x
juliánsky	juliánski	AAmp1x
juliánsky	juliánski	AAmp5x
juliánsky	juliánskom	AAms6x
juliánsky	juliánskom	AAis6x
juliánsky	juliánskom	AAns6x
juliánsky	juliánskou	AAfs7x
juliánsky	juliánsku	AAfs4x
juliánsky	juliánsky	AAms1x
juliánsky	juliánsky	AAms5x
juliánsky	juliánsky	AAis1x
juliánsky	juliánsky	AAis4x
juliánsky	juliánsky	AAis5x
juliánsky	juliánskych	AAmp2x
juliánsky	juliánskych	AAmp4x
juliánsky	juliánskych	AAmp6x
juliánsky	juliánskych	AAip2x
juliánsky	juliánskych	AAip6x
juliánsky	juliánskych	AAfp2x
juliánsky	juliánskych	AAfp6x
juliánsky	juliánskych	AAnp2x
juliánsky	juliánskych	AAnp6x
juliánsky	juliánskym	AAms7x
juliánsky	juliánskym	AAmp3x
juliánsky	juliánskym	AAis7x
juliánsky	juliánskym	AAip3x
juliánsky	juliánskym	AAfp3x
juliánsky	juliánskym	AAns7x
juliánsky	juliánskym	AAnp3x
juliánsky	juliánskymi	AAmp7x
juliánsky	juliánskymi	AAip7x
juliánsky	juliánskymi	AAfp7x
juliánsky	juliánskymi	AAnp7x
junač	junač	SSfs1
junač	junač	SSfs4
junač	junač	SSfs5
junač	junačami	SSfp7
junač	junače	SSfs2
junač	junače	SSfp1
junač	junače	SSfp4
junač	junače	SSfp5
junač	junači	SSfs3
junač	junači	SSfs6
junač	junačiach	SSfp6
junač	junačiam	SSfp3
junač	junačou	SSfs7
junač	junačí	SSfp2
junec	junca	SSms2
junec	junca	SSms4
junec	juncami	SSip7
junec	junce	SSip1
junec	junce	SSip4
junec	junce	SSip5
junec	juncoch	SSip6
junec	juncom	SSms7
junec	juncom	SSip3
junec	juncov	SSip2
junec	juncovi	SSms3
junec	juncovi	SSms6
junec	junec	SSms1
junec	junec	SSms5
junior	junior	SSms1
junior	junior	SSms5
junior	juniora	SSms2
junior	juniora	SSms4
junior	juniori	SSmp1
junior	juniori	SSmp5
juniorka	junioriek	SSfp2
juniorka	juniorka	SSfs1
juniorka	juniorka	SSfs5
juniorka	juniorkami	SSfp7
juniorka	juniorke	SSfs3
juniorka	juniorke	SSfs6
juniorka	juniorkou	SSfs7
juniorka	juniorku	SSfs4
juniorka	juniorky	SSfs2
juniorka	juniorky	SSfp1
juniorka	juniorky	SSfp4
juniorka	juniorky	SSfp5
juniorka	juniorkách	SSfp6
juniorka	juniorkám	SSfp3
junior	juniormi	SSmp7
junior	junioroch	SSmp6
junior	juniorom	SSms7
junior	juniorom	SSmp3
junior	juniorov	SSmp2
junior	juniorov	SSmp4
junior	juniorovi	SSms3
junior	juniorovi	SSms6
juniorský	juniorskej	AAfs2x
juniorský	juniorskej	AAfs3x
juniorský	juniorskej	AAfs6x
juniorský	juniorskom	AAms6x
juniorský	juniorskom	AAis6x
juniorský	juniorskom	AAns6x
juniorský	juniorskou	AAfs7x
juniorský	juniorská	AAfs1x
juniorský	juniorská	AAfs5x
juniorský	juniorské	AAip1x
juniorský	juniorské	AAip4x
juniorský	juniorské	AAip5x
juniorský	juniorské	AAfp1x
juniorský	juniorské	AAfp4x
juniorský	juniorské	AAfp5x
juniorský	juniorské	AAns1x
juniorský	juniorské	AAns4x
juniorský	juniorské	AAns5x
juniorský	juniorské	AAnp1x
juniorský	juniorské	AAnp4x
juniorský	juniorské	AAnp5x
juniorský	juniorského	AAms2x
juniorský	juniorského	AAms4x
juniorský	juniorského	AAis2x
juniorský	juniorského	AAns2x
juniorský	juniorskému	AAms3x
juniorský	juniorskému	AAis3x
juniorský	juniorskému	AAns3x
juniorský	juniorskí	AAmp1x
juniorský	juniorskí	AAmp5x
juniorský	juniorskú	AAfs4x
juniorský	juniorský	AAms1x
juniorský	juniorský	AAms5x
juniorský	juniorský	AAis1x
juniorský	juniorský	AAis4x
juniorský	juniorský	AAis5x
juniorský	juniorských	AAmp2x
juniorský	juniorských	AAmp4x
juniorský	juniorských	AAmp6x
juniorský	juniorských	AAip2x
juniorský	juniorských	AAip6x
juniorský	juniorských	AAfp2x
juniorský	juniorských	AAfp6x
juniorský	juniorských	AAnp2x
juniorský	juniorských	AAnp6x
juniorský	juniorským	AAms7x
juniorský	juniorským	AAmp3x
juniorský	juniorským	AAis7x
juniorský	juniorským	AAip3x
juniorský	juniorským	AAfp3x
juniorský	juniorským	AAns7x
juniorský	juniorským	AAnp3x
juniorský	juniorskými	AAmp7x
juniorský	juniorskými	AAip7x
juniorský	juniorskými	AAfp7x
juniorský	juniorskými	AAnp7x
juniáles	juniáles	SSis1
juniáles	juniáles	SSis4
juniáles	juniáles	SSis5
juniáles	juniálese	SSis6
juniáles	juniálesmi	SSip7
juniáles	juniálesoch	SSip6
juniáles	juniálesom	SSis7
juniáles	juniálesom	SSip3
juniáles	juniálesov	SSip2
juniálesový	juniálesovej	AAfs2x
juniálesový	juniálesovej	AAfs3x
juniálesový	juniálesovej	AAfs6x
juniálesový	juniálesovom	AAms6x
juniálesový	juniálesovom	AAis6x
juniálesový	juniálesovom	AAns6x
juniálesový	juniálesovou	AAfs7x
juniálesový	juniálesová	AAfs1x
juniálesový	juniálesová	AAfs5x
juniálesový	juniálesové	AAip1x
juniálesový	juniálesové	AAip4x
juniálesový	juniálesové	AAip5x
juniálesový	juniálesové	AAfp1x
juniálesový	juniálesové	AAfp4x
juniálesový	juniálesové	AAfp5x
juniálesový	juniálesové	AAns1x
juniálesový	juniálesové	AAns4x
juniálesový	juniálesové	AAns5x
juniálesový	juniálesové	AAnp1x
juniálesový	juniálesové	AAnp4x
juniálesový	juniálesové	AAnp5x
juniálesový	juniálesového	AAms2x
juniálesový	juniálesového	AAms4x
juniálesový	juniálesového	AAis2x
juniálesový	juniálesového	AAns2x
juniálesový	juniálesovému	AAms3x
juniálesový	juniálesovému	AAis3x
juniálesový	juniálesovému	AAns3x
juniálesový	juniálesoví	AAmp1x
juniálesový	juniálesoví	AAmp5x
juniálesový	juniálesovú	AAfs4x
juniálesový	juniálesový	AAms1x
juniálesový	juniálesový	AAms5x
juniálesový	juniálesový	AAis1x
juniálesový	juniálesový	AAis4x
juniálesový	juniálesový	AAis5x
juniálesový	juniálesových	AAmp2x
juniálesový	juniálesových	AAmp4x
juniálesový	juniálesových	AAmp6x
juniálesový	juniálesových	AAip2x
juniálesový	juniálesových	AAip6x
juniálesový	juniálesových	AAfp2x
juniálesový	juniálesových	AAfp6x
juniálesový	juniálesových	AAnp2x
juniálesový	juniálesových	AAnp6x
juniálesový	juniálesovým	AAms7x
juniálesový	juniálesovým	AAmp3x
juniálesový	juniálesovým	AAis7x
juniálesový	juniálesovým	AAip3x
juniálesový	juniálesovým	AAfp3x
juniálesový	juniálesovým	AAns7x
juniálesový	juniálesovým	AAnp3x
juniálesový	juniálesovými	AAmp7x
juniálesový	juniálesovými	AAip7x
juniálesový	juniálesovými	AAfp7x
juniálesový	juniálesovými	AAnp7x
juniáles	juniálesu	SSis2
juniáles	juniálesu	SSis3
juniáles	juniálesy	SSip1
juniáles	juniálesy	SSip4
juniáles	juniálesy	SSip5
junker	junker	SSms1
junker	junker	SSms5
junker	junkera	SSms2
junker	junkera	SSms4
junker	junkeri	SSmp1
junker	junkeri	SSmp5
junker	junkermi	SSmp7
junker	junkeroch	SSmp6
junker	junkerom	SSms7
junker	junkerom	SSmp3
junker	junkerov	SSmp2
junker	junkerov	SSmp4
junker	junkerovi	SSms3
junker	junkerovi	SSms6
junkerský	junkerskej	AAfs2x
junkerský	junkerskej	AAfs3x
junkerský	junkerskej	AAfs6x
junkerský	junkerskom	AAms6x
junkerský	junkerskom	AAis6x
junkerský	junkerskom	AAns6x
junkerský	junkerskou	AAfs7x
junkerský	junkerská	AAfs1x
junkerský	junkerská	AAfs5x
junkerský	junkerské	AAip1x
junkerský	junkerské	AAip4x
junkerský	junkerské	AAip5x
junkerský	junkerské	AAfp1x
junkerský	junkerské	AAfp4x
junkerský	junkerské	AAfp5x
junkerský	junkerské	AAns1x
junkerský	junkerské	AAns4x
junkerský	junkerské	AAns5x
junkerský	junkerské	AAnp1x
junkerský	junkerské	AAnp4x
junkerský	junkerské	AAnp5x
junkerský	junkerského	AAms2x
junkerský	junkerského	AAms4x
junkerský	junkerského	AAis2x
junkerský	junkerského	AAns2x
junkerský	junkerskému	AAms3x
junkerský	junkerskému	AAis3x
junkerský	junkerskému	AAns3x
junkerský	junkerskí	AAmp1x
junkerský	junkerskí	AAmp5x
junkerský	junkerskú	AAfs4x
junkerský	junkerský	AAms1x
junkerský	junkerský	AAms5x
junkerský	junkerský	AAis1x
junkerský	junkerský	AAis4x
junkerský	junkerský	AAis5x
junkerský	junkerských	AAmp2x
junkerský	junkerských	AAmp4x
junkerský	junkerských	AAmp6x
junkerský	junkerských	AAip2x
junkerský	junkerských	AAip6x
junkerský	junkerských	AAfp2x
junkerský	junkerských	AAfp6x
junkerský	junkerských	AAnp2x
junkerský	junkerských	AAnp6x
junkerský	junkerským	AAms7x
junkerský	junkerským	AAmp3x
junkerský	junkerským	AAis7x
junkerský	junkerským	AAip3x
junkerský	junkerským	AAfp3x
junkerský	junkerským	AAns7x
junkerský	junkerským	AAnp3x
junkerský	junkerskými	AAmp7x
junkerský	junkerskými	AAip7x
junkerský	junkerskými	AAfp7x
junkerský	junkerskými	AAnp7x
junkerstvo	junkerstiev	SSnp2
junkerstvo	junkerstva	SSns2
junkerstvo	junkerstvami	SSnp7
junkerstvo	junkerstve	SSns6
junkerstvo	junkerstvo	SSns1
junkerstvo	junkerstvo	SSns4
junkerstvo	junkerstvo	SSns5
junkerstvo	junkerstvom	SSns7
junkerstvo	junkerstvu	SSns3
junkerstvo	junkerstvá	SSnp1
junkerstvo	junkerstvá	SSnp4
junkerstvo	junkerstvá	SSnp5
junkerstvo	junkerstvách	SSnp6
junkerstvo	junkerstvám	SSnp3
junta	junta	SSfs1
junta	junta	SSfs5
junta	juntami	SSfp7
junta	junte	SSfs3
junta	junte	SSfs6
junta	juntou	SSfs7
junta	juntu	SSfs4
junta	junty	SSfs2
junta	junty	SSfp1
junta	junty	SSfp4
junta	junty	SSfp5
junta	juntách	SSfp6
junta	juntám	SSfp3
junák	junáci	SSmp1
junák	junáci	SSmp5
junácky	junácka	AAfs1x
junácky	junácka	AAfs5x
junácky	junácke	AAip1x
junácky	junácke	AAip4x
junácky	junácke	AAip5x
junácky	junácke	AAfp1x
junácky	junácke	AAfp4x
junácky	junácke	AAfp5x
junácky	junácke	AAns1x
junácky	junácke	AAns4x
junácky	junácke	AAns5x
junácky	junácke	AAnp1x
junácky	junácke	AAnp4x
junácky	junácke	AAnp5x
junácky	junáckeho	AAms2x
junácky	junáckeho	AAms4x
junácky	junáckeho	AAis2x
junácky	junáckeho	AAns2x
junácky	junáckej	AAfs2x
junácky	junáckej	AAfs3x
junácky	junáckej	AAfs6x
junácky	junáckejšej	AAfs2y
junácky	junáckejšej	AAfs3y
junácky	junáckejšej	AAfs6y
junácky	junáckejšia	AAfs1y
junácky	junáckejšia	AAfs5y
junácky	junáckejšie	AAip1y
junácky	junáckejšie	AAip4y
junácky	junáckejšie	AAip5y
junácky	junáckejšie	AAfp1y
junácky	junáckejšie	AAfp4y
junácky	junáckejšie	AAfp5y
junácky	junáckejšie	AAns1y
junácky	junáckejšie	AAns4y
junácky	junáckejšie	AAns5y
junácky	junáckejšie	AAnp1y
junácky	junáckejšie	AAnp4y
junácky	junáckejšie	AAnp5y
junácky	junáckejšie	Dy
junácky	junáckejšieho	AAms2y
junácky	junáckejšieho	AAms4y
junácky	junáckejšieho	AAis2y
junácky	junáckejšieho	AAns2y
junácky	junáckejšiemu	AAms3y
junácky	junáckejšiemu	AAis3y
junácky	junáckejšiemu	AAns3y
junácky	junáckejšiu	AAfs4y
junácky	junáckejšom	AAms6y
junácky	junáckejšom	AAis6y
junácky	junáckejšom	AAns6y
junácky	junáckejšou	AAfs7y
junácky	junáckejší	AAms1y
junácky	junáckejší	AAms5y
junácky	junáckejší	AAmp1y
junácky	junáckejší	AAmp5y
junácky	junáckejší	AAis1y
junácky	junáckejší	AAis4y
junácky	junáckejší	AAis5y
junácky	junáckejších	AAmp2y
junácky	junáckejších	AAmp4y
junácky	junáckejších	AAmp6y
junácky	junáckejších	AAip2y
junácky	junáckejších	AAip6y
junácky	junáckejších	AAfp2y
junácky	junáckejších	AAfp6y
junácky	junáckejších	AAnp2y
junácky	junáckejších	AAnp6y
junácky	junáckejším	AAms7y
junácky	junáckejším	AAmp3y
junácky	junáckejším	AAis7y
junácky	junáckejším	AAip3y
junácky	junáckejším	AAfp3y
junácky	junáckejším	AAns7y
junácky	junáckejším	AAnp3y
junácky	junáckejšími	AAmp7y
junácky	junáckejšími	AAip7y
junácky	junáckejšími	AAfp7y
junácky	junáckejšími	AAnp7y
junácky	junáckemu	AAms3x
junácky	junáckemu	AAis3x
junácky	junáckemu	AAns3x
junácky	junácki	AAmp1x
junácky	junácki	AAmp5x
junácky	junáckom	AAms6x
junácky	junáckom	AAis6x
junácky	junáckom	AAns6x
junáckosť	junáckosti	SSfs2
junáckosť	junáckosti	SSfs3
junáckosť	junáckosti	SSfs6
junáckosť	junáckosti	SSfp1
junáckosť	junáckosti	SSfp4
junáckosť	junáckosti	SSfp5
junáckosť	junáckostiach	SSfp6
junáckosť	junáckostiam	SSfp3
junáckosť	junáckostí	SSfp2
junáckosť	junáckosť	SSfs1
junáckosť	junáckosť	SSfs4
junáckosť	junáckosť	SSfs5
junáckosť	junáckosťami	SSfp7
junáckosť	junáckosťou	SSfs7
junácky	junáckou	AAfs7x
junácky	junácku	AAfs4x
junácky	junácky	AAms1x
junácky	junácky	AAms5x
junácky	junácky	AAis1x
junácky	junácky	AAis4x
junácky	junácky	AAis5x
junácky	junácky	Dx
junácky	junáckych	AAmp2x
junácky	junáckych	AAmp4x
junácky	junáckych	AAmp6x
junácky	junáckych	AAip2x
junácky	junáckych	AAip6x
junácky	junáckych	AAfp2x
junácky	junáckych	AAfp6x
junácky	junáckych	AAnp2x
junácky	junáckych	AAnp6x
junácky	junáckym	AAms7x
junácky	junáckym	AAmp3x
junácky	junáckym	AAis7x
junácky	junáckym	AAip3x
junácky	junáckym	AAfp3x
junácky	junáckym	AAns7x
junácky	junáckym	AAnp3x
junácky	junáckymi	AAmp7x
junácky	junáckymi	AAip7x
junácky	junáckymi	AAfp7x
junácky	junáckymi	AAnp7x
junáctvo	junáctiev	SSnp2
junáctvo	junáctva	SSns2
junáctvo	junáctva	SSnp1
junáctvo	junáctva	SSnp4
junáctvo	junáctva	SSnp5
junáctvo	junáctvach	SSnp6
junáctvo	junáctvam	SSnp3
junáctvo	junáctvami	SSnp7
junáctvo	junáctve	SSns6
junáctvo	junáctvo	SSns1
junáctvo	junáctvo	SSns4
junáctvo	junáctvo	SSns5
junáctvo	junáctvom	SSns7
junáctvo	junáctvu	SSns3
junák	junák	SSms1
junák	junák	SSms5
junák	junáka	SSms2
junák	junáka	SSms4
junák	junákmi	SSmp7
junák	junákoch	SSmp6
junák	junákom	SSms7
junák	junákom	SSmp3
junák	junákov	SSmp2
junák	junákov	SSmp4
junák	junákovi	SSms3
junák	junákovi	SSms6
junónsky	junónska	AAfs1x
junónsky	junónska	AAfs5x
junónsky	junónske	AAip1x
junónsky	junónske	AAip4x
junónsky	junónske	AAip5x
junónsky	junónske	AAfp1x
junónsky	junónske	AAfp4x
junónsky	junónske	AAfp5x
junónsky	junónske	AAns1x
junónsky	junónske	AAns4x
junónsky	junónske	AAns5x
junónsky	junónske	AAnp1x
junónsky	junónske	AAnp4x
junónsky	junónske	AAnp5x
junónsky	junónskeho	AAms2x
junónsky	junónskeho	AAms4x
junónsky	junónskeho	AAis2x
junónsky	junónskeho	AAns2x
junónsky	junónskej	AAfs2x
junónsky	junónskej	AAfs3x
junónsky	junónskej	AAfs6x
junónsky	junónskejšej	AAfs2y
junónsky	junónskejšej	AAfs3y
junónsky	junónskejšej	AAfs6y
junónsky	junónskejšia	AAfs1y
junónsky	junónskejšia	AAfs5y
junónsky	junónskejšie	AAip1y
junónsky	junónskejšie	AAip4y
junónsky	junónskejšie	AAip5y
junónsky	junónskejšie	AAfp1y
junónsky	junónskejšie	AAfp4y
junónsky	junónskejšie	AAfp5y
junónsky	junónskejšie	AAns1y
junónsky	junónskejšie	AAns4y
junónsky	junónskejšie	AAns5y
junónsky	junónskejšie	AAnp1y
junónsky	junónskejšie	AAnp4y
junónsky	junónskejšie	AAnp5y
junónsky	junónskejšieho	AAms2y
junónsky	junónskejšieho	AAms4y
junónsky	junónskejšieho	AAis2y
junónsky	junónskejšieho	AAns2y
junónsky	junónskejšiemu	AAms3y
junónsky	junónskejšiemu	AAis3y
junónsky	junónskejšiemu	AAns3y
junónsky	junónskejšiu	AAfs4y
junónsky	junónskejšom	AAms6y
junónsky	junónskejšom	AAis6y
junónsky	junónskejšom	AAns6y
junónsky	junónskejšou	AAfs7y
junónsky	junónskejší	AAms1y
junónsky	junónskejší	AAms5y
junónsky	junónskejší	AAmp1y
junónsky	junónskejší	AAmp5y
junónsky	junónskejší	AAis1y
junónsky	junónskejší	AAis4y
junónsky	junónskejší	AAis5y
junónsky	junónskejších	AAmp2y
junónsky	junónskejších	AAmp4y
junónsky	junónskejších	AAmp6y
junónsky	junónskejších	AAip2y
junónsky	junónskejších	AAip6y
junónsky	junónskejších	AAfp2y
junónsky	junónskejších	AAfp6y
junónsky	junónskejších	AAnp2y
junónsky	junónskejších	AAnp6y
junónsky	junónskejším	AAms7y
junónsky	junónskejším	AAmp3y
junónsky	junónskejším	AAis7y
junónsky	junónskejším	AAip3y
junónsky	junónskejším	AAfp3y
junónsky	junónskejším	AAns7y
junónsky	junónskejším	AAnp3y
junónsky	junónskejšími	AAmp7y
junónsky	junónskejšími	AAip7y
junónsky	junónskejšími	AAfp7y
junónsky	junónskejšími	AAnp7y
junónsky	junónskemu	AAms3x
junónsky	junónskemu	AAis3x
junónsky	junónskemu	AAns3x
junónsky	junónski	AAmp1x
junónsky	junónski	AAmp5x
junónsky	junónskom	AAms6x
junónsky	junónskom	AAis6x
junónsky	junónskom	AAns6x
junónsky	junónskou	AAfs7x
junónsky	junónsku	AAfs4x
junónsky	junónsky	AAms1x
junónsky	junónsky	AAms5x
junónsky	junónsky	AAis1x
junónsky	junónsky	AAis4x
junónsky	junónsky	AAis5x
junónsky	junónskych	AAmp2x
junónsky	junónskych	AAmp4x
junónsky	junónskych	AAmp6x
junónsky	junónskych	AAip2x
junónsky	junónskych	AAip6x
junónsky	junónskych	AAfp2x
junónsky	junónskych	AAfp6x
junónsky	junónskych	AAnp2x
junónsky	junónskych	AAnp6x
junónsky	junónskym	AAms7x
junónsky	junónskym	AAmp3x
junónsky	junónskym	AAis7x
junónsky	junónskym	AAip3x
junónsky	junónskym	AAfp3x
junónsky	junónskym	AAns7x
junónsky	junónskym	AAnp3x
junónsky	junónskymi	AAmp7x
junónsky	junónskymi	AAip7x
junónsky	junónskymi	AAfp7x
junónsky	junónskymi	AAnp7x
junček	junček	SSis1
junček	junček	SSis4
junček	junček	SSis5
junček	junčeka	SSis2
junček	junčekmi	SSip7
junček	junčekoch	SSip6
junček	junčekom	SSis7
junček	junčekom	SSip3
junček	junčekov	SSip2
junček	junčeku	SSis3
junček	junčeku	SSis6
junček	junčeky	SSip1
junček	junčeky	SSip4
junček	junčeky	SSip5
jupka	jupiek	SSfp2
jupka	jupka	SSfs1
jupka	jupka	SSfs5
jupka	jupkami	SSfp7
jupka	jupke	SSfs3
jupka	jupke	SSfs6
jupka	jupkou	SSfs7
jupka	jupku	SSfs4
jupka	jupky	SSfs2
jupka	jupky	SSfp1
jupka	jupky	SSfp4
jupka	jupky	SSfp5
jupka	jupkách	SSfp6
jupka	jupkám	SSfp3
jura	jura	SSfs1
jura	jura	SSfs5
jura	jurami	SSfp7
jura	jure	SSfs3
jura	jure	SSfs6
jurisdikcia	jurisdikcia	SSfs1
jurisdikcia	jurisdikcia	SSfs5
jurisdikcia	jurisdikciami	SSfp7
jurisdikcia	jurisdikcie	SSfs2
jurisdikcia	jurisdikcie	SSfp1
jurisdikcia	jurisdikcie	SSfp4
jurisdikcia	jurisdikcie	SSfp5
jurisdikcia	jurisdikcii	SSfs3
jurisdikcia	jurisdikcii	SSfs6
jurisdikcia	jurisdikciou	SSfs7
jurisdikcia	jurisdikciu	SSfs4
jurisdikcia	jurisdikciách	SSfp6
jurisdikcia	jurisdikciám	SSfp3
jurisdikcia	jurisdikcií	SSfp2
jurisdikčný	jurisdikčnej	AAfs2x
jurisdikčný	jurisdikčnej	AAfs3x
jurisdikčný	jurisdikčnej	AAfs6x
jurisdikčný	jurisdikčnom	AAms6x
jurisdikčný	jurisdikčnom	AAis6x
jurisdikčný	jurisdikčnom	AAns6x
jurisdikčný	jurisdikčnou	AAfs7x
jurisdikčný	jurisdikčná	AAfs1x
jurisdikčný	jurisdikčná	AAfs5x
jurisdikčný	jurisdikčné	AAip1x
jurisdikčný	jurisdikčné	AAip4x
jurisdikčný	jurisdikčné	AAip5x
jurisdikčný	jurisdikčné	AAfp1x
jurisdikčný	jurisdikčné	AAfp4x
jurisdikčný	jurisdikčné	AAfp5x
jurisdikčný	jurisdikčné	AAns1x
jurisdikčný	jurisdikčné	AAns4x
jurisdikčný	jurisdikčné	AAns5x
jurisdikčný	jurisdikčné	AAnp1x
jurisdikčný	jurisdikčné	AAnp4x
jurisdikčný	jurisdikčné	AAnp5x
jurisdikčný	jurisdikčného	AAms2x
jurisdikčný	jurisdikčného	AAms4x
jurisdikčný	jurisdikčného	AAis2x
jurisdikčný	jurisdikčného	AAns2x
jurisdikčný	jurisdikčnému	AAms3x
jurisdikčný	jurisdikčnému	AAis3x
jurisdikčný	jurisdikčnému	AAns3x
jurisdikčný	jurisdikční	AAmp1x
jurisdikčný	jurisdikční	AAmp5x
jurisdikčný	jurisdikčnú	AAfs4x
jurisdikčný	jurisdikčný	AAms1x
jurisdikčný	jurisdikčný	AAms5x
jurisdikčný	jurisdikčný	AAis1x
jurisdikčný	jurisdikčný	AAis4x
jurisdikčný	jurisdikčný	AAis5x
jurisdikčný	jurisdikčných	AAmp2x
jurisdikčný	jurisdikčných	AAmp4x
jurisdikčný	jurisdikčných	AAmp6x
jurisdikčný	jurisdikčných	AAip2x
jurisdikčný	jurisdikčných	AAip6x
jurisdikčný	jurisdikčných	AAfp2x
jurisdikčný	jurisdikčných	AAfp6x
jurisdikčný	jurisdikčných	AAnp2x
jurisdikčný	jurisdikčných	AAnp6x
jurisdikčný	jurisdikčným	AAms7x
jurisdikčný	jurisdikčným	AAmp3x
jurisdikčný	jurisdikčným	AAis7x
jurisdikčný	jurisdikčným	AAip3x
jurisdikčný	jurisdikčným	AAfp3x
jurisdikčný	jurisdikčným	AAns7x
jurisdikčný	jurisdikčným	AAnp3x
jurisdikčný	jurisdikčnými	AAmp7x
jurisdikčný	jurisdikčnými	AAip7x
jurisdikčný	jurisdikčnými	AAfp7x
jurisdikčný	jurisdikčnými	AAnp7x
jurista	jurista	SSms1
jurista	jurista	SSms5
jurista	juristami	SSmp7
jurista	juristi	SSmp1
jurista	juristi	SSmp5
juristický	juristickej	AAfs2x
juristický	juristickej	AAfs3x
juristický	juristickej	AAfs6x
juristický	juristickom	AAms6x
juristický	juristickom	AAis6x
juristický	juristickom	AAns6x
juristický	juristickou	AAfs7x
juristicky	juristicky	Dx
juristický	juristická	AAfs1x
juristický	juristická	AAfs5x
juristický	juristické	AAip1x
juristický	juristické	AAip4x
juristický	juristické	AAip5x
juristický	juristické	AAfp1x
juristický	juristické	AAfp4x
juristický	juristické	AAfp5x
juristický	juristické	AAns1x
juristický	juristické	AAns4x
juristický	juristické	AAns5x
juristický	juristické	AAnp1x
juristický	juristické	AAnp4x
juristický	juristické	AAnp5x
juristický	juristického	AAms2x
juristický	juristického	AAms4x
juristický	juristického	AAis2x
juristický	juristického	AAns2x
juristický	juristickému	AAms3x
juristický	juristickému	AAis3x
juristický	juristickému	AAns3x
juristický	juristickí	AAmp1x
juristický	juristickí	AAmp5x
juristický	juristickú	AAfs4x
juristický	juristický	AAms1x
juristický	juristický	AAms5x
juristický	juristický	AAis1x
juristický	juristický	AAis4x
juristický	juristický	AAis5x
juristický	juristických	AAmp2x
juristický	juristických	AAmp4x
juristický	juristických	AAmp6x
juristický	juristických	AAip2x
juristický	juristických	AAip6x
juristický	juristických	AAfp2x
juristický	juristických	AAfp6x
juristický	juristických	AAnp2x
juristický	juristických	AAnp6x
juristický	juristickým	AAms7x
juristický	juristickým	AAmp3x
juristický	juristickým	AAis7x
juristický	juristickým	AAip3x
juristický	juristickým	AAfp3x
juristický	juristickým	AAns7x
juristický	juristickým	AAnp3x
juristický	juristickými	AAmp7x
juristický	juristickými	AAip7x
juristický	juristickými	AAfp7x
juristický	juristickými	AAnp7x
juristika	juristika	SSfs1
juristika	juristika	SSfs5
juristika	juristikami	SSfp7
juristika	juristike	SSfs3
juristika	juristike	SSfs6
juristika	juristikou	SSfs7
juristika	juristiku	SSfs4
juristika	juristiky	SSfs2
juristika	juristiky	SSfp1
juristika	juristiky	SSfp4
juristika	juristiky	SSfp5
juristika	juristikách	SSfp6
juristika	juristikám	SSfp3
jurista	juristoch	SSmp6
jurista	juristom	SSms7
jurista	juristom	SSmp3
jurista	juristov	SSmp2
jurista	juristov	SSmp4
jurista	juristovi	SSms3
jurista	juristovi	SSms6
jurista	juristu	SSms2
jurista	juristu	SSms4
juristika	juristík	SSfp2
jurkovovoliansky	jurkovovolianska	AAfs1x
jurkovovoliansky	jurkovovolianska	AAfs5x
jurkovovoliansky	jurkovovolianske	AAip1x
jurkovovoliansky	jurkovovolianske	AAip4x
jurkovovoliansky	jurkovovolianske	AAip5x
jurkovovoliansky	jurkovovolianske	AAfp1x
jurkovovoliansky	jurkovovolianske	AAfp4x
jurkovovoliansky	jurkovovolianske	AAfp5x
jurkovovoliansky	jurkovovolianske	AAns1x
jurkovovoliansky	jurkovovolianske	AAns4x
jurkovovoliansky	jurkovovolianske	AAns5x
jurkovovoliansky	jurkovovolianske	AAnp1x
jurkovovoliansky	jurkovovolianske	AAnp4x
jurkovovoliansky	jurkovovolianske	AAnp5x
jurkovovoliansky	jurkovovolianskeho	AAms2x
jurkovovoliansky	jurkovovolianskeho	AAms4x
jurkovovoliansky	jurkovovolianskeho	AAis2x
jurkovovoliansky	jurkovovolianskeho	AAns2x
jurkovovoliansky	jurkovovolianskej	AAfs2x
jurkovovoliansky	jurkovovolianskej	AAfs3x
jurkovovoliansky	jurkovovolianskej	AAfs6x
jurkovovoliansky	jurkovovolianskejšej	AAfs2y
jurkovovoliansky	jurkovovolianskejšej	AAfs3y
jurkovovoliansky	jurkovovolianskejšej	AAfs6y
jurkovovoliansky	jurkovovolianskejšia	AAfs1y
jurkovovoliansky	jurkovovolianskejšia	AAfs5y
jurkovovoliansky	jurkovovolianskejšie	AAip1y
jurkovovoliansky	jurkovovolianskejšie	AAip4y
jurkovovoliansky	jurkovovolianskejšie	AAip5y
jurkovovoliansky	jurkovovolianskejšie	AAfp1y
jurkovovoliansky	jurkovovolianskejšie	AAfp4y
jurkovovoliansky	jurkovovolianskejšie	AAfp5y
jurkovovoliansky	jurkovovolianskejšie	AAns1y
jurkovovoliansky	jurkovovolianskejšie	AAns4y
jurkovovoliansky	jurkovovolianskejšie	AAns5y
jurkovovoliansky	jurkovovolianskejšie	AAnp1y
jurkovovoliansky	jurkovovolianskejšie	AAnp4y
jurkovovoliansky	jurkovovolianskejšie	AAnp5y
jurkovovoliansky	jurkovovolianskejšieho	AAms2y
jurkovovoliansky	jurkovovolianskejšieho	AAms4y
jurkovovoliansky	jurkovovolianskejšieho	AAis2y
jurkovovoliansky	jurkovovolianskejšieho	AAns2y
jurkovovoliansky	jurkovovolianskejšiemu	AAms3y
jurkovovoliansky	jurkovovolianskejšiemu	AAis3y
jurkovovoliansky	jurkovovolianskejšiemu	AAns3y
jurkovovoliansky	jurkovovolianskejšiu	AAfs4y
jurkovovoliansky	jurkovovolianskejšom	AAms6y
jurkovovoliansky	jurkovovolianskejšom	AAis6y
jurkovovoliansky	jurkovovolianskejšom	AAns6y
jurkovovoliansky	jurkovovolianskejšou	AAfs7y
jurkovovoliansky	jurkovovolianskejší	AAms1y
jurkovovoliansky	jurkovovolianskejší	AAms5y
jurkovovoliansky	jurkovovolianskejší	AAmp1y
jurkovovoliansky	jurkovovolianskejší	AAmp5y
jurkovovoliansky	jurkovovolianskejší	AAis1y
jurkovovoliansky	jurkovovolianskejší	AAis4y
jurkovovoliansky	jurkovovolianskejší	AAis5y
jurkovovoliansky	jurkovovolianskejších	AAmp2y
jurkovovoliansky	jurkovovolianskejších	AAmp4y
jurkovovoliansky	jurkovovolianskejších	AAmp6y
jurkovovoliansky	jurkovovolianskejších	AAip2y
jurkovovoliansky	jurkovovolianskejších	AAip6y
jurkovovoliansky	jurkovovolianskejších	AAfp2y
jurkovovoliansky	jurkovovolianskejších	AAfp6y
jurkovovoliansky	jurkovovolianskejších	AAnp2y
jurkovovoliansky	jurkovovolianskejších	AAnp6y
jurkovovoliansky	jurkovovolianskejším	AAms7y
jurkovovoliansky	jurkovovolianskejším	AAmp3y
jurkovovoliansky	jurkovovolianskejším	AAis7y
jurkovovoliansky	jurkovovolianskejším	AAip3y
jurkovovoliansky	jurkovovolianskejším	AAfp3y
jurkovovoliansky	jurkovovolianskejším	AAns7y
jurkovovoliansky	jurkovovolianskejším	AAnp3y
jurkovovoliansky	jurkovovolianskejšími	AAmp7y
jurkovovoliansky	jurkovovolianskejšími	AAip7y
jurkovovoliansky	jurkovovolianskejšími	AAfp7y
jurkovovoliansky	jurkovovolianskejšími	AAnp7y
jurkovovoliansky	jurkovovolianskemu	AAms3x
jurkovovoliansky	jurkovovolianskemu	AAis3x
jurkovovoliansky	jurkovovolianskemu	AAns3x
jurkovovoliansky	jurkovovolianski	AAmp1x
jurkovovoliansky	jurkovovolianski	AAmp5x
jurkovovoliansky	jurkovovolianskom	AAms6x
jurkovovoliansky	jurkovovolianskom	AAis6x
jurkovovoliansky	jurkovovolianskom	AAns6x
jurkovovoliansky	jurkovovolianskou	AAfs7x
jurkovovoliansky	jurkovovoliansku	AAfs4x
jurkovovoliansky	jurkovovoliansky	AAms1x
jurkovovoliansky	jurkovovoliansky	AAms5x
jurkovovoliansky	jurkovovoliansky	AAis1x
jurkovovoliansky	jurkovovoliansky	AAis4x
jurkovovoliansky	jurkovovoliansky	AAis5x
jurkovovoliansky	jurkovovoliansky	Dx
jurkovovoliansky	jurkovovolianskych	AAmp2x
jurkovovoliansky	jurkovovolianskych	AAmp4x
jurkovovoliansky	jurkovovolianskych	AAmp6x
jurkovovoliansky	jurkovovolianskych	AAip2x
jurkovovoliansky	jurkovovolianskych	AAip6x
jurkovovoliansky	jurkovovolianskych	AAfp2x
jurkovovoliansky	jurkovovolianskych	AAfp6x
jurkovovoliansky	jurkovovolianskych	AAnp2x
jurkovovoliansky	jurkovovolianskych	AAnp6x
jurkovovoliansky	jurkovovolianskym	AAms7x
jurkovovoliansky	jurkovovolianskym	AAmp3x
jurkovovoliansky	jurkovovolianskym	AAis7x
jurkovovoliansky	jurkovovolianskym	AAip3x
jurkovovoliansky	jurkovovolianskym	AAfp3x
jurkovovoliansky	jurkovovolianskym	AAns7x
jurkovovoliansky	jurkovovolianskym	AAnp3x
jurkovovoliansky	jurkovovolianskymi	AAmp7x
jurkovovoliansky	jurkovovolianskymi	AAip7x
jurkovovoliansky	jurkovovolianskymi	AAfp7x
jurkovovoliansky	jurkovovolianskymi	AAnp7x
jura	jurou	SSfs7
jurovský	jurovskej	AAfs2x
jurovský	jurovskej	AAfs3x
jurovský	jurovskej	AAfs6x
jurovský	jurovskom	AAms6x
jurovský	jurovskom	AAis6x
jurovský	jurovskom	AAns6x
jurovský	jurovskou	AAfs7x
jurovský	jurovská	AAfs1x
jurovský	jurovská	AAfs5x
jurovský	jurovské	AAip1x
jurovský	jurovské	AAip4x
jurovský	jurovské	AAip5x
jurovský	jurovské	AAfp1x
jurovský	jurovské	AAfp4x
jurovský	jurovské	AAfp5x
jurovský	jurovské	AAns1x
jurovský	jurovské	AAns4x
jurovský	jurovské	AAns5x
jurovský	jurovské	AAnp1x
jurovský	jurovské	AAnp4x
jurovský	jurovské	AAnp5x
jurovský	jurovského	AAms2x
jurovský	jurovského	AAms4x
jurovský	jurovského	AAis2x
jurovský	jurovského	AAns2x
jurovský	jurovskému	AAms3x
jurovský	jurovskému	AAis3x
jurovský	jurovskému	AAns3x
jurovský	jurovskí	AAmp1x
jurovský	jurovskí	AAmp5x
jurovský	jurovskú	AAfs4x
jurovský	jurovský	AAms1x
jurovský	jurovský	AAms5x
jurovský	jurovský	AAis1x
jurovský	jurovský	AAis4x
jurovský	jurovský	AAis5x
jurovský	jurovských	AAmp2x
jurovský	jurovských	AAmp4x
jurovský	jurovských	AAmp6x
jurovský	jurovských	AAip2x
jurovský	jurovských	AAip6x
jurovský	jurovských	AAfp2x
jurovský	jurovských	AAfp6x
jurovský	jurovských	AAnp2x
jurovský	jurovských	AAnp6x
jurovský	jurovským	AAms7x
jurovský	jurovským	AAmp3x
jurovský	jurovským	AAis7x
jurovský	jurovským	AAip3x
jurovský	jurovským	AAfp3x
jurovský	jurovským	AAns7x
jurovský	jurovským	AAnp3x
jurovský	jurovskými	AAmp7x
jurovský	jurovskými	AAip7x
jurovský	jurovskými	AAfp7x
jurovský	jurovskými	AAnp7x
jurský	jurskej	AAfs2x
jurský	jurskej	AAfs3x
jurský	jurskej	AAfs6x
jurský	jurskom	AAms6x
jurský	jurskom	AAis6x
jurský	jurskom	AAns6x
jurský	jurskou	AAfs7x
jurský	jurská	AAfs1x
jurský	jurská	AAfs5x
jurský	jurské	AAip1x
jurský	jurské	AAip4x
jurský	jurské	AAip5x
jurský	jurské	AAfp1x
jurský	jurské	AAfp4x
jurský	jurské	AAfp5x
jurský	jurské	AAns1x
jurský	jurské	AAns4x
jurský	jurské	AAns5x
jurský	jurské	AAnp1x
jurský	jurské	AAnp4x
jurský	jurské	AAnp5x
jurský	jurského	AAms2x
jurský	jurského	AAms4x
jurský	jurského	AAis2x
jurský	jurského	AAns2x
jurský	jurskému	AAms3x
jurský	jurskému	AAis3x
jurský	jurskému	AAns3x
jurský	jurskí	AAmp1x
jurský	jurskí	AAmp5x
jurský	jurskú	AAfs4x
jurský	jurský	AAms1x
jurský	jurský	AAms5x
jurský	jurský	AAis1x
jurský	jurský	AAis4x
jurský	jurský	AAis5x
jurský	jurských	AAmp2x
jurský	jurských	AAmp4x
jurský	jurských	AAmp6x
jurský	jurských	AAip2x
jurský	jurských	AAip6x
jurský	jurských	AAfp2x
jurský	jurských	AAfp6x
jurský	jurských	AAnp2x
jurský	jurských	AAnp6x
jurský	jurským	AAms7x
jurský	jurským	AAmp3x
jurský	jurským	AAis7x
jurský	jurským	AAip3x
jurský	jurským	AAfp3x
jurský	jurským	AAns7x
jurský	jurským	AAnp3x
jurský	jurskými	AAmp7x
jurský	jurskými	AAip7x
jurský	jurskými	AAfp7x
jurský	jurskými	AAnp7x
jurta	jurta	SSfs1
jurta	jurta	SSfs5
jurta	jurtami	SSfp7
jurta	jurte	SSfs3
jurta	jurte	SSfs6
jurta	jurtou	SSfs7
jurta	jurtu	SSfs4
jurta	jurty	SSfs2
jurta	jurty	SSfp1
jurta	jurty	SSfp4
jurta	jurty	SSfp5
jurta	jurtách	SSfp6
jurta	jurtám	SSfp3
jura	juru	SSfs4
jura	jury	SSfs2
jura	jury	SSfp1
jura	jury	SSfp4
jura	jury	SSfp5
jury	jury	SUfp1
jury	jury	SUfp2
jury	jury	SUfp3
jury	jury	SUfp4
jury	jury	SUfp5
jury	jury	SUfp6
jury	jury	SUfp7
jury	jury	SUfs1
jury	jury	SUfs2
jury	jury	SUfs3
jury	jury	SUfs4
jury	jury	SUfs5
jury	jury	SUfs6
jury	jury	SUfs7
jura	jurách	SSfp6
jura	jurám	SSfp3
juskovovoliansky	juskovovolianska	AAfs1x
juskovovoliansky	juskovovolianska	AAfs5x
juskovovoliansky	juskovovolianske	AAip1x
juskovovoliansky	juskovovolianske	AAip4x
juskovovoliansky	juskovovolianske	AAip5x
juskovovoliansky	juskovovolianske	AAfp1x
juskovovoliansky	juskovovolianske	AAfp4x
juskovovoliansky	juskovovolianske	AAfp5x
juskovovoliansky	juskovovolianske	AAns1x
juskovovoliansky	juskovovolianske	AAns4x
juskovovoliansky	juskovovolianske	AAns5x
juskovovoliansky	juskovovolianske	AAnp1x
juskovovoliansky	juskovovolianske	AAnp4x
juskovovoliansky	juskovovolianske	AAnp5x
juskovovoliansky	juskovovolianskeho	AAms2x
juskovovoliansky	juskovovolianskeho	AAms4x
juskovovoliansky	juskovovolianskeho	AAis2x
juskovovoliansky	juskovovolianskeho	AAns2x
juskovovoliansky	juskovovolianskej	AAfs2x
juskovovoliansky	juskovovolianskej	AAfs3x
juskovovoliansky	juskovovolianskej	AAfs6x
juskovovoliansky	juskovovolianskejšej	AAfs2y
juskovovoliansky	juskovovolianskejšej	AAfs3y
juskovovoliansky	juskovovolianskejšej	AAfs6y
juskovovoliansky	juskovovolianskejšia	AAfs1y
juskovovoliansky	juskovovolianskejšia	AAfs5y
juskovovoliansky	juskovovolianskejšie	AAip1y
juskovovoliansky	juskovovolianskejšie	AAip4y
juskovovoliansky	juskovovolianskejšie	AAip5y
juskovovoliansky	juskovovolianskejšie	AAfp1y
juskovovoliansky	juskovovolianskejšie	AAfp4y
juskovovoliansky	juskovovolianskejšie	AAfp5y
juskovovoliansky	juskovovolianskejšie	AAns1y
juskovovoliansky	juskovovolianskejšie	AAns4y
juskovovoliansky	juskovovolianskejšie	AAns5y
juskovovoliansky	juskovovolianskejšie	AAnp1y
juskovovoliansky	juskovovolianskejšie	AAnp4y
juskovovoliansky	juskovovolianskejšie	AAnp5y
juskovovoliansky	juskovovolianskejšieho	AAms2y
juskovovoliansky	juskovovolianskejšieho	AAms4y
juskovovoliansky	juskovovolianskejšieho	AAis2y
juskovovoliansky	juskovovolianskejšieho	AAns2y
juskovovoliansky	juskovovolianskejšiemu	AAms3y
juskovovoliansky	juskovovolianskejšiemu	AAis3y
juskovovoliansky	juskovovolianskejšiemu	AAns3y
juskovovoliansky	juskovovolianskejšiu	AAfs4y
juskovovoliansky	juskovovolianskejšom	AAms6y
juskovovoliansky	juskovovolianskejšom	AAis6y
juskovovoliansky	juskovovolianskejšom	AAns6y
juskovovoliansky	juskovovolianskejšou	AAfs7y
juskovovoliansky	juskovovolianskejší	AAms1y
juskovovoliansky	juskovovolianskejší	AAms5y
juskovovoliansky	juskovovolianskejší	AAmp1y
juskovovoliansky	juskovovolianskejší	AAmp5y
juskovovoliansky	juskovovolianskejší	AAis1y
juskovovoliansky	juskovovolianskejší	AAis4y
juskovovoliansky	juskovovolianskejší	AAis5y
juskovovoliansky	juskovovolianskejších	AAmp2y
juskovovoliansky	juskovovolianskejších	AAmp4y
juskovovoliansky	juskovovolianskejších	AAmp6y
juskovovoliansky	juskovovolianskejších	AAip2y
juskovovoliansky	juskovovolianskejších	AAip6y
juskovovoliansky	juskovovolianskejších	AAfp2y
juskovovoliansky	juskovovolianskejších	AAfp6y
juskovovoliansky	juskovovolianskejších	AAnp2y
juskovovoliansky	juskovovolianskejších	AAnp6y
juskovovoliansky	juskovovolianskejším	AAms7y
juskovovoliansky	juskovovolianskejším	AAmp3y
juskovovoliansky	juskovovolianskejším	AAis7y
juskovovoliansky	juskovovolianskejším	AAip3y
juskovovoliansky	juskovovolianskejším	AAfp3y
juskovovoliansky	juskovovolianskejším	AAns7y
juskovovoliansky	juskovovolianskejším	AAnp3y
juskovovoliansky	juskovovolianskejšími	AAmp7y
juskovovoliansky	juskovovolianskejšími	AAip7y
juskovovoliansky	juskovovolianskejšími	AAfp7y
juskovovoliansky	juskovovolianskejšími	AAnp7y
juskovovoliansky	juskovovolianskemu	AAms3x
juskovovoliansky	juskovovolianskemu	AAis3x
juskovovoliansky	juskovovolianskemu	AAns3x
juskovovoliansky	juskovovolianski	AAmp1x
juskovovoliansky	juskovovolianski	AAmp5x
juskovovoliansky	juskovovolianskom	AAms6x
juskovovoliansky	juskovovolianskom	AAis6x
juskovovoliansky	juskovovolianskom	AAns6x
juskovovoliansky	juskovovolianskou	AAfs7x
juskovovoliansky	juskovovoliansku	AAfs4x
juskovovoliansky	juskovovoliansky	AAms1x
juskovovoliansky	juskovovoliansky	AAms5x
juskovovoliansky	juskovovoliansky	AAis1x
juskovovoliansky	juskovovoliansky	AAis4x
juskovovoliansky	juskovovoliansky	AAis5x
juskovovoliansky	juskovovoliansky	Dx
juskovovoliansky	juskovovolianskych	AAmp2x
juskovovoliansky	juskovovolianskych	AAmp4x
juskovovoliansky	juskovovolianskych	AAmp6x
juskovovoliansky	juskovovolianskych	AAip2x
juskovovoliansky	juskovovolianskych	AAip6x
juskovovoliansky	juskovovolianskych	AAfp2x
juskovovoliansky	juskovovolianskych	AAfp6x
juskovovoliansky	juskovovolianskych	AAnp2x
juskovovoliansky	juskovovolianskych	AAnp6x
juskovovoliansky	juskovovolianskym	AAms7x
juskovovoliansky	juskovovolianskym	AAmp3x
juskovovoliansky	juskovovolianskym	AAis7x
juskovovoliansky	juskovovolianskym	AAip3x
juskovovoliansky	juskovovolianskym	AAfp3x
juskovovoliansky	juskovovolianskym	AAns7x
juskovovoliansky	juskovovolianskym	AAnp3x
juskovovoliansky	juskovovolianskymi	AAmp7x
juskovovoliansky	juskovovolianskymi	AAip7x
juskovovoliansky	juskovovolianskymi	AAfp7x
juskovovoliansky	juskovovolianskymi	AAnp7x
just	just	T
justičný	justičnej	AAfs2x
justičný	justičnej	AAfs3x
justičný	justičnej	AAfs6x
justičný	justičnom	AAms6x
justičný	justičnom	AAis6x
justičný	justičnom	AAns6x
justičný	justičnou	AAfs7x
justičný	justičná	AAfs1x
justičný	justičná	AAfs5x
justičný	justičné	AAip1x
justičný	justičné	AAip4x
justičný	justičné	AAip5x
justičný	justičné	AAfp1x
justičný	justičné	AAfp4x
justičný	justičné	AAfp5x
justičný	justičné	AAns1x
justičný	justičné	AAns4x
justičný	justičné	AAns5x
justičný	justičné	AAnp1x
justičný	justičné	AAnp4x
justičný	justičné	AAnp5x
justičný	justičného	AAms2x
justičný	justičného	AAms4x
justičný	justičného	AAis2x
justičný	justičného	AAns2x
justičný	justičnému	AAms3x
justičný	justičnému	AAis3x
justičný	justičnému	AAns3x
justičný	justiční	AAmp1x
justičný	justiční	AAmp5x
justičný	justičnú	AAfs4x
justičný	justičný	AAms1x
justičný	justičný	AAms5x
justičný	justičný	AAis1x
justičný	justičný	AAis4x
justičný	justičný	AAis5x
justičný	justičných	AAmp2x
justičný	justičných	AAmp4x
justičný	justičných	AAmp6x
justičný	justičných	AAip2x
justičný	justičných	AAip6x
justičný	justičných	AAfp2x
justičný	justičných	AAfp6x
justičný	justičných	AAnp2x
justičný	justičných	AAnp6x
justičný	justičným	AAms7x
justičný	justičným	AAmp3x
justičný	justičným	AAis7x
justičný	justičným	AAip3x
justičný	justičným	AAfp3x
justičný	justičným	AAns7x
justičný	justičným	AAnp3x
justičný	justičnými	AAmp7x
justičný	justičnými	AAip7x
justičný	justičnými	AAfp7x
justičný	justičnými	AAnp7x
justícia	justícia	SSfs1
justícia	justícia	SSfs5
justícia	justíciami	SSfp7
justícia	justície	SSfs2
justícia	justície	SSfp1
justícia	justície	SSfp4
justícia	justície	SSfp5
justícia	justícii	SSfs3
justícia	justícii	SSfs6
justícia	justíciou	SSfs7
justícia	justíciu	SSfs4
justícia	justíciách	SSfp6
justícia	justíciám	SSfp3
justícia	justícií	SSfp2
juta	juta	SSfs1
juta	juta	SSfs5
juta	jutami	SSfp7
juta	jute	SSfs3
juta	jute	SSfs6
juta	jutou	SSfs7
jutový	jutovej	AAfs2x
jutový	jutovej	AAfs3x
jutový	jutovej	AAfs6x
jutovina	jutovina	SSfs1
jutovina	jutovina	SSfs5
jutovina	jutovinami	SSfp7
jutovina	jutovine	SSfs3
jutovina	jutovine	SSfs6
jutovina	jutovinou	SSfs7
jutovina	jutovinu	SSfs4
jutovina	jutoviny	SSfs2
jutovina	jutoviny	SSfp1
jutovina	jutoviny	SSfp4
jutovina	jutoviny	SSfp5
jutovina	jutovinách	SSfp6
jutovina	jutovinám	SSfp3
jutovník	jutovník	SSis1
jutovník	jutovník	SSis4
jutovník	jutovník	SSis5
jutovník	jutovníka	SSis2
jutovník	jutovníkmi	SSip7
jutovník	jutovníkoch	SSip6
jutovník	jutovníkom	SSis7
jutovník	jutovníkom	SSip3
jutovník	jutovníkov	SSip2
jutovník	jutovníku	SSis3
jutovník	jutovníku	SSis6
jutovník	jutovníky	SSip1
jutovník	jutovníky	SSip4
jutovník	jutovníky	SSip5
jutový	jutovom	AAms6x
jutový	jutovom	AAis6x
jutový	jutovom	AAns6x
jutový	jutovou	AAfs7x
jutový	jutová	AAfs1x
jutový	jutová	AAfs5x
jutový	jutové	AAip1x
jutový	jutové	AAip4x
jutový	jutové	AAip5x
jutový	jutové	AAfp1x
jutový	jutové	AAfp4x
jutový	jutové	AAfp5x
jutový	jutové	AAns1x
jutový	jutové	AAns4x
jutový	jutové	AAns5x
jutový	jutové	AAnp1x
jutový	jutové	AAnp4x
jutový	jutové	AAnp5x
jutový	jutového	AAms2x
jutový	jutového	AAms4x
jutový	jutového	AAis2x
jutový	jutového	AAns2x
jutový	jutovému	AAms3x
jutový	jutovému	AAis3x
jutový	jutovému	AAns3x
jutový	jutoví	AAmp1x
jutový	jutoví	AAmp5x
jutovina	jutovín	SSfp2
jutový	jutovú	AAfs4x
jutový	jutový	AAms1x
jutový	jutový	AAms5x
jutový	jutový	AAis1x
jutový	jutový	AAis4x
jutový	jutový	AAis5x
jutový	jutových	AAmp2x
jutový	jutových	AAmp4x
jutový	jutových	AAmp6x
jutový	jutových	AAip2x
jutový	jutových	AAip6x
jutový	jutových	AAfp2x
jutový	jutových	AAfp6x
jutový	jutových	AAnp2x
jutový	jutových	AAnp6x
jutový	jutovým	AAms7x
jutový	jutovým	AAmp3x
jutový	jutovým	AAis7x
jutový	jutovým	AAip3x
jutový	jutovým	AAfp3x
jutový	jutovým	AAns7x
jutový	jutovým	AAnp3x
jutový	jutovými	AAmp7x
jutový	jutovými	AAip7x
jutový	jutovými	AAfp7x
jutový	jutovými	AAnp7x
jutro	jutra	SSns2
jutro	jutrami	SSnp7
jutro	jutre	SSns6
jutro	jutro	SSns1
jutro	jutro	SSns4
jutro	jutro	SSns5
jutro	jutrom	SSns7
jutro	jutru	SSns3
jutro	jutrá	SSnp1
jutro	jutrá	SSnp4
jutro	jutrá	SSnp5
jutro	jutrách	SSnp6
jutro	jutrám	SSnp3
juta	jutu	SSfs4
juta	juty	SSfs2
juta	juty	SSfp1
juta	juty	SSfp4
juta	juty	SSfp5
juta	jutách	SSfp6
juta	jutám	SSfp3
jutro	jutár	SSnp2
juvenilný	juvenilnej	AAfs2x
juvenilný	juvenilnej	AAfs3x
juvenilný	juvenilnej	AAfs6x
juvenilný	juvenilnom	AAms6x
juvenilný	juvenilnom	AAis6x
juvenilný	juvenilnom	AAns6x
juvenilný	juvenilnou	AAfs7x
juvenilný	juvenilná	AAfs1x
juvenilný	juvenilná	AAfs5x
juvenilný	juvenilné	AAip1x
juvenilný	juvenilné	AAip4x
juvenilný	juvenilné	AAip5x
juvenilný	juvenilné	AAfp1x
juvenilný	juvenilné	AAfp4x
juvenilný	juvenilné	AAfp5x
juvenilný	juvenilné	AAns1x
juvenilný	juvenilné	AAns4x
juvenilný	juvenilné	AAns5x
juvenilný	juvenilné	AAnp1x
juvenilný	juvenilné	AAnp4x
juvenilný	juvenilné	AAnp5x
juvenilný	juvenilného	AAms2x
juvenilný	juvenilného	AAms4x
juvenilný	juvenilného	AAis2x
juvenilný	juvenilného	AAns2x
juvenilný	juvenilnému	AAms3x
juvenilný	juvenilnému	AAis3x
juvenilný	juvenilnému	AAns3x
juvenilný	juvenilní	AAmp1x
juvenilný	juvenilní	AAmp5x
juvenilný	juvenilnú	AAfs4x
juvenilný	juvenilný	AAms1x
juvenilný	juvenilný	AAms5x
juvenilný	juvenilný	AAis1x
juvenilný	juvenilný	AAis4x
juvenilný	juvenilný	AAis5x
juvenilný	juvenilných	AAmp2x
juvenilný	juvenilných	AAmp4x
juvenilný	juvenilných	AAmp6x
juvenilný	juvenilných	AAip2x
juvenilný	juvenilných	AAip6x
juvenilný	juvenilných	AAfp2x
juvenilný	juvenilných	AAfp6x
juvenilný	juvenilných	AAnp2x
juvenilný	juvenilných	AAnp6x
juvenilný	juvenilným	AAms7x
juvenilný	juvenilným	AAmp3x
juvenilný	juvenilným	AAis7x
juvenilný	juvenilným	AAip3x
juvenilný	juvenilným	AAfp3x
juvenilný	juvenilným	AAns7x
juvenilný	juvenilným	AAnp3x
juvenilný	juvenilnými	AAmp7x
juvenilný	juvenilnými	AAip7x
juvenilný	juvenilnými	AAfp7x
juvenilný	juvenilnými	AAnp7x
juvenílie	juveníliami	SSnp7
juvenílie	juvenílie	SSnp1
juvenílie	juvenílie	SSnp4
juvenílie	juvenílie	SSnp5
juvenílie	juveníliách	SSnp6
juvenílie	juveníliám	SSnp3
juvenílie	juvenílií	SSnp2
juxtapozičný	juxtapozičnej	AAfs2x
juxtapozičný	juxtapozičnej	AAfs3x
juxtapozičný	juxtapozičnej	AAfs6x
juxtapozičný	juxtapozičnom	AAms6x
juxtapozičný	juxtapozičnom	AAis6x
juxtapozičný	juxtapozičnom	AAns6x
juxtapozičný	juxtapozičnou	AAfs7x
juxtapozičný	juxtapozičná	AAfs1x
juxtapozičný	juxtapozičná	AAfs5x
juxtapozičný	juxtapozičné	AAip1x
juxtapozičný	juxtapozičné	AAip4x
juxtapozičný	juxtapozičné	AAip5x
juxtapozičný	juxtapozičné	AAfp1x
juxtapozičný	juxtapozičné	AAfp4x
juxtapozičný	juxtapozičné	AAfp5x
juxtapozičný	juxtapozičné	AAns1x
juxtapozičný	juxtapozičné	AAns4x
juxtapozičný	juxtapozičné	AAns5x
juxtapozičný	juxtapozičné	AAnp1x
juxtapozičný	juxtapozičné	AAnp4x
juxtapozičný	juxtapozičné	AAnp5x
juxtapozičný	juxtapozičného	AAms2x
juxtapozičný	juxtapozičného	AAms4x
juxtapozičný	juxtapozičného	AAis2x
juxtapozičný	juxtapozičného	AAns2x
juxtapozičný	juxtapozičnému	AAms3x
juxtapozičný	juxtapozičnému	AAis3x
juxtapozičný	juxtapozičnému	AAns3x
juxtapozičný	juxtapoziční	AAmp1x
juxtapozičný	juxtapoziční	AAmp5x
juxtapozičný	juxtapozičnú	AAfs4x
juxtapozičný	juxtapozičný	AAms1x
juxtapozičný	juxtapozičný	AAms5x
juxtapozičný	juxtapozičný	AAis1x
juxtapozičný	juxtapozičný	AAis4x
juxtapozičný	juxtapozičný	AAis5x
juxtapozičný	juxtapozičných	AAmp2x
juxtapozičný	juxtapozičných	AAmp4x
juxtapozičný	juxtapozičných	AAmp6x
juxtapozičný	juxtapozičných	AAip2x
juxtapozičný	juxtapozičných	AAip6x
juxtapozičný	juxtapozičných	AAfp2x
juxtapozičný	juxtapozičných	AAfp6x
juxtapozičný	juxtapozičných	AAnp2x
juxtapozičný	juxtapozičných	AAnp6x
juxtapozičný	juxtapozičným	AAms7x
juxtapozičný	juxtapozičným	AAmp3x
juxtapozičný	juxtapozičným	AAis7x
juxtapozičný	juxtapozičným	AAip3x
juxtapozičný	juxtapozičným	AAfp3x
juxtapozičný	juxtapozičným	AAns7x
juxtapozičný	juxtapozičným	AAnp3x
juxtapozičný	juxtapozičnými	AAmp7x
juxtapozičný	juxtapozičnými	AAip7x
juxtapozičný	juxtapozičnými	AAfp7x
juxtapozičný	juxtapozičnými	AAnp7x
juxtapozícia	juxtapozícia	SSfs1
juxtapozícia	juxtapozícia	SSfs5
juxtapozícia	juxtapozíciami	SSfp7
juxtapozícia	juxtapozície	SSfs2
juxtapozícia	juxtapozície	SSfp1
juxtapozícia	juxtapozície	SSfp4
juxtapozícia	juxtapozície	SSfp5
juxtapozícia	juxtapozícii	SSfs3
juxtapozícia	juxtapozícii	SSfs6
juxtapozícia	juxtapozíciou	SSfs7
juxtapozícia	juxtapozíciu	SSfs4
juxtapozícia	juxtapozíciách	SSfp6
juxtapozícia	juxtapozíciám	SSfp3
juxtapozícia	juxtapozícií	SSfp2
juž	juž	W
južan	južan	SSms1
južan	južan	SSms5
južan	južana	SSms2
južan	južana	SSms4
južan	južania	SSmp1
južan	južania	SSmp5
južanka	južaniek	SSfp2
južanka	južanka	SSfs1
južanka	južanka	SSfs5
južanka	južankami	SSfp7
južanka	južanke	SSfs3
južanka	južanke	SSfs6
južanka	južankou	SSfs7
južanka	južanku	SSfs4
južanka	južanky	SSfs2
južanka	južanky	SSfp1
južanka	južanky	SSfp4
južanka	južanky	SSfp5
južanka	južankách	SSfp6
južanka	južankám	SSfp3
južan	južanmi	SSmp7
južan	južanoch	SSmp6
južan	južanom	SSms7
južan	južanom	SSmp3
južan	južanov	SSmp2
južan	južanov	SSmp4
južan	južanovi	SSms3
južan	južanovi	SSms6
južanský	južanskej	AAfs2x
južanský	južanskej	AAfs3x
južanský	južanskej	AAfs6x
južanský	južanskom	AAms6x
južanský	južanskom	AAis6x
južanský	južanskom	AAns6x
južanský	južanskou	AAfs7x
južanský	južanská	AAfs1x
južanský	južanská	AAfs5x
južanský	južanské	AAip1x
južanský	južanské	AAip4x
južanský	južanské	AAip5x
južanský	južanské	AAfp1x
južanský	južanské	AAfp4x
južanský	južanské	AAfp5x
južanský	južanské	AAns1x
južanský	južanské	AAns4x
južanský	južanské	AAns5x
južanský	južanské	AAnp1x
južanský	južanské	AAnp4x
južanský	južanské	AAnp5x
južanský	južanského	AAms2x
južanský	južanského	AAms4x
južanský	južanského	AAis2x
južanský	južanského	AAns2x
južanský	južanskému	AAms3x
južanský	južanskému	AAis3x
južanský	južanskému	AAns3x
južanský	južanskí	AAmp1x
južanský	južanskí	AAmp5x
južanský	južanskú	AAfs4x
južanský	južanský	AAms1x
južanský	južanský	AAms5x
južanský	južanský	AAis1x
južanský	južanský	AAis4x
južanský	južanský	AAis5x
južanský	južanských	AAmp2x
južanský	južanských	AAmp4x
južanský	južanských	AAmp6x
južanský	južanských	AAip2x
južanský	južanských	AAip6x
južanský	južanských	AAfp2x
južanský	južanských	AAfp6x
južanský	južanských	AAnp2x
južanský	južanských	AAnp6x
južanský	južanským	AAms7x
južanský	južanským	AAmp3x
južanský	južanským	AAis7x
južanský	južanským	AAip3x
južanský	južanským	AAfp3x
južanský	južanským	AAns7x
južanský	južanským	AAnp3x
južanský	južanskými	AAmp7x
južanský	južanskými	AAip7x
južanský	južanskými	AAfp7x
južanský	južanskými	AAnp7x
južne	južne	Dx
južný	južnej	AAfs2x
južný	južnej	AAfs3x
južný	južnej	AAfs6x
južný	južnejšej	AAfs2y
južný	južnejšej	AAfs3y
južný	južnejšej	AAfs6y
južný	južnejšia	AAfs1y
južný	južnejšia	AAfs5y
južne	južnejšie	Dy
južný	južnejšie	AAip1y
južný	južnejšie	AAip4y
južný	južnejšie	AAip5y
južný	južnejšie	AAfp1y
južný	južnejšie	AAfp4y
južný	južnejšie	AAfp5y
južný	južnejšie	AAns1y
južný	južnejšie	AAns4y
južný	južnejšie	AAns5y
južný	južnejšie	AAnp1y
južný	južnejšie	AAnp4y
južný	južnejšie	AAnp5y
južný	južnejšieho	AAms2y
južný	južnejšieho	AAms4y
južný	južnejšieho	AAis2y
južný	južnejšieho	AAns2y
južný	južnejšiemu	AAms3y
južný	južnejšiemu	AAis3y
južný	južnejšiemu	AAns3y
južný	južnejšiu	AAfs4y
južný	južnejšom	AAms6y
južný	južnejšom	AAis6y
južný	južnejšom	AAns6y
južný	južnejšou	AAfs7y
južný	južnejší	AAms1y
južný	južnejší	AAms5y
južný	južnejší	AAmp1y
južný	južnejší	AAmp5y
južný	južnejší	AAis1y
južný	južnejší	AAis4y
južný	južnejší	AAis5y
južný	južnejších	AAmp2y
južný	južnejších	AAmp4y
južný	južnejších	AAmp6y
južný	južnejších	AAip2y
južný	južnejších	AAip6y
južný	južnejších	AAfp2y
južný	južnejších	AAfp6y
južný	južnejších	AAnp2y
južný	južnejších	AAnp6y
južný	južnejším	AAms7y
južný	južnejším	AAmp3y
južný	južnejším	AAis7y
južný	južnejším	AAip3y
južný	južnejším	AAfp3y
južný	južnejším	AAns7y
južný	južnejším	AAnp3y
južný	južnejšími	AAmp7y
južný	južnejšími	AAip7y
južný	južnejšími	AAfp7y
južný	južnejšími	AAnp7y
južný	južnom	AAms6x
južný	južnom	AAis6x
južný	južnom	AAns6x
južnoslov	južnoslov	W
južnoslovan	južnoslovan	W
južnoslovanský	južnoslovanskej	AAfs2x
južnoslovanský	južnoslovanskej	AAfs3x
južnoslovanský	južnoslovanskej	AAfs6x
južnoslovanský	južnoslovanskom	AAms6x
južnoslovanský	južnoslovanskom	AAis6x
južnoslovanský	južnoslovanskom	AAns6x
južnoslovanský	južnoslovanskou	AAfs7x
južnoslovanský	južnoslovanská	AAfs1x
južnoslovanský	južnoslovanská	AAfs5x
južnoslovanský	južnoslovanské	AAip1x
južnoslovanský	južnoslovanské	AAip4x
južnoslovanský	južnoslovanské	AAip5x
južnoslovanský	južnoslovanské	AAfp1x
južnoslovanský	južnoslovanské	AAfp4x
južnoslovanský	južnoslovanské	AAfp5x
južnoslovanský	južnoslovanské	AAns1x
južnoslovanský	južnoslovanské	AAns4x
južnoslovanský	južnoslovanské	AAns5x
južnoslovanský	južnoslovanské	AAnp1x
južnoslovanský	južnoslovanské	AAnp4x
južnoslovanský	južnoslovanské	AAnp5x
južnoslovanský	južnoslovanského	AAms2x
južnoslovanský	južnoslovanského	AAms4x
južnoslovanský	južnoslovanského	AAis2x
južnoslovanský	južnoslovanského	AAns2x
južnoslovanský	južnoslovanskému	AAms3x
južnoslovanský	južnoslovanskému	AAis3x
južnoslovanský	južnoslovanskému	AAns3x
južnoslovanský	južnoslovanskí	AAmp1x
južnoslovanský	južnoslovanskí	AAmp5x
južnoslovanský	južnoslovanskú	AAfs4x
južnoslovanský	južnoslovanský	AAms1x
južnoslovanský	južnoslovanský	AAms5x
južnoslovanský	južnoslovanský	AAis1x
južnoslovanský	južnoslovanský	AAis4x
južnoslovanský	južnoslovanský	AAis5x
južnoslovanský	južnoslovanských	AAmp2x
južnoslovanský	južnoslovanských	AAmp4x
južnoslovanský	južnoslovanských	AAmp6x
južnoslovanský	južnoslovanských	AAip2x
južnoslovanský	južnoslovanských	AAip6x
južnoslovanský	južnoslovanských	AAfp2x
južnoslovanský	južnoslovanských	AAfp6x
južnoslovanský	južnoslovanských	AAnp2x
južnoslovanský	južnoslovanských	AAnp6x
južnoslovanský	južnoslovanským	AAms7x
južnoslovanský	južnoslovanským	AAmp3x
južnoslovanský	južnoslovanským	AAis7x
južnoslovanský	južnoslovanským	AAip3x
južnoslovanský	južnoslovanským	AAfp3x
južnoslovanský	južnoslovanským	AAns7x
južnoslovanský	južnoslovanským	AAnp3x
južnoslovanský	južnoslovanskými	AAmp7x
južnoslovanský	južnoslovanskými	AAip7x
južnoslovanský	južnoslovanskými	AAfp7x
južnoslovanský	južnoslovanskými	AAnp7x
južný	južnou	AAfs7x
južný	južná	AAfs1x
južný	južná	AAfs5x
južný	južné	AAip1x
južný	južné	AAip4x
južný	južné	AAip5x
južný	južné	AAfp1x
južný	južné	AAfp4x
južný	južné	AAfp5x
južný	južné	AAns1x
južný	južné	AAns4x
južný	južné	AAns5x
južný	južné	AAnp1x
južný	južné	AAnp4x
južný	južné	AAnp5x
južný	južného	AAms2x
južný	južného	AAms4x
južný	južného	AAis2x
južný	južného	AAns2x
južný	južnému	AAms3x
južný	južnému	AAis3x
južný	južnému	AAns3x
južný	južní	AAmp1x
južný	južní	AAmp5x
južný	južnú	AAfs4x
južný	južný	AAms1x
južný	južný	AAms5x
južný	južný	AAis1x
južný	južný	AAis4x
južný	južný	AAis5x
južný	južných	AAmp2x
južný	južných	AAmp4x
južný	južných	AAmp6x
južný	južných	AAip2x
južný	južných	AAip6x
južný	južných	AAfp2x
južný	južných	AAfp6x
južný	južných	AAnp2x
južný	južných	AAnp6x
južný	južným	AAms7x
južný	južným	AAmp3x
južný	južným	AAis7x
južný	južným	AAip3x
južný	južným	AAfp3x
južný	južným	AAns7x
južný	južným	AAnp3x
južný	južnými	AAmp7x
južný	južnými	AAip7x
južný	južnými	AAfp7x
južný	južnými	AAnp7x
juchta	júcht	SSfp2
judo	júd	SSnp2
júj	júj	J
júl	júl	SSis1
júl	júl	SSis4
júl	júl	SSis5
júl	júla	SSis2
júl	júli	SSis6
júl	júlmi	SSip7
júl	júloch	SSip6
júl	júlom	SSis7
júl	júlom	SSip3
júl	júlov	SSip2
júlový	júlovej	AAfs2x
júlový	júlovej	AAfs3x
júlový	júlovej	AAfs6x
júlový	júlovom	AAms6x
júlový	júlovom	AAis6x
júlový	júlovom	AAns6x
júlový	júlovou	AAfs7x
júlový	júlová	AAfs1x
júlový	júlová	AAfs5x
júlový	júlové	AAip1x
júlový	júlové	AAip4x
júlový	júlové	AAip5x
júlový	júlové	AAfp1x
júlový	júlové	AAfp4x
júlový	júlové	AAfp5x
júlový	júlové	AAns1x
júlový	júlové	AAns4x
júlový	júlové	AAns5x
júlový	júlové	AAnp1x
júlový	júlové	AAnp4x
júlový	júlové	AAnp5x
júlový	júlového	AAms2x
júlový	júlového	AAms4x
júlový	júlového	AAis2x
júlový	júlového	AAns2x
júlový	júlovému	AAms3x
júlový	júlovému	AAis3x
júlový	júlovému	AAns3x
júlový	júloví	AAmp1x
júlový	júloví	AAmp5x
júlový	júlovú	AAfs4x
júlový	júlový	AAms1x
júlový	júlový	AAms5x
júlový	júlový	AAis1x
júlový	júlový	AAis4x
júlový	júlový	AAis5x
júlový	júlových	AAmp2x
júlový	júlových	AAmp4x
júlový	júlových	AAmp6x
júlový	júlových	AAip2x
júlový	júlových	AAip6x
júlový	júlových	AAfp2x
júlový	júlových	AAfp6x
júlový	júlových	AAnp2x
júlový	júlových	AAnp6x
júlový	júlovým	AAms7x
júlový	júlovým	AAmp3x
júlový	júlovým	AAis7x
júlový	júlovým	AAip3x
júlový	júlovým	AAfp3x
júlový	júlovým	AAns7x
júlový	júlovým	AAnp3x
júlový	júlovými	AAmp7x
júlový	júlovými	AAip7x
júlový	júlovými	AAfp7x
júlový	júlovými	AAnp7x
júl	júlu	SSis3
júl	júly	SSip1
júl	júly	SSip4
júl	júly	SSip5
jún	jún	SSis1
jún	jún	SSis4
jún	jún	SSis5
jún	júna	SSis2
jún	júni	SSis6
jún	júnmi	SSip7
jún	júnoch	SSip6
jún	júnom	SSis7
jún	júnom	SSip3
jún	júnov	SSip2
júnový	júnovej	AAfs2x
júnový	júnovej	AAfs3x
júnový	júnovej	AAfs6x
júnový	júnovom	AAms6x
júnový	júnovom	AAis6x
júnový	júnovom	AAns6x
júnový	júnovou	AAfs7x
júnový	júnová	AAfs1x
júnový	júnová	AAfs5x
júnový	júnové	AAip1x
júnový	júnové	AAip4x
júnový	júnové	AAip5x
júnový	júnové	AAfp1x
júnový	júnové	AAfp4x
júnový	júnové	AAfp5x
júnový	júnové	AAns1x
júnový	júnové	AAns4x
júnový	júnové	AAns5x
júnový	júnové	AAnp1x
júnový	júnové	AAnp4x
júnový	júnové	AAnp5x
júnový	júnového	AAms2x
júnový	júnového	AAms4x
júnový	júnového	AAis2x
júnový	júnového	AAns2x
júnový	júnovému	AAms3x
júnový	júnovému	AAis3x
júnový	júnovému	AAns3x
júnový	júnoví	AAmp1x
júnový	júnoví	AAmp5x
júnový	júnovú	AAfs4x
júnový	júnový	AAms1x
júnový	júnový	AAms5x
júnový	júnový	AAis1x
júnový	júnový	AAis4x
júnový	júnový	AAis5x
júnový	júnových	AAmp2x
júnový	júnových	AAmp4x
júnový	júnových	AAmp6x
júnový	júnových	AAip2x
júnový	júnových	AAip6x
júnový	júnových	AAfp2x
júnový	júnových	AAfp6x
júnový	júnových	AAnp2x
júnový	júnových	AAnp6x
júnový	júnovým	AAms7x
júnový	júnovým	AAmp3x
júnový	júnovým	AAis7x
júnový	júnovým	AAip3x
júnový	júnovým	AAfp3x
júnový	júnovým	AAns7x
júnový	júnovým	AAnp3x
júnový	júnovými	AAmp7x
júnový	júnovými	AAip7x
júnový	júnovými	AAfp7x
júnový	júnovými	AAnp7x
junta	júnt	SSfp2
jún	júnu	SSis3
jún	júny	SSip1
jún	júny	SSip4
jún	júny	SSip5
jura	júr	SSfp2
jurta	júrt	SSfp2
juta	jút	SSfp2
jüan	jüan	SSis1
jüan	jüan	SSis4
jüan	jüan	SSis5
jüan	jüana	SSis2
jüan	jüane	SSis6
jüan	jüanmi	SSip7
jüan	jüanoch	SSip6
jüan	jüanom	SSis7
jüan	jüanom	SSip3
jüan	jüanov	SSip2
jüan	jüanu	SSis2
jüan	jüanu	SSis3
jüan	jüany	SSip1
jüan	jüany	SSip4
jüan	jüany	SSip5
