NÚP	NÚP	W
nuansa	nuansa	SSfs1
nuansa	nuansa	SSfs5
nuansa	nuansami	SSfp7
nuansa	nuanse	SSfs3
nuansa	nuanse	SSfs6
nuansa	nuansou	SSfs7
nuansa	nuansu	SSfs4
nuansa	nuansy	SSfs2
nuansa	nuansy	SSfp1
nuansa	nuansy	SSfp4
nuansa	nuansy	SSfp5
nuansa	nuansách	SSfp6
nuansa	nuansám	SSfp3
nuansa	nuansí	SSfp2
nuda	nuda	SSfs1
nuda	nuda	SSfs5
nuda	nudami	SSfp7
nuda	nude	SSfs3
nuda	nude	SSfs6
nudiť	nudia	VKepc+
nudiť	nudiac	VHe+
nudiť	nudil	VLesam+
nudiť	nudil	VLesai+
nudiť	nudil	VLesbm+
nudiť	nudil	VLesbi+
nudiť	nudil	VLescm+
nudiť	nudil	VLesci+
nudiť	nudila	VLesaf+
nudiť	nudila	VLesbf+
nudiť	nudila	VLescf+
nudiť	nudili	VLepah+
nudiť	nudili	VLepbh+
nudiť	nudili	VLepcm+
nudiť	nudili	VLepci+
nudiť	nudili	VLepcf+
nudiť	nudili	VLepcn+
nudiť	nudili	VLepco+
nudiť	nudilo	VLesan+
nudiť	nudilo	VLesbn+
nudiť	nudilo	VLescn+
nudista	nudista	SSms1
nudista	nudista	SSms5
nudista	nudistami	SSmp7
nudista	nudisti	SSmp1
nudista	nudisti	SSmp5
nudistický	nudistickej	AAfs2x
nudistický	nudistickej	AAfs3x
nudistický	nudistickej	AAfs6x
nudistický	nudistickom	AAms6x
nudistický	nudistickom	AAis6x
nudistický	nudistickom	AAns6x
nudistický	nudistickou	AAfs7x
nudistický	nudistická	AAfs1x
nudistický	nudistická	AAfs5x
nudistický	nudistické	AAip1x
nudistický	nudistické	AAip4x
nudistický	nudistické	AAip5x
nudistický	nudistické	AAfp1x
nudistický	nudistické	AAfp4x
nudistický	nudistické	AAfp5x
nudistický	nudistické	AAns1x
nudistický	nudistické	AAns4x
nudistický	nudistické	AAns5x
nudistický	nudistické	AAnp1x
nudistický	nudistické	AAnp4x
nudistický	nudistické	AAnp5x
nudistický	nudistického	AAms2x
nudistický	nudistického	AAms4x
nudistický	nudistického	AAis2x
nudistický	nudistického	AAns2x
nudistický	nudistickému	AAms3x
nudistický	nudistickému	AAis3x
nudistický	nudistickému	AAns3x
nudistický	nudistickí	AAmp1x
nudistický	nudistickí	AAmp5x
nudistický	nudistickú	AAfs4x
nudistický	nudistický	AAms1x
nudistický	nudistický	AAms5x
nudistický	nudistický	AAis1x
nudistický	nudistický	AAis4x
nudistický	nudistický	AAis5x
nudistický	nudistických	AAmp2x
nudistický	nudistických	AAmp4x
nudistický	nudistických	AAmp6x
nudistický	nudistických	AAip2x
nudistický	nudistických	AAip6x
nudistický	nudistických	AAfp2x
nudistický	nudistických	AAfp6x
nudistický	nudistických	AAnp2x
nudistický	nudistických	AAnp6x
nudistický	nudistickým	AAms7x
nudistický	nudistickým	AAmp3x
nudistický	nudistickým	AAis7x
nudistický	nudistickým	AAip3x
nudistický	nudistickým	AAfp3x
nudistický	nudistickým	AAns7x
nudistický	nudistickým	AAnp3x
nudistický	nudistickými	AAmp7x
nudistický	nudistickými	AAip7x
nudistický	nudistickými	AAfp7x
nudistický	nudistickými	AAnp7x
nudistka	nudistiek	SSfp2
nudistka	nudistka	SSfs1
nudistka	nudistka	SSfs5
nudistka	nudistkami	SSfp7
nudistka	nudistke	SSfs3
nudistka	nudistke	SSfs6
nudistka	nudistkou	SSfs7
nudistka	nudistku	SSfs4
nudistka	nudistky	SSfs2
nudistka	nudistky	SSfp1
nudistka	nudistky	SSfp4
nudistka	nudistky	SSfp5
nudistka	nudistkách	SSfp6
nudistka	nudistkám	SSfp3
nudista	nudistoch	SSmp6
nudista	nudistom	SSms7
nudista	nudistom	SSmp3
nudista	nudistov	SSmp2
nudista	nudistov	SSmp4
nudista	nudistovi	SSms3
nudista	nudistovi	SSms6
nudista	nudistu	SSms2
nudista	nudistu	SSms4
nudizmus	nudizmami	SSip7
nudizmus	nudizme	SSis6
nudizmus	nudizmoch	SSip6
nudizmus	nudizmom	SSis7
nudizmus	nudizmom	SSip3
nudizmus	nudizmov	SSip2
nudizmus	nudizmu	SSis2
nudizmus	nudizmu	SSis3
nudizmus	nudizmus	SSis1
nudizmus	nudizmus	SSis4
nudizmus	nudizmus	SSis5
nudizmus	nudizmy	SSip1
nudizmus	nudizmy	SSip4
nudizmus	nudizmy	SSip5
nudiť	nudiť	VIe+
nudne	nudne	Dx
nudný	nudnej	AAfs2x
nudný	nudnej	AAfs3x
nudný	nudnej	AAfs6x
nudný	nudnejšej	AAfs2y
nudný	nudnejšej	AAfs3y
nudný	nudnejšej	AAfs6y
nudný	nudnejšia	AAfs1y
nudný	nudnejšia	AAfs5y
nudne	nudnejšie	Dy
nudno	nudnejšie	Dy
nudný	nudnejšie	AAip1y
nudný	nudnejšie	AAip4y
nudný	nudnejšie	AAip5y
nudný	nudnejšie	AAfp1y
nudný	nudnejšie	AAfp4y
nudný	nudnejšie	AAfp5y
nudný	nudnejšie	AAns1y
nudný	nudnejšie	AAns4y
nudný	nudnejšie	AAns5y
nudný	nudnejšie	AAnp1y
nudný	nudnejšie	AAnp4y
nudný	nudnejšie	AAnp5y
nudný	nudnejšieho	AAms2y
nudný	nudnejšieho	AAms4y
nudný	nudnejšieho	AAis2y
nudný	nudnejšieho	AAns2y
nudný	nudnejšiemu	AAms3y
nudný	nudnejšiemu	AAis3y
nudný	nudnejšiemu	AAns3y
nudný	nudnejšiu	AAfs4y
nudný	nudnejšom	AAms6y
nudný	nudnejšom	AAis6y
nudný	nudnejšom	AAns6y
nudný	nudnejšou	AAfs7y
nudný	nudnejší	AAms1y
nudný	nudnejší	AAms5y
nudný	nudnejší	AAmp1y
nudný	nudnejší	AAmp5y
nudný	nudnejší	AAis1y
nudný	nudnejší	AAis4y
nudný	nudnejší	AAis5y
nudný	nudnejších	AAmp2y
nudný	nudnejších	AAmp4y
nudný	nudnejších	AAmp6y
nudný	nudnejších	AAip2y
nudný	nudnejších	AAip6y
nudný	nudnejších	AAfp2y
nudný	nudnejších	AAfp6y
nudný	nudnejších	AAnp2y
nudný	nudnejších	AAnp6y
nudný	nudnejším	AAms7y
nudný	nudnejším	AAmp3y
nudný	nudnejším	AAis7y
nudný	nudnejším	AAip3y
nudný	nudnejším	AAfp3y
nudný	nudnejším	AAns7y
nudný	nudnejším	AAnp3y
nudný	nudnejšími	AAmp7y
nudný	nudnejšími	AAip7y
nudný	nudnejšími	AAfp7y
nudný	nudnejšími	AAnp7y
nudno	nudno	Dx
nudný	nudnom	AAms6x
nudný	nudnom	AAis6x
nudný	nudnom	AAns6x
nudný	nudnou	AAfs7x
nudný	nudná	AAfs1x
nudný	nudná	AAfs5x
nudný	nudné	AAip1x
nudný	nudné	AAip4x
nudný	nudné	AAip5x
nudný	nudné	AAfp1x
nudný	nudné	AAfp4x
nudný	nudné	AAfp5x
nudný	nudné	AAns1x
nudný	nudné	AAns4x
nudný	nudné	AAns5x
nudný	nudné	AAnp1x
nudný	nudné	AAnp4x
nudný	nudné	AAnp5x
nudný	nudného	AAms2x
nudný	nudného	AAms4x
nudný	nudného	AAis2x
nudný	nudného	AAns2x
nudný	nudnému	AAms3x
nudný	nudnému	AAis3x
nudný	nudnému	AAns3x
nudný	nudní	AAmp1x
nudný	nudní	AAmp5x
nudný	nudnú	AAfs4x
nudný	nudný	AAms1x
nudný	nudný	AAms5x
nudný	nudný	AAis1x
nudný	nudný	AAis4x
nudný	nudný	AAis5x
nudný	nudných	AAmp2x
nudný	nudných	AAmp4x
nudný	nudných	AAmp6x
nudný	nudných	AAip2x
nudný	nudných	AAip6x
nudný	nudných	AAfp2x
nudný	nudných	AAfp6x
nudný	nudných	AAnp2x
nudný	nudných	AAnp6x
nudný	nudným	AAms7x
nudný	nudným	AAmp3x
nudný	nudným	AAis7x
nudný	nudným	AAip3x
nudný	nudným	AAfp3x
nudný	nudným	AAns7x
nudný	nudným	AAnp3x
nudný	nudnými	AAmp7x
nudný	nudnými	AAip7x
nudný	nudnými	AAfp7x
nudný	nudnými	AAnp7x
nuda	nudou	SSfs7
nuda	nudu	SSfs4
nuda	nudy	SSfs2
nuda	nudy	SSfp1
nuda	nudy	SSfp4
nuda	nudy	SSfp5
nuda	nudách	SSfp6
nuda	nudám	SSfp3
nudiť	nudí	VKesc+
nudiť	nudím	VKesa+
nudiť	nudíme	VKepa+
nudiť	nudíte	VKepb+
nudiť	nudíš	VKesb+
nugat	nugat	SSis1
nugat	nugat	SSis4
nugat	nugat	SSis5
nugat	nugate	SSis6
nugat	nugatmi	SSip7
nugat	nugatoch	SSip6
nugat	nugatom	SSis7
nugat	nugatom	SSip3
nugat	nugatov	SSip2
nugatový	nugatovej	AAfs2x
nugatový	nugatovej	AAfs3x
nugatový	nugatovej	AAfs6x
nugatový	nugatovom	AAms6x
nugatový	nugatovom	AAis6x
nugatový	nugatovom	AAns6x
nugatový	nugatovou	AAfs7x
nugatový	nugatová	AAfs1x
nugatový	nugatová	AAfs5x
nugatový	nugatové	AAip1x
nugatový	nugatové	AAip4x
nugatový	nugatové	AAip5x
nugatový	nugatové	AAfp1x
nugatový	nugatové	AAfp4x
nugatový	nugatové	AAfp5x
nugatový	nugatové	AAns1x
nugatový	nugatové	AAns4x
nugatový	nugatové	AAns5x
nugatový	nugatové	AAnp1x
nugatový	nugatové	AAnp4x
nugatový	nugatové	AAnp5x
nugatový	nugatového	AAms2x
nugatový	nugatového	AAms4x
nugatový	nugatového	AAis2x
nugatový	nugatového	AAns2x
nugatový	nugatovému	AAms3x
nugatový	nugatovému	AAis3x
nugatový	nugatovému	AAns3x
nugatový	nugatoví	AAmp1x
nugatový	nugatoví	AAmp5x
nugatový	nugatovú	AAfs4x
nugatový	nugatový	AAms1x
nugatový	nugatový	AAms5x
nugatový	nugatový	AAis1x
nugatový	nugatový	AAis4x
nugatový	nugatový	AAis5x
nugatový	nugatových	AAmp2x
nugatový	nugatových	AAmp4x
nugatový	nugatových	AAmp6x
nugatový	nugatových	AAip2x
nugatový	nugatových	AAip6x
nugatový	nugatových	AAfp2x
nugatový	nugatových	AAfp6x
nugatový	nugatových	AAnp2x
nugatový	nugatových	AAnp6x
nugatový	nugatovým	AAms7x
nugatový	nugatovým	AAmp3x
nugatový	nugatovým	AAis7x
nugatový	nugatovým	AAip3x
nugatový	nugatovým	AAfp3x
nugatový	nugatovým	AAns7x
nugatový	nugatovým	AAnp3x
nugatový	nugatovými	AAmp7x
nugatový	nugatovými	AAip7x
nugatový	nugatovými	AAfp7x
nugatový	nugatovými	AAnp7x
nugat	nugatu	SSis2
nugat	nugatu	SSis3
nugat	nugaty	SSip1
nugat	nugaty	SSip4
nugat	nugaty	SSip5
nugát	nugát	SSis1
nugát	nugát	SSis4
nugát	nugát	SSis5
nugát	nugáte	SSis6
nugát	nugátmi	SSip7
nugát	nugátoch	SSip6
nugát	nugátom	SSis7
nugát	nugátom	SSip3
nugát	nugátov	SSip2
nugátový	nugátovej	AAfs2x
nugátový	nugátovej	AAfs3x
nugátový	nugátovej	AAfs6x
nugátový	nugátovom	AAms6x
nugátový	nugátovom	AAis6x
nugátový	nugátovom	AAns6x
nugátový	nugátovou	AAfs7x
nugátový	nugátová	AAfs1x
nugátový	nugátová	AAfs5x
nugátový	nugátové	AAip1x
nugátový	nugátové	AAip4x
nugátový	nugátové	AAip5x
nugátový	nugátové	AAfp1x
nugátový	nugátové	AAfp4x
nugátový	nugátové	AAfp5x
nugátový	nugátové	AAns1x
nugátový	nugátové	AAns4x
nugátový	nugátové	AAns5x
nugátový	nugátové	AAnp1x
nugátový	nugátové	AAnp4x
nugátový	nugátové	AAnp5x
nugátový	nugátového	AAms2x
nugátový	nugátového	AAms4x
nugátový	nugátového	AAis2x
nugátový	nugátového	AAns2x
nugátový	nugátovému	AAms3x
nugátový	nugátovému	AAis3x
nugátový	nugátovému	AAns3x
nugátový	nugátoví	AAmp1x
nugátový	nugátoví	AAmp5x
nugátový	nugátovú	AAfs4x
nugátový	nugátový	AAms1x
nugátový	nugátový	AAms5x
nugátový	nugátový	AAis1x
nugátový	nugátový	AAis4x
nugátový	nugátový	AAis5x
nugátový	nugátových	AAmp2x
nugátový	nugátových	AAmp4x
nugátový	nugátových	AAmp6x
nugátový	nugátových	AAip2x
nugátový	nugátových	AAip6x
nugátový	nugátových	AAfp2x
nugátový	nugátových	AAfp6x
nugátový	nugátových	AAnp2x
nugátový	nugátových	AAnp6x
nugátový	nugátovým	AAms7x
nugátový	nugátovým	AAmp3x
nugátový	nugátovým	AAis7x
nugátový	nugátovým	AAip3x
nugátový	nugátovým	AAfp3x
nugátový	nugátovým	AAns7x
nugátový	nugátovým	AAnp3x
nugátový	nugátovými	AAmp7x
nugátový	nugátovými	AAip7x
nugátový	nugátovými	AAfp7x
nugátový	nugátovými	AAnp7x
nugát	nugátu	SSis2
nugát	nugátu	SSis3
nugát	nugáty	SSip1
nugát	nugáty	SSip4
nugát	nugáty	SSip5
nukleárny	nukleárna	AAfs1x
nukleárny	nukleárna	AAfs5x
nukleárny	nukleárne	AAip1x
nukleárny	nukleárne	AAip4x
nukleárny	nukleárne	AAip5x
nukleárny	nukleárne	AAfp1x
nukleárny	nukleárne	AAfp4x
nukleárny	nukleárne	AAfp5x
nukleárny	nukleárne	AAns1x
nukleárny	nukleárne	AAns4x
nukleárny	nukleárne	AAns5x
nukleárny	nukleárne	AAnp1x
nukleárny	nukleárne	AAnp4x
nukleárny	nukleárne	AAnp5x
nukleárny	nukleárneho	AAms2x
nukleárny	nukleárneho	AAms4x
nukleárny	nukleárneho	AAis2x
nukleárny	nukleárneho	AAns2x
nukleárny	nukleárnej	AAfs2x
nukleárny	nukleárnej	AAfs3x
nukleárny	nukleárnej	AAfs6x
nukleárny	nukleárnemu	AAms3x
nukleárny	nukleárnemu	AAis3x
nukleárny	nukleárnemu	AAns3x
nukleárny	nukleárni	AAmp1x
nukleárny	nukleárni	AAmp5x
nukleárny	nukleárnom	AAms6x
nukleárny	nukleárnom	AAis6x
nukleárny	nukleárnom	AAns6x
nukleárny	nukleárnou	AAfs7x
nukleárny	nukleárnu	AAfs4x
nukleárny	nukleárny	AAms1x
nukleárny	nukleárny	AAms5x
nukleárny	nukleárny	AAis1x
nukleárny	nukleárny	AAis4x
nukleárny	nukleárny	AAis5x
nukleárny	nukleárnych	AAmp2x
nukleárny	nukleárnych	AAmp4x
nukleárny	nukleárnych	AAmp6x
nukleárny	nukleárnych	AAip2x
nukleárny	nukleárnych	AAip6x
nukleárny	nukleárnych	AAfp2x
nukleárny	nukleárnych	AAfp6x
nukleárny	nukleárnych	AAnp2x
nukleárny	nukleárnych	AAnp6x
nukleárny	nukleárnym	AAms7x
nukleárny	nukleárnym	AAmp3x
nukleárny	nukleárnym	AAis7x
nukleárny	nukleárnym	AAip3x
nukleárny	nukleárnym	AAfp3x
nukleárny	nukleárnym	AAns7x
nukleárny	nukleárnym	AAnp3x
nukleárny	nukleárnymi	AAmp7x
nukleárny	nukleárnymi	AAip7x
nukleárny	nukleárnymi	AAfp7x
nukleárny	nukleárnymi	AAnp7x
nula	nula	NSfs1
nula	nula	NSfs5
nula	nula	SSfs1
nula	nula	SSfs5
nula	nulami	NSfp7
nula	nulami	SSfp7
nula	nule	NSfs3
nula	nule	NSfs6
nula	nule	SSfs3
nula	nule	SSfs6
nulita	nulita	SSfs1
nulita	nulita	SSfs5
nulita	nulitami	SSfp7
nulita	nulite	SSfs3
nulita	nulite	SSfs6
nulitný	nulitnej	AAfs2x
nulitný	nulitnej	AAfs3x
nulitný	nulitnej	AAfs6x
nulitný	nulitnom	AAms6x
nulitný	nulitnom	AAis6x
nulitný	nulitnom	AAns6x
nulitný	nulitnou	AAfs7x
nulitný	nulitná	AAfs1x
nulitný	nulitná	AAfs5x
nulitný	nulitné	AAip1x
nulitný	nulitné	AAip4x
nulitný	nulitné	AAip5x
nulitný	nulitné	AAfp1x
nulitný	nulitné	AAfp4x
nulitný	nulitné	AAfp5x
nulitný	nulitné	AAns1x
nulitný	nulitné	AAns4x
nulitný	nulitné	AAns5x
nulitný	nulitné	AAnp1x
nulitný	nulitné	AAnp4x
nulitný	nulitné	AAnp5x
nulitný	nulitného	AAms2x
nulitný	nulitného	AAms4x
nulitný	nulitného	AAis2x
nulitný	nulitného	AAns2x
nulitný	nulitnému	AAms3x
nulitný	nulitnému	AAis3x
nulitný	nulitnému	AAns3x
nulitný	nulitní	AAmp1x
nulitný	nulitní	AAmp5x
nulitný	nulitnú	AAfs4x
nulitný	nulitný	AAms1x
nulitný	nulitný	AAms5x
nulitný	nulitný	AAis1x
nulitný	nulitný	AAis4x
nulitný	nulitný	AAis5x
nulitný	nulitných	AAmp2x
nulitný	nulitných	AAmp4x
nulitný	nulitných	AAmp6x
nulitný	nulitných	AAip2x
nulitný	nulitných	AAip6x
nulitný	nulitných	AAfp2x
nulitný	nulitných	AAfp6x
nulitný	nulitných	AAnp2x
nulitný	nulitných	AAnp6x
nulitný	nulitným	AAms7x
nulitný	nulitným	AAmp3x
nulitný	nulitným	AAis7x
nulitný	nulitným	AAip3x
nulitný	nulitným	AAfp3x
nulitný	nulitným	AAns7x
nulitný	nulitným	AAnp3x
nulitný	nulitnými	AAmp7x
nulitný	nulitnými	AAip7x
nulitný	nulitnými	AAfp7x
nulitný	nulitnými	AAnp7x
nulita	nulitou	SSfs7
nulita	nulitu	SSfs4
nulita	nulity	SSfs2
nulita	nulity	SSfp1
nulita	nulity	SSfp4
nulita	nulity	SSfp5
nulita	nulitách	SSfp6
nulita	nulitám	SSfp3
nula	nulou	NSfs7
nula	nulou	SSfs7
nulový	nulovej	AAfs2x
nulový	nulovej	AAfs3x
nulový	nulovej	AAfs6x
nulový	nulovom	AAms6x
nulový	nulovom	AAis6x
nulový	nulovom	AAns6x
nulový	nulovou	AAfs7x
nulový	nulová	AAfs1x
nulový	nulová	AAfs5x
nulový	nulové	AAip1x
nulový	nulové	AAip4x
nulový	nulové	AAip5x
nulový	nulové	AAfp1x
nulový	nulové	AAfp4x
nulový	nulové	AAfp5x
nulový	nulové	AAns1x
nulový	nulové	AAns4x
nulový	nulové	AAns5x
nulový	nulové	AAnp1x
nulový	nulové	AAnp4x
nulový	nulové	AAnp5x
nulový	nulového	AAms2x
nulový	nulového	AAms4x
nulový	nulového	AAis2x
nulový	nulového	AAns2x
nulový	nulovému	AAms3x
nulový	nulovému	AAis3x
nulový	nulovému	AAns3x
nulový	nuloví	AAmp1x
nulový	nuloví	AAmp5x
nulový	nulovú	AAfs4x
nulový	nulový	AAms1x
nulový	nulový	AAms5x
nulový	nulový	AAis1x
nulový	nulový	AAis4x
nulový	nulový	AAis5x
nulový	nulových	AAmp2x
nulový	nulových	AAmp4x
nulový	nulových	AAmp6x
nulový	nulových	AAip2x
nulový	nulových	AAip6x
nulový	nulových	AAfp2x
nulový	nulových	AAfp6x
nulový	nulových	AAnp2x
nulový	nulových	AAnp6x
nulový	nulovým	AAms7x
nulový	nulovým	AAmp3x
nulový	nulovým	AAis7x
nulový	nulovým	AAip3x
nulový	nulovým	AAfp3x
nulový	nulovým	AAns7x
nulový	nulovým	AAnp3x
nulový	nulovými	AAmp7x
nulový	nulovými	AAip7x
nulový	nulovými	AAfp7x
nulový	nulovými	AAnp7x
nultý	nultej	NAfs2
nultý	nultej	NAfs3
nultý	nultej	NAfs6
nultý	nultom	NAis6
nultý	nultom	NAms6
nultý	nultom	NAns6
nultý	nultou	NAfs7
nultý	nultá	NAfs1
nultý	nultá	NAfs5
nultý	nulté	NAfp1
nultý	nulté	NAfp4
nultý	nulté	NAfp5
nultý	nulté	NAip1
nultý	nulté	NAip4
nultý	nulté	NAip5
nultý	nulté	NAnp1
nultý	nulté	NAnp4
nultý	nulté	NAnp5
nultý	nulté	NAns1
nultý	nulté	NAns4
nultý	nulté	NAns5
nultý	nultého	NAis2
nultý	nultého	NAms2
nultý	nultého	NAms4
nultý	nultého	NAns2
nultý	nultému	NAis3
nultý	nultému	NAms3
nultý	nultému	NAns3
nultý	nultí	NAmp1
nultý	nultí	NAmp5
nultý	nultú	NAfs4
nultý	nultý	NAis1
nultý	nultý	NAis4
nultý	nultý	NAis5
nultý	nultý	NAms1
nultý	nultý	NAms5
nultý	nultých	NAfp2
nultý	nultých	NAfp6
nultý	nultých	NAip2
nultý	nultých	NAip6
nultý	nultých	NAmp2
nultý	nultých	NAmp4
nultý	nultých	NAmp6
nultý	nultých	NAnp2
nultý	nultých	NAnp6
nultý	nultým	NAfp3
nultý	nultým	NAip3
nultý	nultým	NAis7
nultý	nultým	NAmp3
nultý	nultým	NAms7
nultý	nultým	NAnp3
nultý	nultým	NAns7
nultý	nultými	NAfp7
nultý	nultými	NAip7
nultý	nultými	NAmp7
nultý	nultými	NAnp7
nula	nulu	NSfs4
nula	nulu	SSfs4
nula	nuly	NSfp1
nula	nuly	NSfp4
nula	nuly	NSfp5
nula	nuly	NSfs2
nula	nuly	SSfs2
nula	nuly	SSfp1
nula	nuly	SSfp4
nula	nuly	SSfp5
nula	nulách	NSfp6
nula	nulách	SSfp6
nula	nulám	NSfp3
nula	nulám	SSfp3
nulita	nulít	SSfp2
numero	numera	SSns2
numero	numerami	SSnp7
numero	numere	SSns6
numerický	numerickej	AAfs2x
numerický	numerickej	AAfs3x
numerický	numerickej	AAfs6x
numerický	numerickom	AAms6x
numerický	numerickom	AAis6x
numerický	numerickom	AAns6x
numerický	numerickou	AAfs7x
numericky	numericky	Dx
numerický	numerická	AAfs1x
numerický	numerická	AAfs5x
numerický	numerické	AAip1x
numerický	numerické	AAip4x
numerický	numerické	AAip5x
numerický	numerické	AAfp1x
numerický	numerické	AAfp4x
numerický	numerické	AAfp5x
numerický	numerické	AAns1x
numerický	numerické	AAns4x
numerický	numerické	AAns5x
numerický	numerické	AAnp1x
numerický	numerické	AAnp4x
numerický	numerické	AAnp5x
numerický	numerického	AAms2x
numerický	numerického	AAms4x
numerický	numerického	AAis2x
numerický	numerického	AAns2x
numerický	numerickému	AAms3x
numerický	numerickému	AAis3x
numerický	numerickému	AAns3x
numerický	numerickí	AAmp1x
numerický	numerickí	AAmp5x
numerický	numerickú	AAfs4x
numerický	numerický	AAms1x
numerický	numerický	AAms5x
numerický	numerický	AAis1x
numerický	numerický	AAis4x
numerický	numerický	AAis5x
numerický	numerických	AAmp2x
numerický	numerických	AAmp4x
numerický	numerických	AAmp6x
numerický	numerických	AAip2x
numerický	numerických	AAip6x
numerický	numerických	AAfp2x
numerický	numerických	AAfp6x
numerický	numerických	AAnp2x
numerický	numerických	AAnp6x
numerický	numerickým	AAms7x
numerický	numerickým	AAmp3x
numerický	numerickým	AAis7x
numerický	numerickým	AAip3x
numerický	numerickým	AAfp3x
numerický	numerickým	AAns7x
numerický	numerickým	AAnp3x
numerický	numerickými	AAmp7x
numerický	numerickými	AAip7x
numerický	numerickými	AAfp7x
numerický	numerickými	AAnp7x
numero	numero	SSns1
numero	numero	SSns4
numero	numero	SSns5
numero	numerom	SSns7
numero	numeru	SSns3
numero	numerá	SSnp1
numero	numerá	SSnp4
numero	numerá	SSnp5
numero	numerách	SSnp6
numero	numerám	SSnp3
numero	numier	SSnp2
numiz	numiz	W
numizmatik	numizmatici	SSmp1
numizmatik	numizmatici	SSmp5
numizmatický	numizmatickej	AAfs2x
numizmatický	numizmatickej	AAfs3x
numizmatický	numizmatickej	AAfs6x
numizmatický	numizmatickom	AAms6x
numizmatický	numizmatickom	AAis6x
numizmatický	numizmatickom	AAns6x
numizmatický	numizmatickou	AAfs7x
numizmatický	numizmatická	AAfs1x
numizmatický	numizmatická	AAfs5x
numizmatický	numizmatické	AAip1x
numizmatický	numizmatické	AAip4x
numizmatický	numizmatické	AAip5x
numizmatický	numizmatické	AAfp1x
numizmatický	numizmatické	AAfp4x
numizmatický	numizmatické	AAfp5x
numizmatický	numizmatické	AAns1x
numizmatický	numizmatické	AAns4x
numizmatický	numizmatické	AAns5x
numizmatický	numizmatické	AAnp1x
numizmatický	numizmatické	AAnp4x
numizmatický	numizmatické	AAnp5x
numizmatický	numizmatického	AAms2x
numizmatický	numizmatického	AAms4x
numizmatický	numizmatického	AAis2x
numizmatický	numizmatického	AAns2x
numizmatický	numizmatickému	AAms3x
numizmatický	numizmatickému	AAis3x
numizmatický	numizmatickému	AAns3x
numizmatický	numizmatickí	AAmp1x
numizmatický	numizmatickí	AAmp5x
numizmatický	numizmatickú	AAfs4x
numizmatický	numizmatický	AAms1x
numizmatický	numizmatický	AAms5x
numizmatický	numizmatický	AAis1x
numizmatický	numizmatický	AAis4x
numizmatický	numizmatický	AAis5x
numizmatický	numizmatických	AAmp2x
numizmatický	numizmatických	AAmp4x
numizmatický	numizmatických	AAmp6x
numizmatický	numizmatických	AAip2x
numizmatický	numizmatických	AAip6x
numizmatický	numizmatických	AAfp2x
numizmatický	numizmatických	AAfp6x
numizmatický	numizmatických	AAnp2x
numizmatický	numizmatických	AAnp6x
numizmatický	numizmatickým	AAms7x
numizmatický	numizmatickým	AAmp3x
numizmatický	numizmatickým	AAis7x
numizmatický	numizmatickým	AAip3x
numizmatický	numizmatickým	AAfp3x
numizmatický	numizmatickým	AAns7x
numizmatický	numizmatickým	AAnp3x
numizmatický	numizmatickými	AAmp7x
numizmatický	numizmatickými	AAip7x
numizmatický	numizmatickými	AAfp7x
numizmatický	numizmatickými	AAnp7x
numizmatik	numizmatik	SSms1
numizmatik	numizmatik	SSms5
numizmatik	numizmatika	SSms2
numizmatik	numizmatika	SSms4
numizmatika	numizmatika	SSfs1
numizmatika	numizmatika	SSfs5
numizmatika	numizmatikami	SSfp7
numizmatika	numizmatike	SSfs3
numizmatika	numizmatike	SSfs6
numizmatik	numizmatikmi	SSmp7
numizmatik	numizmatikoch	SSmp6
numizmatik	numizmatikom	SSms7
numizmatik	numizmatikom	SSmp3
numizmatika	numizmatikou	SSfs7
numizmatik	numizmatikov	SSmp2
numizmatik	numizmatikov	SSmp4
numizmatik	numizmatikovi	SSms3
numizmatik	numizmatikovi	SSms6
numizmatika	numizmatiku	SSfs4
numizmatika	numizmatiky	SSfs2
numizmatika	numizmatiky	SSfp1
numizmatika	numizmatiky	SSfp4
numizmatika	numizmatiky	SSfp5
numizmatika	numizmatikách	SSfp6
numizmatika	numizmatikám	SSfp3
numizmatička	numizmatičiek	SSfp2
numizmatička	numizmatička	SSfs1
numizmatička	numizmatička	SSfs5
numizmatička	numizmatičkami	SSfp7
numizmatička	numizmatičke	SSfs3
numizmatička	numizmatičke	SSfs6
numizmatička	numizmatičkou	SSfs7
numizmatička	numizmatičku	SSfs4
numizmatička	numizmatičky	SSfs2
numizmatička	numizmatičky	SSfp1
numizmatička	numizmatičky	SSfp4
numizmatička	numizmatičky	SSfp5
numizmatička	numizmatičkách	SSfp6
numizmatička	numizmatičkám	SSfp3
numizmatika	numizmatík	SSfp2
nuncius	nuncia	SSms2
nuncius	nuncia	SSms4
nuncius	nunciami	SSmp7
nuncius	nuncioch	SSmp6
nuncius	nunciom	SSms7
nuncius	nunciom	SSmp3
nuncius	nunciov	SSmp2
nuncius	nunciov	SSmp4
nuncius	nunciovi	SSms3
nuncius	nunciovi	SSms6
nuncius	nunciovia	SSmp1
nuncius	nunciovia	SSmp5
nuncius	nuncius	SSms1
nuncius	nuncius	SSms5
nutkať	nutkaj	VMesb+
nutkať	nutkajme	VMepa+
nutkať	nutkajte	VMepb+
nutkať	nutkajú	VKepc+
nutkať	nutkajúc	VHe+
nutkať	nutkal	VLesam+
nutkať	nutkal	VLesai+
nutkať	nutkal	VLesbm+
nutkať	nutkal	VLesbi+
nutkať	nutkal	VLescm+
nutkať	nutkal	VLesci+
nutkať	nutkala	VLesaf+
nutkať	nutkala	VLesbf+
nutkať	nutkala	VLescf+
nutkať	nutkali	VLepah+
nutkať	nutkali	VLepbh+
nutkať	nutkali	VLepcm+
nutkať	nutkali	VLepci+
nutkať	nutkali	VLepcf+
nutkať	nutkali	VLepcn+
nutkať	nutkali	VLepco+
nutkať	nutkalo	VLesan+
nutkať	nutkalo	VLesbn+
nutkať	nutkalo	VLescn+
nutkanie	nutkania	SSns2
nutkanie	nutkania	SSnp1
nutkanie	nutkania	SSnp4
nutkanie	nutkania	SSnp5
nutkanie	nutkaniach	SSnp6
nutkanie	nutkaniam	SSnp3
nutkanie	nutkaniami	SSnp7
nutkanie	nutkanie	SSns1
nutkanie	nutkanie	SSns4
nutkanie	nutkanie	SSns5
nutkanie	nutkaniu	SSns3
nutkanie	nutkaní	SSns6
nutkanie	nutkaní	SSnp2
nutkanie	nutkaním	SSns7
nutkavý	nutkavej	AAfs2x
nutkavý	nutkavej	AAfs3x
nutkavý	nutkavej	AAfs6x
nutkavý	nutkavejšej	AAfs2y
nutkavý	nutkavejšej	AAfs3y
nutkavý	nutkavejšej	AAfs6y
nutkavý	nutkavejšia	AAfs1y
nutkavý	nutkavejšia	AAfs5y
nutkavo	nutkavejšie	Dy
nutkavý	nutkavejšie	AAip1y
nutkavý	nutkavejšie	AAip4y
nutkavý	nutkavejšie	AAip5y
nutkavý	nutkavejšie	AAfp1y
nutkavý	nutkavejšie	AAfp4y
nutkavý	nutkavejšie	AAfp5y
nutkavý	nutkavejšie	AAns1y
nutkavý	nutkavejšie	AAns4y
nutkavý	nutkavejšie	AAns5y
nutkavý	nutkavejšie	AAnp1y
nutkavý	nutkavejšie	AAnp4y
nutkavý	nutkavejšie	AAnp5y
nutkavý	nutkavejšieho	AAms2y
nutkavý	nutkavejšieho	AAms4y
nutkavý	nutkavejšieho	AAis2y
nutkavý	nutkavejšieho	AAns2y
nutkavý	nutkavejšiemu	AAms3y
nutkavý	nutkavejšiemu	AAis3y
nutkavý	nutkavejšiemu	AAns3y
nutkavý	nutkavejšiu	AAfs4y
nutkavý	nutkavejšom	AAms6y
nutkavý	nutkavejšom	AAis6y
nutkavý	nutkavejšom	AAns6y
nutkavý	nutkavejšou	AAfs7y
nutkavý	nutkavejší	AAms1y
nutkavý	nutkavejší	AAms5y
nutkavý	nutkavejší	AAmp1y
nutkavý	nutkavejší	AAmp5y
nutkavý	nutkavejší	AAis1y
nutkavý	nutkavejší	AAis4y
nutkavý	nutkavejší	AAis5y
nutkavý	nutkavejších	AAmp2y
nutkavý	nutkavejších	AAmp4y
nutkavý	nutkavejších	AAmp6y
nutkavý	nutkavejších	AAip2y
nutkavý	nutkavejších	AAip6y
nutkavý	nutkavejších	AAfp2y
nutkavý	nutkavejších	AAfp6y
nutkavý	nutkavejších	AAnp2y
nutkavý	nutkavejších	AAnp6y
nutkavý	nutkavejším	AAms7y
nutkavý	nutkavejším	AAmp3y
nutkavý	nutkavejším	AAis7y
nutkavý	nutkavejším	AAip3y
nutkavý	nutkavejším	AAfp3y
nutkavý	nutkavejším	AAns7y
nutkavý	nutkavejším	AAnp3y
nutkavý	nutkavejšími	AAmp7y
nutkavý	nutkavejšími	AAip7y
nutkavý	nutkavejšími	AAfp7y
nutkavý	nutkavejšími	AAnp7y
nutkavo	nutkavo	Dx
nutkavý	nutkavom	AAms6x
nutkavý	nutkavom	AAis6x
nutkavý	nutkavom	AAns6x
nutkavosť	nutkavosti	SSfs2
nutkavosť	nutkavosti	SSfs3
nutkavosť	nutkavosti	SSfs6
nutkavosť	nutkavosti	SSfp1
nutkavosť	nutkavosti	SSfp4
nutkavosť	nutkavosti	SSfp5
nutkavosť	nutkavostiach	SSfp6
nutkavosť	nutkavostiam	SSfp3
nutkavosť	nutkavostí	SSfp2
nutkavosť	nutkavosť	SSfs1
nutkavosť	nutkavosť	SSfs4
nutkavosť	nutkavosť	SSfs5
nutkavosť	nutkavosťami	SSfp7
nutkavosť	nutkavosťou	SSfs7
nutkavý	nutkavou	AAfs7x
nutkavý	nutkavá	AAfs1x
nutkavý	nutkavá	AAfs5x
nutkavý	nutkavé	AAip1x
nutkavý	nutkavé	AAip4x
nutkavý	nutkavé	AAip5x
nutkavý	nutkavé	AAfp1x
nutkavý	nutkavé	AAfp4x
nutkavý	nutkavé	AAfp5x
nutkavý	nutkavé	AAns1x
nutkavý	nutkavé	AAns4x
nutkavý	nutkavé	AAns5x
nutkavý	nutkavé	AAnp1x
nutkavý	nutkavé	AAnp4x
nutkavý	nutkavé	AAnp5x
nutkavý	nutkavého	AAms2x
nutkavý	nutkavého	AAms4x
nutkavý	nutkavého	AAis2x
nutkavý	nutkavého	AAns2x
nutkavý	nutkavému	AAms3x
nutkavý	nutkavému	AAis3x
nutkavý	nutkavému	AAns3x
nutkavý	nutkaví	AAmp1x
nutkavý	nutkaví	AAmp5x
nutkavý	nutkavú	AAfs4x
nutkavý	nutkavý	AAms1x
nutkavý	nutkavý	AAms5x
nutkavý	nutkavý	AAis1x
nutkavý	nutkavý	AAis4x
nutkavý	nutkavý	AAis5x
nutkavý	nutkavých	AAmp2x
nutkavý	nutkavých	AAmp4x
nutkavý	nutkavých	AAmp6x
nutkavý	nutkavých	AAip2x
nutkavý	nutkavých	AAip6x
nutkavý	nutkavých	AAfp2x
nutkavý	nutkavých	AAfp6x
nutkavý	nutkavých	AAnp2x
nutkavý	nutkavých	AAnp6x
nutkavý	nutkavým	AAms7x
nutkavý	nutkavým	AAmp3x
nutkavý	nutkavým	AAis7x
nutkavý	nutkavým	AAip3x
nutkavý	nutkavým	AAfp3x
nutkavý	nutkavým	AAns7x
nutkavý	nutkavým	AAnp3x
nutkavý	nutkavými	AAmp7x
nutkavý	nutkavými	AAip7x
nutkavý	nutkavými	AAfp7x
nutkavý	nutkavými	AAnp7x
nutkať	nutkať	VIe+
nutkať	nutká	VKesc+
nutkať	nutkám	VKesa+
nutkať	nutkáme	VKepa+
nutkať	nutkáte	VKepb+
nutkať	nutkáš	VKesb+
nutne	nutne	Dx
nutný	nutnej	AAfs2x
nutný	nutnej	AAfs3x
nutný	nutnej	AAfs6x
nutný	nutnejšej	AAfs2y
nutný	nutnejšej	AAfs3y
nutný	nutnejšej	AAfs6y
nutný	nutnejšia	AAfs1y
nutný	nutnejšia	AAfs5y
nutne	nutnejšie	Dy
nutný	nutnejšie	AAip1y
nutný	nutnejšie	AAip4y
nutný	nutnejšie	AAip5y
nutný	nutnejšie	AAfp1y
nutný	nutnejšie	AAfp4y
nutný	nutnejšie	AAfp5y
nutný	nutnejšie	AAns1y
nutný	nutnejšie	AAns4y
nutný	nutnejšie	AAns5y
nutný	nutnejšie	AAnp1y
nutný	nutnejšie	AAnp4y
nutný	nutnejšie	AAnp5y
nutný	nutnejšieho	AAms2y
nutný	nutnejšieho	AAms4y
nutný	nutnejšieho	AAis2y
nutný	nutnejšieho	AAns2y
nutný	nutnejšiemu	AAms3y
nutný	nutnejšiemu	AAis3y
nutný	nutnejšiemu	AAns3y
nutný	nutnejšiu	AAfs4y
nutný	nutnejšom	AAms6y
nutný	nutnejšom	AAis6y
nutný	nutnejšom	AAns6y
nutný	nutnejšou	AAfs7y
nutný	nutnejší	AAms1y
nutný	nutnejší	AAms5y
nutný	nutnejší	AAmp1y
nutný	nutnejší	AAmp5y
nutný	nutnejší	AAis1y
nutný	nutnejší	AAis4y
nutný	nutnejší	AAis5y
nutný	nutnejších	AAmp2y
nutný	nutnejších	AAmp4y
nutný	nutnejších	AAmp6y
nutný	nutnejších	AAip2y
nutný	nutnejších	AAip6y
nutný	nutnejších	AAfp2y
nutný	nutnejších	AAfp6y
nutný	nutnejších	AAnp2y
nutný	nutnejších	AAnp6y
nutný	nutnejším	AAms7y
nutný	nutnejším	AAmp3y
nutný	nutnejším	AAis7y
nutný	nutnejším	AAip3y
nutný	nutnejším	AAfp3y
nutný	nutnejším	AAns7y
nutný	nutnejším	AAnp3y
nutný	nutnejšími	AAmp7y
nutný	nutnejšími	AAip7y
nutný	nutnejšími	AAfp7y
nutný	nutnejšími	AAnp7y
nutný	nutnom	AAms6x
nutný	nutnom	AAis6x
nutný	nutnom	AAns6x
nutnosť	nutnosti	SSfs2
nutnosť	nutnosti	SSfs3
nutnosť	nutnosti	SSfs6
nutnosť	nutnosti	SSfp1
nutnosť	nutnosti	SSfp4
nutnosť	nutnosti	SSfp5
nutnosť	nutnostiach	SSfp6
nutnosť	nutnostiam	SSfp3
nutnosť	nutností	SSfp2
nutnosť	nutnosť	SSfs1
nutnosť	nutnosť	SSfs4
nutnosť	nutnosť	SSfs5
nutnosť	nutnosťami	SSfp7
nutnosť	nutnosťou	SSfs7
nutný	nutnou	AAfs7x
nutný	nutná	AAfs1x
nutný	nutná	AAfs5x
nutný	nutné	AAip1x
nutný	nutné	AAip4x
nutný	nutné	AAip5x
nutný	nutné	AAfp1x
nutný	nutné	AAfp4x
nutný	nutné	AAfp5x
nutný	nutné	AAns1x
nutný	nutné	AAns4x
nutný	nutné	AAns5x
nutný	nutné	AAnp1x
nutný	nutné	AAnp4x
nutný	nutné	AAnp5x
nutný	nutného	AAms2x
nutný	nutného	AAms4x
nutný	nutného	AAis2x
nutný	nutného	AAns2x
nutný	nutnému	AAms3x
nutný	nutnému	AAis3x
nutný	nutnému	AAns3x
nutný	nutní	AAmp1x
nutný	nutní	AAmp5x
nutný	nutnú	AAfs4x
nutný	nutný	AAms1x
nutný	nutný	AAms5x
nutný	nutný	AAis1x
nutný	nutný	AAis4x
nutný	nutný	AAis5x
nutný	nutných	AAmp2x
nutný	nutných	AAmp4x
nutný	nutných	AAmp6x
nutný	nutných	AAip2x
nutný	nutných	AAip6x
nutný	nutných	AAfp2x
nutný	nutných	AAfp6x
nutný	nutných	AAnp2x
nutný	nutných	AAnp6x
nutný	nutným	AAms7x
nutný	nutným	AAmp3x
nutný	nutným	AAis7x
nutný	nutným	AAip3x
nutný	nutným	AAfp3x
nutný	nutným	AAns7x
nutný	nutným	AAnp3x
nutný	nutnými	AAmp7x
nutný	nutnými	AAip7x
nutný	nutnými	AAfp7x
nutný	nutnými	AAnp7x
nutrí	nutrej	AAfs2x
nutrí	nutrej	AAfs3x
nutrí	nutrej	AAfs6x
nutria	nutria	SSfs1
nutria	nutria	SSfs5
nutrí	nutria	AAfs1x
nutrí	nutria	AAfs5x
nutria	nutriami	SSfp7
nutria	nutrie	SSfs2
nutria	nutrie	SSfp1
nutria	nutrie	SSfp4
nutria	nutrie	SSfp5
nutrí	nutrie	AAip1x
nutrí	nutrie	AAip4x
nutrí	nutrie	AAip5x
nutrí	nutrie	AAfp1x
nutrí	nutrie	AAfp4x
nutrí	nutrie	AAfp5x
nutrí	nutrie	AAns1x
nutrí	nutrie	AAns4x
nutrí	nutrie	AAns5x
nutrí	nutrie	AAnp1x
nutrí	nutrie	AAnp4x
nutrí	nutrie	AAnp5x
nutrí	nutrieho	AAms2x
nutrí	nutrieho	AAms4x
nutrí	nutrieho	AAis2x
nutrí	nutrieho	AAns2x
nutrí	nutriemu	AAms3x
nutrí	nutriemu	AAis3x
nutrí	nutriemu	AAns3x
nutria	nutrii	SSfs3
nutria	nutrii	SSfs6
nutria	nutriou	SSfs7
nutriový	nutriovej	AAfs2x
nutriový	nutriovej	AAfs3x
nutriový	nutriovej	AAfs6x
nutriový	nutriovom	AAms6x
nutriový	nutriovom	AAis6x
nutriový	nutriovom	AAns6x
nutriový	nutriovou	AAfs7x
nutriový	nutriová	AAfs1x
nutriový	nutriová	AAfs5x
nutriový	nutriové	AAip1x
nutriový	nutriové	AAip4x
nutriový	nutriové	AAip5x
nutriový	nutriové	AAfp1x
nutriový	nutriové	AAfp4x
nutriový	nutriové	AAfp5x
nutriový	nutriové	AAns1x
nutriový	nutriové	AAns4x
nutriový	nutriové	AAns5x
nutriový	nutriové	AAnp1x
nutriový	nutriové	AAnp4x
nutriový	nutriové	AAnp5x
nutriový	nutriového	AAms2x
nutriový	nutriového	AAms4x
nutriový	nutriového	AAis2x
nutriový	nutriového	AAns2x
nutriový	nutriovému	AAms3x
nutriový	nutriovému	AAis3x
nutriový	nutriovému	AAns3x
nutriový	nutrioví	AAmp1x
nutriový	nutrioví	AAmp5x
nutriový	nutriovú	AAfs4x
nutriový	nutriový	AAms1x
nutriový	nutriový	AAms5x
nutriový	nutriový	AAis1x
nutriový	nutriový	AAis4x
nutriový	nutriový	AAis5x
nutriový	nutriových	AAmp2x
nutriový	nutriových	AAmp4x
nutriový	nutriových	AAmp6x
nutriový	nutriových	AAip2x
nutriový	nutriových	AAip6x
nutriový	nutriových	AAfp2x
nutriový	nutriových	AAfp6x
nutriový	nutriových	AAnp2x
nutriový	nutriových	AAnp6x
nutriový	nutriovým	AAms7x
nutriový	nutriovým	AAmp3x
nutriový	nutriovým	AAis7x
nutriový	nutriovým	AAip3x
nutriový	nutriovým	AAfp3x
nutriový	nutriovým	AAns7x
nutriový	nutriovým	AAnp3x
nutriový	nutriovými	AAmp7x
nutriový	nutriovými	AAip7x
nutriový	nutriovými	AAfp7x
nutriový	nutriovými	AAnp7x
nutritívny	nutritívna	AAfs1x
nutritívny	nutritívna	AAfs5x
nutritívny	nutritívne	AAip1x
nutritívny	nutritívne	AAip4x
nutritívny	nutritívne	AAip5x
nutritívny	nutritívne	AAfp1x
nutritívny	nutritívne	AAfp4x
nutritívny	nutritívne	AAfp5x
nutritívny	nutritívne	AAns1x
nutritívny	nutritívne	AAns4x
nutritívny	nutritívne	AAns5x
nutritívny	nutritívne	AAnp1x
nutritívny	nutritívne	AAnp4x
nutritívny	nutritívne	AAnp5x
nutritívny	nutritívneho	AAms2x
nutritívny	nutritívneho	AAms4x
nutritívny	nutritívneho	AAis2x
nutritívny	nutritívneho	AAns2x
nutritívny	nutritívnej	AAfs2x
nutritívny	nutritívnej	AAfs3x
nutritívny	nutritívnej	AAfs6x
nutritívny	nutritívnemu	AAms3x
nutritívny	nutritívnemu	AAis3x
nutritívny	nutritívnemu	AAns3x
nutritívny	nutritívni	AAmp1x
nutritívny	nutritívni	AAmp5x
nutritívny	nutritívnom	AAms6x
nutritívny	nutritívnom	AAis6x
nutritívny	nutritívnom	AAns6x
nutritívny	nutritívnou	AAfs7x
nutritívny	nutritívnu	AAfs4x
nutritívny	nutritívny	AAms1x
nutritívny	nutritívny	AAms5x
nutritívny	nutritívny	AAis1x
nutritívny	nutritívny	AAis4x
nutritívny	nutritívny	AAis5x
nutritívny	nutritívnych	AAmp2x
nutritívny	nutritívnych	AAmp4x
nutritívny	nutritívnych	AAmp6x
nutritívny	nutritívnych	AAip2x
nutritívny	nutritívnych	AAip6x
nutritívny	nutritívnych	AAfp2x
nutritívny	nutritívnych	AAfp6x
nutritívny	nutritívnych	AAnp2x
nutritívny	nutritívnych	AAnp6x
nutritívny	nutritívnym	AAms7x
nutritívny	nutritívnym	AAmp3x
nutritívny	nutritívnym	AAis7x
nutritívny	nutritívnym	AAip3x
nutritívny	nutritívnym	AAfp3x
nutritívny	nutritívnym	AAns7x
nutritívny	nutritívnym	AAnp3x
nutritívny	nutritívnymi	AAmp7x
nutritívny	nutritívnymi	AAip7x
nutritívny	nutritívnymi	AAfp7x
nutritívny	nutritívnymi	AAnp7x
nutria	nutriu	SSfs4
nutrí	nutriu	AAfs4x
nutria	nutriách	SSfp6
nutria	nutriám	SSfp3
nutria	nutrií	SSfp2
nutričný	nutričnej	AAfs2x
nutričný	nutričnej	AAfs3x
nutričný	nutričnej	AAfs6x
nutričný	nutričnom	AAms6x
nutričný	nutričnom	AAis6x
nutričný	nutričnom	AAns6x
nutričný	nutričnou	AAfs7x
nutričný	nutričná	AAfs1x
nutričný	nutričná	AAfs5x
nutričný	nutričné	AAip1x
nutričný	nutričné	AAip4x
nutričný	nutričné	AAip5x
nutričný	nutričné	AAfp1x
nutričný	nutričné	AAfp4x
nutričný	nutričné	AAfp5x
nutričný	nutričné	AAns1x
nutričný	nutričné	AAns4x
nutričný	nutričné	AAns5x
nutričný	nutričné	AAnp1x
nutričný	nutričné	AAnp4x
nutričný	nutričné	AAnp5x
nutričný	nutričného	AAms2x
nutričný	nutričného	AAms4x
nutričný	nutričného	AAis2x
nutričný	nutričného	AAns2x
nutričný	nutričnému	AAms3x
nutričný	nutričnému	AAis3x
nutričný	nutričnému	AAns3x
nutričný	nutriční	AAmp1x
nutričný	nutriční	AAmp5x
nutričný	nutričnú	AAfs4x
nutričný	nutričný	AAms1x
nutričný	nutričný	AAms5x
nutričný	nutričný	AAis1x
nutričný	nutričný	AAis4x
nutričný	nutričný	AAis5x
nutričný	nutričných	AAmp2x
nutričný	nutričných	AAmp4x
nutričný	nutričných	AAmp6x
nutričný	nutričných	AAip2x
nutričný	nutričných	AAip6x
nutričný	nutričných	AAfp2x
nutričný	nutričných	AAfp6x
nutričný	nutričných	AAnp2x
nutričný	nutričných	AAnp6x
nutričný	nutričným	AAms7x
nutričný	nutričným	AAmp3x
nutričný	nutričným	AAis7x
nutričný	nutričným	AAip3x
nutričný	nutričným	AAfp3x
nutričný	nutričným	AAns7x
nutričný	nutričným	AAnp3x
nutričný	nutričnými	AAmp7x
nutričný	nutričnými	AAip7x
nutričný	nutričnými	AAfp7x
nutričný	nutričnými	AAnp7x
nutrí	nutrom	AAms6x
nutrí	nutrom	AAis6x
nutrí	nutrom	AAns6x
nutrí	nutrou	AAfs7x
nutrí	nutrí	AAms1x
nutrí	nutrí	AAms5x
nutrí	nutrí	AAmp1x
nutrí	nutrí	AAmp5x
nutrí	nutrí	AAis1x
nutrí	nutrí	AAis4x
nutrí	nutrí	AAis5x
nutrí	nutrích	AAmp2x
nutrí	nutrích	AAmp4x
nutrí	nutrích	AAmp6x
nutrí	nutrích	AAip2x
nutrí	nutrích	AAip6x
nutrí	nutrích	AAfp2x
nutrí	nutrích	AAfp6x
nutrí	nutrích	AAnp2x
nutrí	nutrích	AAnp6x
nutrí	nutrím	AAms7x
nutrí	nutrím	AAmp3x
nutrí	nutrím	AAis7x
nutrí	nutrím	AAip3x
nutrí	nutrím	AAfp3x
nutrí	nutrím	AAns7x
nutrí	nutrím	AAnp3x
nutrí	nutrími	AAmp7x
nutrí	nutrími	AAip7x
nutrí	nutrími	AAfp7x
nutrí	nutrími	AAnp7x
nuansa	nuáns	SSfp2
nudiť	nuď	VMesb+
nudiť	nuďme	VMepa+
nudiť	nuďte	VMepb+
nuž	nuž	O
nuž	nuž	T
nuda	núd	SSfp2
núdza	núdza	SSfs1
núdza	núdza	SSfs5
núdza	núdzach	SSfp6
núdza	núdzam	SSfp3
núdza	núdzami	SSfp7
núdza	núdze	SSfs2
núdza	núdze	SSfp1
núdza	núdze	SSfp4
núdza	núdze	SSfp5
núdza	núdzi	SSfs3
núdza	núdzi	SSfs6
núdza	núdzou	SSfs7
núdzový	núdzovej	AAfs2x
núdzový	núdzovej	AAfs3x
núdzový	núdzovej	AAfs6x
núdzovo	núdzovo	Dx
núdzový	núdzovom	AAms6x
núdzový	núdzovom	AAis6x
núdzový	núdzovom	AAns6x
núdzový	núdzovou	AAfs7x
núdzový	núdzová	AAfs1x
núdzový	núdzová	AAfs5x
núdzový	núdzové	AAip1x
núdzový	núdzové	AAip4x
núdzový	núdzové	AAip5x
núdzový	núdzové	AAfp1x
núdzový	núdzové	AAfp4x
núdzový	núdzové	AAfp5x
núdzový	núdzové	AAns1x
núdzový	núdzové	AAns4x
núdzový	núdzové	AAns5x
núdzový	núdzové	AAnp1x
núdzový	núdzové	AAnp4x
núdzový	núdzové	AAnp5x
núdzový	núdzového	AAms2x
núdzový	núdzového	AAms4x
núdzový	núdzového	AAis2x
núdzový	núdzového	AAns2x
núdzový	núdzovému	AAms3x
núdzový	núdzovému	AAis3x
núdzový	núdzovému	AAns3x
núdzový	núdzoví	AAmp1x
núdzový	núdzoví	AAmp5x
núdzový	núdzovú	AAfs4x
núdzový	núdzový	AAms1x
núdzový	núdzový	AAms5x
núdzový	núdzový	AAis1x
núdzový	núdzový	AAis4x
núdzový	núdzový	AAis5x
núdzový	núdzových	AAmp2x
núdzový	núdzových	AAmp4x
núdzový	núdzových	AAmp6x
núdzový	núdzových	AAip2x
núdzový	núdzových	AAip6x
núdzový	núdzových	AAfp2x
núdzový	núdzových	AAfp6x
núdzový	núdzových	AAnp2x
núdzový	núdzových	AAnp6x
núdzový	núdzovým	AAms7x
núdzový	núdzovým	AAmp3x
núdzový	núdzovým	AAis7x
núdzový	núdzovým	AAip3x
núdzový	núdzovým	AAfp3x
núdzový	núdzovým	AAns7x
núdzový	núdzovým	AAnp3x
núdzový	núdzovými	AAmp7x
núdzový	núdzovými	AAip7x
núdzový	núdzovými	AAfp7x
núdzový	núdzovými	AAnp7x
núdza	núdzu	SSfs4
núdza	núdzí	SSfp2
núkať	núka	VKesc+
núkať	núkaj	VMesb+
núkať	núkajme	VMepa+
núkať	núkajte	VMepb+
núkať	núkajú	VKepc+
núkať	núkajúc	VHe+
núkať	núkal	VLesam+
núkať	núkal	VLesai+
núkať	núkal	VLesbm+
núkať	núkal	VLesbi+
núkať	núkal	VLescm+
núkať	núkal	VLesci+
núkať	núkala	VLesaf+
núkať	núkala	VLesbf+
núkať	núkala	VLescf+
núkať	núkali	VLepah+
núkať	núkali	VLepbh+
núkať	núkali	VLepcm+
núkať	núkali	VLepci+
núkať	núkali	VLepcf+
núkať	núkali	VLepcn+
núkať	núkali	VLepco+
núkať	núkalo	VLesan+
núkať	núkalo	VLesbn+
núkať	núkalo	VLescn+
núkať	núkam	VKesa+
núkať	núkame	VKepa+
núkať	núkate	VKepb+
núkať	núkaš	VKesb+
núkať	núkať	VIe+
nula	núl	NSfp2
nula	núl	SSfp2
núrať	núra	VKesc+
núrať	núraj	VMesb+
núrať	núrajme	VMepa+
núrať	núrajte	VMepb+
núrať	núrajú	VKepc+
núrať	núrajúc	VHe+
núrať	núral	VLesam+
núrať	núral	VLesai+
núrať	núral	VLesbm+
núrať	núral	VLesbi+
núrať	núral	VLescm+
núrať	núral	VLesci+
núrať	núrala	VLesaf+
núrať	núrala	VLesbf+
núrať	núrala	VLescf+
núrať	núrali	VLepah+
núrať	núrali	VLepbh+
núrať	núrali	VLepcm+
núrať	núrali	VLepci+
núrať	núrali	VLepcf+
núrať	núrali	VLepcn+
núrať	núrali	VLepco+
núrať	núralo	VLesan+
núrať	núralo	VLesbn+
núrať	núralo	VLescn+
núrať	núram	VKesa+
núrať	núrame	VKepa+
núrať	núrate	VKepb+
núrať	núraš	VKesb+
núrať	núrať	VIe+
nútene	nútene	Dx
nútený	nútenej	Gtfs2x
nútený	nútenej	Gtfs3x
nútený	nútenej	Gtfs6x
nútený	nútenom	Gtis6x
nútený	nútenom	Gtms6x
nútený	nútenom	Gtns6x
nútenosť	nútenosti	SSfs2
nútenosť	nútenosti	SSfs3
nútenosť	nútenosti	SSfs6
nútenosť	nútenosti	SSfp1
nútenosť	nútenosti	SSfp4
nútenosť	nútenosti	SSfp5
nútenosť	nútenostiach	SSfp6
nútenosť	nútenostiam	SSfp3
nútenosť	núteností	SSfp2
nútenosť	nútenosť	SSfs1
nútenosť	nútenosť	SSfs4
nútenosť	nútenosť	SSfs5
nútenosť	nútenosťami	SSfp7
nútenosť	nútenosťou	SSfs7
nútený	nútenou	Gtfs7x
nútený	nútená	Gtfs1x
nútený	nútená	Gtfs5x
nútený	nútené	Gtfp1x
nútený	nútené	Gtfp4x
nútený	nútené	Gtfp5x
nútený	nútené	Gtip1x
nútený	nútené	Gtip4x
nútený	nútené	Gtip5x
nútený	nútené	Gtnp1x
nútený	nútené	Gtnp4x
nútený	nútené	Gtnp5x
nútený	nútené	Gtns1x
nútený	nútené	Gtns4x
nútený	nútené	Gtns5x
nútený	núteného	Gtis2x
nútený	núteného	Gtms2x
nútený	núteného	Gtms4x
nútený	núteného	Gtns2x
nútený	nútenému	Gtis3x
nútený	nútenému	Gtms3x
nútený	nútenému	Gtns3x
nútený	nútení	Gtmp1x
nútený	nútení	Gtmp5x
nútený	nútenú	Gtfs4x
nútený	nútený	Gtis1x
nútený	nútený	Gtis4x
nútený	nútený	Gtis5x
nútený	nútený	Gtms1x
nútený	nútený	Gtms5x
nútený	nútených	Gtfp2x
nútený	nútených	Gtfp6x
nútený	nútených	Gtip2x
nútený	nútených	Gtip6x
nútený	nútených	Gtmp2x
nútený	nútených	Gtmp4x
nútený	nútených	Gtmp6x
nútený	nútených	Gtnp2x
nútený	nútených	Gtnp6x
nútený	núteným	Gtfp3x
nútený	núteným	Gtip3x
nútený	núteným	Gtis7x
nútený	núteným	Gtmp3x
nútený	núteným	Gtms7x
nútený	núteným	Gtnp3x
nútený	núteným	Gtns7x
nútený	nútenými	Gtfp7x
nútený	nútenými	Gtip7x
nútený	nútenými	Gtmp7x
nútený	nútenými	Gtnp7x
nútiť	núti	VKesc+
nútiť	nútia	VKepc+
nútiť	nútiac	VHe+
nútievať	nútieva	VKesc+
nútievať	nútievaj	VMesb+
nútievať	nútievajme	VMepa+
nútievať	nútievajte	VMepb+
nútievať	nútievajú	VKepc+
nútievať	nútievajúc	VHe+
nútievať	nútieval	VLesam+
nútievať	nútieval	VLesai+
nútievať	nútieval	VLesbm+
nútievať	nútieval	VLesbi+
nútievať	nútieval	VLescm+
nútievať	nútieval	VLesci+
nútievať	nútievala	VLesaf+
nútievať	nútievala	VLesbf+
nútievať	nútievala	VLescf+
nútievať	nútievali	VLepah+
nútievať	nútievali	VLepbh+
nútievať	nútievali	VLepcm+
nútievať	nútievali	VLepci+
nútievať	nútievali	VLepcf+
nútievať	nútievali	VLepcn+
nútievať	nútievali	VLepco+
nútievať	nútievalo	VLesan+
nútievať	nútievalo	VLesbn+
nútievať	nútievalo	VLescn+
nútievať	nútievam	VKesa+
nútievať	nútievame	VKepa+
nútievať	nútievate	VKepb+
nútievať	nútievaš	VKesb+
nútievať	nútievať	VIe+
nútiť	nútil	VLesam+
nútiť	nútil	VLesai+
nútiť	nútil	VLesbm+
nútiť	nútil	VLesbi+
nútiť	nútil	VLescm+
nútiť	nútil	VLesci+
nútiť	nútila	VLesaf+
nútiť	nútila	VLesbf+
nútiť	nútila	VLescf+
nútiť	nútili	VLepah+
nútiť	nútili	VLepbh+
nútiť	nútili	VLepcm+
nútiť	nútili	VLepci+
nútiť	nútili	VLepcf+
nútiť	nútili	VLepcn+
nútiť	nútili	VLepco+
nútiť	nútilo	VLesan+
nútiť	nútilo	VLesbn+
nútiť	nútilo	VLescn+
nútiť	nútim	VKesa+
nútiť	nútime	VKepa+
nútiť	nútite	VKepb+
nútiť	nútiš	VKesb+
nútiť	nútiť	VIe+
nútiť	núť	VMesb+
nútiť	núťme	VMepa+
nútiť	núťte	VMepb+
ona	ňu	PFfs4
ňuch	ňuch	SSis1
ňuch	ňuch	SSis4
ňuch	ňuch	SSis5
ňuchať	ňuchaj	VMesb+
ňuchať	ňuchajme	VMepa+
ňuchať	ňuchajte	VMepb+
ňuchať	ňuchajú	VKepc+
ňuchať	ňuchajúc	VHe+
ňuchať	ňuchal	VLesam+
ňuchať	ňuchal	VLesai+
ňuchať	ňuchal	VLesbm+
ňuchať	ňuchal	VLesbi+
ňuchať	ňuchal	VLescm+
ňuchať	ňuchal	VLesci+
ňuchať	ňuchala	VLesaf+
ňuchať	ňuchala	VLesbf+
ňuchať	ňuchala	VLescf+
ňuchať	ňuchali	VLepah+
ňuchať	ňuchali	VLepbh+
ňuchať	ňuchali	VLepcm+
ňuchať	ňuchali	VLepci+
ňuchať	ňuchali	VLepcf+
ňuchať	ňuchali	VLepcn+
ňuchať	ňuchali	VLepco+
ňuchať	ňuchalo	VLesan+
ňuchať	ňuchalo	VLesbn+
ňuchať	ňuchalo	VLescn+
ňuchať	ňuchať	VIe+
ňuchnúť	ňuchla	VLdsaf+
ňuchnúť	ňuchla	VLdsbf+
ňuchnúť	ňuchla	VLdscf+
ňuchnúť	ňuchli	VLdpah+
ňuchnúť	ňuchli	VLdpbh+
ňuchnúť	ňuchli	VLdpcm+
ňuchnúť	ňuchli	VLdpci+
ňuchnúť	ňuchli	VLdpcf+
ňuchnúť	ňuchli	VLdpcn+
ňuchnúť	ňuchli	VLdpco+
ňuchnúť	ňuchlo	VLdsan+
ňuchnúť	ňuchlo	VLdsbn+
ňuchnúť	ňuchlo	VLdscn+
ňuch	ňuchmi	SSip7
ňuchnúť	ňuchne	VKdsc+
ňuchnúť	ňuchnem	VKdsa+
ňuchnúť	ňuchneme	VKdpa+
ňuchnúť	ňuchnete	VKdpb+
ňuchnúť	ňuchneš	VKdsb+
ňuchnúť	ňuchni	VMdsb+
ňuchnúť	ňuchnime	VMdpa+
ňuchnúť	ňuchnite	VMdpb+
ňuchnúť	ňuchnú	VKdpc+
ňuchnúť	ňuchnúc	VHd+
ňuchnúť	ňuchnúť	VId+
ňuch	ňuchoch	SSip6
ňuchnúť	ňuchol	VLdsam+
ňuchnúť	ňuchol	VLdsai+
ňuchnúť	ňuchol	VLdsbm+
ňuchnúť	ňuchol	VLdsbi+
ňuchnúť	ňuchol	VLdscm+
ňuchnúť	ňuchol	VLdsci+
ňuch	ňuchom	SSis7
ňuch	ňuchom	SSip3
ňuch	ňuchov	SSip2
ňuchový	ňuchovej	AAfs2x
ňuchový	ňuchovej	AAfs3x
ňuchový	ňuchovej	AAfs6x
ňuchový	ňuchovom	AAms6x
ňuchový	ňuchovom	AAis6x
ňuchový	ňuchovom	AAns6x
ňuchový	ňuchovou	AAfs7x
ňuchový	ňuchová	AAfs1x
ňuchový	ňuchová	AAfs5x
ňuchový	ňuchové	AAip1x
ňuchový	ňuchové	AAip4x
ňuchový	ňuchové	AAip5x
ňuchový	ňuchové	AAfp1x
ňuchový	ňuchové	AAfp4x
ňuchový	ňuchové	AAfp5x
ňuchový	ňuchové	AAns1x
ňuchový	ňuchové	AAns4x
ňuchový	ňuchové	AAns5x
ňuchový	ňuchové	AAnp1x
ňuchový	ňuchové	AAnp4x
ňuchový	ňuchové	AAnp5x
ňuchový	ňuchového	AAms2x
ňuchový	ňuchového	AAms4x
ňuchový	ňuchového	AAis2x
ňuchový	ňuchového	AAns2x
ňuchový	ňuchovému	AAms3x
ňuchový	ňuchovému	AAis3x
ňuchový	ňuchovému	AAns3x
ňuchový	ňuchoví	AAmp1x
ňuchový	ňuchoví	AAmp5x
ňuchový	ňuchovú	AAfs4x
ňuchový	ňuchový	AAms1x
ňuchový	ňuchový	AAms5x
ňuchový	ňuchový	AAis1x
ňuchový	ňuchový	AAis4x
ňuchový	ňuchový	AAis5x
ňuchový	ňuchových	AAmp2x
ňuchový	ňuchových	AAmp4x
ňuchový	ňuchových	AAmp6x
ňuchový	ňuchových	AAip2x
ňuchový	ňuchových	AAip6x
ňuchový	ňuchových	AAfp2x
ňuchový	ňuchových	AAfp6x
ňuchový	ňuchových	AAnp2x
ňuchový	ňuchových	AAnp6x
ňuchový	ňuchovým	AAms7x
ňuchový	ňuchovým	AAmp3x
ňuchový	ňuchovým	AAis7x
ňuchový	ňuchovým	AAip3x
ňuchový	ňuchovým	AAfp3x
ňuchový	ňuchovým	AAns7x
ňuchový	ňuchovým	AAnp3x
ňuchový	ňuchovými	AAmp7x
ňuchový	ňuchovými	AAip7x
ňuchový	ňuchovými	AAfp7x
ňuchový	ňuchovými	AAnp7x
ňuch	ňuchu	SSis2
ňuch	ňuchu	SSis3
ňuch	ňuchu	SSis6
ňuch	ňuchy	SSip1
ňuch	ňuchy	SSip4
ňuch	ňuchy	SSip5
ňuchať	ňuchá	VKesc+
ňuchať	ňuchám	VKesa+
ňuchať	ňucháme	VKepa+
ňuchať	ňucháte	VKepb+
ňucháč	ňucháč	SSis1
ňucháč	ňucháč	SSis4
ňucháč	ňucháč	SSis5
ňucháč	ňucháča	SSis2
ňucháč	ňucháče	SSip1
ňucháč	ňucháče	SSip4
ňucháč	ňucháče	SSip5
ňucháč	ňucháči	SSis6
ňucháčik	ňucháčik	SSis1
ňucháčik	ňucháčik	SSis4
ňucháčik	ňucháčik	SSis5
ňucháčik	ňucháčika	SSis2
ňucháčik	ňucháčikmi	SSip7
ňucháčik	ňucháčikoch	SSip6
ňucháčik	ňucháčikom	SSis7
ňucháčik	ňucháčikom	SSip3
ňucháčik	ňucháčikov	SSip2
ňucháčik	ňucháčiku	SSis3
ňucháčik	ňucháčiku	SSis6
ňucháčik	ňucháčiky	SSip1
ňucháčik	ňucháčiky	SSip4
ňucháčik	ňucháčiky	SSip5
ňucháč	ňucháčmi	SSip7
ňucháč	ňucháčoch	SSip6
ňucháč	ňucháčom	SSis7
ňucháč	ňucháčom	SSip3
ňucháč	ňucháčov	SSip2
ňucháč	ňucháču	SSis3
ňuchať	ňucháš	VKesb+
ňufák	ňufák	SSis1
ňufák	ňufák	SSis4
ňufák	ňufák	SSis5
ňufák	ňufáka	SSis2
ňufák	ňufákmi	SSip7
ňufák	ňufákoch	SSip6
ňufák	ňufákom	SSis7
ňufák	ňufákom	SSip3
ňufák	ňufákov	SSip2
ňufák	ňufáku	SSis3
ňufák	ňufáku	SSis6
ňufák	ňufáky	SSip1
ňufák	ňufáky	SSip4
ňufák	ňufáky	SSip5
ňufáčik	ňufáčik	SSis1
ňufáčik	ňufáčik	SSis4
ňufáčik	ňufáčik	SSis5
ňufáčik	ňufáčika	SSis2
ňufáčik	ňufáčikmi	SSip7
ňufáčik	ňufáčikoch	SSip6
ňufáčik	ňufáčikom	SSis7
ňufáčik	ňufáčikom	SSip3
ňufáčik	ňufáčikov	SSip2
ňufáčik	ňufáčiku	SSis3
ňufáčik	ňufáčiku	SSis6
ňufáčik	ňufáčiky	SSip1
ňufáčik	ňufáčiky	SSip4
ňufáčik	ňufáčiky	SSip5
ňufáčisko	ňufáčisk	SSnp2
ňufáčisko	ňufáčiska	SSns2
ňufáčisko	ňufáčiska	SSis2
ňufáčisko	ňufáčiskami	SSnp7
ňufáčisko	ňufáčisko	SSns1
ňufáčisko	ňufáčisko	SSns4
ňufáčisko	ňufáčisko	SSns5
ňufáčisko	ňufáčisko	SSis1
ňufáčisko	ňufáčisko	SSis4
ňufáčisko	ňufáčisko	SSis5
ňufáčisko	ňufáčiskom	SSns7
ňufáčisko	ňufáčiskom	SSis7
ňufáčisko	ňufáčisku	SSns3
ňufáčisko	ňufáčisku	SSns6
ňufáčisko	ňufáčisku	SSis3
ňufáčisko	ňufáčisku	SSis6
ňufáčisko	ňufáčiská	SSnp1
ňufáčisko	ňufáčiská	SSnp4
ňufáčisko	ňufáčiská	SSnp5
ňufáčisko	ňufáčiskách	SSnp6
ňufáčisko	ňufáčiskám	SSnp3
ňúrať	ňúra	VKesc+
ňúrať	ňúraj	VMesb+
ňúrať	ňúrajme	VMepa+
ňúrať	ňúrajte	VMepb+
ňúrať	ňúrajú	VKepc+
ňúrať	ňúrajúc	VHe+
ňúrať	ňúral	VLesam+
ňúrať	ňúral	VLesai+
ňúrať	ňúral	VLesbm+
ňúrať	ňúral	VLesbi+
ňúrať	ňúral	VLescm+
ňúrať	ňúral	VLesci+
ňúrať	ňúrala	VLesaf+
ňúrať	ňúrala	VLesbf+
ňúrať	ňúrala	VLescf+
ňúrať	ňúrali	VLepah+
ňúrať	ňúrali	VLepbh+
ňúrať	ňúrali	VLepcm+
ňúrať	ňúrali	VLepci+
ňúrať	ňúrali	VLepcf+
ňúrať	ňúrali	VLepcn+
ňúrať	ňúrali	VLepco+
ňúrať	ňúralo	VLesan+
ňúrať	ňúralo	VLesbn+
ňúrať	ňúralo	VLescn+
ňúrať	ňúram	VKesa+
ňúrať	ňúrame	VKepa+
ňúrať	ňúrate	VKepb+
ňúrať	ňúraš	VKesb+
ňúrať	ňúrať	VIe+
