PS	PS	W
PSA	PSA	W
PSIS	PSIS	W
PSK	PSK	W
PSS	PSS	W
PŠC	PŠC	W
pes	psa	SSms2
pes	psa	SSms4
pes	psami	SSip7
psí	psej	AAfs2x
psí	psej	AAfs3x
psí	psej	AAfs6x
pseudodemokracia	pseudodemokracia	SSfs1
pseudodemokracia	pseudodemokracia	SSfs5
pseudodemokracia	pseudodemokraciami	SSfp7
pseudodemokracia	pseudodemokracie	SSfs2
pseudodemokracia	pseudodemokracie	SSfp1
pseudodemokracia	pseudodemokracie	SSfp4
pseudodemokracia	pseudodemokracie	SSfp5
pseudodemokracia	pseudodemokracii	SSfs3
pseudodemokracia	pseudodemokracii	SSfs6
pseudodemokracia	pseudodemokraciou	SSfs7
pseudodemokracia	pseudodemokraciu	SSfs4
pseudodemokracia	pseudodemokraciách	SSfp6
pseudodemokracia	pseudodemokraciám	SSfp3
pseudodemokracia	pseudodemokracií	SSfp2
pseudohistorický	pseudohistorickej	AAfs2x
pseudohistorický	pseudohistorickej	AAfs3x
pseudohistorický	pseudohistorickej	AAfs6x
pseudohistorický	pseudohistorickom	AAms6x
pseudohistorický	pseudohistorickom	AAis6x
pseudohistorický	pseudohistorickom	AAns6x
pseudohistorický	pseudohistorickou	AAfs7x
pseudohistorický	pseudohistorická	AAfs1x
pseudohistorický	pseudohistorická	AAfs5x
pseudohistorický	pseudohistorické	AAip1x
pseudohistorický	pseudohistorické	AAip4x
pseudohistorický	pseudohistorické	AAip5x
pseudohistorický	pseudohistorické	AAfp1x
pseudohistorický	pseudohistorické	AAfp4x
pseudohistorický	pseudohistorické	AAfp5x
pseudohistorický	pseudohistorické	AAns1x
pseudohistorický	pseudohistorické	AAns4x
pseudohistorický	pseudohistorické	AAns5x
pseudohistorický	pseudohistorické	AAnp1x
pseudohistorický	pseudohistorické	AAnp4x
pseudohistorický	pseudohistorické	AAnp5x
pseudohistorický	pseudohistorického	AAms2x
pseudohistorický	pseudohistorického	AAms4x
pseudohistorický	pseudohistorického	AAis2x
pseudohistorický	pseudohistorického	AAns2x
pseudohistorický	pseudohistorickému	AAms3x
pseudohistorický	pseudohistorickému	AAis3x
pseudohistorický	pseudohistorickému	AAns3x
pseudohistorický	pseudohistorickí	AAmp1x
pseudohistorický	pseudohistorickí	AAmp5x
pseudohistorický	pseudohistorickú	AAfs4x
pseudohistorický	pseudohistorický	AAms1x
pseudohistorický	pseudohistorický	AAms5x
pseudohistorický	pseudohistorický	AAis1x
pseudohistorický	pseudohistorický	AAis4x
pseudohistorický	pseudohistorický	AAis5x
pseudohistorický	pseudohistorických	AAmp2x
pseudohistorický	pseudohistorických	AAmp4x
pseudohistorický	pseudohistorických	AAmp6x
pseudohistorický	pseudohistorických	AAip2x
pseudohistorický	pseudohistorických	AAip6x
pseudohistorický	pseudohistorických	AAfp2x
pseudohistorický	pseudohistorických	AAfp6x
pseudohistorický	pseudohistorických	AAnp2x
pseudohistorický	pseudohistorických	AAnp6x
pseudohistorický	pseudohistorickým	AAms7x
pseudohistorický	pseudohistorickým	AAmp3x
pseudohistorický	pseudohistorickým	AAis7x
pseudohistorický	pseudohistorickým	AAip3x
pseudohistorický	pseudohistorickým	AAfp3x
pseudohistorický	pseudohistorickým	AAns7x
pseudohistorický	pseudohistorickým	AAnp3x
pseudohistorický	pseudohistorickými	AAmp7x
pseudohistorický	pseudohistorickými	AAip7x
pseudohistorický	pseudohistorickými	AAfp7x
pseudohistorický	pseudohistorickými	AAnp7x
pseudokultúra	pseudokultúr	SSfp2
pseudokultúra	pseudokultúra	SSfs1
pseudokultúra	pseudokultúra	SSfs5
pseudokultúra	pseudokultúrach	SSfp6
pseudokultúra	pseudokultúram	SSfp3
pseudokultúra	pseudokultúrami	SSfp7
pseudokultúra	pseudokultúre	SSfs3
pseudokultúra	pseudokultúre	SSfs6
pseudokultúra	pseudokultúrou	SSfs7
pseudokultúra	pseudokultúru	SSfs4
pseudokultúra	pseudokultúry	SSfs2
pseudokultúra	pseudokultúry	SSfp1
pseudokultúra	pseudokultúry	SSfp4
pseudokultúra	pseudokultúry	SSfp5
pseudonym	pseudonym	SSis1
pseudonym	pseudonym	SSis4
pseudonym	pseudonym	SSis5
pseudonym	pseudonymami	SSip7
pseudonym	pseudonyme	SSis6
pseudonym	pseudonymoch	SSip6
pseudonym	pseudonymom	SSis7
pseudonym	pseudonymom	SSip3
pseudonym	pseudonymov	SSip2
pseudonym	pseudonymu	SSis2
pseudonym	pseudonymu	SSis3
pseudonym	pseudonymy	SSip1
pseudonym	pseudonymy	SSip4
pseudonym	pseudonymy	SSip5
pseudoumenie	pseudoumenia	SSns2
pseudoumenie	pseudoumenia	SSnp1
pseudoumenie	pseudoumenia	SSnp4
pseudoumenie	pseudoumenia	SSnp5
pseudoumenie	pseudoumeniach	SSnp6
pseudoumenie	pseudoumeniam	SSnp3
pseudoumenie	pseudoumeniami	SSnp7
pseudoumenie	pseudoumenie	SSns1
pseudoumenie	pseudoumenie	SSns4
pseudoumenie	pseudoumenie	SSns5
pseudoumenie	pseudoumeniu	SSns3
pseudoumenie	pseudoumení	SSns6
pseudoumenie	pseudoumení	SSnp2
pseudoumenie	pseudoumením	SSns7
pseudoveda	pseudoveda	SSfs1
pseudoveda	pseudoveda	SSfs5
pseudoveda	pseudovedami	SSfp7
pseudoveda	pseudovede	SSfs3
pseudoveda	pseudovede	SSfs6
pseudoveda	pseudovedou	SSfs7
pseudoveda	pseudovedu	SSfs4
pseudoveda	pseudovedy	SSfs2
pseudoveda	pseudovedy	SSfp1
pseudoveda	pseudovedy	SSfp4
pseudoveda	pseudovedy	SSfp5
pseudoveda	pseudovedách	SSfp6
pseudoveda	pseudovedám	SSfp3
pseudoveda	pseudovied	SSfp2
pseudoľudový	pseudoľudovej	AAfs2x
pseudoľudový	pseudoľudovej	AAfs3x
pseudoľudový	pseudoľudovej	AAfs6x
pseudoľudový	pseudoľudovom	AAms6x
pseudoľudový	pseudoľudovom	AAis6x
pseudoľudový	pseudoľudovom	AAns6x
pseudoľudovosť	pseudoľudovosti	SSfs2
pseudoľudovosť	pseudoľudovosti	SSfs3
pseudoľudovosť	pseudoľudovosti	SSfs6
pseudoľudovosť	pseudoľudovosti	SSfp1
pseudoľudovosť	pseudoľudovosti	SSfp4
pseudoľudovosť	pseudoľudovosti	SSfp5
pseudoľudovosť	pseudoľudovostiach	SSfp6
pseudoľudovosť	pseudoľudovostiam	SSfp3
pseudoľudovosť	pseudoľudovostí	SSfp2
pseudoľudovosť	pseudoľudovosť	SSfs1
pseudoľudovosť	pseudoľudovosť	SSfs4
pseudoľudovosť	pseudoľudovosť	SSfs5
pseudoľudovosť	pseudoľudovosťami	SSfp7
pseudoľudovosť	pseudoľudovosťou	SSfs7
pseudoľudový	pseudoľudovou	AAfs7x
pseudoľudový	pseudoľudová	AAfs1x
pseudoľudový	pseudoľudová	AAfs5x
pseudoľudový	pseudoľudové	AAip1x
pseudoľudový	pseudoľudové	AAip4x
pseudoľudový	pseudoľudové	AAip5x
pseudoľudový	pseudoľudové	AAfp1x
pseudoľudový	pseudoľudové	AAfp4x
pseudoľudový	pseudoľudové	AAfp5x
pseudoľudový	pseudoľudové	AAns1x
pseudoľudový	pseudoľudové	AAns4x
pseudoľudový	pseudoľudové	AAns5x
pseudoľudový	pseudoľudové	AAnp1x
pseudoľudový	pseudoľudové	AAnp4x
pseudoľudový	pseudoľudové	AAnp5x
pseudoľudový	pseudoľudového	AAms2x
pseudoľudový	pseudoľudového	AAms4x
pseudoľudový	pseudoľudového	AAis2x
pseudoľudový	pseudoľudového	AAns2x
pseudoľudový	pseudoľudovému	AAms3x
pseudoľudový	pseudoľudovému	AAis3x
pseudoľudový	pseudoľudovému	AAns3x
pseudoľudový	pseudoľudoví	AAmp1x
pseudoľudový	pseudoľudoví	AAmp5x
pseudoľudový	pseudoľudovú	AAfs4x
pseudoľudový	pseudoľudový	AAms1x
pseudoľudový	pseudoľudový	AAms5x
pseudoľudový	pseudoľudový	AAis1x
pseudoľudový	pseudoľudový	AAis4x
pseudoľudový	pseudoľudový	AAis5x
pseudoľudový	pseudoľudových	AAmp2x
pseudoľudový	pseudoľudových	AAmp4x
pseudoľudový	pseudoľudových	AAmp6x
pseudoľudový	pseudoľudových	AAip2x
pseudoľudový	pseudoľudových	AAip6x
pseudoľudový	pseudoľudových	AAfp2x
pseudoľudový	pseudoľudových	AAfp6x
pseudoľudový	pseudoľudových	AAnp2x
pseudoľudový	pseudoľudových	AAnp6x
pseudoľudový	pseudoľudovým	AAms7x
pseudoľudový	pseudoľudovým	AAmp3x
pseudoľudový	pseudoľudovým	AAis7x
pseudoľudový	pseudoľudovým	AAip3x
pseudoľudový	pseudoľudovým	AAfp3x
pseudoľudový	pseudoľudovým	AAns7x
pseudoľudový	pseudoľudovým	AAnp3x
pseudoľudový	pseudoľudovými	AAmp7x
pseudoľudový	pseudoľudovými	AAip7x
pseudoľudový	pseudoľudovými	AAfp7x
pseudoľudový	pseudoľudovými	AAnp7x
pes	psi	SSip1
pes	psi	SSip4
pes	psi	SSip5
psí	psia	AAfs1x
psí	psia	AAfs5x
psiareň	psiareň	SSfs1
psiareň	psiareň	SSfs4
psiareň	psiareň	SSfs5
psiareň	psiarne	SSfs2
psiareň	psiarne	SSfp1
psiareň	psiarne	SSfp4
psiareň	psiarne	SSfp5
psiareň	psiarni	SSfs3
psiareň	psiarni	SSfs6
psiareň	psiarní	SSfp2
psiareň	psiarňach	SSfp6
psiareň	psiarňam	SSfp3
psiareň	psiarňami	SSfp7
psiareň	psiarňou	SSfs7
psica	psica	SSfs1
psica	psica	SSfs5
psica	psicami	SSfp7
psica	psice	SSfs2
psica	psice	SSfp1
psica	psice	SSfp4
psica	psice	SSfp5
psica	psici	SSfs3
psica	psici	SSfs6
psica	psiciach	SSfp6
psica	psiciam	SSfp3
psica	psicou	SSfs7
psica	psicu	SSfs4
psí	psie	AAip1x
psí	psie	AAip4x
psí	psie	AAip5x
psí	psie	AAfp1x
psí	psie	AAfp4x
psí	psie	AAfp5x
psí	psie	AAns1x
psí	psie	AAns4x
psí	psie	AAns5x
psí	psie	AAnp1x
psí	psie	AAnp4x
psí	psie	AAnp5x
psí	psieho	AAms2x
psí	psieho	AAms4x
psí	psieho	AAis2x
psí	psieho	AAns2x
psí	psiemu	AAms3x
psí	psiemu	AAis3x
psí	psiemu	AAns3x
psina	psina	SSfs1
psina	psina	SSfs5
psina	psinami	SSfp7
psinec	psinca	SSis2
psinec	psincami	SSip7
psinec	psince	SSip1
psinec	psince	SSip4
psinec	psince	SSip5
psinec	psinci	SSis6
psinec	psincoch	SSip6
psinec	psincom	SSis7
psinec	psincom	SSip3
psinec	psincov	SSip2
psinec	psincu	SSis3
psina	psine	SSfs3
psina	psine	SSfs6
psinec	psinec	SSis1
psinec	psinec	SSis4
psinec	psinec	SSis5
psinka	psiniek	SSfp2
psinka	psinka	SSfs1
psinka	psinka	SSfs5
psinka	psinkami	SSfp7
psinka	psinke	SSfs3
psinka	psinke	SSfs6
psinka	psinkou	SSfs7
psinka	psinku	SSfs4
psinka	psinky	SSfs2
psinka	psinky	SSfp1
psinka	psinky	SSfp4
psinka	psinky	SSfp5
psinka	psinkách	SSfp6
psinka	psinkám	SSfp3
psina	psinou	SSfs7
psina	psinu	SSfs4
psina	psiny	SSfs2
psina	psiny	SSfp1
psina	psiny	SSfp4
psina	psiny	SSfp5
psina	psinách	SSfp6
psina	psinám	SSfp3
psinček	psinček	SSis1
psinček	psinček	SSis4
psinček	psinček	SSis5
psinček	psinčeka	SSis2
psinček	psinčekmi	SSip7
psinček	psinčekoch	SSip6
psinček	psinčekom	SSis7
psinček	psinčekom	SSip3
psinček	psinčekov	SSip2
psinček	psinčeku	SSis3
psinček	psinčeku	SSis6
psinček	psinčeky	SSip1
psinček	psinčeky	SSip4
psinček	psinčeky	SSip5
psisko	psiska	SSns2
psisko	psiska	SSms2
psisko	psiska	SSms4
psisko	psiskami	SSnp7
psisko	psiskami	SSmp7
psisko	psisko	SSns1
psisko	psisko	SSns4
psisko	psisko	SSns5
psisko	psisko	SSms1
psisko	psisko	SSms5
psisko	psiskoch	SSmp6
psisko	psiskom	SSns7
psisko	psiskom	SSms7
psisko	psiskom	SSmp3
psisko	psiskov	SSmp2
psisko	psiskov	SSmp4
psisko	psiskovi	SSms3
psisko	psiskovi	SSms6
psisko	psiskovia	SSmp1
psisko	psiskovia	SSmp5
psisko	psisku	SSns3
psisko	psisku	SSns6
psisko	psiská	SSnp1
psisko	psiská	SSnp4
psisko	psiská	SSnp5
psisko	psiskách	SSnp6
psisko	psiskám	SSnp3
psí	psiu	AAfs4x
psičkár	psičkár	SSms1
psičkár	psičkár	SSms5
psičkár	psičkára	SSms2
psičkár	psičkára	SSms4
psičkár	psičkári	SSmp1
psičkár	psičkári	SSmp5
psičkárka	psičkárka	SSfs1
psičkárka	psičkárka	SSfs5
psičkárka	psičkárkach	SSfp6
psičkárka	psičkárkam	SSfp3
psičkárka	psičkárkami	SSfp7
psičkárka	psičkárke	SSfs3
psičkárka	psičkárke	SSfs6
psičkárka	psičkárkou	SSfs7
psičkárka	psičkárku	SSfs4
psičkárka	psičkárky	SSfs2
psičkárka	psičkárky	SSfp1
psičkárka	psičkárky	SSfp4
psičkárka	psičkárky	SSfp5
psičkár	psičkármi	SSmp7
psičkár	psičkároch	SSmp6
psičkárka	psičkárok	SSfp2
psičkár	psičkárom	SSms7
psičkár	psičkárom	SSmp3
psičkár	psičkárov	SSmp2
psičkár	psičkárov	SSmp4
psičkár	psičkárovi	SSms3
psičkár	psičkárovi	SSms6
psičkársky	psičkárska	AAfs1x
psičkársky	psičkárska	AAfs5x
psičkársky	psičkárske	AAip1x
psičkársky	psičkárske	AAip4x
psičkársky	psičkárske	AAip5x
psičkársky	psičkárske	AAfp1x
psičkársky	psičkárske	AAfp4x
psičkársky	psičkárske	AAfp5x
psičkársky	psičkárske	AAns1x
psičkársky	psičkárske	AAns4x
psičkársky	psičkárske	AAns5x
psičkársky	psičkárske	AAnp1x
psičkársky	psičkárske	AAnp4x
psičkársky	psičkárske	AAnp5x
psičkársky	psičkárskeho	AAms2x
psičkársky	psičkárskeho	AAms4x
psičkársky	psičkárskeho	AAis2x
psičkársky	psičkárskeho	AAns2x
psičkársky	psičkárskej	AAfs2x
psičkársky	psičkárskej	AAfs3x
psičkársky	psičkárskej	AAfs6x
psičkársky	psičkárskemu	AAms3x
psičkársky	psičkárskemu	AAis3x
psičkársky	psičkárskemu	AAns3x
psičkársky	psičkárski	AAmp1x
psičkársky	psičkárski	AAmp5x
psičkársky	psičkárskom	AAms6x
psičkársky	psičkárskom	AAis6x
psičkársky	psičkárskom	AAns6x
psičkársky	psičkárskou	AAfs7x
psičkársky	psičkársku	AAfs4x
psičkársky	psičkársky	AAms1x
psičkársky	psičkársky	AAms5x
psičkársky	psičkársky	AAis1x
psičkársky	psičkársky	AAis4x
psičkársky	psičkársky	AAis5x
psičkársky	psičkárskych	AAmp2x
psičkársky	psičkárskych	AAmp4x
psičkársky	psičkárskych	AAmp6x
psičkársky	psičkárskych	AAip2x
psičkársky	psičkárskych	AAip6x
psičkársky	psičkárskych	AAfp2x
psičkársky	psičkárskych	AAfp6x
psičkársky	psičkárskych	AAnp2x
psičkársky	psičkárskych	AAnp6x
psičkársky	psičkárskym	AAms7x
psičkársky	psičkárskym	AAmp3x
psičkársky	psičkárskym	AAis7x
psičkársky	psičkárskym	AAip3x
psičkársky	psičkárskym	AAfp3x
psičkársky	psičkárskym	AAns7x
psičkársky	psičkárskym	AAnp3x
psičkársky	psičkárskymi	AAmp7x
psičkársky	psičkárskymi	AAip7x
psičkársky	psičkárskymi	AAfp7x
psičkársky	psičkárskymi	AAnp7x
psl	psl	W
pes	psoch	SSip6
pes	psom	SSms7
pes	psom	SSip3
psí	psom	AAms6x
psí	psom	AAis6x
psí	psom	AAns6x
psota	psota	SSfs1
psota	psota	SSfs5
psota	psotami	SSfp7
psota	psote	SSfs3
psota	psote	SSfs6
psota	psotou	SSfs7
psota	psotu	SSfs4
psota	psoty	SSfs2
psota	psoty	SSfp1
psota	psoty	SSfp4
psota	psoty	SSfp5
psota	psotách	SSfp6
psota	psotám	SSfp3
psí	psou	AAfs7x
pes	psov	SSip2
pes	psovi	SSms3
pes	psovi	SSms6
psovitý	psovitej	AAfs2x
psovitý	psovitej	AAfs3x
psovitý	psovitej	AAfs6x
psovitý	psovitejšej	AAfs2y
psovitý	psovitejšej	AAfs3y
psovitý	psovitejšej	AAfs6y
psovitý	psovitejšia	AAfs1y
psovitý	psovitejšia	AAfs5y
psovitý	psovitejšie	AAip1y
psovitý	psovitejšie	AAip4y
psovitý	psovitejšie	AAip5y
psovitý	psovitejšie	AAfp1y
psovitý	psovitejšie	AAfp4y
psovitý	psovitejšie	AAfp5y
psovitý	psovitejšie	AAns1y
psovitý	psovitejšie	AAns4y
psovitý	psovitejšie	AAns5y
psovitý	psovitejšie	AAnp1y
psovitý	psovitejšie	AAnp4y
psovitý	psovitejšie	AAnp5y
psovitý	psovitejšieho	AAms2y
psovitý	psovitejšieho	AAms4y
psovitý	psovitejšieho	AAis2y
psovitý	psovitejšieho	AAns2y
psovitý	psovitejšiemu	AAms3y
psovitý	psovitejšiemu	AAis3y
psovitý	psovitejšiemu	AAns3y
psovitý	psovitejšiu	AAfs4y
psovitý	psovitejšom	AAms6y
psovitý	psovitejšom	AAis6y
psovitý	psovitejšom	AAns6y
psovitý	psovitejšou	AAfs7y
psovitý	psovitejší	AAms1y
psovitý	psovitejší	AAms5y
psovitý	psovitejší	AAmp1y
psovitý	psovitejší	AAmp5y
psovitý	psovitejší	AAis1y
psovitý	psovitejší	AAis4y
psovitý	psovitejší	AAis5y
psovitý	psovitejších	AAmp2y
psovitý	psovitejších	AAmp4y
psovitý	psovitejších	AAmp6y
psovitý	psovitejších	AAip2y
psovitý	psovitejších	AAip6y
psovitý	psovitejších	AAfp2y
psovitý	psovitejších	AAfp6y
psovitý	psovitejších	AAnp2y
psovitý	psovitejších	AAnp6y
psovitý	psovitejším	AAms7y
psovitý	psovitejším	AAmp3y
psovitý	psovitejším	AAis7y
psovitý	psovitejším	AAip3y
psovitý	psovitejším	AAfp3y
psovitý	psovitejším	AAns7y
psovitý	psovitejším	AAnp3y
psovitý	psovitejšími	AAmp7y
psovitý	psovitejšími	AAip7y
psovitý	psovitejšími	AAfp7y
psovitý	psovitejšími	AAnp7y
psovitý	psovitom	AAms6x
psovitý	psovitom	AAis6x
psovitý	psovitom	AAns6x
psovitý	psovitou	AAfs7x
psovitý	psovitá	AAfs1x
psovitý	psovitá	AAfs5x
psovitý	psovité	AAip1x
psovitý	psovité	AAip4x
psovitý	psovité	AAip5x
psovitý	psovité	AAfp1x
psovitý	psovité	AAfp4x
psovitý	psovité	AAfp5x
psovitý	psovité	AAns1x
psovitý	psovité	AAns4x
psovitý	psovité	AAns5x
psovitý	psovité	AAnp1x
psovitý	psovité	AAnp4x
psovitý	psovité	AAnp5x
psovitý	psovitého	AAms2x
psovitý	psovitého	AAms4x
psovitý	psovitého	AAis2x
psovitý	psovitého	AAns2x
psovitý	psovitému	AAms3x
psovitý	psovitému	AAis3x
psovitý	psovitému	AAns3x
psovitý	psovití	AAmp1x
psovitý	psovití	AAmp5x
psovitý	psovitú	AAfs4x
psovitý	psovitý	AAms1x
psovitý	psovitý	AAms5x
psovitý	psovitý	AAis1x
psovitý	psovitý	AAis4x
psovitý	psovitý	AAis5x
psovitý	psovitých	AAmp2x
psovitý	psovitých	AAmp4x
psovitý	psovitých	AAmp6x
psovitý	psovitých	AAip2x
psovitý	psovitých	AAip6x
psovitý	psovitých	AAfp2x
psovitý	psovitých	AAfp6x
psovitý	psovitých	AAnp2x
psovitý	psovitých	AAnp6x
psovitý	psovitým	AAms7x
psovitý	psovitým	AAmp3x
psovitý	psovitým	AAis7x
psovitý	psovitým	AAip3x
psovitý	psovitým	AAfp3x
psovitý	psovitým	AAns7x
psovitý	psovitým	AAnp3x
psovitý	psovitými	AAmp7x
psovitý	psovitými	AAip7x
psovitý	psovitými	AAfp7x
psovitý	psovitými	AAnp7x
psovod	psovod	SSms1
psovod	psovod	SSms5
psovod	psovoda	SSms2
psovod	psovoda	SSms4
psovod	psovodi	SSmp1
psovod	psovodi	SSmp5
psovod	psovodmi	SSmp7
psovod	psovodoch	SSmp6
psovod	psovodom	SSms7
psovod	psovodom	SSmp3
psovod	psovodov	SSmp2
psovod	psovodov	SSmp4
psovod	psovodovi	SSms3
psovod	psovodovi	SSms6
psovský	psovskej	AAfs2x
psovský	psovskej	AAfs3x
psovský	psovskej	AAfs6x
psovský	psovskom	AAms6x
psovský	psovskom	AAis6x
psovský	psovskom	AAns6x
psovský	psovskou	AAfs7x
psovsky	psovsky	Dx
psovský	psovská	AAfs1x
psovský	psovská	AAfs5x
psovský	psovské	AAip1x
psovský	psovské	AAip4x
psovský	psovské	AAip5x
psovský	psovské	AAfp1x
psovský	psovské	AAfp4x
psovský	psovské	AAfp5x
psovský	psovské	AAns1x
psovský	psovské	AAns4x
psovský	psovské	AAns5x
psovský	psovské	AAnp1x
psovský	psovské	AAnp4x
psovský	psovské	AAnp5x
psovský	psovského	AAms2x
psovský	psovského	AAms4x
psovský	psovského	AAis2x
psovský	psovského	AAns2x
psovský	psovskému	AAms3x
psovský	psovskému	AAis3x
psovský	psovskému	AAns3x
psovský	psovskí	AAmp1x
psovský	psovskí	AAmp5x
psovský	psovskú	AAfs4x
psovský	psovský	AAms1x
psovský	psovský	AAms5x
psovský	psovský	AAis1x
psovský	psovský	AAis4x
psovský	psovský	AAis5x
psovský	psovských	AAmp2x
psovský	psovských	AAmp4x
psovský	psovských	AAmp6x
psovský	psovských	AAip2x
psovský	psovských	AAip6x
psovský	psovských	AAfp2x
psovský	psovských	AAfp6x
psovský	psovských	AAnp2x
psovský	psovských	AAnp6x
psovský	psovským	AAms7x
psovský	psovským	AAmp3x
psovský	psovským	AAis7x
psovský	psovským	AAip3x
psovský	psovským	AAfp3x
psovský	psovským	AAns7x
psovský	psovským	AAnp3x
psovský	psovskými	AAmp7x
psovský	psovskými	AAip7x
psovský	psovskými	AAfp7x
psovský	psovskými	AAnp7x
psst	psst	J
pst	pst	J
pstrinský	pstrinskej	AAfs2x
pstrinský	pstrinskej	AAfs3x
pstrinský	pstrinskej	AAfs6x
pstrinský	pstrinskom	AAms6x
pstrinský	pstrinskom	AAis6x
pstrinský	pstrinskom	AAns6x
pstrinský	pstrinskou	AAfs7x
pstrinský	pstrinská	AAfs1x
pstrinský	pstrinská	AAfs5x
pstrinský	pstrinské	AAip1x
pstrinský	pstrinské	AAip4x
pstrinský	pstrinské	AAip5x
pstrinský	pstrinské	AAfp1x
pstrinský	pstrinské	AAfp4x
pstrinský	pstrinské	AAfp5x
pstrinský	pstrinské	AAns1x
pstrinský	pstrinské	AAns4x
pstrinský	pstrinské	AAns5x
pstrinský	pstrinské	AAnp1x
pstrinský	pstrinské	AAnp4x
pstrinský	pstrinské	AAnp5x
pstrinský	pstrinského	AAms2x
pstrinský	pstrinského	AAms4x
pstrinský	pstrinského	AAis2x
pstrinský	pstrinského	AAns2x
pstrinský	pstrinskému	AAms3x
pstrinský	pstrinskému	AAis3x
pstrinský	pstrinskému	AAns3x
pstrinský	pstrinskí	AAmp1x
pstrinský	pstrinskí	AAmp5x
pstrinský	pstrinskú	AAfs4x
pstrinský	pstrinský	AAms1x
pstrinský	pstrinský	AAms5x
pstrinský	pstrinský	AAis1x
pstrinský	pstrinský	AAis4x
pstrinský	pstrinský	AAis5x
pstrinský	pstrinských	AAmp2x
pstrinský	pstrinských	AAmp4x
pstrinský	pstrinských	AAmp6x
pstrinský	pstrinských	AAip2x
pstrinský	pstrinských	AAip6x
pstrinský	pstrinských	AAfp2x
pstrinský	pstrinských	AAfp6x
pstrinský	pstrinských	AAnp2x
pstrinský	pstrinských	AAnp6x
pstrinský	pstrinským	AAms7x
pstrinský	pstrinským	AAmp3x
pstrinský	pstrinským	AAis7x
pstrinský	pstrinským	AAip3x
pstrinský	pstrinským	AAfp3x
pstrinský	pstrinským	AAns7x
pstrinský	pstrinským	AAnp3x
pstrinský	pstrinskými	AAmp7x
pstrinský	pstrinskými	AAip7x
pstrinský	pstrinskými	AAfp7x
pstrinský	pstrinskými	AAnp7x
pstruh	pstruh	SSms1
pstruh	pstruh	SSms5
pstruh	pstruha	SSms2
pstruh	pstruha	SSms4
pstruh	pstruhmi	SSip7
pstruh	pstruhoch	SSip6
pstruh	pstruhom	SSms7
pstruh	pstruhom	SSip3
pstruh	pstruhov	SSip2
pstruhový	pstruhovej	AAfs2x
pstruhový	pstruhovej	AAfs3x
pstruhový	pstruhovej	AAfs6x
pstruh	pstruhovi	SSms3
pstruh	pstruhovi	SSms6
pstruhový	pstruhovom	AAms6x
pstruhový	pstruhovom	AAis6x
pstruhový	pstruhovom	AAns6x
pstruhový	pstruhovou	AAfs7x
pstruhový	pstruhová	AAfs1x
pstruhový	pstruhová	AAfs5x
pstruhový	pstruhové	AAip1x
pstruhový	pstruhové	AAip4x
pstruhový	pstruhové	AAip5x
pstruhový	pstruhové	AAfp1x
pstruhový	pstruhové	AAfp4x
pstruhový	pstruhové	AAfp5x
pstruhový	pstruhové	AAns1x
pstruhový	pstruhové	AAns4x
pstruhový	pstruhové	AAns5x
pstruhový	pstruhové	AAnp1x
pstruhový	pstruhové	AAnp4x
pstruhový	pstruhové	AAnp5x
pstruhový	pstruhového	AAms2x
pstruhový	pstruhového	AAms4x
pstruhový	pstruhového	AAis2x
pstruhový	pstruhového	AAns2x
pstruhový	pstruhovému	AAms3x
pstruhový	pstruhovému	AAis3x
pstruhový	pstruhovému	AAns3x
pstruhový	pstruhoví	AAmp1x
pstruhový	pstruhoví	AAmp5x
pstruhový	pstruhovú	AAfs4x
pstruhový	pstruhový	AAms1x
pstruhový	pstruhový	AAms5x
pstruhový	pstruhový	AAis1x
pstruhový	pstruhový	AAis4x
pstruhový	pstruhový	AAis5x
pstruhový	pstruhových	AAmp2x
pstruhový	pstruhových	AAmp4x
pstruhový	pstruhových	AAmp6x
pstruhový	pstruhových	AAip2x
pstruhový	pstruhových	AAip6x
pstruhový	pstruhových	AAfp2x
pstruhový	pstruhových	AAfp6x
pstruhový	pstruhových	AAnp2x
pstruhový	pstruhových	AAnp6x
pstruhový	pstruhovým	AAms7x
pstruhový	pstruhovým	AAmp3x
pstruhový	pstruhovým	AAis7x
pstruhový	pstruhovým	AAip3x
pstruhový	pstruhovým	AAfp3x
pstruhový	pstruhovým	AAns7x
pstruhový	pstruhovým	AAnp3x
pstruhový	pstruhovými	AAmp7x
pstruhový	pstruhovými	AAip7x
pstruhový	pstruhovými	AAfp7x
pstruhový	pstruhovými	AAnp7x
pstruh	pstruhy	SSip1
pstruh	pstruhy	SSip4
pstruh	pstruhy	SSip5
pstruží	pstružej	AAfs2x
pstruží	pstružej	AAfs3x
pstruží	pstružej	AAfs6x
pstruží	pstružia	AAfs1x
pstruží	pstružia	AAfs5x
pstruží	pstružie	AAip1x
pstruží	pstružie	AAip4x
pstruží	pstružie	AAip5x
pstruží	pstružie	AAfp1x
pstruží	pstružie	AAfp4x
pstruží	pstružie	AAfp5x
pstruží	pstružie	AAns1x
pstruží	pstružie	AAns4x
pstruží	pstružie	AAns5x
pstruží	pstružie	AAnp1x
pstruží	pstružie	AAnp4x
pstruží	pstružie	AAnp5x
pstruží	pstružieho	AAms2x
pstruží	pstružieho	AAms4x
pstruží	pstružieho	AAis2x
pstruží	pstružieho	AAns2x
pstruží	pstružiemu	AAms3x
pstruží	pstružiemu	AAis3x
pstruží	pstružiemu	AAns3x
pstruží	pstružiu	AAfs4x
pstruží	pstružom	AAms6x
pstruží	pstružom	AAis6x
pstruží	pstružom	AAns6x
pstruží	pstružou	AAfs7x
pstruží	pstruží	AAms1x
pstruží	pstruží	AAms5x
pstruží	pstruží	AAmp1x
pstruží	pstruží	AAmp5x
pstruží	pstruží	AAis1x
pstruží	pstruží	AAis4x
pstruží	pstruží	AAis5x
pstruží	pstružích	AAmp2x
pstruží	pstružích	AAmp4x
pstruží	pstružích	AAmp6x
pstruží	pstružích	AAip2x
pstruží	pstružích	AAip6x
pstruží	pstružích	AAfp2x
pstruží	pstružích	AAfp6x
pstruží	pstružích	AAnp2x
pstruží	pstružích	AAnp6x
pstruží	pstružím	AAms7x
pstruží	pstružím	AAmp3x
pstruží	pstružím	AAis7x
pstruží	pstružím	AAip3x
pstruží	pstružím	AAfp3x
pstruží	pstružím	AAns7x
pstruží	pstružím	AAnp3x
pstruží	pstružími	AAmp7x
pstruží	pstružími	AAip7x
pstruží	pstružími	AAfp7x
pstruží	pstružími	AAnp7x
pstrúžik	pstrúžik	SSms1
pstrúžik	pstrúžik	SSms5
pstrúžik	pstrúžika	SSms2
pstrúžik	pstrúžika	SSms4
pstrúžik	pstrúžikmi	SSip7
pstrúžik	pstrúžikoch	SSip6
pstrúžik	pstrúžikom	SSms7
pstrúžik	pstrúžikom	SSip3
pstrúžik	pstrúžikov	SSip2
pstrúžik	pstrúžikovi	SSms3
pstrúžik	pstrúžikovi	SSms6
pstrúžik	pstrúžiky	SSip1
pstrúžik	pstrúžiky	SSip4
pstrúžik	pstrúžiky	SSip5
psuť	psuj	VMesb+
psuť	psuje	VKesc+
psuť	psujem	VKesa+
psuť	psujeme	VKepa+
psuť	psujete	VKepb+
psuť	psuješ	VKesb+
psuť	psujme	VMepa+
psuť	psujte	VMepb+
psuť	psujú	VKepc+
psuť	psujúc	VHe+
psuť	psul	VLesam+
psuť	psul	VLesai+
psuť	psul	VLesbm+
psuť	psul	VLesbi+
psuť	psul	VLescm+
psuť	psul	VLesci+
psuť	psula	VLesaf+
psuť	psula	VLesbf+
psuť	psula	VLescf+
psuť	psuli	VLepah+
psuť	psuli	VLepbh+
psuť	psuli	VLepcm+
psuť	psuli	VLepci+
psuť	psuli	VLepcf+
psuť	psuli	VLepcn+
psuť	psuli	VLepco+
psuť	psulo	VLesan+
psuť	psulo	VLesbn+
psuť	psulo	VLescn+
psuť	psuť	VIe+
pes	psy	SSip1
pes	psy	SSip4
pes	psy	SSip5
psych	psych	W
psychiater	psychiater	SSms1
psychiater	psychiater	SSms5
psychiater	psychiatra	SSms2
psychiater	psychiatra	SSms4
psychiater	psychiatrami	SSmp7
psychiater	psychiatri	SSmp1
psychiater	psychiatri	SSmp5
psychiatria	psychiatria	SSfs1
psychiatria	psychiatria	SSfs5
psychiatria	psychiatriami	SSfp7
psychiatrický	psychiatrickej	AAfs2x
psychiatrický	psychiatrickej	AAfs3x
psychiatrický	psychiatrickej	AAfs6x
psychiatrický	psychiatrickom	AAms6x
psychiatrický	psychiatrickom	AAis6x
psychiatrický	psychiatrickom	AAns6x
psychiatrický	psychiatrickou	AAfs7x
psychiatricky	psychiatricky	Dx
psychiatrický	psychiatrická	AAfs1x
psychiatrický	psychiatrická	AAfs5x
psychiatrický	psychiatrické	AAip1x
psychiatrický	psychiatrické	AAip4x
psychiatrický	psychiatrické	AAip5x
psychiatrický	psychiatrické	AAfp1x
psychiatrický	psychiatrické	AAfp4x
psychiatrický	psychiatrické	AAfp5x
psychiatrický	psychiatrické	AAns1x
psychiatrický	psychiatrické	AAns4x
psychiatrický	psychiatrické	AAns5x
psychiatrický	psychiatrické	AAnp1x
psychiatrický	psychiatrické	AAnp4x
psychiatrický	psychiatrické	AAnp5x
psychiatrický	psychiatrického	AAms2x
psychiatrický	psychiatrického	AAms4x
psychiatrický	psychiatrického	AAis2x
psychiatrický	psychiatrického	AAns2x
psychiatrický	psychiatrickému	AAms3x
psychiatrický	psychiatrickému	AAis3x
psychiatrický	psychiatrickému	AAns3x
psychiatrický	psychiatrickí	AAmp1x
psychiatrický	psychiatrickí	AAmp5x
psychiatrický	psychiatrickú	AAfs4x
psychiatrický	psychiatrický	AAms1x
psychiatrický	psychiatrický	AAms5x
psychiatrický	psychiatrický	AAis1x
psychiatrický	psychiatrický	AAis4x
psychiatrický	psychiatrický	AAis5x
psychiatrický	psychiatrických	AAmp2x
psychiatrický	psychiatrických	AAmp4x
psychiatrický	psychiatrických	AAmp6x
psychiatrický	psychiatrických	AAip2x
psychiatrický	psychiatrických	AAip6x
psychiatrický	psychiatrických	AAfp2x
psychiatrický	psychiatrických	AAfp6x
psychiatrický	psychiatrických	AAnp2x
psychiatrický	psychiatrických	AAnp6x
psychiatrický	psychiatrickým	AAms7x
psychiatrický	psychiatrickým	AAmp3x
psychiatrický	psychiatrickým	AAis7x
psychiatrický	psychiatrickým	AAip3x
psychiatrický	psychiatrickým	AAfp3x
psychiatrický	psychiatrickým	AAns7x
psychiatrický	psychiatrickým	AAnp3x
psychiatrický	psychiatrickými	AAmp7x
psychiatrický	psychiatrickými	AAip7x
psychiatrický	psychiatrickými	AAfp7x
psychiatrický	psychiatrickými	AAnp7x
psychiatria	psychiatrie	SSfs2
psychiatria	psychiatrie	SSfp1
psychiatria	psychiatrie	SSfp4
psychiatria	psychiatrie	SSfp5
psychiatria	psychiatrii	SSfs3
psychiatria	psychiatrii	SSfs6
psychiatria	psychiatriou	SSfs7
psychiatria	psychiatriu	SSfs4
psychiatria	psychiatriách	SSfp6
psychiatria	psychiatriám	SSfp3
psychiatria	psychiatrií	SSfp2
psychiatrička	psychiatričiek	SSfp2
psychiatrička	psychiatrička	SSfs1
psychiatrička	psychiatrička	SSfs5
psychiatrička	psychiatričkami	SSfp7
psychiatrička	psychiatričke	SSfs3
psychiatrička	psychiatričke	SSfs6
psychiatrička	psychiatričkou	SSfs7
psychiatrička	psychiatričku	SSfs4
psychiatrička	psychiatričky	SSfs2
psychiatrička	psychiatričky	SSfp1
psychiatrička	psychiatričky	SSfp4
psychiatrička	psychiatričky	SSfp5
psychiatrička	psychiatričkách	SSfp6
psychiatrička	psychiatričkám	SSfp3
psychiater	psychiatroch	SSmp6
psychiater	psychiatrom	SSms7
psychiater	psychiatrom	SSmp3
psychiater	psychiatrov	SSmp2
psychiater	psychiatrov	SSmp4
psychiatrov	psychiatrov	AFis1x
psychiatrov	psychiatrov	AFis4x
psychiatrov	psychiatrov	AFis5x
psychiatrov	psychiatrov	AFms1x
psychiatrov	psychiatrov	AFms5x
psychiatrov	psychiatrova	AFfs1x
psychiatrov	psychiatrova	AFfs5x
psychiatrov	psychiatrove	AFfp1x
psychiatrov	psychiatrove	AFfp4x
psychiatrov	psychiatrove	AFfp5x
psychiatrov	psychiatrove	AFip1x
psychiatrov	psychiatrove	AFip4x
psychiatrov	psychiatrove	AFip5x
psychiatrov	psychiatrove	AFnp1x
psychiatrov	psychiatrove	AFnp4x
psychiatrov	psychiatrove	AFnp5x
psychiatrov	psychiatrovej	AFfs2x
psychiatrov	psychiatrovej	AFfs3x
psychiatrov	psychiatrovej	AFfs6x
psychiatrov	psychiatrovho	AFis2x
psychiatrov	psychiatrovho	AFms2x
psychiatrov	psychiatrovho	AFms4x
psychiatrov	psychiatrovho	AFns2x
psychiater	psychiatrovi	SSms3
psychiater	psychiatrovi	SSms6
psychiatrov	psychiatrovi	AFmp1x
psychiatrov	psychiatrovi	AFmp5x
psychiatrov	psychiatrovmu	AFis3x
psychiatrov	psychiatrovmu	AFms3x
psychiatrov	psychiatrovmu	AFns3x
psychiatrov	psychiatrovo	AFns1x
psychiatrov	psychiatrovo	AFns4x
psychiatrov	psychiatrovo	AFns5x
psychiatrov	psychiatrovom	AFis6x
psychiatrov	psychiatrovom	AFms6x
psychiatrov	psychiatrovom	AFns6x
psychiatrov	psychiatrovou	AFfs7x
psychiatrov	psychiatrovu	AFfs4x
psychiatrov	psychiatrových	AFfp2x
psychiatrov	psychiatrových	AFfp6x
psychiatrov	psychiatrových	AFip2x
psychiatrov	psychiatrových	AFip6x
psychiatrov	psychiatrových	AFmp2x
psychiatrov	psychiatrových	AFmp4x
psychiatrov	psychiatrových	AFmp6x
psychiatrov	psychiatrových	AFnp2x
psychiatrov	psychiatrových	AFnp6x
psychiatrov	psychiatrovým	AFfp3x
psychiatrov	psychiatrovým	AFip3x
psychiatrov	psychiatrovým	AFis7x
psychiatrov	psychiatrovým	AFmp3x
psychiatrov	psychiatrovým	AFms7x
psychiatrov	psychiatrovým	AFnp3x
psychiatrov	psychiatrovým	AFns7x
psychiatrov	psychiatrovými	AFfp7x
psychiatrov	psychiatrovými	AFip7x
psychiatrov	psychiatrovými	AFmp7x
psychiatrov	psychiatrovými	AFnp7x
psychický	psychickej	AAfs2x
psychický	psychickej	AAfs3x
psychický	psychickej	AAfs6x
psychický	psychickom	AAms6x
psychický	psychickom	AAis6x
psychický	psychickom	AAns6x
psychický	psychickou	AAfs7x
psychicky	psychicky	Dx
psychický	psychická	AAfs1x
psychický	psychická	AAfs5x
psychický	psychické	AAip1x
psychický	psychické	AAip4x
psychický	psychické	AAip5x
psychický	psychické	AAfp1x
psychický	psychické	AAfp4x
psychický	psychické	AAfp5x
psychický	psychické	AAns1x
psychický	psychické	AAns4x
psychický	psychické	AAns5x
psychický	psychické	AAnp1x
psychický	psychické	AAnp4x
psychický	psychické	AAnp5x
psychický	psychického	AAms2x
psychický	psychického	AAms4x
psychický	psychického	AAis2x
psychický	psychického	AAns2x
psychický	psychickému	AAms3x
psychický	psychickému	AAis3x
psychický	psychickému	AAns3x
psychický	psychickí	AAmp1x
psychický	psychickí	AAmp5x
psychický	psychickú	AAfs4x
psychický	psychický	AAms1x
psychický	psychický	AAms5x
psychický	psychický	AAis1x
psychický	psychický	AAis4x
psychický	psychický	AAis5x
psychický	psychických	AAmp2x
psychický	psychických	AAmp4x
psychický	psychických	AAmp6x
psychický	psychických	AAip2x
psychický	psychických	AAip6x
psychický	psychických	AAfp2x
psychický	psychických	AAfp6x
psychický	psychických	AAnp2x
psychický	psychických	AAnp6x
psychický	psychickým	AAms7x
psychický	psychickým	AAmp3x
psychický	psychickým	AAis7x
psychický	psychickým	AAip3x
psychický	psychickým	AAfp3x
psychický	psychickým	AAns7x
psychický	psychickým	AAnp3x
psychický	psychickými	AAmp7x
psychický	psychickými	AAip7x
psychický	psychickými	AAfp7x
psychický	psychickými	AAnp7x
psychika	psychika	SSfs1
psychika	psychika	SSfs5
psychika	psychikami	SSfp7
psychika	psychike	SSfs3
psychika	psychike	SSfs6
psychika	psychikou	SSfs7
psychika	psychiku	SSfs4
psychika	psychiky	SSfs2
psychika	psychiky	SSfp1
psychika	psychiky	SSfp4
psychika	psychiky	SSfp5
psychika	psychikách	SSfp6
psychika	psychikám	SSfp3
psychoanalytik	psychoanalytici	SSmp1
psychoanalytik	psychoanalytici	SSmp5
psychoanalytický	psychoanalytickej	AAfs2x
psychoanalytický	psychoanalytickej	AAfs3x
psychoanalytický	psychoanalytickej	AAfs6x
psychoanalytický	psychoanalytickejšej	AAfs2y
psychoanalytický	psychoanalytickejšej	AAfs3y
psychoanalytický	psychoanalytickejšej	AAfs6y
psychoanalytický	psychoanalytickejšia	AAfs1y
psychoanalytický	psychoanalytickejšia	AAfs5y
psychoanalytický	psychoanalytickejšie	AAip1y
psychoanalytický	psychoanalytickejšie	AAip4y
psychoanalytický	psychoanalytickejšie	AAip5y
psychoanalytický	psychoanalytickejšie	AAfp1y
psychoanalytický	psychoanalytickejšie	AAfp4y
psychoanalytický	psychoanalytickejšie	AAfp5y
psychoanalytický	psychoanalytickejšie	AAns1y
psychoanalytický	psychoanalytickejšie	AAns4y
psychoanalytický	psychoanalytickejšie	AAns5y
psychoanalytický	psychoanalytickejšie	AAnp1y
psychoanalytický	psychoanalytickejšie	AAnp4y
psychoanalytický	psychoanalytickejšie	AAnp5y
psychoanalytický	psychoanalytickejšieho	AAms2y
psychoanalytický	psychoanalytickejšieho	AAms4y
psychoanalytický	psychoanalytickejšieho	AAis2y
psychoanalytický	psychoanalytickejšieho	AAns2y
psychoanalytický	psychoanalytickejšiemu	AAms3y
psychoanalytický	psychoanalytickejšiemu	AAis3y
psychoanalytický	psychoanalytickejšiemu	AAns3y
psychoanalytický	psychoanalytickejšiu	AAfs4y
psychoanalytický	psychoanalytickejšom	AAms6y
psychoanalytický	psychoanalytickejšom	AAis6y
psychoanalytický	psychoanalytickejšom	AAns6y
psychoanalytický	psychoanalytickejšou	AAfs7y
psychoanalytický	psychoanalytickejší	AAms1y
psychoanalytický	psychoanalytickejší	AAms5y
psychoanalytický	psychoanalytickejší	AAmp1y
psychoanalytický	psychoanalytickejší	AAmp5y
psychoanalytický	psychoanalytickejší	AAis1y
psychoanalytický	psychoanalytickejší	AAis4y
psychoanalytický	psychoanalytickejší	AAis5y
psychoanalytický	psychoanalytickejších	AAmp2y
psychoanalytický	psychoanalytickejších	AAmp4y
psychoanalytický	psychoanalytickejších	AAmp6y
psychoanalytický	psychoanalytickejších	AAip2y
psychoanalytický	psychoanalytickejších	AAip6y
psychoanalytický	psychoanalytickejších	AAfp2y
psychoanalytický	psychoanalytickejších	AAfp6y
psychoanalytický	psychoanalytickejších	AAnp2y
psychoanalytický	psychoanalytickejších	AAnp6y
psychoanalytický	psychoanalytickejším	AAms7y
psychoanalytický	psychoanalytickejším	AAmp3y
psychoanalytický	psychoanalytickejším	AAis7y
psychoanalytický	psychoanalytickejším	AAip3y
psychoanalytický	psychoanalytickejším	AAfp3y
psychoanalytický	psychoanalytickejším	AAns7y
psychoanalytický	psychoanalytickejším	AAnp3y
psychoanalytický	psychoanalytickejšími	AAmp7y
psychoanalytický	psychoanalytickejšími	AAip7y
psychoanalytický	psychoanalytickejšími	AAfp7y
psychoanalytický	psychoanalytickejšími	AAnp7y
psychoanalytický	psychoanalytickom	AAms6x
psychoanalytický	psychoanalytickom	AAis6x
psychoanalytický	psychoanalytickom	AAns6x
psychoanalytický	psychoanalytickou	AAfs7x
psychoanalytický	psychoanalytická	AAfs1x
psychoanalytický	psychoanalytická	AAfs5x
psychoanalytický	psychoanalytické	AAip1x
psychoanalytický	psychoanalytické	AAip4x
psychoanalytický	psychoanalytické	AAip5x
psychoanalytický	psychoanalytické	AAfp1x
psychoanalytický	psychoanalytické	AAfp4x
psychoanalytický	psychoanalytické	AAfp5x
psychoanalytický	psychoanalytické	AAns1x
psychoanalytický	psychoanalytické	AAns4x
psychoanalytický	psychoanalytické	AAns5x
psychoanalytický	psychoanalytické	AAnp1x
psychoanalytický	psychoanalytické	AAnp4x
psychoanalytický	psychoanalytické	AAnp5x
psychoanalytický	psychoanalytického	AAms2x
psychoanalytický	psychoanalytického	AAms4x
psychoanalytický	psychoanalytického	AAis2x
psychoanalytický	psychoanalytického	AAns2x
psychoanalytický	psychoanalytickému	AAms3x
psychoanalytický	psychoanalytickému	AAis3x
psychoanalytický	psychoanalytickému	AAns3x
psychoanalytický	psychoanalytickí	AAmp1x
psychoanalytický	psychoanalytickí	AAmp5x
psychoanalytický	psychoanalytickú	AAfs4x
psychoanalytický	psychoanalytický	AAms1x
psychoanalytický	psychoanalytický	AAms5x
psychoanalytický	psychoanalytický	AAis1x
psychoanalytický	psychoanalytický	AAis4x
psychoanalytický	psychoanalytický	AAis5x
psychoanalytický	psychoanalytických	AAmp2x
psychoanalytický	psychoanalytických	AAmp4x
psychoanalytický	psychoanalytických	AAmp6x
psychoanalytický	psychoanalytických	AAip2x
psychoanalytický	psychoanalytických	AAip6x
psychoanalytický	psychoanalytických	AAfp2x
psychoanalytický	psychoanalytických	AAfp6x
psychoanalytický	psychoanalytických	AAnp2x
psychoanalytický	psychoanalytických	AAnp6x
psychoanalytický	psychoanalytickým	AAms7x
psychoanalytický	psychoanalytickým	AAmp3x
psychoanalytický	psychoanalytickým	AAis7x
psychoanalytický	psychoanalytickým	AAip3x
psychoanalytický	psychoanalytickým	AAfp3x
psychoanalytický	psychoanalytickým	AAns7x
psychoanalytický	psychoanalytickým	AAnp3x
psychoanalytický	psychoanalytickými	AAmp7x
psychoanalytický	psychoanalytickými	AAip7x
psychoanalytický	psychoanalytickými	AAfp7x
psychoanalytický	psychoanalytickými	AAnp7x
psychoanalytik	psychoanalytik	SSms1
psychoanalytik	psychoanalytik	SSms5
psychoanalytik	psychoanalytika	SSms2
psychoanalytik	psychoanalytika	SSms4
psychoanalytik	psychoanalytikmi	SSmp7
psychoanalytik	psychoanalytikoch	SSmp6
psychoanalytik	psychoanalytikom	SSms7
psychoanalytik	psychoanalytikom	SSmp3
psychoanalytik	psychoanalytikov	SSmp2
psychoanalytik	psychoanalytikov	SSmp4
psychoanalytik	psychoanalytikovi	SSms3
psychoanalytik	psychoanalytikovi	SSms6
psychoanalytička	psychoanalytičiek	SSfp2
psychoanalytička	psychoanalytička	SSfs1
psychoanalytička	psychoanalytička	SSfs5
psychoanalytička	psychoanalytičkami	SSfp7
psychoanalytička	psychoanalytičke	SSfs3
psychoanalytička	psychoanalytičke	SSfs6
psychoanalytička	psychoanalytičkou	SSfs7
psychoanalytička	psychoanalytičku	SSfs4
psychoanalytička	psychoanalytičky	SSfs2
psychoanalytička	psychoanalytičky	SSfp1
psychoanalytička	psychoanalytičky	SSfp4
psychoanalytička	psychoanalytičky	SSfp5
psychoanalytička	psychoanalytičkách	SSfp6
psychoanalytička	psychoanalytičkám	SSfp3
psychoanalýza	psychoanalýz	SSfp2
psychoanalýza	psychoanalýza	SSfs1
psychoanalýza	psychoanalýza	SSfs5
psychoanalýza	psychoanalýzach	SSfp6
psychoanalýza	psychoanalýzam	SSfp3
psychoanalýza	psychoanalýzami	SSfp7
psychoanalýza	psychoanalýze	SSfs3
psychoanalýza	psychoanalýze	SSfs6
psychoanalýza	psychoanalýzou	SSfs7
psychoanalýza	psychoanalýzu	SSfs4
psychoanalýza	psychoanalýzy	SSfs2
psychoanalýza	psychoanalýzy	SSfp1
psychoanalýza	psychoanalýzy	SSfp4
psychoanalýza	psychoanalýzy	SSfp5
psychologický	psychologickej	AAfs2x
psychologický	psychologickej	AAfs3x
psychologický	psychologickej	AAfs6x
psychologicky	psychologickejšie	Dy
psychologický	psychologickom	AAms6x
psychologický	psychologickom	AAis6x
psychologický	psychologickom	AAns6x
psychologický	psychologickou	AAfs7x
psychologicky	psychologicky	Dx
psychologický	psychologická	AAfs1x
psychologický	psychologická	AAfs5x
psychologický	psychologické	AAip1x
psychologický	psychologické	AAip4x
psychologický	psychologické	AAip5x
psychologický	psychologické	AAfp1x
psychologický	psychologické	AAfp4x
psychologický	psychologické	AAfp5x
psychologický	psychologické	AAns1x
psychologický	psychologické	AAns4x
psychologický	psychologické	AAns5x
psychologický	psychologické	AAnp1x
psychologický	psychologické	AAnp4x
psychologický	psychologické	AAnp5x
psychologický	psychologického	AAms2x
psychologický	psychologického	AAms4x
psychologický	psychologického	AAis2x
psychologický	psychologického	AAns2x
psychologický	psychologickému	AAms3x
psychologický	psychologickému	AAis3x
psychologický	psychologickému	AAns3x
psychologický	psychologickí	AAmp1x
psychologický	psychologickí	AAmp5x
psychologický	psychologickú	AAfs4x
psychologický	psychologický	AAms1x
psychologický	psychologický	AAms5x
psychologický	psychologický	AAis1x
psychologický	psychologický	AAis4x
psychologický	psychologický	AAis5x
psychologický	psychologických	AAmp2x
psychologický	psychologických	AAmp4x
psychologický	psychologických	AAmp6x
psychologický	psychologických	AAip2x
psychologický	psychologických	AAip6x
psychologický	psychologických	AAfp2x
psychologický	psychologických	AAfp6x
psychologický	psychologických	AAnp2x
psychologický	psychologických	AAnp6x
psychologický	psychologickým	AAms7x
psychologický	psychologickým	AAmp3x
psychologický	psychologickým	AAis7x
psychologický	psychologickým	AAip3x
psychologický	psychologickým	AAfp3x
psychologický	psychologickým	AAns7x
psychologický	psychologickým	AAnp3x
psychologický	psychologickými	AAmp7x
psychologický	psychologickými	AAip7x
psychologický	psychologickými	AAfp7x
psychologický	psychologickými	AAnp7x
psychologizovať	psychologizoval	VLesam+
psychologizovať	psychologizoval	VLesai+
psychologizovať	psychologizoval	VLesbm+
psychologizovať	psychologizoval	VLesbi+
psychologizovať	psychologizoval	VLescm+
psychologizovať	psychologizoval	VLesci+
psychologizovať	psychologizovala	VLesaf+
psychologizovať	psychologizovala	VLesbf+
psychologizovať	psychologizovala	VLescf+
psychologizovať	psychologizovali	VLepah+
psychologizovať	psychologizovali	VLepbh+
psychologizovať	psychologizovali	VLepcm+
psychologizovať	psychologizovali	VLepci+
psychologizovať	psychologizovali	VLepcf+
psychologizovať	psychologizovali	VLepcn+
psychologizovať	psychologizovali	VLepco+
psychologizovať	psychologizovalo	VLesan+
psychologizovať	psychologizovalo	VLesbn+
psychologizovať	psychologizovalo	VLescn+
psychologizovať	psychologizovať	VIe+
psychologizovať	psychologizuj	VMesb+
psychologizovať	psychologizuje	VKesc+
psychologizovať	psychologizujem	VKesa+
psychologizovať	psychologizujeme	VKepa+
psychologizovať	psychologizujete	VKepb+
psychologizovať	psychologizuješ	VKesb+
psychologizovať	psychologizujme	VMepa+
psychologizovať	psychologizujte	VMepb+
psychologizovať	psychologizujú	VKepc+
psychologizovať	psychologizujúc	VHe+
psychologička	psychologičiek	SSfp2
psychologička	psychologička	SSfs1
psychologička	psychologička	SSfs5
psychologička	psychologičkami	SSfp7
psychologička	psychologičke	SSfs3
psychologička	psychologičke	SSfs6
psychologička	psychologičkou	SSfs7
psychologička	psychologičku	SSfs4
psychologička	psychologičky	SSfs2
psychologička	psychologičky	SSfp1
psychologička	psychologičky	SSfp4
psychologička	psychologičky	SSfp5
psychologička	psychologičkách	SSfp6
psychologička	psychologičkám	SSfp3
psychológ	psychológ	SSms1
psychológ	psychológ	SSms5
psychológ	psychológa	SSms2
psychológ	psychológa	SSms4
psychológia	psychológia	SSfs1
psychológia	psychológia	SSfs5
psychológia	psychológiami	SSfp7
psychológia	psychológie	SSfs2
psychológia	psychológie	SSfp1
psychológia	psychológie	SSfp4
psychológia	psychológie	SSfp5
psychológia	psychológii	SSfs3
psychológia	psychológii	SSfs6
psychológia	psychológiou	SSfs7
psychológia	psychológiu	SSfs4
psychológia	psychológiách	SSfp6
psychológia	psychológiám	SSfp3
psychológia	psychológií	SSfp2
psychológ	psychológmi	SSmp7
psychológ	psychológoch	SSmp6
psychológ	psychológom	SSms7
psychológ	psychológom	SSmp3
psychológ	psychológov	SSmp2
psychológ	psychológov	SSmp4
psychológ	psychológovi	SSms3
psychológ	psychológovi	SSms6
psychológ	psychológovia	SSmp1
psychológ	psychológovia	SSmp5
psychopat	psychopat	SSms1
psychopat	psychopat	SSms5
psychopat	psychopata	SSms2
psychopat	psychopata	SSms4
psychopat	psychopati	SSmp1
psychopat	psychopati	SSmp5
psychopatia	psychopatia	SSfs1
psychopatia	psychopatia	SSfs5
psychopatia	psychopatiami	SSfp7
psychopatický	psychopatickej	AAfs2x
psychopatický	psychopatickej	AAfs3x
psychopatický	psychopatickej	AAfs6x
psychopatický	psychopatickom	AAms6x
psychopatický	psychopatickom	AAis6x
psychopatický	psychopatickom	AAns6x
psychopatický	psychopatickou	AAfs7x
psychopaticky	psychopaticky	Dx
psychopatický	psychopatická	AAfs1x
psychopatický	psychopatická	AAfs5x
psychopatický	psychopatické	AAip1x
psychopatický	psychopatické	AAip4x
psychopatický	psychopatické	AAip5x
psychopatický	psychopatické	AAfp1x
psychopatický	psychopatické	AAfp4x
psychopatický	psychopatické	AAfp5x
psychopatický	psychopatické	AAns1x
psychopatický	psychopatické	AAns4x
psychopatický	psychopatické	AAns5x
psychopatický	psychopatické	AAnp1x
psychopatický	psychopatické	AAnp4x
psychopatický	psychopatické	AAnp5x
psychopatický	psychopatického	AAms2x
psychopatický	psychopatického	AAms4x
psychopatický	psychopatického	AAis2x
psychopatický	psychopatického	AAns2x
psychopatický	psychopatickému	AAms3x
psychopatický	psychopatickému	AAis3x
psychopatický	psychopatickému	AAns3x
psychopatický	psychopatickí	AAmp1x
psychopatický	psychopatickí	AAmp5x
psychopatický	psychopatickú	AAfs4x
psychopatický	psychopatický	AAms1x
psychopatický	psychopatický	AAms5x
psychopatický	psychopatický	AAis1x
psychopatický	psychopatický	AAis4x
psychopatický	psychopatický	AAis5x
psychopatický	psychopatických	AAmp2x
psychopatický	psychopatických	AAmp4x
psychopatický	psychopatických	AAmp6x
psychopatický	psychopatických	AAip2x
psychopatický	psychopatických	AAip6x
psychopatický	psychopatických	AAfp2x
psychopatický	psychopatických	AAfp6x
psychopatický	psychopatických	AAnp2x
psychopatický	psychopatických	AAnp6x
psychopatický	psychopatickým	AAms7x
psychopatický	psychopatickým	AAmp3x
psychopatický	psychopatickým	AAis7x
psychopatický	psychopatickým	AAip3x
psychopatický	psychopatickým	AAfp3x
psychopatický	psychopatickým	AAns7x
psychopatický	psychopatickým	AAnp3x
psychopatický	psychopatickými	AAmp7x
psychopatický	psychopatickými	AAip7x
psychopatický	psychopatickými	AAfp7x
psychopatický	psychopatickými	AAnp7x
psychopatia	psychopatie	SSfs2
psychopatia	psychopatie	SSfp1
psychopatia	psychopatie	SSfp4
psychopatia	psychopatie	SSfp5
psychopatka	psychopatiek	SSfp2
psychopatia	psychopatii	SSfs3
psychopatia	psychopatii	SSfs6
psychopatia	psychopatiou	SSfs7
psychopatia	psychopatiu	SSfs4
psychopatia	psychopatiách	SSfp6
psychopatia	psychopatiám	SSfp3
psychopatia	psychopatií	SSfp2
psychopatka	psychopatka	SSfs1
psychopatka	psychopatka	SSfs5
psychopatka	psychopatkami	SSfp7
psychopatka	psychopatke	SSfs3
psychopatka	psychopatke	SSfs6
psychopatka	psychopatkou	SSfs7
psychopatka	psychopatku	SSfs4
psychopatka	psychopatky	SSfs2
psychopatka	psychopatky	SSfp1
psychopatka	psychopatky	SSfp4
psychopatka	psychopatky	SSfp5
psychopatka	psychopatkách	SSfp6
psychopatka	psychopatkám	SSfp3
psychopat	psychopatmi	SSmp7
psychopat	psychopatoch	SSmp6
psychopat	psychopatom	SSms7
psychopat	psychopatom	SSmp3
psychopat	psychopatov	SSmp2
psychopat	psychopatov	SSmp4
psychopat	psychopatovi	SSms3
psychopat	psychopatovi	SSms6
psychoterapeut	psychoterapeut	SSms1
psychoterapeut	psychoterapeut	SSms5
psychoterapeut	psychoterapeuta	SSms2
psychoterapeut	psychoterapeuta	SSms4
psychoterapeut	psychoterapeuti	SSmp1
psychoterapeut	psychoterapeuti	SSmp5
psychoterapeutický	psychoterapeutickej	AAfs2x
psychoterapeutický	psychoterapeutickej	AAfs3x
psychoterapeutický	psychoterapeutickej	AAfs6x
psychoterapeutický	psychoterapeutickom	AAms6x
psychoterapeutický	psychoterapeutickom	AAis6x
psychoterapeutický	psychoterapeutickom	AAns6x
psychoterapeutický	psychoterapeutickou	AAfs7x
psychoterapeuticky	psychoterapeuticky	Dx
psychoterapeutický	psychoterapeutická	AAfs1x
psychoterapeutický	psychoterapeutická	AAfs5x
psychoterapeutický	psychoterapeutické	AAip1x
psychoterapeutický	psychoterapeutické	AAip4x
psychoterapeutický	psychoterapeutické	AAip5x
psychoterapeutický	psychoterapeutické	AAfp1x
psychoterapeutický	psychoterapeutické	AAfp4x
psychoterapeutický	psychoterapeutické	AAfp5x
psychoterapeutický	psychoterapeutické	AAns1x
psychoterapeutický	psychoterapeutické	AAns4x
psychoterapeutický	psychoterapeutické	AAns5x
psychoterapeutický	psychoterapeutické	AAnp1x
psychoterapeutický	psychoterapeutické	AAnp4x
psychoterapeutický	psychoterapeutické	AAnp5x
psychoterapeutický	psychoterapeutického	AAms2x
psychoterapeutický	psychoterapeutického	AAms4x
psychoterapeutický	psychoterapeutického	AAis2x
psychoterapeutický	psychoterapeutického	AAns2x
psychoterapeutický	psychoterapeutickému	AAms3x
psychoterapeutický	psychoterapeutickému	AAis3x
psychoterapeutický	psychoterapeutickému	AAns3x
psychoterapeutický	psychoterapeutickí	AAmp1x
psychoterapeutický	psychoterapeutickí	AAmp5x
psychoterapeutický	psychoterapeutickú	AAfs4x
psychoterapeutický	psychoterapeutický	AAms1x
psychoterapeutický	psychoterapeutický	AAms5x
psychoterapeutický	psychoterapeutický	AAis1x
psychoterapeutický	psychoterapeutický	AAis4x
psychoterapeutický	psychoterapeutický	AAis5x
psychoterapeutický	psychoterapeutických	AAmp2x
psychoterapeutický	psychoterapeutických	AAmp4x
psychoterapeutický	psychoterapeutických	AAmp6x
psychoterapeutický	psychoterapeutických	AAip2x
psychoterapeutický	psychoterapeutických	AAip6x
psychoterapeutický	psychoterapeutických	AAfp2x
psychoterapeutický	psychoterapeutických	AAfp6x
psychoterapeutický	psychoterapeutických	AAnp2x
psychoterapeutický	psychoterapeutických	AAnp6x
psychoterapeutický	psychoterapeutickým	AAms7x
psychoterapeutický	psychoterapeutickým	AAmp3x
psychoterapeutický	psychoterapeutickým	AAis7x
psychoterapeutický	psychoterapeutickým	AAip3x
psychoterapeutický	psychoterapeutickým	AAfp3x
psychoterapeutický	psychoterapeutickým	AAns7x
psychoterapeutický	psychoterapeutickým	AAnp3x
psychoterapeutický	psychoterapeutickými	AAmp7x
psychoterapeutický	psychoterapeutickými	AAip7x
psychoterapeutický	psychoterapeutickými	AAfp7x
psychoterapeutický	psychoterapeutickými	AAnp7x
psychoterapeutka	psychoterapeutiek	SSfp2
psychoterapeutka	psychoterapeutka	SSfs1
psychoterapeutka	psychoterapeutka	SSfs5
psychoterapeutka	psychoterapeutkami	SSfp7
psychoterapeutka	psychoterapeutke	SSfs3
psychoterapeutka	psychoterapeutke	SSfs6
psychoterapeutka	psychoterapeutkou	SSfs7
psychoterapeutka	psychoterapeutku	SSfs4
psychoterapeutka	psychoterapeutky	SSfs2
psychoterapeutka	psychoterapeutky	SSfp1
psychoterapeutka	psychoterapeutky	SSfp4
psychoterapeutka	psychoterapeutky	SSfp5
psychoterapeutka	psychoterapeutkách	SSfp6
psychoterapeutka	psychoterapeutkám	SSfp3
psychoterapeut	psychoterapeutmi	SSmp7
psychoterapeut	psychoterapeutoch	SSmp6
psychoterapeut	psychoterapeutom	SSms7
psychoterapeut	psychoterapeutom	SSmp3
psychoterapeut	psychoterapeutov	SSmp2
psychoterapeut	psychoterapeutov	SSmp4
psychoterapeut	psychoterapeutovi	SSms3
psychoterapeut	psychoterapeutovi	SSms6
psychoterapia	psychoterapia	SSfs1
psychoterapia	psychoterapia	SSfs5
psychoterapia	psychoterapiami	SSfp7
psychoterapia	psychoterapie	SSfs2
psychoterapia	psychoterapie	SSfp1
psychoterapia	psychoterapie	SSfp4
psychoterapia	psychoterapie	SSfp5
psychoterapia	psychoterapii	SSfs3
psychoterapia	psychoterapii	SSfs6
psychoterapia	psychoterapiou	SSfs7
psychoterapia	psychoterapiu	SSfs4
psychoterapia	psychoterapiách	SSfp6
psychoterapia	psychoterapiám	SSfp3
psychoterapia	psychoterapií	SSfp2
psychotest	psychotest	SSis1
psychotest	psychotest	SSis4
psychotest	psychotest	SSis5
psychotest	psychoteste	SSis6
psychotest	psychotestmi	SSip7
psychotest	psychotestoch	SSip6
psychotest	psychotestom	SSis7
psychotest	psychotestom	SSip3
psychotest	psychotestov	SSip2
psychotest	psychotestu	SSis2
psychotest	psychotestu	SSis3
psychotest	psychotesty	SSip1
psychotest	psychotesty	SSip4
psychotest	psychotesty	SSip5
psychotronik	psychotronici	SSmp1
psychotronik	psychotronici	SSmp5
psychotronický	psychotronickej	AAfs2x
psychotronický	psychotronickej	AAfs3x
psychotronický	psychotronickej	AAfs6x
psychotronický	psychotronickom	AAms6x
psychotronický	psychotronickom	AAis6x
psychotronický	psychotronickom	AAns6x
psychotronický	psychotronickou	AAfs7x
psychotronický	psychotronická	AAfs1x
psychotronický	psychotronická	AAfs5x
psychotronický	psychotronické	AAip1x
psychotronický	psychotronické	AAip4x
psychotronický	psychotronické	AAip5x
psychotronický	psychotronické	AAfp1x
psychotronický	psychotronické	AAfp4x
psychotronický	psychotronické	AAfp5x
psychotronický	psychotronické	AAns1x
psychotronický	psychotronické	AAns4x
psychotronický	psychotronické	AAns5x
psychotronický	psychotronické	AAnp1x
psychotronický	psychotronické	AAnp4x
psychotronický	psychotronické	AAnp5x
psychotronický	psychotronického	AAms2x
psychotronický	psychotronického	AAms4x
psychotronický	psychotronického	AAis2x
psychotronický	psychotronického	AAns2x
psychotronický	psychotronickému	AAms3x
psychotronický	psychotronickému	AAis3x
psychotronický	psychotronickému	AAns3x
psychotronický	psychotronickí	AAmp1x
psychotronický	psychotronickí	AAmp5x
psychotronický	psychotronickú	AAfs4x
psychotronický	psychotronický	AAms1x
psychotronický	psychotronický	AAms5x
psychotronický	psychotronický	AAis1x
psychotronický	psychotronický	AAis4x
psychotronický	psychotronický	AAis5x
psychotronický	psychotronických	AAmp2x
psychotronický	psychotronických	AAmp4x
psychotronický	psychotronických	AAmp6x
psychotronický	psychotronických	AAip2x
psychotronický	psychotronických	AAip6x
psychotronický	psychotronických	AAfp2x
psychotronický	psychotronických	AAfp6x
psychotronický	psychotronických	AAnp2x
psychotronický	psychotronických	AAnp6x
psychotronický	psychotronickým	AAms7x
psychotronický	psychotronickým	AAmp3x
psychotronický	psychotronickým	AAis7x
psychotronický	psychotronickým	AAip3x
psychotronický	psychotronickým	AAfp3x
psychotronický	psychotronickým	AAns7x
psychotronický	psychotronickým	AAnp3x
psychotronický	psychotronickými	AAmp7x
psychotronický	psychotronickými	AAip7x
psychotronický	psychotronickými	AAfp7x
psychotronický	psychotronickými	AAnp7x
psychotronik	psychotronik	SSms1
psychotronik	psychotronik	SSms5
psychotronik	psychotronika	SSms2
psychotronik	psychotronika	SSms4
psychotronika	psychotronika	SSfs1
psychotronika	psychotronika	SSfs5
psychotronika	psychotronikami	SSfp7
psychotronika	psychotronike	SSfs3
psychotronika	psychotronike	SSfs6
psychotronik	psychotronikmi	SSmp7
psychotronik	psychotronikoch	SSmp6
psychotronik	psychotronikom	SSms7
psychotronik	psychotronikom	SSmp3
psychotronika	psychotronikou	SSfs7
psychotronik	psychotronikov	SSmp2
psychotronik	psychotronikov	SSmp4
psychotronik	psychotronikovi	SSms3
psychotronik	psychotronikovi	SSms6
psychotronika	psychotroniku	SSfs4
psychotronika	psychotroniky	SSfs2
psychotronika	psychotroniky	SSfp1
psychotronika	psychotroniky	SSfp4
psychotronika	psychotroniky	SSfp5
psychotronika	psychotronikách	SSfp6
psychotronika	psychotronikám	SSfp3
psychotronička	psychotroničiek	SSfp2
psychotronička	psychotronička	SSfs1
psychotronička	psychotronička	SSfs5
psychotronička	psychotroničkami	SSfp7
psychotronička	psychotroničke	SSfs3
psychotronička	psychotroničke	SSfs6
psychotronička	psychotroničkou	SSfs7
psychotronička	psychotroničku	SSfs4
psychotronička	psychotroničky	SSfs2
psychotronička	psychotroničky	SSfp1
psychotronička	psychotroničky	SSfp4
psychotronička	psychotroničky	SSfp5
psychotronička	psychotroničkách	SSfp6
psychotronička	psychotroničkám	SSfp3
psychotronika	psychotroník	SSfp2
psychotropne	psychotropne	Dx
psychotropný	psychotropnej	AAfs2x
psychotropný	psychotropnej	AAfs3x
psychotropný	psychotropnej	AAfs6x
psychotropne	psychotropnejšie	Dy
psychotropný	psychotropnom	AAms6x
psychotropný	psychotropnom	AAis6x
psychotropný	psychotropnom	AAns6x
psychotropný	psychotropnou	AAfs7x
psychotropný	psychotropná	AAfs1x
psychotropný	psychotropná	AAfs5x
psychotropný	psychotropné	AAip1x
psychotropný	psychotropné	AAip4x
psychotropný	psychotropné	AAip5x
psychotropný	psychotropné	AAfp1x
psychotropný	psychotropné	AAfp4x
psychotropný	psychotropné	AAfp5x
psychotropný	psychotropné	AAns1x
psychotropný	psychotropné	AAns4x
psychotropný	psychotropné	AAns5x
psychotropný	psychotropné	AAnp1x
psychotropný	psychotropné	AAnp4x
psychotropný	psychotropné	AAnp5x
psychotropný	psychotropného	AAms2x
psychotropný	psychotropného	AAms4x
psychotropný	psychotropného	AAis2x
psychotropný	psychotropného	AAns2x
psychotropný	psychotropnému	AAms3x
psychotropný	psychotropnému	AAis3x
psychotropný	psychotropnému	AAns3x
psychotropný	psychotropní	AAmp1x
psychotropný	psychotropní	AAmp5x
psychotropný	psychotropnú	AAfs4x
psychotropný	psychotropný	AAms1x
psychotropný	psychotropný	AAms5x
psychotropný	psychotropný	AAis1x
psychotropný	psychotropný	AAis4x
psychotropný	psychotropný	AAis5x
psychotropný	psychotropných	AAmp2x
psychotropný	psychotropných	AAmp4x
psychotropný	psychotropných	AAmp6x
psychotropný	psychotropných	AAip2x
psychotropný	psychotropných	AAip6x
psychotropný	psychotropných	AAfp2x
psychotropný	psychotropných	AAfp6x
psychotropný	psychotropných	AAnp2x
psychotropný	psychotropných	AAnp6x
psychotropný	psychotropným	AAms7x
psychotropný	psychotropným	AAmp3x
psychotropný	psychotropným	AAis7x
psychotropný	psychotropným	AAip3x
psychotropný	psychotropným	AAfp3x
psychotropný	psychotropným	AAns7x
psychotropný	psychotropným	AAnp3x
psychotropný	psychotropnými	AAmp7x
psychotropný	psychotropnými	AAip7x
psychotropný	psychotropnými	AAfp7x
psychotropný	psychotropnými	AAnp7x
psychika	psychík	SSfp2
psychóza	psychóz	SSfp2
psychóza	psychóza	SSfs1
psychóza	psychóza	SSfs5
psychóza	psychózach	SSfp6
psychóza	psychózam	SSfp3
psychóza	psychózami	SSfp7
psychóza	psychóze	SSfs3
psychóza	psychóze	SSfs6
psychóza	psychózou	SSfs7
psychóza	psychózu	SSfs4
psychóza	psychózy	SSfs2
psychóza	psychózy	SSfp1
psychóza	psychózy	SSfp4
psychóza	psychózy	SSfp5
psí	psí	AAms1x
psí	psí	AAms5x
psí	psí	AAmp1x
psí	psí	AAmp5x
psí	psí	AAis1x
psí	psí	AAis4x
psí	psí	AAis5x
psí	psí	SUns1
psí	psí	SUns2
psí	psí	SUns3
psí	psí	SUns4
psí	psí	SUns5
psí	psí	SUns6
psí	psí	SUns7
psí	psí	SUnp1
psí	psí	SUnp2
psí	psí	SUnp3
psí	psí	SUnp4
psí	psí	SUnp5
psí	psí	SUnp6
psí	psí	SUnp7
psica	psíc	SSfp2
psí	psích	AAmp2x
psí	psích	AAmp4x
psí	psích	AAmp6x
psí	psích	AAip2x
psí	psích	AAip6x
psí	psích	AAfp2x
psí	psích	AAfp6x
psí	psích	AAnp2x
psí	psích	AAnp6x
psík	psíci	SSip1
psík	psík	SSms1
psík	psík	SSms5
psík	psíka	SSms2
psík	psíka	SSms4
psík	psíkmi	SSip7
psík	psíkoch	SSip6
psík	psíkom	SSms7
psík	psíkom	SSip3
psík	psíkov	SSip2
psík	psíkov	SSip4
psík	psíkovi	SSms3
psík	psíkovi	SSms6
psík	psíky	SSip1
psík	psíky	SSip4
psík	psíky	SSip5
psí	psím	AAms7x
psí	psím	AAmp3x
psí	psím	AAis7x
psí	psím	AAip3x
psí	psím	AAfp3x
psí	psím	AAns7x
psí	psím	AAnp3x
psí	psími	AAmp7x
psí	psími	AAip7x
psí	psími	AAfp7x
psí	psími	AAnp7x
psina	psín	SSfp2
psisko	psísk	SSnp2
psíča	psíča	SSns1
psíča	psíča	SSns4
psíča	psíča	SSns5
psíča	psíčat	SSnp2
psíča	psíčatami	SSnp7
psíča	psíčati	SSns6
psíča	psíčatá	SSnp1
psíča	psíčatá	SSnp4
psíča	psíčatá	SSnp5
psíča	psíčatách	SSnp6
psíča	psíčatám	SSnp3
psíča	psíčaťa	SSns2
psíča	psíčaťom	SSns7
psíča	psíčaťu	SSns3
psíček	psíček	SSms1
psíček	psíček	SSms5
psíča	psíčencami	SSnp7
psíča	psíčence	SSnp1
psíča	psíčence	SSnp4
psíča	psíčence	SSnp5
psíča	psíčencoch	SSnp6
psíča	psíčencom	SSnp3
psíča	psíčeniec	SSnp2
psíček	psíčka	SSms2
psíček	psíčka	SSms4
psíček	psíčkami	SSip7
psíček	psíčkoch	SSip6
psíček	psíčkom	SSms7
psíček	psíčkom	SSip3
psíček	psíčkov	SSip2
psíček	psíčkov	SSip5
psíček	psíčkovi	SSms3
psíček	psíčkovi	SSms6
psíček	psíčkovia	SSip1
psíček	psíčky	SSip1
psíček	psíčky	SSip4
psíček	psíčky	SSip5
psota	psôt	SSfp2
pšeno	pšen	SSnp2
pšeno	pšena	SSns2
pšeno	pšenami	SSnp7
pšeno	pšene	SSns6
pšenica	pšenica	SSfs1
pšenica	pšenica	SSfs5
pšenica	pšenicami	SSfp7
pšenica	pšenice	SSfs2
pšenica	pšenice	SSfp1
pšenica	pšenice	SSfp4
pšenica	pšenice	SSfp5
pšenica	pšenici	SSfs3
pšenica	pšenici	SSfs6
pšenica	pšeniciach	SSfp6
pšenica	pšeniciam	SSfp3
pšenica	pšenicou	SSfs7
pšenica	pšenicu	SSfs4
pšeničný	pšeničnej	AAfs2x
pšeničný	pšeničnej	AAfs3x
pšeničný	pšeničnej	AAfs6x
pšeničný	pšeničnom	AAms6x
pšeničný	pšeničnom	AAis6x
pšeničný	pšeničnom	AAns6x
pšeničný	pšeničnou	AAfs7x
pšeničný	pšeničná	AAfs1x
pšeničný	pšeničná	AAfs5x
pšeničný	pšeničné	AAip1x
pšeničný	pšeničné	AAip4x
pšeničný	pšeničné	AAip5x
pšeničný	pšeničné	AAfp1x
pšeničný	pšeničné	AAfp4x
pšeničný	pšeničné	AAfp5x
pšeničný	pšeničné	AAns1x
pšeničný	pšeničné	AAns4x
pšeničný	pšeničné	AAns5x
pšeničný	pšeničné	AAnp1x
pšeničný	pšeničné	AAnp4x
pšeničný	pšeničné	AAnp5x
pšeničný	pšeničného	AAms2x
pšeničný	pšeničného	AAms4x
pšeničný	pšeničného	AAis2x
pšeničný	pšeničného	AAns2x
pšeničný	pšeničnému	AAms3x
pšeničný	pšeničnému	AAis3x
pšeničný	pšeničnému	AAns3x
pšeničný	pšeniční	AAmp1x
pšeničný	pšeniční	AAmp5x
pšeničný	pšeničnú	AAfs4x
pšeničný	pšeničný	AAms1x
pšeničný	pšeničný	AAms5x
pšeničný	pšeničný	AAis1x
pšeničný	pšeničný	AAis4x
pšeničný	pšeničný	AAis5x
pšeničný	pšeničných	AAmp2x
pšeničný	pšeničných	AAmp4x
pšeničný	pšeničných	AAmp6x
pšeničný	pšeničných	AAip2x
pšeničný	pšeničných	AAip6x
pšeničný	pšeničných	AAfp2x
pšeničný	pšeničných	AAfp6x
pšeničný	pšeničných	AAnp2x
pšeničný	pšeničných	AAnp6x
pšeničný	pšeničným	AAms7x
pšeničný	pšeničným	AAmp3x
pšeničný	pšeničným	AAis7x
pšeničný	pšeničným	AAip3x
pšeničný	pšeničným	AAfp3x
pšeničný	pšeničným	AAns7x
pšeničný	pšeničným	AAnp3x
pšeničný	pšeničnými	AAmp7x
pšeničný	pšeničnými	AAip7x
pšeničný	pšeničnými	AAfp7x
pšeničný	pšeničnými	AAnp7x
pšenný	pšennej	AAfs2x
pšenný	pšennej	AAfs3x
pšenný	pšennej	AAfs6x
pšenný	pšennom	AAms6x
pšenný	pšennom	AAis6x
pšenný	pšennom	AAns6x
pšenný	pšennou	AAfs7x
pšenný	pšenná	AAfs1x
pšenný	pšenná	AAfs5x
pšenný	pšenné	AAip1x
pšenný	pšenné	AAip4x
pšenný	pšenné	AAip5x
pšenný	pšenné	AAfp1x
pšenný	pšenné	AAfp4x
pšenný	pšenné	AAfp5x
pšenný	pšenné	AAns1x
pšenný	pšenné	AAns4x
pšenný	pšenné	AAns5x
pšenný	pšenné	AAnp1x
pšenný	pšenné	AAnp4x
pšenný	pšenné	AAnp5x
pšenný	pšenného	AAms2x
pšenný	pšenného	AAms4x
pšenný	pšenného	AAis2x
pšenný	pšenného	AAns2x
pšenný	pšennému	AAms3x
pšenný	pšennému	AAis3x
pšenný	pšennému	AAns3x
pšenný	pšenní	AAmp1x
pšenný	pšenní	AAmp5x
pšenný	pšennú	AAfs4x
pšenný	pšenný	AAms1x
pšenný	pšenný	AAms5x
pšenný	pšenný	AAis1x
pšenný	pšenný	AAis4x
pšenný	pšenný	AAis5x
pšenný	pšenných	AAmp2x
pšenný	pšenných	AAmp4x
pšenný	pšenných	AAmp6x
pšenný	pšenných	AAip2x
pšenný	pšenných	AAip6x
pšenný	pšenných	AAfp2x
pšenný	pšenných	AAfp6x
pšenný	pšenných	AAnp2x
pšenný	pšenných	AAnp6x
pšenný	pšenným	AAms7x
pšenný	pšenným	AAmp3x
pšenný	pšenným	AAis7x
pšenný	pšenným	AAip3x
pšenný	pšenným	AAfp3x
pšenný	pšenným	AAns7x
pšenný	pšenným	AAnp3x
pšenný	pšennými	AAmp7x
pšenný	pšennými	AAip7x
pšenný	pšennými	AAfp7x
pšenný	pšennými	AAnp7x
pšeno	pšeno	SSns1
pšeno	pšeno	SSns4
pšeno	pšeno	SSns5
pšeno	pšenom	SSns7
pšenový	pšenovej	AAfs2x
pšenový	pšenovej	AAfs3x
pšenový	pšenovej	AAfs6x
pšenový	pšenovom	AAms6x
pšenový	pšenovom	AAis6x
pšenový	pšenovom	AAns6x
pšenový	pšenovou	AAfs7x
pšenový	pšenová	AAfs1x
pšenový	pšenová	AAfs5x
pšenový	pšenové	AAip1x
pšenový	pšenové	AAip4x
pšenový	pšenové	AAip5x
pšenový	pšenové	AAfp1x
pšenový	pšenové	AAfp4x
pšenový	pšenové	AAfp5x
pšenový	pšenové	AAns1x
pšenový	pšenové	AAns4x
pšenový	pšenové	AAns5x
pšenový	pšenové	AAnp1x
pšenový	pšenové	AAnp4x
pšenový	pšenové	AAnp5x
pšenový	pšenového	AAms2x
pšenový	pšenového	AAms4x
pšenový	pšenového	AAis2x
pšenový	pšenového	AAns2x
pšenový	pšenovému	AAms3x
pšenový	pšenovému	AAis3x
pšenový	pšenovému	AAns3x
pšenový	pšenoví	AAmp1x
pšenový	pšenoví	AAmp5x
pšenový	pšenovú	AAfs4x
pšenový	pšenový	AAms1x
pšenový	pšenový	AAms5x
pšenový	pšenový	AAis1x
pšenový	pšenový	AAis4x
pšenový	pšenový	AAis5x
pšenový	pšenových	AAmp2x
pšenový	pšenových	AAmp4x
pšenový	pšenových	AAmp6x
pšenový	pšenových	AAip2x
pšenový	pšenových	AAip6x
pšenový	pšenových	AAfp2x
pšenový	pšenových	AAfp6x
pšenový	pšenových	AAnp2x
pšenový	pšenových	AAnp6x
pšenový	pšenovým	AAms7x
pšenový	pšenovým	AAmp3x
pšenový	pšenovým	AAis7x
pšenový	pšenovým	AAip3x
pšenový	pšenovým	AAfp3x
pšenový	pšenovým	AAns7x
pšenový	pšenovým	AAnp3x
pšenový	pšenovými	AAmp7x
pšenový	pšenovými	AAip7x
pšenový	pšenovými	AAfp7x
pšenový	pšenovými	AAnp7x
pšeno	pšenu	SSns3
pšeno	pšená	SSnp1
pšeno	pšená	SSnp4
pšeno	pšená	SSnp5
pšeno	pšenách	SSnp6
pšeno	pšenám	SSnp3
pšenica	pšeníc	SSfp2
pštros	pštros	SSms1
pštros	pštros	SSms5
pštros	pštrosa	SSms2
pštros	pštrosa	SSms4
pštrosí	pštrosej	AAfs2x
pštrosí	pštrosej	AAfs3x
pštrosí	pštrosej	AAfs6x
pštrosí	pštrosia	AAfs1x
pštrosí	pštrosia	AAfs5x
pštrosí	pštrosie	AAip1x
pštrosí	pštrosie	AAip4x
pštrosí	pštrosie	AAip5x
pštrosí	pštrosie	AAfp1x
pštrosí	pštrosie	AAfp4x
pštrosí	pštrosie	AAfp5x
pštrosí	pštrosie	AAns1x
pštrosí	pštrosie	AAns4x
pštrosí	pštrosie	AAns5x
pštrosí	pštrosie	AAnp1x
pštrosí	pštrosie	AAnp4x
pštrosí	pštrosie	AAnp5x
pštrosí	pštrosieho	AAms2x
pštrosí	pštrosieho	AAms4x
pštrosí	pštrosieho	AAis2x
pštrosí	pštrosieho	AAns2x
pštrosí	pštrosiemu	AAms3x
pštrosí	pštrosiemu	AAis3x
pštrosí	pštrosiemu	AAns3x
pštrosí	pštrosiu	AAfs4x
pštros	pštrosmi	SSip7
pštros	pštrosoch	SSip6
pštros	pštrosom	SSms7
pštros	pštrosom	SSip3
pštrosí	pštrosom	AAms6x
pštrosí	pštrosom	AAis6x
pštrosí	pštrosom	AAns6x
pštrosí	pštrosou	AAfs7x
pštros	pštrosov	SSip2
pštros	pštrosovi	SSms3
pštros	pštrosovi	SSms6
pštros	pštrosy	SSip1
pštros	pštrosy	SSip4
pštros	pštrosy	SSip5
pštrosí	pštrosí	AAms1x
pštrosí	pštrosí	AAms5x
pštrosí	pštrosí	AAmp1x
pštrosí	pštrosí	AAmp5x
pštrosí	pštrosí	AAis1x
pštrosí	pštrosí	AAis4x
pštrosí	pštrosí	AAis5x
pštrosí	pštrosích	AAmp2x
pštrosí	pštrosích	AAmp4x
pštrosí	pštrosích	AAmp6x
pštrosí	pštrosích	AAip2x
pštrosí	pštrosích	AAip6x
pštrosí	pštrosích	AAfp2x
pštrosí	pštrosích	AAfp6x
pštrosí	pštrosích	AAnp2x
pštrosí	pštrosích	AAnp6x
pštrosí	pštrosím	AAms7x
pštrosí	pštrosím	AAmp3x
pštrosí	pštrosím	AAis7x
pštrosí	pštrosím	AAip3x
pštrosí	pštrosím	AAfp3x
pštrosí	pštrosím	AAns7x
pštrosí	pštrosím	AAnp3x
pštrosí	pštrosími	AAmp7x
pštrosí	pštrosími	AAip7x
pštrosí	pštrosími	AAfp7x
pštrosí	pštrosími	AAnp7x
pštrosíča	pštrosíča	SSns1
pštrosíča	pštrosíča	SSns4
pštrosíča	pštrosíča	SSns5
pštrosíča	pštrosíčat	SSnp2
pštrosíča	pštrosíčatami	SSnp7
pštrosíča	pštrosíčati	SSns6
pštrosíča	pštrosíčatá	SSnp1
pštrosíča	pštrosíčatá	SSnp4
pštrosíča	pštrosíčatá	SSnp5
pštrosíča	pštrosíčatách	SSnp6
pštrosíča	pštrosíčatám	SSnp3
pštrosíča	pštrosíčaťa	SSns2
pštrosíča	pštrosíčaťom	SSns7
pštrosíča	pštrosíčaťu	SSns3
pštrosíča	pštrosíčencami	SSnp7
pštrosíča	pštrosíčence	SSnp1
pštrosíča	pštrosíčence	SSnp4
pštrosíča	pštrosíčence	SSnp5
pštrosíča	pštrosíčencoch	SSnp6
pštrosíča	pštrosíčencom	SSnp3
pštrosíča	pštrosíčeniec	SSnp2
