VK	VK	W
VKP	VKP	W
vklad	vklad	SSis1
vklad	vklad	SSis4
vklad	vklad	SSis5
vkladať	vkladaj	VMesb+
vkladať	vkladajme	VMepa+
vkladať	vkladajte	VMepb+
vkladať	vkladajú	VKepc+
vkladať	vkladajúc	VHe+
vkladať	vkladal	VLesam+
vkladať	vkladal	VLesai+
vkladať	vkladal	VLesbm+
vkladať	vkladal	VLesbi+
vkladať	vkladal	VLescm+
vkladať	vkladal	VLesci+
vkladať	vkladala	VLesaf+
vkladať	vkladala	VLesbf+
vkladať	vkladala	VLescf+
vkladať	vkladali	VLepah+
vkladať	vkladali	VLepbh+
vkladať	vkladali	VLepcm+
vkladať	vkladali	VLepci+
vkladať	vkladali	VLepcf+
vkladať	vkladali	VLepcn+
vkladať	vkladali	VLepco+
vkladať	vkladalo	VLesan+
vkladať	vkladalo	VLesbn+
vkladať	vkladalo	VLescn+
vkladateľ	vkladatelia	SSmp1
vkladateľ	vkladatelia	SSmp5
vkladateľka	vkladateliek	SSfp2
vkladateľ	vkladateľ	SSms1
vkladateľ	vkladateľ	SSms5
vkladateľ	vkladateľa	SSms2
vkladateľ	vkladateľa	SSms4
vkladateľka	vkladateľka	SSfs1
vkladateľka	vkladateľka	SSfs5
vkladateľka	vkladateľkami	SSfp7
vkladateľka	vkladateľke	SSfs3
vkladateľka	vkladateľke	SSfs6
vkladateľka	vkladateľkou	SSfs7
vkladateľka	vkladateľku	SSfs4
vkladateľka	vkladateľky	SSfs2
vkladateľka	vkladateľky	SSfp1
vkladateľka	vkladateľky	SSfp4
vkladateľka	vkladateľky	SSfp5
vkladateľka	vkladateľkách	SSfp6
vkladateľka	vkladateľkám	SSfp3
vkladateľ	vkladateľmi	SSmp7
vkladateľ	vkladateľoch	SSmp6
vkladateľ	vkladateľom	SSms7
vkladateľ	vkladateľom	SSmp3
vkladateľ	vkladateľov	SSmp2
vkladateľ	vkladateľov	SSmp4
vkladateľ	vkladateľovi	SSms3
vkladateľ	vkladateľovi	SSms6
vkladateľský	vkladateľskej	AAfs2x
vkladateľský	vkladateľskej	AAfs3x
vkladateľský	vkladateľskej	AAfs6x
vkladateľský	vkladateľskom	AAms6x
vkladateľský	vkladateľskom	AAis6x
vkladateľský	vkladateľskom	AAns6x
vkladateľský	vkladateľskou	AAfs7x
vkladateľský	vkladateľská	AAfs1x
vkladateľský	vkladateľská	AAfs5x
vkladateľský	vkladateľské	AAip1x
vkladateľský	vkladateľské	AAip4x
vkladateľský	vkladateľské	AAip5x
vkladateľský	vkladateľské	AAfp1x
vkladateľský	vkladateľské	AAfp4x
vkladateľský	vkladateľské	AAfp5x
vkladateľský	vkladateľské	AAns1x
vkladateľský	vkladateľské	AAns4x
vkladateľský	vkladateľské	AAns5x
vkladateľský	vkladateľské	AAnp1x
vkladateľský	vkladateľské	AAnp4x
vkladateľský	vkladateľské	AAnp5x
vkladateľský	vkladateľského	AAms2x
vkladateľský	vkladateľského	AAms4x
vkladateľský	vkladateľského	AAis2x
vkladateľský	vkladateľského	AAns2x
vkladateľský	vkladateľskému	AAms3x
vkladateľský	vkladateľskému	AAis3x
vkladateľský	vkladateľskému	AAns3x
vkladateľský	vkladateľskí	AAmp1x
vkladateľský	vkladateľskí	AAmp5x
vkladateľský	vkladateľskú	AAfs4x
vkladateľský	vkladateľský	AAms1x
vkladateľský	vkladateľský	AAms5x
vkladateľský	vkladateľský	AAis1x
vkladateľský	vkladateľský	AAis4x
vkladateľský	vkladateľský	AAis5x
vkladateľský	vkladateľských	AAmp2x
vkladateľský	vkladateľských	AAmp4x
vkladateľský	vkladateľských	AAmp6x
vkladateľský	vkladateľských	AAip2x
vkladateľský	vkladateľských	AAip6x
vkladateľský	vkladateľských	AAfp2x
vkladateľský	vkladateľských	AAfp6x
vkladateľský	vkladateľských	AAnp2x
vkladateľský	vkladateľských	AAnp6x
vkladateľský	vkladateľským	AAms7x
vkladateľský	vkladateľským	AAmp3x
vkladateľský	vkladateľským	AAis7x
vkladateľský	vkladateľským	AAip3x
vkladateľský	vkladateľským	AAfp3x
vkladateľský	vkladateľským	AAns7x
vkladateľský	vkladateľským	AAnp3x
vkladateľský	vkladateľskými	AAmp7x
vkladateľský	vkladateľskými	AAip7x
vkladateľský	vkladateľskými	AAfp7x
vkladateľský	vkladateľskými	AAnp7x
vkladať	vkladať	VIe+
vklad	vklade	SSis6
vklad	vkladmi	SSip7
vkladný	vkladnej	AAfs2x
vkladný	vkladnej	AAfs3x
vkladný	vkladnej	AAfs6x
vkladný	vkladnom	AAms6x
vkladný	vkladnom	AAis6x
vkladný	vkladnom	AAns6x
vkladný	vkladnou	AAfs7x
vkladný	vkladná	AAfs1x
vkladný	vkladná	AAfs5x
vkladný	vkladné	AAip1x
vkladný	vkladné	AAip4x
vkladný	vkladné	AAip5x
vkladný	vkladné	AAfp1x
vkladný	vkladné	AAfp4x
vkladný	vkladné	AAfp5x
vkladný	vkladné	AAns1x
vkladný	vkladné	AAns4x
vkladný	vkladné	AAns5x
vkladný	vkladné	AAnp1x
vkladný	vkladné	AAnp4x
vkladný	vkladné	AAnp5x
vkladný	vkladného	AAms2x
vkladný	vkladného	AAms4x
vkladný	vkladného	AAis2x
vkladný	vkladného	AAns2x
vkladný	vkladnému	AAms3x
vkladný	vkladnému	AAis3x
vkladný	vkladnému	AAns3x
vkladný	vkladní	AAmp1x
vkladný	vkladní	AAmp5x
vkladný	vkladnú	AAfs4x
vkladný	vkladný	AAms1x
vkladný	vkladný	AAms5x
vkladný	vkladný	AAis1x
vkladný	vkladný	AAis4x
vkladný	vkladný	AAis5x
vkladný	vkladných	AAmp2x
vkladný	vkladných	AAmp4x
vkladný	vkladných	AAmp6x
vkladný	vkladných	AAip2x
vkladný	vkladných	AAip6x
vkladný	vkladných	AAfp2x
vkladný	vkladných	AAfp6x
vkladný	vkladných	AAnp2x
vkladný	vkladných	AAnp6x
vkladný	vkladným	AAms7x
vkladný	vkladným	AAmp3x
vkladný	vkladným	AAis7x
vkladný	vkladným	AAip3x
vkladný	vkladným	AAfp3x
vkladný	vkladným	AAns7x
vkladný	vkladným	AAnp3x
vkladný	vkladnými	AAmp7x
vkladný	vkladnými	AAip7x
vkladný	vkladnými	AAfp7x
vkladný	vkladnými	AAnp7x
vklad	vkladoch	SSip6
vklad	vkladom	SSis7
vklad	vkladom	SSip3
vklad	vkladov	SSip2
vkladový	vkladovej	AAfs2x
vkladový	vkladovej	AAfs3x
vkladový	vkladovej	AAfs6x
vkladový	vkladovom	AAms6x
vkladový	vkladovom	AAis6x
vkladový	vkladovom	AAns6x
vkladový	vkladovou	AAfs7x
vkladový	vkladová	AAfs1x
vkladový	vkladová	AAfs5x
vkladový	vkladové	AAip1x
vkladový	vkladové	AAip4x
vkladový	vkladové	AAip5x
vkladový	vkladové	AAfp1x
vkladový	vkladové	AAfp4x
vkladový	vkladové	AAfp5x
vkladový	vkladové	AAns1x
vkladový	vkladové	AAns4x
vkladový	vkladové	AAns5x
vkladový	vkladové	AAnp1x
vkladový	vkladové	AAnp4x
vkladový	vkladové	AAnp5x
vkladový	vkladového	AAms2x
vkladový	vkladového	AAms4x
vkladový	vkladového	AAis2x
vkladový	vkladového	AAns2x
vkladový	vkladovému	AAms3x
vkladový	vkladovému	AAis3x
vkladový	vkladovému	AAns3x
vkladový	vkladoví	AAmp1x
vkladový	vkladoví	AAmp5x
vkladový	vkladovú	AAfs4x
vkladový	vkladový	AAms1x
vkladový	vkladový	AAms5x
vkladový	vkladový	AAis1x
vkladový	vkladový	AAis4x
vkladový	vkladový	AAis5x
vkladový	vkladových	AAmp2x
vkladový	vkladových	AAmp4x
vkladový	vkladových	AAmp6x
vkladový	vkladových	AAip2x
vkladový	vkladových	AAip6x
vkladový	vkladových	AAfp2x
vkladový	vkladových	AAfp6x
vkladový	vkladových	AAnp2x
vkladový	vkladových	AAnp6x
vkladový	vkladovým	AAms7x
vkladový	vkladovým	AAmp3x
vkladový	vkladovým	AAis7x
vkladový	vkladovým	AAip3x
vkladový	vkladovým	AAfp3x
vkladový	vkladovým	AAns7x
vkladový	vkladovým	AAnp3x
vkladový	vkladovými	AAmp7x
vkladový	vkladovými	AAip7x
vkladový	vkladovými	AAfp7x
vkladový	vkladovými	AAnp7x
vklad	vkladu	SSis2
vklad	vkladu	SSis3
vklad	vklady	SSip1
vklad	vklady	SSip4
vklad	vklady	SSip5
vkladať	vkladá	VKesc+
vkladať	vkladám	VKesa+
vkladať	vkladáme	VKepa+
vkladať	vkladáte	VKepb+
vkladať	vkladáš	VKesb+
vkliniť	vklinia	VKdpc+
vkliniť	vkliniac	VHd+
vkliniť	vklinil	VLdsam+
vkliniť	vklinil	VLdsai+
vkliniť	vklinil	VLdsbm+
vkliniť	vklinil	VLdsbi+
vkliniť	vklinil	VLdscm+
vkliniť	vklinil	VLdsci+
vkliniť	vklinila	VLdsaf+
vkliniť	vklinila	VLdsbf+
vkliniť	vklinila	VLdscf+
vkliniť	vklinili	VLdpah+
vkliniť	vklinili	VLdpbh+
vkliniť	vklinili	VLdpcm+
vkliniť	vklinili	VLdpci+
vkliniť	vklinili	VLdpcf+
vkliniť	vklinili	VLdpcn+
vkliniť	vklinili	VLdpco+
vkliniť	vklinilo	VLdsan+
vkliniť	vklinilo	VLdsbn+
vkliniť	vklinilo	VLdscn+
vkliniť	vkliniť	VId+
vkliniť	vkliní	VKdsc+
vkliniť	vkliním	VKdsa+
vkliniť	vkliníme	VKdpa+
vkliniť	vkliníte	VKdpb+
vkliniť	vkliníš	VKdsb+
vkliniť	vkliň	VMdsb+
vkliniť	vkliňme	VMdpa+
vkliniť	vkliňte	VMdpb+
vkomponovať	vkomponoval	VLdsam+
vkomponovať	vkomponoval	VLdsai+
vkomponovať	vkomponoval	VLdsbm+
vkomponovať	vkomponoval	VLdsbi+
vkomponovať	vkomponoval	VLdscm+
vkomponovať	vkomponoval	VLdsci+
vkomponovať	vkomponovala	VLdsaf+
vkomponovať	vkomponovala	VLdsbf+
vkomponovať	vkomponovala	VLdscf+
vkomponovať	vkomponovali	VLdpah+
vkomponovať	vkomponovali	VLdpbh+
vkomponovať	vkomponovali	VLdpcm+
vkomponovať	vkomponovali	VLdpci+
vkomponovať	vkomponovali	VLdpcf+
vkomponovať	vkomponovali	VLdpcn+
vkomponovať	vkomponovali	VLdpco+
vkomponovať	vkomponovalo	VLdsan+
vkomponovať	vkomponovalo	VLdsbn+
vkomponovať	vkomponovalo	VLdscn+
vkomponovať	vkomponovať	VId+
vkomponovať	vkomponuj	VMdsb+
vkomponovať	vkomponuje	VKdsc+
vkomponovať	vkomponujem	VKdsa+
vkomponovať	vkomponujeme	VKdpa+
vkomponovať	vkomponujete	VKdpb+
vkomponovať	vkomponuješ	VKdsb+
vkomponovať	vkomponujme	VMdpa+
vkomponovať	vkomponujte	VMdpb+
vkomponovať	vkomponujú	VKdpc+
vkomponovať	vkomponujúc	VHd+
vkorčuľovať	vkorčuľoval	VLdsam+
vkorčuľovať	vkorčuľoval	VLdsai+
vkorčuľovať	vkorčuľoval	VLdsbm+
vkorčuľovať	vkorčuľoval	VLdsbi+
vkorčuľovať	vkorčuľoval	VLdscm+
vkorčuľovať	vkorčuľoval	VLdsci+
vkorčuľovať	vkorčuľovala	VLdsaf+
vkorčuľovať	vkorčuľovala	VLdsbf+
vkorčuľovať	vkorčuľovala	VLdscf+
vkorčuľovať	vkorčuľovali	VLdpah+
vkorčuľovať	vkorčuľovali	VLdpbh+
vkorčuľovať	vkorčuľovali	VLdpcm+
vkorčuľovať	vkorčuľovali	VLdpci+
vkorčuľovať	vkorčuľovali	VLdpcf+
vkorčuľovať	vkorčuľovali	VLdpcn+
vkorčuľovať	vkorčuľovali	VLdpco+
vkorčuľovať	vkorčuľovalo	VLdsan+
vkorčuľovať	vkorčuľovalo	VLdsbn+
vkorčuľovať	vkorčuľovalo	VLdscn+
vkorčuľovať	vkorčuľovať	VId+
vkorčuľovať	vkorčuľuj	VMdsb+
vkorčuľovať	vkorčuľuje	VKdsc+
vkorčuľovať	vkorčuľujem	VKdsa+
vkorčuľovať	vkorčuľujeme	VKdpa+
vkorčuľovať	vkorčuľujete	VKdpb+
vkorčuľovať	vkorčuľuješ	VKdsb+
vkorčuľovať	vkorčuľujme	VMdpa+
vkorčuľovať	vkorčuľujte	VMdpb+
vkorčuľovať	vkorčuľujú	VKdpc+
vkorčuľovať	vkorčuľujúc	VHd+
vkotúľať	vkotúľa	VKdsc+
vkotúľať	vkotúľaj	VMdsb+
vkotúľať	vkotúľajme	VMdpa+
vkotúľať	vkotúľajte	VMdpb+
vkotúľať	vkotúľajú	VKdpc+
vkotúľať	vkotúľajúc	VHd+
vkotúľať	vkotúľal	VLdsam+
vkotúľať	vkotúľal	VLdsai+
vkotúľať	vkotúľal	VLdsbm+
vkotúľať	vkotúľal	VLdsbi+
vkotúľať	vkotúľal	VLdscm+
vkotúľať	vkotúľal	VLdsci+
vkotúľať	vkotúľala	VLdsaf+
vkotúľať	vkotúľala	VLdsbf+
vkotúľať	vkotúľala	VLdscf+
vkotúľať	vkotúľali	VLdpah+
vkotúľať	vkotúľali	VLdpbh+
vkotúľať	vkotúľali	VLdpcm+
vkotúľať	vkotúľali	VLdpci+
vkotúľať	vkotúľali	VLdpcf+
vkotúľať	vkotúľali	VLdpcn+
vkotúľať	vkotúľali	VLdpco+
vkotúľať	vkotúľalo	VLdsan+
vkotúľať	vkotúľalo	VLdsbn+
vkotúľať	vkotúľalo	VLdscn+
vkotúľať	vkotúľam	VKdsa+
vkotúľať	vkotúľame	VKdpa+
vkotúľať	vkotúľate	VKdpb+
vkotúľať	vkotúľaš	VKdsb+
vkotúľať	vkotúľať	VId+
vkradnúť	vkradla	VLdsaf+
vkradnúť	vkradla	VLdsbf+
vkradnúť	vkradla	VLdscf+
vkradnúť	vkradli	VLdpah+
vkradnúť	vkradli	VLdpbh+
vkradnúť	vkradli	VLdpcm+
vkradnúť	vkradli	VLdpci+
vkradnúť	vkradli	VLdpcf+
vkradnúť	vkradli	VLdpcn+
vkradnúť	vkradli	VLdpco+
vkradnúť	vkradlo	VLdsan+
vkradnúť	vkradlo	VLdsbn+
vkradnúť	vkradlo	VLdscn+
vkradnúť	vkradne	VKdsc+
vkradnúť	vkradnem	VKdsa+
vkradnúť	vkradneme	VKdpa+
vkradnúť	vkradnete	VKdpb+
vkradnúť	vkradneš	VKdsb+
vkradnúť	vkradni	VMdsb+
vkradnúť	vkradnime	VMdpa+
vkradnúť	vkradnite	VMdpb+
vkradnúť	vkradnú	VKdpc+
vkradnúť	vkradnúc	VHd+
vkradnúť	vkradnúť	VId+
vkradnúť	vkradol	VLdsam+
vkradnúť	vkradol	VLdsai+
vkradnúť	vkradol	VLdsbm+
vkradnúť	vkradol	VLdsbi+
vkradnúť	vkradol	VLdscm+
vkradnúť	vkradol	VLdsci+
vkrivkať	vkrivkaj	VMdsb+
vkrivkať	vkrivkajme	VMdpa+
vkrivkať	vkrivkajte	VMdpb+
vkrivkať	vkrivkajú	VKdpc+
vkrivkať	vkrivkajúc	VHd+
vkrivkať	vkrivkal	VLdsam+
vkrivkať	vkrivkal	VLdsai+
vkrivkať	vkrivkal	VLdsbm+
vkrivkať	vkrivkal	VLdsbi+
vkrivkať	vkrivkal	VLdscm+
vkrivkať	vkrivkal	VLdsci+
vkrivkať	vkrivkala	VLdsaf+
vkrivkať	vkrivkala	VLdsbf+
vkrivkať	vkrivkala	VLdscf+
vkrivkať	vkrivkali	VLdpah+
vkrivkať	vkrivkali	VLdpbh+
vkrivkať	vkrivkali	VLdpcm+
vkrivkať	vkrivkali	VLdpci+
vkrivkať	vkrivkali	VLdpcf+
vkrivkať	vkrivkali	VLdpcn+
vkrivkať	vkrivkali	VLdpco+
vkrivkať	vkrivkalo	VLdsan+
vkrivkať	vkrivkalo	VLdsbn+
vkrivkať	vkrivkalo	VLdscn+
vkrivkať	vkrivkať	VId+
vkrivkať	vkrivká	VKdsc+
vkrivkať	vkrivkám	VKdsa+
vkrivkať	vkrivkáme	VKdpa+
vkrivkať	vkrivkáte	VKdpb+
vkrivkať	vkrivkáš	VKdsb+
vkročiť	vkroč	VMdsb+
vkročiť	vkročia	VKdpc+
vkročiť	vkročiac	VHd+
vkročiť	vkročil	VLdsam+
vkročiť	vkročil	VLdsai+
vkročiť	vkročil	VLdsbm+
vkročiť	vkročil	VLdsbi+
vkročiť	vkročil	VLdscm+
vkročiť	vkročil	VLdsci+
vkročiť	vkročila	VLdsaf+
vkročiť	vkročila	VLdsbf+
vkročiť	vkročila	VLdscf+
vkročiť	vkročili	VLdpah+
vkročiť	vkročili	VLdpbh+
vkročiť	vkročili	VLdpcm+
vkročiť	vkročili	VLdpci+
vkročiť	vkročili	VLdpcf+
vkročiť	vkročili	VLdpcn+
vkročiť	vkročili	VLdpco+
vkročiť	vkročilo	VLdsan+
vkročiť	vkročilo	VLdsbn+
vkročiť	vkročilo	VLdscn+
vkročiť	vkročiť	VId+
vkročiť	vkročme	VMdpa+
vkročiť	vkročte	VMdpb+
vkročiť	vkročí	VKdsc+
vkročiť	vkročím	VKdsa+
vkročiť	vkročíme	VKdpa+
vkročiť	vkročíte	VKdpb+
vkročiť	vkročíš	VKdsb+
vkrádať	vkráda	VKesc+
vkrádať	vkrádaj	VMesb+
vkrádať	vkrádajme	VMepa+
vkrádať	vkrádajte	VMepb+
vkrádať	vkrádajú	VKepc+
vkrádať	vkrádajúc	VHe+
vkrádať	vkrádal	VLesam+
vkrádať	vkrádal	VLesai+
vkrádať	vkrádal	VLesbm+
vkrádať	vkrádal	VLesbi+
vkrádať	vkrádal	VLescm+
vkrádať	vkrádal	VLesci+
vkrádať	vkrádala	VLesaf+
vkrádať	vkrádala	VLesbf+
vkrádať	vkrádala	VLescf+
vkrádať	vkrádali	VLepah+
vkrádať	vkrádali	VLepbh+
vkrádať	vkrádali	VLepcm+
vkrádať	vkrádali	VLepci+
vkrádať	vkrádali	VLepcf+
vkrádať	vkrádali	VLepcn+
vkrádať	vkrádali	VLepco+
vkrádať	vkrádalo	VLesan+
vkrádať	vkrádalo	VLesbn+
vkrádať	vkrádalo	VLescn+
vkrádať	vkrádam	VKesa+
vkrádať	vkrádame	VKepa+
vkrádať	vkrádate	VKepb+
vkrádať	vkrádaš	VKesb+
vkrádať	vkrádať	VIe+
vkus	vkus	SSis1
vkus	vkus	SSis4
vkus	vkus	SSis5
vkus	vkuse	SSis6
vkus	vkusmi	SSip7
vkusne	vkusne	Dx
vkusný	vkusnej	AAfs2x
vkusný	vkusnej	AAfs3x
vkusný	vkusnej	AAfs6x
vkusný	vkusnejšej	AAfs2y
vkusný	vkusnejšej	AAfs3y
vkusný	vkusnejšej	AAfs6y
vkusný	vkusnejšia	AAfs1y
vkusný	vkusnejšia	AAfs5y
vkusne	vkusnejšie	Dy
vkusný	vkusnejšie	AAip1y
vkusný	vkusnejšie	AAip4y
vkusný	vkusnejšie	AAip5y
vkusný	vkusnejšie	AAfp1y
vkusný	vkusnejšie	AAfp4y
vkusný	vkusnejšie	AAfp5y
vkusný	vkusnejšie	AAns1y
vkusný	vkusnejšie	AAns4y
vkusný	vkusnejšie	AAns5y
vkusný	vkusnejšie	AAnp1y
vkusný	vkusnejšie	AAnp4y
vkusný	vkusnejšie	AAnp5y
vkusný	vkusnejšieho	AAms2y
vkusný	vkusnejšieho	AAms4y
vkusný	vkusnejšieho	AAis2y
vkusný	vkusnejšieho	AAns2y
vkusný	vkusnejšiemu	AAms3y
vkusný	vkusnejšiemu	AAis3y
vkusný	vkusnejšiemu	AAns3y
vkusný	vkusnejšiu	AAfs4y
vkusný	vkusnejšom	AAms6y
vkusný	vkusnejšom	AAis6y
vkusný	vkusnejšom	AAns6y
vkusný	vkusnejšou	AAfs7y
vkusný	vkusnejší	AAms1y
vkusný	vkusnejší	AAms5y
vkusný	vkusnejší	AAmp1y
vkusný	vkusnejší	AAmp5y
vkusný	vkusnejší	AAis1y
vkusný	vkusnejší	AAis4y
vkusný	vkusnejší	AAis5y
vkusný	vkusnejších	AAmp2y
vkusný	vkusnejších	AAmp4y
vkusný	vkusnejších	AAmp6y
vkusný	vkusnejších	AAip2y
vkusný	vkusnejších	AAip6y
vkusný	vkusnejších	AAfp2y
vkusný	vkusnejších	AAfp6y
vkusný	vkusnejších	AAnp2y
vkusný	vkusnejších	AAnp6y
vkusný	vkusnejším	AAms7y
vkusný	vkusnejším	AAmp3y
vkusný	vkusnejším	AAis7y
vkusný	vkusnejším	AAip3y
vkusný	vkusnejším	AAfp3y
vkusný	vkusnejším	AAns7y
vkusný	vkusnejším	AAnp3y
vkusný	vkusnejšími	AAmp7y
vkusný	vkusnejšími	AAip7y
vkusný	vkusnejšími	AAfp7y
vkusný	vkusnejšími	AAnp7y
vkusný	vkusnom	AAms6x
vkusný	vkusnom	AAis6x
vkusný	vkusnom	AAns6x
vkusnosť	vkusnosti	SSfs2
vkusnosť	vkusnosti	SSfs3
vkusnosť	vkusnosti	SSfs6
vkusnosť	vkusnosti	SSfp1
vkusnosť	vkusnosti	SSfp4
vkusnosť	vkusnosti	SSfp5
vkusnosť	vkusnostiach	SSfp6
vkusnosť	vkusnostiam	SSfp3
vkusnosť	vkusností	SSfp2
vkusnosť	vkusnosť	SSfs1
vkusnosť	vkusnosť	SSfs4
vkusnosť	vkusnosť	SSfs5
vkusnosť	vkusnosťami	SSfp7
vkusnosť	vkusnosťou	SSfs7
vkusný	vkusnou	AAfs7x
vkusný	vkusná	AAfs1x
vkusný	vkusná	AAfs5x
vkusný	vkusné	AAip1x
vkusný	vkusné	AAip4x
vkusný	vkusné	AAip5x
vkusný	vkusné	AAfp1x
vkusný	vkusné	AAfp4x
vkusný	vkusné	AAfp5x
vkusný	vkusné	AAns1x
vkusný	vkusné	AAns4x
vkusný	vkusné	AAns5x
vkusný	vkusné	AAnp1x
vkusný	vkusné	AAnp4x
vkusný	vkusné	AAnp5x
vkusný	vkusného	AAms2x
vkusný	vkusného	AAms4x
vkusný	vkusného	AAis2x
vkusný	vkusného	AAns2x
vkusný	vkusnému	AAms3x
vkusný	vkusnému	AAis3x
vkusný	vkusnému	AAns3x
vkusný	vkusní	AAmp1x
vkusný	vkusní	AAmp5x
vkusný	vkusnú	AAfs4x
vkusný	vkusný	AAms1x
vkusný	vkusný	AAms5x
vkusný	vkusný	AAis1x
vkusný	vkusný	AAis4x
vkusný	vkusný	AAis5x
vkusný	vkusných	AAmp2x
vkusný	vkusných	AAmp4x
vkusný	vkusných	AAmp6x
vkusný	vkusných	AAip2x
vkusný	vkusných	AAip6x
vkusný	vkusných	AAfp2x
vkusný	vkusných	AAfp6x
vkusný	vkusných	AAnp2x
vkusný	vkusných	AAnp6x
vkusný	vkusným	AAms7x
vkusný	vkusným	AAmp3x
vkusný	vkusným	AAis7x
vkusný	vkusným	AAip3x
vkusný	vkusným	AAfp3x
vkusný	vkusným	AAns7x
vkusný	vkusným	AAnp3x
vkusný	vkusnými	AAmp7x
vkusný	vkusnými	AAip7x
vkusný	vkusnými	AAfp7x
vkusný	vkusnými	AAnp7x
vkus	vkusoch	SSip6
vkus	vkusom	SSis7
vkus	vkusom	SSip3
vkus	vkusov	SSip2
vkus	vkusu	SSis2
vkus	vkusu	SSis3
vkus	vkusy	SSip1
vkus	vkusy	SSip4
vkus	vkusy	SSip5
vkvapkať	vkvapkaj	VMdsb+
vkvapkať	vkvapkajme	VMdpa+
vkvapkať	vkvapkajte	VMdpb+
vkvapkať	vkvapkajú	VKdpc+
vkvapkať	vkvapkajúc	VHd+
vkvapkať	vkvapkal	VLdsam+
vkvapkať	vkvapkal	VLdsai+
vkvapkať	vkvapkal	VLdsbm+
vkvapkať	vkvapkal	VLdsbi+
vkvapkať	vkvapkal	VLdscm+
vkvapkať	vkvapkal	VLdsci+
vkvapkať	vkvapkala	VLdsaf+
vkvapkať	vkvapkala	VLdsbf+
vkvapkať	vkvapkala	VLdscf+
vkvapkať	vkvapkali	VLdpah+
vkvapkať	vkvapkali	VLdpbh+
vkvapkať	vkvapkali	VLdpcm+
vkvapkať	vkvapkali	VLdpci+
vkvapkať	vkvapkali	VLdpcf+
vkvapkať	vkvapkali	VLdpcn+
vkvapkať	vkvapkali	VLdpco+
vkvapkať	vkvapkalo	VLdsan+
vkvapkať	vkvapkalo	VLdsbn+
vkvapkať	vkvapkalo	VLdscn+
vkvapkať	vkvapkať	VId+
vkvapkať	vkvapká	VKdsc+
vkvapkať	vkvapkám	VKdsa+
vkvapkať	vkvapkáme	VKdpa+
vkvapkať	vkvapkáte	VKdpb+
vkvapkávať	vkvapkáva	VKesc+
vkvapkávať	vkvapkávaj	VMesb+
vkvapkávať	vkvapkávajme	VMepa+
vkvapkávať	vkvapkávajte	VMepb+
vkvapkávať	vkvapkávajú	VKepc+
vkvapkávať	vkvapkávajúc	VHe+
vkvapkávať	vkvapkával	VLesam+
vkvapkávať	vkvapkával	VLesai+
vkvapkávať	vkvapkával	VLesbm+
vkvapkávať	vkvapkával	VLesbi+
vkvapkávať	vkvapkával	VLescm+
vkvapkávať	vkvapkával	VLesci+
vkvapkávať	vkvapkávala	VLesaf+
vkvapkávať	vkvapkávala	VLesbf+
vkvapkávať	vkvapkávala	VLescf+
vkvapkávať	vkvapkávali	VLepah+
vkvapkávať	vkvapkávali	VLepbh+
vkvapkávať	vkvapkávali	VLepcm+
vkvapkávať	vkvapkávali	VLepci+
vkvapkávať	vkvapkávali	VLepcf+
vkvapkávať	vkvapkávali	VLepcn+
vkvapkávať	vkvapkávali	VLepco+
vkvapkávať	vkvapkávalo	VLesan+
vkvapkávať	vkvapkávalo	VLesbn+
vkvapkávať	vkvapkávalo	VLescn+
vkvapkávať	vkvapkávam	VKesa+
vkvapkávať	vkvapkávame	VKepa+
vkvapkávať	vkvapkávate	VKepb+
vkvapkávať	vkvapkávaš	VKesb+
vkvapkávať	vkvapkávať	VIe+
vkvapkať	vkvapkáš	VKdsb+
vkĺznuť	vkĺzla	VLdsaf+
vkĺznuť	vkĺzla	VLdsbf+
vkĺznuť	vkĺzla	VLdscf+
vkĺznuť	vkĺzli	VLdpah+
vkĺznuť	vkĺzli	VLdpbh+
vkĺznuť	vkĺzli	VLdpcm+
vkĺznuť	vkĺzli	VLdpci+
vkĺznuť	vkĺzli	VLdpcf+
vkĺznuť	vkĺzli	VLdpcn+
vkĺznuť	vkĺzli	VLdpco+
vkĺznuť	vkĺzlo	VLdsan+
vkĺznuť	vkĺzlo	VLdsbn+
vkĺznuť	vkĺzlo	VLdscn+
vkĺznuť	vkĺzne	VKdsc+
vkĺznuť	vkĺznem	VKdsa+
vkĺznuť	vkĺzneme	VKdpa+
vkĺznuť	vkĺznete	VKdpb+
vkĺznuť	vkĺzneš	VKdsb+
vkĺznuť	vkĺzni	VMdsb+
vkĺznuť	vkĺznime	VMdpa+
vkĺznuť	vkĺznite	VMdpb+
vkĺznuť	vkĺznu	VKdpc+
vkĺznuť	vkĺznuc	VHd+
vkĺznuť	vkĺznuť	VId+
vkĺznuť	vkĺzol	VLdsam+
vkĺznuť	vkĺzol	VLdsai+
vkĺznuť	vkĺzol	VLdsbm+
vkĺznuť	vkĺzol	VLdsbi+
vkĺznuť	vkĺzol	VLdscm+
vkĺznuť	vkĺzol	VLdsci+
