A	A	W
a	a	J
a	a	O
a	a	Q
a	a	SUnp1
a	a	SUnp2
a	a	SUnp3
a	a	SUnp4
a	a	SUnp5
a	a	SUnp6
a	a	SUnp7
a	a	SUns1
a	a	SUns2
a	a	SUns3
a	a	SUns4
a	a	SUns5
a	a	SUns6
a	a	SUns7
a	a	T
a	a	W
à	à	Q
à	à	T
á	á	J
á	á	SUnp1
á	á	SUnp2
á	á	SUnp3
á	á	SUnp4
á	á	SUnp5
á	á	SUnp6
á	á	SUnp7
á	á	SUns1
á	á	SUns2
á	á	SUns3
á	á	SUns4
á	á	SUns5
á	á	SUns6
á	á	SUns7
ä	ä	SUnp1
ä	ä	SUnp2
ä	ä	SUnp3
ä	ä	SUnp4
ä	ä	SUnp5
ä	ä	SUnp6
ä	ä	SUnp7
ä	ä	SUns1
ä	ä	SUns2
ä	ä	SUns3
ä	ä	SUns4
ä	ä	SUns5
ä	ä	SUns6
ä	ä	SUns7
