AF	AF	W
AFP	AFP	W
Afganistan	Afganistan	SSis1
Afganistan	Afganistanu	SSis2
Afganistan	Afganistanu	SSis3
Afganistan	Afganistan	SSis4
Afganistan	Afganistan	SSis5
Afganistan	Afganistane	SSis6
Afganistan	Afganistanom	SSis7
Afrika	Afrika	SSfs1
Afrika	Afriky	SSfs2
Afrika	Afrike	SSfs3
Afrika	Afriku	SSfs4
Afrika	Afrika	SSfs5
Afrika	Afrike	SSfs6
Afrika	Afrikou	SSfs7
afatik	afatik	SSms1
afatik	afatika	SSms2
afatik	afatikovi	SSms3
afatik	afatika	SSms4
afatik	afatik	SSms5
afatik	afatikovi	SSms6
afatik	afatikom	SSms7
afatik	afatici	SSmp1
afatik	afatikov	SSmp2
afatik	afatikom	SSmp3
afatik	afatikov	SSmp4
afatik	afatici	SSmp5
afatik	afatikoch	SSmp6
afatik	afatikmi	SSmp7
afekt	afekt	SSis1
afekt	afektu	SSis2
afekt	afektu	SSis3
afekt	afekt	SSis4
afekt	afekt	SSis5
afekt	afekte	SSis6
afekt	afektom	SSis7
afekt	afekty	SSip1
afekt	afektov	SSip2
afekt	afektom	SSip3
afekt	afekty	SSip4
afekt	afekty	SSip5
afekt	afektoch	SSip6
afekt	afektmi	SSip7
afektivita	afektivita	SSfs1
afektivita	afektivity	SSfs2
afektivita	afektivite	SSfs3
afektivita	afektivitu	SSfs4
afektivita	afektivita	SSfs5
afektivita	afektivite	SSfs6
afektivita	afektivitou	SSfs7
afektivita	afektivity	SSfp1
afektivita	afektivít	SSfp2
afektivita	afektivitám	SSfp3
afektivita	afektivity	SSfp4
afektivita	afektivity	SSfp5
afektivita	afektivitách	SSfp6
afektivita	afektivitami	SSfp7
afektovane	afektovane	Dx
afektovane	afektovanejšie	Dy
afektovane	najafektovanejšie	Dz
afektovanie	afektovanie	SSns1
afektovanie	afektovania	SSns2
afektovanie	afektovaniu	SSns3
afektovanie	afektovanie	SSns4
afektovanie	afektovanie	SSns5
afektovanie	afektovaní	SSns6
afektovanie	afektovaním	SSns7
afektovanie	afektovania	SSnp1
afektovanie	afektovaní	SSnp2
afektovanie	afektovaniam	SSnp3
afektovanie	afektovania	SSnp4
afektovanie	afektovania	SSnp5
afektovanie	afektovaniach	SSnp6
afektovanie	afektovaniami	SSnp7
afektovanosť	afektovanosť	SSfs1
afektovanosť	afektovanosti	SSfs2
afektovanosť	afektovanosti	SSfs3
afektovanosť	afektovanosť	SSfs4
afektovanosť	afektovanosť	SSfs5
afektovanosť	afektovanosti	SSfs6
afektovanosť	afektovanosťou	SSfs7
afektovanosť	afektovanosti	SSfp1
afektovanosť	afektovaností	SSfp2
afektovanosť	afektovanostiam	SSfp3
afektovanosť	afektovanosti	SSfp4
afektovanosť	afektovanosti	SSfp5
afektovanosť	afektovanostiach	SSfp6
afektovanosť	afektovanosťami	SSfp7
afektovaný	afektované	Gtfp1x
afektovaný	afektovanejšie	Gtfp1y
afektovaný	najafektovanejšie	Gtfp1z
afektovaný	afektovaných	Gtfp2x
afektovaný	afektovanejších	Gtfp2y
afektovaný	najafektovanejších	Gtfp2z
afektovaný	afektovaným	Gtfp3x
afektovaný	afektovanejším	Gtfp3y
afektovaný	najafektovanejším	Gtfp3z
afektovaný	afektované	Gtfp4x
afektovaný	afektovanejšie	Gtfp4y
afektovaný	najafektovanejšie	Gtfp4z
afektovaný	afektované	Gtfp5x
afektovaný	afektovanejšie	Gtfp5y
afektovaný	najafektovanejšie	Gtfp5z
afektovaný	afektovaných	Gtfp6x
afektovaný	afektovanejších	Gtfp6y
afektovaný	najafektovanejších	Gtfp6z
afektovaný	afektovanými	Gtfp7x
afektovaný	afektovanejšími	Gtfp7y
afektovaný	najafektovanejšími	Gtfp7z
afektovaný	afektovaná	Gtfs1x
afektovaný	afektovanejšia	Gtfs1y
afektovaný	najafektovanejšia	Gtfs1z
afektovaný	afektovanej	Gtfs2x
afektovaný	afektovanejšej	Gtfs2y
afektovaný	najafektovanejšej	Gtfs2z
afektovaný	afektovanej	Gtfs3x
afektovaný	afektovanejšej	Gtfs3y
afektovaný	najafektovanejšej	Gtfs3z
afektovaný	afektovanú	Gtfs4x
afektovaný	afektovanejšiu	Gtfs4y
afektovaný	najafektovanejšiu	Gtfs4z
afektovaný	afektovaná	Gtfs5x
afektovaný	afektovanejšia	Gtfs5y
afektovaný	najafektovanejšia	Gtfs5z
afektovaný	afektovanej	Gtfs6x
afektovaný	afektovanejšej	Gtfs6y
afektovaný	najafektovanejšej	Gtfs6z
afektovaný	afektovanou	Gtfs7x
afektovaný	afektovanejšou	Gtfs7y
afektovaný	najafektovanejšou	Gtfs7z
afektovaný	afektované	Gtip1x
afektovaný	afektovanejšie	Gtip1y
afektovaný	najafektovanejšie	Gtip1z
afektovaný	afektovaných	Gtip2x
afektovaný	afektovanejších	Gtip2y
afektovaný	najafektovanejších	Gtip2z
afektovaný	afektovaným	Gtip3x
afektovaný	afektovanejším	Gtip3y
afektovaný	najafektovanejším	Gtip3z
afektovaný	afektované	Gtip4x
afektovaný	afektovanejšie	Gtip4y
afektovaný	najafektovanejšie	Gtip4z
afektovaný	afektované	Gtip5x
afektovaný	afektovanejšie	Gtip5y
afektovaný	najafektovanejšie	Gtip5z
afektovaný	afektovaných	Gtip6x
afektovaný	afektovanejších	Gtip6y
afektovaný	najafektovanejších	Gtip6z
afektovaný	afektovanými	Gtip7x
afektovaný	afektovanejšími	Gtip7y
afektovaný	najafektovanejšími	Gtip7z
afektovaný	afektovaný	Gtis1x
afektovaný	afektovanejší	Gtis1y
afektovaný	najafektovanejší	Gtis1z
afektovaný	afektovaného	Gtis2x
afektovaný	afektovanejšieho	Gtis2y
afektovaný	najafektovanejšieho	Gtis2z
afektovaný	afektovanému	Gtis3x
afektovaný	afektovanejšiemu	Gtis3y
afektovaný	najafektovanejšiemu	Gtis3z
afektovaný	afektovaný	Gtis4x
afektovaný	afektovanejší	Gtis4y
afektovaný	najafektovanejší	Gtis4z
afektovaný	afektovaný	Gtis5x
afektovaný	afektovanejší	Gtis5y
afektovaný	najafektovanejší	Gtis5z
afektovaný	afektovanom	Gtis6x
afektovaný	afektovanejšom	Gtis6y
afektovaný	najafektovanejšom	Gtis6z
afektovaný	afektovaným	Gtis7x
afektovaný	afektovanejším	Gtis7y
afektovaný	najafektovanejším	Gtis7z
afektovaný	afektovaní	Gtmp1x
afektovaný	afektovanejší	Gtmp1y
afektovaný	najafektovanejší	Gtmp1z
afektovaný	afektovaných	Gtmp2x
afektovaný	afektovanejších	Gtmp2y
afektovaný	najafektovanejších	Gtmp2z
afektovaný	afektovaným	Gtmp3x
afektovaný	afektovanejším	Gtmp3y
afektovaný	najafektovanejším	Gtmp3z
afektovaný	afektovaných	Gtmp4x
afektovaný	afektovanejších	Gtmp4y
afektovaný	najafektovanejších	Gtmp4z
afektovaný	afektovaní	Gtmp5x
afektovaný	afektovanejší	Gtmp5y
afektovaný	najafektovanejší	Gtmp5z
afektovaný	afektovaných	Gtmp6x
afektovaný	afektovanejších	Gtmp6y
afektovaný	najafektovanejších	Gtmp6z
afektovaný	afektovanými	Gtmp7x
afektovaný	afektovanejšími	Gtmp7y
afektovaný	najafektovanejšími	Gtmp7z
afektovaný	afektovaný	Gtms1x
afektovaný	afektovanejší	Gtms1y
afektovaný	najafektovanejší	Gtms1z
afektovaný	afektovaného	Gtms2x
afektovaný	afektovanejšieho	Gtms2y
afektovaný	najafektovanejšieho	Gtms2z
afektovaný	afektovanému	Gtms3x
afektovaný	afektovanejšiemu	Gtms3y
afektovaný	najafektovanejšiemu	Gtms3z
afektovaný	afektovaného	Gtms4x
afektovaný	afektovanejšieho	Gtms4y
afektovaný	najafektovanejšieho	Gtms4z
afektovaný	afektovaný	Gtms5x
afektovaný	afektovanejší	Gtms5y
afektovaný	najafektovanejší	Gtms5z
afektovaný	afektovanom	Gtms6x
afektovaný	afektovanejšom	Gtms6y
afektovaný	najafektovanejšom	Gtms6z
afektovaný	afektovaným	Gtms7x
afektovaný	afektovanejším	Gtms7y
afektovaný	najafektovanejším	Gtms7z
afektovaný	afektované	Gtnp1x
afektovaný	afektovanejšie	Gtnp1y
afektovaný	najafektovanejšie	Gtnp1z
afektovaný	afektovaných	Gtnp2x
afektovaný	afektovanejších	Gtnp2y
afektovaný	najafektovanejších	Gtnp2z
afektovaný	afektovaným	Gtnp3x
afektovaný	afektovanejším	Gtnp3y
afektovaný	najafektovanejším	Gtnp3z
afektovaný	afektované	Gtnp4x
afektovaný	afektovanejšie	Gtnp4y
afektovaný	najafektovanejšie	Gtnp4z
afektovaný	afektované	Gtnp5x
afektovaný	afektovanejšie	Gtnp5y
afektovaný	najafektovanejšie	Gtnp5z
afektovaný	afektovaných	Gtnp6x
afektovaný	afektovanejších	Gtnp6y
afektovaný	najafektovanejších	Gtnp6z
afektovaný	afektovanými	Gtnp7x
afektovaný	afektovanejšími	Gtnp7y
afektovaný	najafektovanejšími	Gtnp7z
afektovaný	afektované	Gtns1x
afektovaný	afektovanejšie	Gtns1y
afektovaný	najafektovanejšie	Gtns1z
afektovaný	afektovaného	Gtns2x
afektovaný	afektovanejšieho	Gtns2y
afektovaný	najafektovanejšieho	Gtns2z
afektovaný	afektovanému	Gtns3x
afektovaný	afektovanejšiemu	Gtns3y
afektovaný	najafektovanejšiemu	Gtns3z
afektovaný	afektované	Gtns4x
afektovaný	afektovanejšie	Gtns4y
afektovaný	najafektovanejšie	Gtns4z
afektovaný	afektované	Gtns5x
afektovaný	afektovanejšie	Gtns5y
afektovaný	najafektovanejšie	Gtns5z
afektovaný	afektovanom	Gtns6x
afektovaný	afektovanejšom	Gtns6y
afektovaný	najafektovanejšom	Gtns6z
afektovaný	afektovaným	Gtns7x
afektovaný	afektovanejším	Gtns7y
afektovaný	najafektovanejším	Gtns7z
afektovať	afektovať	VIe+
afektovať	afektujem	VKesa+
afektovať	afektuješ	VKesb+
afektovať	afektuje	VKesc+
afektovať	afektujeme	VKepa+
afektovať	afektujete	VKepb+
afektovať	afektujú	VKepc+
afektovať	afektuj	VMesb+
afektovať	afektujme	VMepa+
afektovať	afektujte	VMepb+
afektovať	afektujúc	VHe+
afektovať	afektoval	VLesam+
afektovať	afektoval	VLesai+
afektovať	afektoval	VLesbm+
afektovať	afektoval	VLesbi+
afektovať	afektoval	VLescm+
afektovať	afektoval	VLesci+
afektovať	afektovala	VLesaf+
afektovať	afektovala	VLesbf+
afektovať	afektovala	VLescf+
afektovať	afektovalo	VLesan+
afektovať	afektovalo	VLesbn+
afektovať	afektovalo	VLescn+
afektovať	afektovali	VLepah+
afektovať	afektovali	VLepbh+
afektovať	afektovali	VLepcm+
afektovať	afektovali	VLepci+
afektovať	afektovali	VLepcf+
afektovať	afektovali	VLepcn+
afektovať	afektovali	VLepco+
afektový	afektový	AAms1x
afektový	afektového	AAms2x
afektový	afektovému	AAms3x
afektový	afektového	AAms4x
afektový	afektový	AAms5x
afektový	afektovom	AAms6x
afektový	afektovým	AAms7x
afektový	afektoví	AAmp1x
afektový	afektových	AAmp2x
afektový	afektovým	AAmp3x
afektový	afektových	AAmp4x
afektový	afektoví	AAmp5x
afektový	afektových	AAmp6x
afektový	afektovými	AAmp7x
afektový	afektový	AAis1x
afektový	afektového	AAis2x
afektový	afektovému	AAis3x
afektový	afektový	AAis4x
afektový	afektový	AAis5x
afektový	afektovom	AAis6x
afektový	afektovým	AAis7x
afektový	afektové	AAip1x
afektový	afektových	AAip2x
afektový	afektovým	AAip3x
afektový	afektové	AAip4x
afektový	afektové	AAip5x
afektový	afektových	AAip6x
afektový	afektovými	AAip7x
afektový	afektová	AAfs1x
afektový	afektovej	AAfs2x
afektový	afektovej	AAfs3x
afektový	afektovú	AAfs4x
afektový	afektová	AAfs5x
afektový	afektovej	AAfs6x
afektový	afektovou	AAfs7x
afektový	afektové	AAfp1x
afektový	afektových	AAfp2x
afektový	afektovým	AAfp3x
afektový	afektové	AAfp4x
afektový	afektové	AAfp5x
afektový	afektových	AAfp6x
afektový	afektovými	AAfp7x
afektový	afektové	AAns1x
afektový	afektového	AAns2x
afektový	afektovému	AAns3x
afektový	afektové	AAns4x
afektový	afektové	AAns5x
afektový	afektovom	AAns6x
afektový	afektovým	AAns7x
afektový	afektové	AAnp1x
afektový	afektových	AAnp2x
afektový	afektovým	AAnp3x
afektový	afektové	AAnp4x
afektový	afektové	AAnp5x
afektový	afektových	AAnp6x
afektový	afektovými	AAnp7x
afektácia	afektácia	SSfs1
afektácia	afektácie	SSfs2
afektácia	afektácii	SSfs3
afektácia	afektáciu	SSfs4
afektácia	afektácia	SSfs5
afektácia	afektácii	SSfs6
afektácia	afektáciou	SSfs7
afektácia	afektácie	SSfp1
afektácia	afektácií	SSfp2
afektácia	afektáciám	SSfp3
afektácia	afektácie	SSfp4
afektácia	afektácie	SSfp5
afektácia	afektáciách	SSfp6
afektácia	afektáciami	SSfp7
afektívne	afektívne	Dx
afektívny	afektívny	AAms1x
afektívny	afektívneho	AAms2x
afektívny	afektívnemu	AAms3x
afektívny	afektívneho	AAms4x
afektívny	afektívny	AAms5x
afektívny	afektívnom	AAms6x
afektívny	afektívnym	AAms7x
afektívny	afektívni	AAmp1x
afektívny	afektívnych	AAmp2x
afektívny	afektívnym	AAmp3x
afektívny	afektívnych	AAmp4x
afektívny	afektívni	AAmp5x
afektívny	afektívnych	AAmp6x
afektívny	afektívnymi	AAmp7x
afektívny	afektívny	AAis1x
afektívny	afektívneho	AAis2x
afektívny	afektívnemu	AAis3x
afektívny	afektívny	AAis4x
afektívny	afektívny	AAis5x
afektívny	afektívnom	AAis6x
afektívny	afektívnym	AAis7x
afektívny	afektívne	AAip1x
afektívny	afektívnych	AAip2x
afektívny	afektívnym	AAip3x
afektívny	afektívne	AAip4x
afektívny	afektívne	AAip5x
afektívny	afektívnych	AAip6x
afektívny	afektívnymi	AAip7x
afektívny	afektívna	AAfs1x
afektívny	afektívnej	AAfs2x
afektívny	afektívnej	AAfs3x
afektívny	afektívnu	AAfs4x
afektívny	afektívna	AAfs5x
afektívny	afektívnej	AAfs6x
afektívny	afektívnou	AAfs7x
afektívny	afektívne	AAfp1x
afektívny	afektívnych	AAfp2x
afektívny	afektívnym	AAfp3x
afektívny	afektívne	AAfp4x
afektívny	afektívne	AAfp5x
afektívny	afektívnych	AAfp6x
afektívny	afektívnymi	AAfp7x
afektívny	afektívne	AAns1x
afektívny	afektívneho	AAns2x
afektívny	afektívnemu	AAns3x
afektívny	afektívne	AAns4x
afektívny	afektívne	AAns5x
afektívny	afektívnom	AAns6x
afektívny	afektívnym	AAns7x
afektívny	afektívne	AAnp1x
afektívny	afektívnych	AAnp2x
afektívny	afektívnym	AAnp3x
afektívny	afektívne	AAnp4x
afektívny	afektívne	AAnp5x
afektívny	afektívnych	AAnp6x
afektívny	afektívnymi	AAnp7x
afektívny	afektívnejší	AAms1y
afektívny	afektívnejšieho	AAms2y
afektívny	afektívnejšiemu	AAms3y
afektívny	afektívnejšieho	AAms4y
afektívny	afektívnejší	AAms5y
afektívny	afektívnejšom	AAms6y
afektívny	afektívnejším	AAms7y
afektívny	afektívnejší	AAmp1y
afektívny	afektívnejších	AAmp2y
afektívny	afektívnejším	AAmp3y
afektívny	afektívnejších	AAmp4y
afektívny	afektívnejší	AAmp5y
afektívny	afektívnejších	AAmp6y
afektívny	afektívnejšími	AAmp7y
afektívny	afektívnejší	AAis1y
afektívny	afektívnejšieho	AAis2y
afektívny	afektívnejšiemu	AAis3y
afektívny	afektívnejší	AAis4y
afektívny	afektívnejší	AAis5y
afektívny	afektívnejšom	AAis6y
afektívny	afektívnejším	AAis7y
afektívny	afektívnejšie	AAip1y
afektívny	afektívnejších	AAip2y
afektívny	afektívnejším	AAip3y
afektívny	afektívnejšie	AAip4y
afektívny	afektívnejšie	AAip5y
afektívny	afektívnejších	AAip6y
afektívny	afektívnejšími	AAip7y
afektívny	afektívnejšia	AAfs1y
afektívny	afektívnejšej	AAfs2y
afektívny	afektívnejšej	AAfs3y
afektívny	afektívnejšiu	AAfs4y
afektívny	afektívnejšia	AAfs5y
afektívny	afektívnejšej	AAfs6y
afektívny	afektívnejšou	AAfs7y
afektívny	afektívnejšie	AAfp1y
afektívny	afektívnejších	AAfp2y
afektívny	afektívnejším	AAfp3y
afektívny	afektívnejšie	AAfp4y
afektívny	afektívnejšie	AAfp5y
afektívny	afektívnejších	AAfp6y
afektívny	afektívnejšími	AAfp7y
afektívny	afektívnejšie	AAns1y
afektívny	afektívnejšieho	AAns2y
afektívny	afektívnejšiemu	AAns3y
afektívny	afektívnejšie	AAns4y
afektívny	afektívnejšie	AAns5y
afektívny	afektívnejšom	AAns6y
afektívny	afektívnejším	AAns7y
afektívny	afektívnejšie	AAnp1y
afektívny	afektívnejších	AAnp2y
afektívny	afektívnejším	AAnp3y
afektívny	afektívnejšie	AAnp4y
afektívny	afektívnejšie	AAnp5y
afektívny	afektívnejších	AAnp6y
afektívny	afektívnejšími	AAnp7y
afektívny	najafektívnejší	AAms1z
afektívny	najafektívnejšieho	AAms2z
afektívny	najafektívnejšiemu	AAms3z
afektívny	najafektívnejšieho	AAms4z
afektívny	najafektívnejší	AAms5z
afektívny	najafektívnejšom	AAms6z
afektívny	najafektívnejším	AAms7z
afektívny	najafektívnejší	AAmp1z
afektívny	najafektívnejších	AAmp2z
afektívny	najafektívnejším	AAmp3z
afektívny	najafektívnejších	AAmp4z
afektívny	najafektívnejší	AAmp5z
afektívny	najafektívnejších	AAmp6z
afektívny	najafektívnejšími	AAmp7z
afektívny	najafektívnejší	AAis1z
afektívny	najafektívnejšieho	AAis2z
afektívny	najafektívnejšiemu	AAis3z
afektívny	najafektívnejší	AAis4z
afektívny	najafektívnejší	AAis5z
afektívny	najafektívnejšom	AAis6z
afektívny	najafektívnejším	AAis7z
afektívny	najafektívnejšie	AAip1z
afektívny	najafektívnejších	AAip2z
afektívny	najafektívnejším	AAip3z
afektívny	najafektívnejšie	AAip4z
afektívny	najafektívnejšie	AAip5z
afektívny	najafektívnejších	AAip6z
afektívny	najafektívnejšími	AAip7z
afektívny	najafektívnejšia	AAfs1z
afektívny	najafektívnejšej	AAfs2z
afektívny	najafektívnejšej	AAfs3z
afektívny	najafektívnejšiu	AAfs4z
afektívny	najafektívnejšia	AAfs5z
afektívny	najafektívnejšej	AAfs6z
afektívny	najafektívnejšou	AAfs7z
afektívny	najafektívnejšie	AAfp1z
afektívny	najafektívnejších	AAfp2z
afektívny	najafektívnejším	AAfp3z
afektívny	najafektívnejšie	AAfp4z
afektívny	najafektívnejšie	AAfp5z
afektívny	najafektívnejších	AAfp6z
afektívny	najafektívnejšími	AAfp7z
afektívny	najafektívnejšie	AAns1z
afektívny	najafektívnejšieho	AAns2z
afektívny	najafektívnejšiemu	AAns3z
afektívny	najafektívnejšie	AAns4z
afektívny	najafektívnejšie	AAns5z
afektívny	najafektívnejšom	AAns6z
afektívny	najafektívnejším	AAns7z
afektívny	najafektívnejšie	AAnp1z
afektívny	najafektívnejších	AAnp2z
afektívny	najafektívnejším	AAnp3z
afektívny	najafektívnejšie	AAnp4z
afektívny	najafektívnejšie	AAnp5z
afektívny	najafektívnejších	AAnp6z
afektívny	najafektívnejšími	AAnp7z
affaires	affaires	%
afg	afg	W
afgan	afgan	W
afgansky	afgansky	Dx
afganský	afganský	AAms1x
afganský	afganského	AAms2x
afganský	afganskému	AAms3x
afganský	afganského	AAms4x
afganský	afganský	AAms5x
afganský	afganskom	AAms6x
afganský	afganským	AAms7x
afganský	afganskí	AAmp1x
afganský	afganských	AAmp2x
afganský	afganským	AAmp3x
afganský	afganských	AAmp4x
afganský	afganskí	AAmp5x
afganský	afganských	AAmp6x
afganský	afganskými	AAmp7x
afganský	afganský	AAis1x
afganský	afganského	AAis2x
afganský	afganskému	AAis3x
afganský	afganský	AAis4x
afganský	afganský	AAis5x
afganský	afganskom	AAis6x
afganský	afganským	AAis7x
afganský	afganské	AAip1x
afganský	afganských	AAip2x
afganský	afganským	AAip3x
afganský	afganské	AAip4x
afganský	afganské	AAip5x
afganský	afganských	AAip6x
afganský	afganskými	AAip7x
afganský	afganská	AAfs1x
afganský	afganskej	AAfs2x
afganský	afganskej	AAfs3x
afganský	afganskú	AAfs4x
afganský	afganská	AAfs5x
afganský	afganskej	AAfs6x
afganský	afganskou	AAfs7x
afganský	afganské	AAfp1x
afganský	afganských	AAfp2x
afganský	afganským	AAfp3x
afganský	afganské	AAfp4x
afganský	afganské	AAfp5x
afganský	afganských	AAfp6x
afganský	afganskými	AAfp7x
afganský	afganské	AAns1x
afganský	afganského	AAns2x
afganský	afganskému	AAns3x
afganský	afganské	AAns4x
afganský	afganské	AAns5x
afganský	afganskom	AAns6x
afganský	afganským	AAns7x
afganský	afganské	AAnp1x
afganský	afganských	AAnp2x
afganský	afganským	AAnp3x
afganský	afganské	AAnp4x
afganský	afganské	AAnp5x
afganský	afganských	AAnp6x
afganský	afganskými	AAnp7x
afilačný	afilačný	AAms1x
afilačný	afilačného	AAms2x
afilačný	afilačnému	AAms3x
afilačný	afilačného	AAms4x
afilačný	afilačný	AAms5x
afilačný	afilačnom	AAms6x
afilačný	afilačným	AAms7x
afilačný	afilační	AAmp1x
afilačný	afilačných	AAmp2x
afilačný	afilačným	AAmp3x
afilačný	afilačných	AAmp4x
afilačný	afilační	AAmp5x
afilačný	afilačných	AAmp6x
afilačný	afilačnými	AAmp7x
afilačný	afilačný	AAis1x
afilačný	afilačného	AAis2x
afilačný	afilačnému	AAis3x
afilačný	afilačný	AAis4x
afilačný	afilačný	AAis5x
afilačný	afilačnom	AAis6x
afilačný	afilačným	AAis7x
afilačný	afilačné	AAip1x
afilačný	afilačných	AAip2x
afilačný	afilačným	AAip3x
afilačný	afilačné	AAip4x
afilačný	afilačné	AAip5x
afilačný	afilačných	AAip6x
afilačný	afilačnými	AAip7x
afilačný	afilačná	AAfs1x
afilačný	afilačnej	AAfs2x
afilačný	afilačnej	AAfs3x
afilačný	afilačnú	AAfs4x
afilačný	afilačná	AAfs5x
afilačný	afilačnej	AAfs6x
afilačný	afilačnou	AAfs7x
afilačný	afilačné	AAfp1x
afilačný	afilačných	AAfp2x
afilačný	afilačným	AAfp3x
afilačný	afilačné	AAfp4x
afilačný	afilačné	AAfp5x
afilačný	afilačných	AAfp6x
afilačný	afilačnými	AAfp7x
afilačný	afilačné	AAns1x
afilačný	afilačného	AAns2x
afilačný	afilačnému	AAns3x
afilačný	afilačné	AAns4x
afilačný	afilačné	AAns5x
afilačný	afilačnom	AAns6x
afilačný	afilačným	AAns7x
afilačný	afilačné	AAnp1x
afilačný	afilačných	AAnp2x
afilačný	afilačným	AAnp3x
afilačný	afilačné	AAnp4x
afilačný	afilačné	AAnp5x
afilačný	afilačných	AAnp6x
afilačný	afilačnými	AAnp7x
afiliačný	afiliačný	AAms1x
afiliačný	afiliačného	AAms2x
afiliačný	afiliačnému	AAms3x
afiliačný	afiliačného	AAms4x
afiliačný	afiliačný	AAms5x
afiliačný	afiliačnom	AAms6x
afiliačný	afiliačným	AAms7x
afiliačný	afiliační	AAmp1x
afiliačný	afiliačných	AAmp2x
afiliačný	afiliačným	AAmp3x
afiliačný	afiliačných	AAmp4x
afiliačný	afiliační	AAmp5x
afiliačný	afiliačných	AAmp6x
afiliačný	afiliačnými	AAmp7x
afiliačný	afiliačný	AAis1x
afiliačný	afiliačného	AAis2x
afiliačný	afiliačnému	AAis3x
afiliačný	afiliačný	AAis4x
afiliačný	afiliačný	AAis5x
afiliačný	afiliačnom	AAis6x
afiliačný	afiliačným	AAis7x
afiliačný	afiliačné	AAip1x
afiliačný	afiliačných	AAip2x
afiliačný	afiliačným	AAip3x
afiliačný	afiliačné	AAip4x
afiliačný	afiliačné	AAip5x
afiliačný	afiliačných	AAip6x
afiliačný	afiliačnými	AAip7x
afiliačný	afiliačná	AAfs1x
afiliačný	afiliačnej	AAfs2x
afiliačný	afiliačnej	AAfs3x
afiliačný	afiliačnú	AAfs4x
afiliačný	afiliačná	AAfs5x
afiliačný	afiliačnej	AAfs6x
afiliačný	afiliačnou	AAfs7x
afiliačný	afiliačné	AAfp1x
afiliačný	afiliačných	AAfp2x
afiliačný	afiliačným	AAfp3x
afiliačný	afiliačné	AAfp4x
afiliačný	afiliačné	AAfp5x
afiliačný	afiliačných	AAfp6x
afiliačný	afiliačnými	AAfp7x
afiliačný	afiliačné	AAns1x
afiliačný	afiliačného	AAns2x
afiliačný	afiliačnému	AAns3x
afiliačný	afiliačné	AAns4x
afiliačný	afiliačné	AAns5x
afiliačný	afiliačnom	AAns6x
afiliačný	afiliačným	AAns7x
afiliačný	afiliačné	AAnp1x
afiliačný	afiliačných	AAnp2x
afiliačný	afiliačným	AAnp3x
afiliačný	afiliačné	AAnp4x
afiliačný	afiliačné	AAnp5x
afiliačný	afiliačných	AAnp6x
afiliačný	afiliačnými	AAnp7x
afiliácia	afiliácia	SSfs1
afiliácia	afiliácie	SSfs2
afiliácia	afiliácii	SSfs3
afiliácia	afiliáciu	SSfs4
afiliácia	afiliácia	SSfs5
afiliácia	afiliácii	SSfs6
afiliácia	afiliáciou	SSfs7
afiliácia	afiliácie	SSfp1
afiliácia	afiliácií	SSfp2
afiliácia	afiliáciám	SSfp3
afiliácia	afiliácie	SSfp4
afiliácia	afiliácie	SSfp5
afiliácia	afiliáciách	SSfp6
afiliácia	afiliáciami	SSfp7
afilovanie	afilovanie	SSns1
afilovanie	afilovania	SSns2
afilovanie	afilovaniu	SSns3
afilovanie	afilovanie	SSns4
afilovanie	afilovanie	SSns5
afilovanie	afilovaní	SSns6
afilovanie	afilovaním	SSns7
afilovanie	afilovania	SSnp1
afilovanie	afilovaní	SSnp2
afilovanie	afilovaniam	SSnp3
afilovanie	afilovania	SSnp4
afilovanie	afilovania	SSnp5
afilovanie	afilovaniach	SSnp6
afilovanie	afilovaniami	SSnp7
afilovať	afilovať	VIe+
afilovať	afilujem	VKesa+
afilovať	afiluješ	VKesb+
afilovať	afiluje	VKesc+
afilovať	afilujeme	VKepa+
afilovať	afilujete	VKepb+
afilovať	afilujú	VKepc+
afilovať	afiluj	VMesb+
afilovať	afilujme	VMepa+
afilovať	afilujte	VMepb+
afilovať	afilujúc	VHe+
afilovať	afiloval	VLesam+
afilovať	afiloval	VLesai+
afilovať	afiloval	VLesbm+
afilovať	afiloval	VLesbi+
afilovať	afiloval	VLescm+
afilovať	afiloval	VLesci+
afilovať	afilovala	VLesaf+
afilovať	afilovala	VLesbf+
afilovať	afilovala	VLescf+
afilovať	afilovalo	VLesan+
afilovať	afilovalo	VLesbn+
afilovať	afilovalo	VLescn+
afilovať	afilovali	VLepah+
afilovať	afilovali	VLepbh+
afilovať	afilovali	VLepcm+
afilovať	afilovali	VLepci+
afilovať	afilovali	VLepcf+
afilovať	afilovali	VLepcn+
afilovať	afilovali	VLepco+
afilácia	afilácia	SSfs1
afilácia	afilácie	SSfs2
afilácia	afilácii	SSfs3
afilácia	afiláciu	SSfs4
afilácia	afilácia	SSfs5
afilácia	afilácii	SSfs6
afilácia	afiláciou	SSfs7
afilácia	afilácie	SSfp1
afilácia	afilácií	SSfp2
afilácia	afiláciám	SSfp3
afilácia	afilácie	SSfp4
afilácia	afilácie	SSfp5
afilácia	afiláciách	SSfp6
afilácia	afiláciami	SSfp7
afinačný	afinačný	AAms1x
afinačný	afinačného	AAms2x
afinačný	afinačnému	AAms3x
afinačný	afinačného	AAms4x
afinačný	afinačný	AAms5x
afinačný	afinačnom	AAms6x
afinačný	afinačným	AAms7x
afinačný	afinační	AAmp1x
afinačný	afinačných	AAmp2x
afinačný	afinačným	AAmp3x
afinačný	afinačných	AAmp4x
afinačný	afinační	AAmp5x
afinačný	afinačných	AAmp6x
afinačný	afinačnými	AAmp7x
afinačný	afinačný	AAis1x
afinačný	afinačného	AAis2x
afinačný	afinačnému	AAis3x
afinačný	afinačný	AAis4x
afinačný	afinačný	AAis5x
afinačný	afinačnom	AAis6x
afinačný	afinačným	AAis7x
afinačný	afinačné	AAip1x
afinačný	afinačných	AAip2x
afinačný	afinačným	AAip3x
afinačný	afinačné	AAip4x
afinačný	afinačné	AAip5x
afinačný	afinačných	AAip6x
afinačný	afinačnými	AAip7x
afinačný	afinačná	AAfs1x
afinačný	afinačnej	AAfs2x
afinačný	afinačnej	AAfs3x
afinačný	afinačnú	AAfs4x
afinačný	afinačná	AAfs5x
afinačný	afinačnej	AAfs6x
afinačný	afinačnou	AAfs7x
afinačný	afinačné	AAfp1x
afinačný	afinačných	AAfp2x
afinačný	afinačným	AAfp3x
afinačný	afinačné	AAfp4x
afinačný	afinačné	AAfp5x
afinačný	afinačných	AAfp6x
afinačný	afinačnými	AAfp7x
afinačný	afinačné	AAns1x
afinačný	afinačného	AAns2x
afinačný	afinačnému	AAns3x
afinačný	afinačné	AAns4x
afinačný	afinačné	AAns5x
afinačný	afinačnom	AAns6x
afinačný	afinačným	AAns7x
afinačný	afinačné	AAnp1x
afinačný	afinačných	AAnp2x
afinačný	afinačným	AAnp3x
afinačný	afinačné	AAnp4x
afinačný	afinačné	AAnp5x
afinačný	afinačných	AAnp6x
afinačný	afinačnými	AAnp7x
afinita	afinita	SSfs1
afinita	afinity	SSfs2
afinita	afinite	SSfs3
afinita	afinitu	SSfs4
afinita	afinita	SSfs5
afinita	afinite	SSfs6
afinita	afinitou	SSfs7
afinita	afinity	SSfp1
afinita	afinít	SSfp2
afinita	afinitám	SSfp3
afinita	afinity	SSfp4
afinita	afinity	SSfp5
afinita	afinitách	SSfp6
afinita	afinitami	SSfp7
afinitný	afinitný	AAms1x
afinitný	afinitného	AAms2x
afinitný	afinitnému	AAms3x
afinitný	afinitného	AAms4x
afinitný	afinitný	AAms5x
afinitný	afinitnom	AAms6x
afinitný	afinitným	AAms7x
afinitný	afinitní	AAmp1x
afinitný	afinitných	AAmp2x
afinitný	afinitným	AAmp3x
afinitný	afinitných	AAmp4x
afinitný	afinitní	AAmp5x
afinitný	afinitných	AAmp6x
afinitný	afinitnými	AAmp7x
afinitný	afinitný	AAis1x
afinitný	afinitného	AAis2x
afinitný	afinitnému	AAis3x
afinitný	afinitný	AAis4x
afinitný	afinitný	AAis5x
afinitný	afinitnom	AAis6x
afinitný	afinitným	AAis7x
afinitný	afinitné	AAip1x
afinitný	afinitných	AAip2x
afinitný	afinitným	AAip3x
afinitný	afinitné	AAip4x
afinitný	afinitné	AAip5x
afinitný	afinitných	AAip6x
afinitný	afinitnými	AAip7x
afinitný	afinitná	AAfs1x
afinitný	afinitnej	AAfs2x
afinitný	afinitnej	AAfs3x
afinitný	afinitnú	AAfs4x
afinitný	afinitná	AAfs5x
afinitný	afinitnej	AAfs6x
afinitný	afinitnou	AAfs7x
afinitný	afinitné	AAfp1x
afinitný	afinitných	AAfp2x
afinitný	afinitným	AAfp3x
afinitný	afinitné	AAfp4x
afinitný	afinitné	AAfp5x
afinitný	afinitných	AAfp6x
afinitný	afinitnými	AAfp7x
afinitný	afinitné	AAns1x
afinitný	afinitného	AAns2x
afinitný	afinitnému	AAns3x
afinitný	afinitné	AAns4x
afinitný	afinitné	AAns5x
afinitný	afinitnom	AAns6x
afinitný	afinitným	AAns7x
afinitný	afinitné	AAnp1x
afinitný	afinitných	AAnp2x
afinitný	afinitným	AAnp3x
afinitný	afinitné	AAnp4x
afinitný	afinitné	AAnp5x
afinitný	afinitných	AAnp6x
afinitný	afinitnými	AAnp7x
afinácia	afinácia	SSfs1
afinácia	afinácie	SSfs2
afinácia	afinácii	SSfs3
afinácia	afináciu	SSfs4
afinácia	afinácia	SSfs5
afinácia	afinácii	SSfs6
afinácia	afináciou	SSfs7
afinácia	afinácie	SSfp1
afinácia	afinácií	SSfp2
afinácia	afináciám	SSfp3
afinácia	afinácie	SSfp4
afinácia	afinácie	SSfp5
afinácia	afináciách	SSfp6
afinácia	afináciami	SSfp7
afirmatívne	afirmatívne	Dx
afirmatívny	afirmatívny	AAms1x
afirmatívny	afirmatívneho	AAms2x
afirmatívny	afirmatívnemu	AAms3x
afirmatívny	afirmatívneho	AAms4x
afirmatívny	afirmatívny	AAms5x
afirmatívny	afirmatívnom	AAms6x
afirmatívny	afirmatívnym	AAms7x
afirmatívny	afirmatívni	AAmp1x
afirmatívny	afirmatívnych	AAmp2x
afirmatívny	afirmatívnym	AAmp3x
afirmatívny	afirmatívnych	AAmp4x
afirmatívny	afirmatívni	AAmp5x
afirmatívny	afirmatívnych	AAmp6x
afirmatívny	afirmatívnymi	AAmp7x
afirmatívny	afirmatívny	AAis1x
afirmatívny	afirmatívneho	AAis2x
afirmatívny	afirmatívnemu	AAis3x
afirmatívny	afirmatívny	AAis4x
afirmatívny	afirmatívny	AAis5x
afirmatívny	afirmatívnom	AAis6x
afirmatívny	afirmatívnym	AAis7x
afirmatívny	afirmatívne	AAip1x
afirmatívny	afirmatívnych	AAip2x
afirmatívny	afirmatívnym	AAip3x
afirmatívny	afirmatívne	AAip4x
afirmatívny	afirmatívne	AAip5x
afirmatívny	afirmatívnych	AAip6x
afirmatívny	afirmatívnymi	AAip7x
afirmatívny	afirmatívna	AAfs1x
afirmatívny	afirmatívnej	AAfs2x
afirmatívny	afirmatívnej	AAfs3x
afirmatívny	afirmatívnu	AAfs4x
afirmatívny	afirmatívna	AAfs5x
afirmatívny	afirmatívnej	AAfs6x
afirmatívny	afirmatívnou	AAfs7x
afirmatívny	afirmatívne	AAfp1x
afirmatívny	afirmatívnych	AAfp2x
afirmatívny	afirmatívnym	AAfp3x
afirmatívny	afirmatívne	AAfp4x
afirmatívny	afirmatívne	AAfp5x
afirmatívny	afirmatívnych	AAfp6x
afirmatívny	afirmatívnymi	AAfp7x
afirmatívny	afirmatívne	AAns1x
afirmatívny	afirmatívneho	AAns2x
afirmatívny	afirmatívnemu	AAns3x
afirmatívny	afirmatívne	AAns4x
afirmatívny	afirmatívne	AAns5x
afirmatívny	afirmatívnom	AAns6x
afirmatívny	afirmatívnym	AAns7x
afirmatívny	afirmatívne	AAnp1x
afirmatívny	afirmatívnych	AAnp2x
afirmatívny	afirmatívnym	AAnp3x
afirmatívny	afirmatívne	AAnp4x
afirmatívny	afirmatívne	AAnp5x
afirmatívny	afirmatívnych	AAnp6x
afirmatívny	afirmatívnymi	AAnp7x
afirmačný	afirmačný	AAms1x
afirmačný	afirmačného	AAms2x
afirmačný	afirmačnému	AAms3x
afirmačný	afirmačného	AAms4x
afirmačný	afirmačný	AAms5x
afirmačný	afirmačnom	AAms6x
afirmačný	afirmačným	AAms7x
afirmačný	afirmační	AAmp1x
afirmačný	afirmačných	AAmp2x
afirmačný	afirmačným	AAmp3x
afirmačný	afirmačných	AAmp4x
afirmačný	afirmační	AAmp5x
afirmačný	afirmačných	AAmp6x
afirmačný	afirmačnými	AAmp7x
afirmačný	afirmačný	AAis1x
afirmačný	afirmačného	AAis2x
afirmačný	afirmačnému	AAis3x
afirmačný	afirmačný	AAis4x
afirmačný	afirmačný	AAis5x
afirmačný	afirmačnom	AAis6x
afirmačný	afirmačným	AAis7x
afirmačný	afirmačné	AAip1x
afirmačný	afirmačných	AAip2x
afirmačný	afirmačným	AAip3x
afirmačný	afirmačné	AAip4x
afirmačný	afirmačné	AAip5x
afirmačný	afirmačných	AAip6x
afirmačný	afirmačnými	AAip7x
afirmačný	afirmačná	AAfs1x
afirmačný	afirmačnej	AAfs2x
afirmačný	afirmačnej	AAfs3x
afirmačný	afirmačnú	AAfs4x
afirmačný	afirmačná	AAfs5x
afirmačný	afirmačnej	AAfs6x
afirmačný	afirmačnou	AAfs7x
afirmačný	afirmačné	AAfp1x
afirmačný	afirmačných	AAfp2x
afirmačný	afirmačným	AAfp3x
afirmačný	afirmačné	AAfp4x
afirmačný	afirmačné	AAfp5x
afirmačný	afirmačných	AAfp6x
afirmačný	afirmačnými	AAfp7x
afirmačný	afirmačné	AAns1x
afirmačný	afirmačného	AAns2x
afirmačný	afirmačnému	AAns3x
afirmačný	afirmačné	AAns4x
afirmačný	afirmačné	AAns5x
afirmačný	afirmačnom	AAns6x
afirmačný	afirmačným	AAns7x
afirmačný	afirmačné	AAnp1x
afirmačný	afirmačných	AAnp2x
afirmačný	afirmačným	AAnp3x
afirmačný	afirmačné	AAnp4x
afirmačný	afirmačné	AAnp5x
afirmačný	afirmačných	AAnp6x
afirmačný	afirmačnými	AAnp7x
afirmovanie	afirmovanie	SSns1
afirmovanie	afirmovania	SSns2
afirmovanie	afirmovaniu	SSns3
afirmovanie	afirmovanie	SSns4
afirmovanie	afirmovanie	SSns5
afirmovanie	afirmovaní	SSns6
afirmovanie	afirmovaním	SSns7
afirmovanie	afirmovania	SSnp1
afirmovanie	afirmovaní	SSnp2
afirmovanie	afirmovaniam	SSnp3
afirmovanie	afirmovania	SSnp4
afirmovanie	afirmovania	SSnp5
afirmovanie	afirmovaniach	SSnp6
afirmovanie	afirmovaniami	SSnp7
afirmovať	afirmovať	VIe+
afirmovať	afirmujem	VKesa+
afirmovať	afirmuješ	VKesb+
afirmovať	afirmuje	VKesc+
afirmovať	afirmujeme	VKepa+
afirmovať	afirmujete	VKepb+
afirmovať	afirmujú	VKepc+
afirmovať	afirmuj	VMesb+
afirmovať	afirmujme	VMepa+
afirmovať	afirmujte	VMepb+
afirmovať	afirmujúc	VHe+
afirmovať	afirmoval	VLesam+
afirmovať	afirmoval	VLesai+
afirmovať	afirmoval	VLesbm+
afirmovať	afirmoval	VLesbi+
afirmovať	afirmoval	VLescm+
afirmovať	afirmoval	VLesci+
afirmovať	afirmovala	VLesaf+
afirmovať	afirmovala	VLesbf+
afirmovať	afirmovala	VLescf+
afirmovať	afirmovalo	VLesan+
afirmovať	afirmovalo	VLesbn+
afirmovať	afirmovalo	VLescn+
afirmovať	afirmovali	VLepah+
afirmovať	afirmovali	VLepbh+
afirmovať	afirmovali	VLepcm+
afirmovať	afirmovali	VLepci+
afirmovať	afirmovali	VLepcf+
afirmovať	afirmovali	VLepcn+
afirmovať	afirmovali	VLepco+
afirmácia	afirmácia	SSfs1
afirmácia	afirmácie	SSfs2
afirmácia	afirmácii	SSfs3
afirmácia	afirmáciu	SSfs4
afirmácia	afirmácia	SSfs5
afirmácia	afirmácii	SSfs6
afirmácia	afirmáciou	SSfs7
afirmácia	afirmácie	SSfp1
afirmácia	afirmácií	SSfp2
afirmácia	afirmáciám	SSfp3
afirmácia	afirmácie	SSfp4
afirmácia	afirmácie	SSfp5
afirmácia	afirmáciách	SSfp6
afirmácia	afirmáciami	SSfp7
afix	afix	SSis1
afix	afixu	SSis2
afix	afixu	SSis3
afix	afix	SSis4
afix	afix	SSis5
afix	afixe	SSis6
afix	afixom	SSis7
afix	afixy	SSip1
afix	afixov	SSip2
afix	afixom	SSip3
afix	afixy	SSip4
afix	afixy	SSip5
afix	afixoch	SSip6
afix	afixmi	SSip7
afiš	afiš	SSfs1
afiš	afiše	SSfs2
afiš	afiši	SSfs3
afiš	afiš	SSfs4
afiš	afiš	SSfs5
afiš	afiši	SSfs6
afiš	afišou	SSfs7
afiš	afiše	SSfp1
afiš	afíš	SSfp2
afiš	afišiam	SSfp3
afiš	afiše	SSfp4
afiš	afiše	SSfp5
afiš	afišiach	SSfp6
afiš	afišmi	SSfp7
aflatoxín	aflatoxín	SSis1
aflatoxín	aflatoxínu	SSis2
aflatoxín	aflatoxínu	SSis3
aflatoxín	aflatoxín	SSis4
aflatoxín	aflatoxín	SSis5
aflatoxín	aflatoxíne	SSis6
aflatoxín	aflatoxínom	SSis7
aflatoxín	aflatoxíny	SSip1
aflatoxín	aflatoxínov	SSip2
aflatoxín	aflatoxínom	SSip3
aflatoxín	aflatoxíny	SSip4
aflatoxín	aflatoxíny	SSip5
aflatoxín	aflatoxínoch	SSip6
aflatoxín	aflatoxínmi	SSip7
aforickosť	aforickosť	SSfs1
aforickosť	aforickosti	SSfs2
aforickosť	aforickosti	SSfs3
aforickosť	aforickosť	SSfs4
aforickosť	aforickosť	SSfs5
aforickosť	aforickosti	SSfs6
aforickosť	aforickosťou	SSfs7
aforickosť	aforickosti	SSfp1
aforickosť	aforickostí	SSfp2
aforickosť	aforickostiam	SSfp3
aforickosť	aforickosti	SSfp4
aforickosť	aforickosti	SSfp5
aforickosť	aforickostiach	SSfp6
aforickosť	aforickosťami	SSfp7
aforicky	aforicky	Dx
aforický	aforický	AAms1x
aforický	aforického	AAms2x
aforický	aforickému	AAms3x
aforický	aforického	AAms4x
aforický	aforický	AAms5x
aforický	aforickom	AAms6x
aforický	aforickým	AAms7x
aforický	aforickí	AAmp1x
aforický	aforických	AAmp2x
aforický	aforickým	AAmp3x
aforický	aforických	AAmp4x
aforický	aforickí	AAmp5x
aforický	aforických	AAmp6x
aforický	aforickými	AAmp7x
aforický	aforický	AAis1x
aforický	aforického	AAis2x
aforický	aforickému	AAis3x
aforický	aforický	AAis4x
aforický	aforický	AAis5x
aforický	aforickom	AAis6x
aforický	aforickým	AAis7x
aforický	aforické	AAip1x
aforický	aforických	AAip2x
aforický	aforickým	AAip3x
aforický	aforické	AAip4x
aforický	aforické	AAip5x
aforický	aforických	AAip6x
aforický	aforickými	AAip7x
aforický	aforická	AAfs1x
aforický	aforickej	AAfs2x
aforický	aforickej	AAfs3x
aforický	aforickú	AAfs4x
aforický	aforická	AAfs5x
aforický	aforickej	AAfs6x
aforický	aforickou	AAfs7x
aforický	aforické	AAfp1x
aforický	aforických	AAfp2x
aforický	aforickým	AAfp3x
aforický	aforické	AAfp4x
aforický	aforické	AAfp5x
aforický	aforických	AAfp6x
aforický	aforickými	AAfp7x
aforický	aforické	AAns1x
aforický	aforického	AAns2x
aforický	aforickému	AAns3x
aforický	aforické	AAns4x
aforický	aforické	AAns5x
aforický	aforickom	AAns6x
aforický	aforickým	AAns7x
aforický	aforické	AAnp1x
aforický	aforických	AAnp2x
aforický	aforickým	AAnp3x
aforický	aforické	AAnp4x
aforický	aforické	AAnp5x
aforický	aforických	AAnp6x
aforický	aforickými	AAnp7x
aforista	aforista	SSms1
aforista	aforistu	SSms2
aforista	aforistovi	SSms3
aforista	aforistu	SSms4
aforista	aforista	SSms5
aforista	aforistovi	SSms6
aforista	aforistom	SSms7
aforista	aforisti	SSmp1
aforista	aforistov	SSmp2
aforista	aforistom	SSmp3
aforista	aforistov	SSmp4
aforista	aforisti	SSmp5
aforista	aforistoch	SSmp6
aforista	aforistami	SSmp7
aforistickosť	aforistickosť	SSfs1
aforistickosť	aforistickosti	SSfs2
aforistickosť	aforistickosti	SSfs3
aforistickosť	aforistickosť	SSfs4
aforistickosť	aforistickosť	SSfs5
aforistickosť	aforistickosti	SSfs6
aforistickosť	aforistickosťou	SSfs7
aforistickosť	aforistickosti	SSfp1
aforistickosť	aforistickostí	SSfp2
aforistickosť	aforistickostiam	SSfp3
aforistickosť	aforistickosti	SSfp4
aforistickosť	aforistickosti	SSfp5
aforistickosť	aforistickostiach	SSfp6
aforistickosť	aforistickosťami	SSfp7
aforisticky	aforisticky	Dx
aforistický	aforistický	AAms1x
aforistický	aforistického	AAms2x
aforistický	aforistickému	AAms3x
aforistický	aforistického	AAms4x
aforistický	aforistický	AAms5x
aforistický	aforistickom	AAms6x
aforistický	aforistickým	AAms7x
aforistický	aforistickí	AAmp1x
aforistický	aforistických	AAmp2x
aforistický	aforistickým	AAmp3x
aforistický	aforistických	AAmp4x
aforistický	aforistickí	AAmp5x
aforistický	aforistických	AAmp6x
aforistický	aforistickými	AAmp7x
aforistický	aforistický	AAis1x
aforistický	aforistického	AAis2x
aforistický	aforistickému	AAis3x
aforistický	aforistický	AAis4x
aforistický	aforistický	AAis5x
aforistický	aforistickom	AAis6x
aforistický	aforistickým	AAis7x
aforistický	aforistické	AAip1x
aforistický	aforistických	AAip2x
aforistický	aforistickým	AAip3x
aforistický	aforistické	AAip4x
aforistický	aforistické	AAip5x
aforistický	aforistických	AAip6x
aforistický	aforistickými	AAip7x
aforistický	aforistická	AAfs1x
aforistický	aforistickej	AAfs2x
aforistický	aforistickej	AAfs3x
aforistický	aforistickú	AAfs4x
aforistický	aforistická	AAfs5x
aforistický	aforistickej	AAfs6x
aforistický	aforistickou	AAfs7x
aforistický	aforistické	AAfp1x
aforistický	aforistických	AAfp2x
aforistický	aforistickým	AAfp3x
aforistický	aforistické	AAfp4x
aforistický	aforistické	AAfp5x
aforistický	aforistických	AAfp6x
aforistický	aforistickými	AAfp7x
aforistický	aforistické	AAns1x
aforistický	aforistického	AAns2x
aforistický	aforistickému	AAns3x
aforistický	aforistické	AAns4x
aforistický	aforistické	AAns5x
aforistický	aforistickom	AAns6x
aforistický	aforistickým	AAns7x
aforistický	aforistické	AAnp1x
aforistický	aforistických	AAnp2x
aforistický	aforistickým	AAnp3x
aforistický	aforistické	AAnp4x
aforistický	aforistické	AAnp5x
aforistický	aforistických	AAnp6x
aforistický	aforistickými	AAnp7x
aforistický	aforistickejší	AAms1y
aforistický	aforistickejšieho	AAms2y
aforistický	aforistickejšiemu	AAms3y
aforistický	aforistickejšieho	AAms4y
aforistický	aforistickejší	AAms5y
aforistický	aforistickejšom	AAms6y
aforistický	aforistickejším	AAms7y
aforistický	aforistickejší	AAmp1y
aforistický	aforistickejších	AAmp2y
aforistický	aforistickejším	AAmp3y
aforistický	aforistickejších	AAmp4y
aforistický	aforistickejší	AAmp5y
aforistický	aforistickejších	AAmp6y
aforistický	aforistickejšími	AAmp7y
aforistický	aforistickejší	AAis1y
aforistický	aforistickejšieho	AAis2y
aforistický	aforistickejšiemu	AAis3y
aforistický	aforistickejší	AAis4y
aforistický	aforistickejší	AAis5y
aforistický	aforistickejšom	AAis6y
aforistický	aforistickejším	AAis7y
aforistický	aforistickejšie	AAip1y
aforistický	aforistickejších	AAip2y
aforistický	aforistickejším	AAip3y
aforistický	aforistickejšie	AAip4y
aforistický	aforistickejšie	AAip5y
aforistický	aforistickejších	AAip6y
aforistický	aforistickejšími	AAip7y
aforistický	aforistickejšia	AAfs1y
aforistický	aforistickejšej	AAfs2y
aforistický	aforistickejšej	AAfs3y
aforistický	aforistickejšiu	AAfs4y
aforistický	aforistickejšia	AAfs5y
aforistický	aforistickejšej	AAfs6y
aforistický	aforistickejšou	AAfs7y
aforistický	aforistickejšie	AAfp1y
aforistický	aforistickejších	AAfp2y
aforistický	aforistickejším	AAfp3y
aforistický	aforistickejšie	AAfp4y
aforistický	aforistickejšie	AAfp5y
aforistický	aforistickejších	AAfp6y
aforistický	aforistickejšími	AAfp7y
aforistický	aforistickejšie	AAns1y
aforistický	aforistickejšieho	AAns2y
aforistický	aforistickejšiemu	AAns3y
aforistický	aforistickejšie	AAns4y
aforistický	aforistickejšie	AAns5y
aforistický	aforistickejšom	AAns6y
aforistický	aforistickejším	AAns7y
aforistický	aforistickejšie	AAnp1y
aforistický	aforistickejších	AAnp2y
aforistický	aforistickejším	AAnp3y
aforistický	aforistickejšie	AAnp4y
aforistický	aforistickejšie	AAnp5y
aforistický	aforistickejších	AAnp6y
aforistický	aforistickejšími	AAnp7y
aforistický	najaforistickejší	AAms1z
aforistický	najaforistickejšieho	AAms2z
aforistický	najaforistickejšiemu	AAms3z
aforistický	najaforistickejšieho	AAms4z
aforistický	najaforistickejší	AAms5z
aforistický	najaforistickejšom	AAms6z
aforistický	najaforistickejším	AAms7z
aforistický	najaforistickejší	AAmp1z
aforistický	najaforistickejších	AAmp2z
aforistický	najaforistickejším	AAmp3z
aforistický	najaforistickejších	AAmp4z
aforistický	najaforistickejší	AAmp5z
aforistický	najaforistickejších	AAmp6z
aforistický	najaforistickejšími	AAmp7z
aforistický	najaforistickejší	AAis1z
aforistický	najaforistickejšieho	AAis2z
aforistický	najaforistickejšiemu	AAis3z
aforistický	najaforistickejší	AAis4z
aforistický	najaforistickejší	AAis5z
aforistický	najaforistickejšom	AAis6z
aforistický	najaforistickejším	AAis7z
aforistický	najaforistickejšie	AAip1z
aforistický	najaforistickejších	AAip2z
aforistický	najaforistickejším	AAip3z
aforistický	najaforistickejšie	AAip4z
aforistický	najaforistickejšie	AAip5z
aforistický	najaforistickejších	AAip6z
aforistický	najaforistickejšími	AAip7z
aforistický	najaforistickejšia	AAfs1z
aforistický	najaforistickejšej	AAfs2z
aforistický	najaforistickejšej	AAfs3z
aforistický	najaforistickejšiu	AAfs4z
aforistický	najaforistickejšia	AAfs5z
aforistický	najaforistickejšej	AAfs6z
aforistický	najaforistickejšou	AAfs7z
aforistický	najaforistickejšie	AAfp1z
aforistický	najaforistickejších	AAfp2z
aforistický	najaforistickejším	AAfp3z
aforistický	najaforistickejšie	AAfp4z
aforistický	najaforistickejšie	AAfp5z
aforistický	najaforistickejších	AAfp6z
aforistický	najaforistickejšími	AAfp7z
aforistický	najaforistickejšie	AAns1z
aforistický	najaforistickejšieho	AAns2z
aforistický	najaforistickejšiemu	AAns3z
aforistický	najaforistickejšie	AAns4z
aforistický	najaforistickejšie	AAns5z
aforistický	najaforistickejšom	AAns6z
aforistický	najaforistickejším	AAns7z
aforistický	najaforistickejšie	AAnp1z
aforistický	najaforistickejších	AAnp2z
aforistický	najaforistickejším	AAnp3z
aforistický	najaforistickejšie	AAnp4z
aforistický	najaforistickejšie	AAnp5z
aforistický	najaforistickejších	AAnp6z
aforistický	najaforistickejšími	AAnp7z
aforistka	aforistka	SSfs1
aforistka	aforistky	SSfs2
aforistka	aforistke	SSfs3
aforistka	aforistku	SSfs4
aforistka	aforistka	SSfs5
aforistka	aforistke	SSfs6
aforistka	aforistkou	SSfs7
aforistka	aforistky	SSfp1
aforistka	aforistiek	SSfp2
aforistka	aforistkám	SSfp3
aforistka	aforistky	SSfp4
aforistka	aforistky	SSfp5
aforistka	aforistkách	SSfp6
aforistka	aforistkami	SSfp7
aforizmus	aforizmus	SSis1
aforizmus	aforizmu	SSis2
aforizmus	aforizmu	SSis3
aforizmus	aforizmus	SSis4
aforizmus	aforizmus	SSis5
aforizmus	aforizme	SSis6
aforizmus	aforizmom	SSis7
aforizmus	aforizmy	SSip1
aforizmus	aforizmov	SSip2
aforizmus	aforizmom	SSip3
aforizmus	aforizmy	SSip4
aforizmus	aforizmy	SSip5
aforizmus	aforizmoch	SSip6
aforizmus	aforizmami	SSip7
afr	afr	W
africky	africky	Dx
africký	africký	AAms1x
africký	afrického	AAms2x
africký	africkému	AAms3x
africký	afrického	AAms4x
africký	africký	AAms5x
africký	africkom	AAms6x
africký	africkým	AAms7x
africký	africkí	AAmp1x
africký	afrických	AAmp2x
africký	africkým	AAmp3x
africký	afrických	AAmp4x
africký	africkí	AAmp5x
africký	afrických	AAmp6x
africký	africkými	AAmp7x
africký	africký	AAis1x
africký	afrického	AAis2x
africký	africkému	AAis3x
africký	africký	AAis4x
africký	africký	AAis5x
africký	africkom	AAis6x
africký	africkým	AAis7x
africký	africké	AAip1x
africký	afrických	AAip2x
africký	africkým	AAip3x
africký	africké	AAip4x
africký	africké	AAip5x
africký	afrických	AAip6x
africký	africkými	AAip7x
africký	africká	AAfs1x
africký	africkej	AAfs2x
africký	africkej	AAfs3x
africký	africkú	AAfs4x
africký	africká	AAfs5x
africký	africkej	AAfs6x
africký	africkou	AAfs7x
africký	africké	AAfp1x
africký	afrických	AAfp2x
africký	africkým	AAfp3x
africký	africké	AAfp4x
africký	africké	AAfp5x
africký	afrických	AAfp6x
africký	africkými	AAfp7x
africký	africké	AAns1x
africký	afrického	AAns2x
africký	africkému	AAns3x
africký	africké	AAns4x
africký	africké	AAns5x
africký	africkom	AAns6x
africký	africkým	AAns7x
africký	africké	AAnp1x
africký	afrických	AAnp2x
africký	africkým	AAnp3x
africký	africké	AAnp4x
africký	africké	AAnp5x
africký	afrických	AAnp6x
africký	africkými	AAnp7x
afrik	afrik	W
afrikanista	afrikanista	SSms1
afrikanista	afrikanistu	SSms2
afrikanista	afrikanistovi	SSms3
afrikanista	afrikanistu	SSms4
afrikanista	afrikanista	SSms5
afrikanista	afrikanistovi	SSms6
afrikanista	afrikanistom	SSms7
afrikanista	afrikanisti	SSmp1
afrikanista	afrikanistov	SSmp2
afrikanista	afrikanistom	SSmp3
afrikanista	afrikanistov	SSmp4
afrikanista	afrikanisti	SSmp5
afrikanista	afrikanistoch	SSmp6
afrikanista	afrikanistami	SSmp7
afrikanistika	afrikanistika	SSfs1
afrikanistika	afrikanistiky	SSfs2
afrikanistika	afrikanistike	SSfs3
afrikanistika	afrikanistiku	SSfs4
afrikanistika	afrikanistika	SSfs5
afrikanistika	afrikanistike	SSfs6
afrikanistika	afrikanistikou	SSfs7
afrikanistika	afrikanistiky	SSfp1
afrikanistika	afrikanistík	SSfp2
afrikanistika	afrikanistikám	SSfp3
afrikanistika	afrikanistiky	SSfp4
afrikanistika	afrikanistiky	SSfp5
afrikanistika	afrikanistikách	SSfp6
afrikanistika	afrikanistikami	SSfp7
afrikanistka	afrikanistka	SSfs1
afrikanistka	afrikanistky	SSfs2
afrikanistka	afrikanistke	SSfs3
afrikanistka	afrikanistku	SSfs4
afrikanistka	afrikanistka	SSfs5
afrikanistka	afrikanistke	SSfs6
afrikanistka	afrikanistkou	SSfs7
afrikanistka	afrikanistky	SSfp1
afrikanistka	afrikanistiek	SSfp2
afrikanistka	afrikanistkám	SSfp3
afrikanistka	afrikanistky	SSfp4
afrikanistka	afrikanistky	SSfp5
afrikanistka	afrikanistkách	SSfp6
afrikanistka	afrikanistkami	SSfp7
afrikanizácia	afrikanizácia	SSfs1
afrikanizácia	afrikanizácie	SSfs2
afrikanizácia	afrikanizácii	SSfs3
afrikanizácia	afrikanizáciu	SSfs4
afrikanizácia	afrikanizácia	SSfs5
afrikanizácia	afrikanizácii	SSfs6
afrikanizácia	afrikanizáciou	SSfs7
afrikanizácia	afrikanizácie	SSfp1
afrikanizácia	afrikanizácií	SSfp2
afrikanizácia	afrikanizáciám	SSfp3
afrikanizácia	afrikanizácie	SSfp4
afrikanizácia	afrikanizácie	SSfp5
afrikanizácia	afrikanizáciách	SSfp6
afrikanizácia	afrikanizáciami	SSfp7
afrikán	afrikán	W
afrikánsky	afrikánsky	AAms1x
afrikánsky	afrikánskeho	AAms2x
afrikánsky	afrikánskemu	AAms3x
afrikánsky	afrikánskeho	AAms4x
afrikánsky	afrikánsky	AAms5x
afrikánsky	afrikánskom	AAms6x
afrikánsky	afrikánskym	AAms7x
afrikánsky	afrikánski	AAmp1x
afrikánsky	afrikánskych	AAmp2x
afrikánsky	afrikánskym	AAmp3x
afrikánsky	afrikánskych	AAmp4x
afrikánsky	afrikánski	AAmp5x
afrikánsky	afrikánskych	AAmp6x
afrikánsky	afrikánskymi	AAmp7x
afrikánsky	afrikánsky	AAis1x
afrikánsky	afrikánskeho	AAis2x
afrikánsky	afrikánskemu	AAis3x
afrikánsky	afrikánsky	AAis4x
afrikánsky	afrikánsky	AAis5x
afrikánsky	afrikánskom	AAis6x
afrikánsky	afrikánskym	AAis7x
afrikánsky	afrikánske	AAip1x
afrikánsky	afrikánskych	AAip2x
afrikánsky	afrikánskym	AAip3x
afrikánsky	afrikánske	AAip4x
afrikánsky	afrikánske	AAip5x
afrikánsky	afrikánskych	AAip6x
afrikánsky	afrikánskymi	AAip7x
afrikánsky	afrikánska	AAfs1x
afrikánsky	afrikánskej	AAfs2x
afrikánsky	afrikánskej	AAfs3x
afrikánsky	afrikánsku	AAfs4x
afrikánsky	afrikánska	AAfs5x
afrikánsky	afrikánskej	AAfs6x
afrikánsky	afrikánskou	AAfs7x
afrikánsky	afrikánske	AAfp1x
afrikánsky	afrikánskych	AAfp2x
afrikánsky	afrikánskym	AAfp3x
afrikánsky	afrikánske	AAfp4x
afrikánsky	afrikánske	AAfp5x
afrikánsky	afrikánskych	AAfp6x
afrikánsky	afrikánskymi	AAfp7x
afrikánsky	afrikánske	AAns1x
afrikánsky	afrikánskeho	AAns2x
afrikánsky	afrikánskemu	AAns3x
afrikánsky	afrikánske	AAns4x
afrikánsky	afrikánske	AAns5x
afrikánsky	afrikánskom	AAns6x
afrikánsky	afrikánskym	AAns7x
afrikánsky	afrikánske	AAnp1x
afrikánsky	afrikánskych	AAnp2x
afrikánsky	afrikánskym	AAnp3x
afrikánsky	afrikánske	AAnp4x
afrikánsky	afrikánske	AAnp5x
afrikánsky	afrikánskych	AAnp6x
afrikánsky	afrikánskymi	AAnp7x
afrikánsky	afrikánsky	Dx
afrikánčina	afrikánčina	SSfs1
afrikánčina	afrikánčiny	SSfs2
afrikánčina	afrikánčine	SSfs3
afrikánčina	afrikánčinu	SSfs4
afrikánčina	afrikánčina	SSfs5
afrikánčina	afrikánčine	SSfs6
afrikánčina	afrikánčinou	SSfs7
afrikánčina	afrikánčiny	SSfp1
afrikánčina	afrikánčin	SSfp2
afrikánčina	afrikánčinám	SSfp3
afrikánčina	afrikánčiny	SSfp4
afrikánčina	afrikánčiny	SSfp5
afrikánčina	afrikánčinách	SSfp6
afrikánčina	afrikánčinami	SSfp7
afro	afro	AUms1x
afro	afro	AUms2x
afro	afro	AUms3x
afro	afro	AUms4x
afro	afro	AUms5x
afro	afro	AUms6x
afro	afro	AUms7x
afro	afro	AUmp1x
afro	afro	AUmp2x
afro	afro	AUmp3x
afro	afro	AUmp4x
afro	afro	AUmp5x
afro	afro	AUmp6x
afro	afro	AUmp7x
afro	afro	AUis1x
afro	afro	AUis2x
afro	afro	AUis3x
afro	afro	AUis4x
afro	afro	AUis5x
afro	afro	AUis6x
afro	afro	AUis7x
afro	afro	AUip1x
afro	afro	AUip2x
afro	afro	AUip3x
afro	afro	AUip4x
afro	afro	AUip5x
afro	afro	AUip6x
afro	afro	AUip7x
afro	afro	AUfs1x
afro	afro	AUfs2x
afro	afro	AUfs3x
afro	afro	AUfs4x
afro	afro	AUfs5x
afro	afro	AUfs6x
afro	afro	AUfs7x
afro	afro	AUfp1x
afro	afro	AUfp2x
afro	afro	AUfp3x
afro	afro	AUfp4x
afro	afro	AUfp5x
afro	afro	AUfp6x
afro	afro	AUfp7x
afro	afro	AUns1x
afro	afro	AUns2x
afro	afro	AUns3x
afro	afro	AUns4x
afro	afro	AUns5x
afro	afro	AUns6x
afro	afro	AUns7x
afro	afro	AUnp1x
afro	afro	AUnp2x
afro	afro	AUnp3x
afro	afro	AUnp4x
afro	afro	AUnp5x
afro	afro	AUnp6x
afro	afro	AUnp7x
afro	afro	SSns1
afro	afra	SSns2
afro	afru	SSns3
afro	afro	SSns4
afro	afro	SSns5
afro	afre	SSns6
afro	afrom	SSns7
afro	afrá	SSnp1
afro	afier	SSnp2
afro	afrám	SSnp3
afro	afrá	SSnp4
afro	afrá	SSnp5
afro	afrách	SSnp6
afro	aframi	SSnp7
afro	afro	SUns1
afro	afro	SUns2
afro	afro	SUns3
afro	afro	SUns4
afro	afro	SUns5
afro	afro	SUns6
afro	afro	SUns7
afro	afro	SUnp1
afro	afro	SUnp2
afro	afro	SUnp3
afro	afro	SUnp4
afro	afro	SUnp5
afro	afro	SUnp6
afro	afro	SUnp7
afroamer	afroamer	W
afroamerický	afroamerický	AAms1x
afroamerický	afroamerického	AAms2x
afroamerický	afroamerickému	AAms3x
afroamerický	afroamerického	AAms4x
afroamerický	afroamerický	AAms5x
afroamerický	afroamerickom	AAms6x
afroamerický	afroamerickým	AAms7x
afroamerický	afroamerickí	AAmp1x
afroamerický	afroamerických	AAmp2x
afroamerický	afroamerickým	AAmp3x
afroamerický	afroamerických	AAmp4x
afroamerický	afroamerickí	AAmp5x
afroamerický	afroamerických	AAmp6x
afroamerický	afroamerickými	AAmp7x
afroamerický	afroamerický	AAis1x
afroamerický	afroamerického	AAis2x
afroamerický	afroamerickému	AAis3x
afroamerický	afroamerický	AAis4x
afroamerický	afroamerický	AAis5x
afroamerický	afroamerickom	AAis6x
afroamerický	afroamerickým	AAis7x
afroamerický	afroamerické	AAip1x
afroamerický	afroamerických	AAip2x
afroamerický	afroamerickým	AAip3x
afroamerický	afroamerické	AAip4x
afroamerický	afroamerické	AAip5x
afroamerický	afroamerických	AAip6x
afroamerický	afroamerickými	AAip7x
afroamerický	afroamerická	AAfs1x
afroamerický	afroamerickej	AAfs2x
afroamerický	afroamerickej	AAfs3x
afroamerický	afroamerickú	AAfs4x
afroamerický	afroamerická	AAfs5x
afroamerický	afroamerickej	AAfs6x
afroamerický	afroamerickou	AAfs7x
afroamerický	afroamerické	AAfp1x
afroamerický	afroamerických	AAfp2x
afroamerický	afroamerickým	AAfp3x
afroamerický	afroamerické	AAfp4x
afroamerický	afroamerické	AAfp5x
afroamerický	afroamerických	AAfp6x
afroamerický	afroamerickými	AAfp7x
afroamerický	afroamerické	AAns1x
afroamerický	afroamerického	AAns2x
afroamerický	afroamerickému	AAns3x
afroamerický	afroamerické	AAns4x
afroamerický	afroamerické	AAns5x
afroamerický	afroamerickom	AAns6x
afroamerický	afroamerickým	AAns7x
afroamerický	afroamerické	AAnp1x
afroamerický	afroamerických	AAnp2x
afroamerický	afroamerickým	AAnp3x
afroamerický	afroamerické	AAnp4x
afroamerický	afroamerické	AAnp5x
afroamerický	afroamerických	AAnp6x
afroamerický	afroamerickými	AAnp7x
afrodiziakum	afrodiziakum	SSns1
afrodiziakum	afrodiziaka	SSns2
afrodiziakum	afrodiziaku	SSns3
afrodiziakum	afrodiziakum	SSns4
afrodiziakum	afrodiziakum	SSns5
afrodiziakum	afrodiziaku	SSns6
afrodiziakum	afrodiziakom	SSns7
afrodiziakum	afrodiziaká	SSnp1
afrodiziakum	afrodiziák	SSnp2
afrodiziakum	afrodiziakám	SSnp3
afrodiziakum	afrodiziaká	SSnp4
afrodiziakum	afrodiziaká	SSnp5
afrodiziakum	afrodiziakách	SSnp6
afrodiziakum	afrodiziakami	SSnp7
afrodiziakálne	afrodiziakálne	Dx
afrodiziakálny	afrodiziakálny	AAms1x
afrodiziakálny	afrodiziakálneho	AAms2x
afrodiziakálny	afrodiziakálnemu	AAms3x
afrodiziakálny	afrodiziakálneho	AAms4x
afrodiziakálny	afrodiziakálny	AAms5x
afrodiziakálny	afrodiziakálnom	AAms6x
afrodiziakálny	afrodiziakálnym	AAms7x
afrodiziakálny	afrodiziakálni	AAmp1x
afrodiziakálny	afrodiziakálnych	AAmp2x
afrodiziakálny	afrodiziakálnym	AAmp3x
afrodiziakálny	afrodiziakálnych	AAmp4x
afrodiziakálny	afrodiziakálni	AAmp5x
afrodiziakálny	afrodiziakálnych	AAmp6x
afrodiziakálny	afrodiziakálnymi	AAmp7x
afrodiziakálny	afrodiziakálny	AAis1x
afrodiziakálny	afrodiziakálneho	AAis2x
afrodiziakálny	afrodiziakálnemu	AAis3x
afrodiziakálny	afrodiziakálny	AAis4x
afrodiziakálny	afrodiziakálny	AAis5x
afrodiziakálny	afrodiziakálnom	AAis6x
afrodiziakálny	afrodiziakálnym	AAis7x
afrodiziakálny	afrodiziakálne	AAip1x
afrodiziakálny	afrodiziakálnych	AAip2x
afrodiziakálny	afrodiziakálnym	AAip3x
afrodiziakálny	afrodiziakálne	AAip4x
afrodiziakálny	afrodiziakálne	AAip5x
afrodiziakálny	afrodiziakálnych	AAip6x
afrodiziakálny	afrodiziakálnymi	AAip7x
afrodiziakálny	afrodiziakálna	AAfs1x
afrodiziakálny	afrodiziakálnej	AAfs2x
afrodiziakálny	afrodiziakálnej	AAfs3x
afrodiziakálny	afrodiziakálnu	AAfs4x
afrodiziakálny	afrodiziakálna	AAfs5x
afrodiziakálny	afrodiziakálnej	AAfs6x
afrodiziakálny	afrodiziakálnou	AAfs7x
afrodiziakálny	afrodiziakálne	AAfp1x
afrodiziakálny	afrodiziakálnych	AAfp2x
afrodiziakálny	afrodiziakálnym	AAfp3x
afrodiziakálny	afrodiziakálne	AAfp4x
afrodiziakálny	afrodiziakálne	AAfp5x
afrodiziakálny	afrodiziakálnych	AAfp6x
afrodiziakálny	afrodiziakálnymi	AAfp7x
afrodiziakálny	afrodiziakálne	AAns1x
afrodiziakálny	afrodiziakálneho	AAns2x
afrodiziakálny	afrodiziakálnemu	AAns3x
afrodiziakálny	afrodiziakálne	AAns4x
afrodiziakálny	afrodiziakálne	AAns5x
afrodiziakálny	afrodiziakálnom	AAns6x
afrodiziakálny	afrodiziakálnym	AAns7x
afrodiziakálny	afrodiziakálne	AAnp1x
afrodiziakálny	afrodiziakálnych	AAnp2x
afrodiziakálny	afrodiziakálnym	AAnp3x
afrodiziakálny	afrodiziakálne	AAnp4x
afrodiziakálny	afrodiziakálne	AAnp5x
afrodiziakálny	afrodiziakálnych	AAnp6x
afrodiziakálny	afrodiziakálnymi	AAnp7x
afrokaribský	afrokaribský	AAms1x
afrokaribský	afrokaribského	AAms2x
afrokaribský	afrokaribskému	AAms3x
afrokaribský	afrokaribského	AAms4x
afrokaribský	afrokaribský	AAms5x
afrokaribský	afrokaribskom	AAms6x
afrokaribský	afrokaribským	AAms7x
afrokaribský	afrokaribskí	AAmp1x
afrokaribský	afrokaribských	AAmp2x
afrokaribský	afrokaribským	AAmp3x
afrokaribský	afrokaribských	AAmp4x
afrokaribský	afrokaribskí	AAmp5x
afrokaribský	afrokaribských	AAmp6x
afrokaribský	afrokaribskými	AAmp7x
afrokaribský	afrokaribský	AAis1x
afrokaribský	afrokaribského	AAis2x
afrokaribský	afrokaribskému	AAis3x
afrokaribský	afrokaribský	AAis4x
afrokaribský	afrokaribský	AAis5x
afrokaribský	afrokaribskom	AAis6x
afrokaribský	afrokaribským	AAis7x
afrokaribský	afrokaribské	AAip1x
afrokaribský	afrokaribských	AAip2x
afrokaribský	afrokaribským	AAip3x
afrokaribský	afrokaribské	AAip4x
afrokaribský	afrokaribské	AAip5x
afrokaribský	afrokaribských	AAip6x
afrokaribský	afrokaribskými	AAip7x
afrokaribský	afrokaribská	AAfs1x
afrokaribský	afrokaribskej	AAfs2x
afrokaribský	afrokaribskej	AAfs3x
afrokaribský	afrokaribskú	AAfs4x
afrokaribský	afrokaribská	AAfs5x
afrokaribský	afrokaribskej	AAfs6x
afrokaribský	afrokaribskou	AAfs7x
afrokaribský	afrokaribské	AAfp1x
afrokaribský	afrokaribských	AAfp2x
afrokaribský	afrokaribským	AAfp3x
afrokaribský	afrokaribské	AAfp4x
afrokaribský	afrokaribské	AAfp5x
afrokaribský	afrokaribských	AAfp6x
afrokaribský	afrokaribskými	AAfp7x
afrokaribský	afrokaribské	AAns1x
afrokaribský	afrokaribského	AAns2x
afrokaribský	afrokaribskému	AAns3x
afrokaribský	afrokaribské	AAns4x
afrokaribský	afrokaribské	AAns5x
afrokaribský	afrokaribskom	AAns6x
afrokaribský	afrokaribským	AAns7x
afrokaribský	afrokaribské	AAnp1x
afrokaribský	afrokaribských	AAnp2x
afrokaribský	afrokaribským	AAnp3x
afrokaribský	afrokaribské	AAnp4x
afrokaribský	afrokaribské	AAnp5x
afrokaribský	afrokaribských	AAnp6x
afrokaribský	afrokaribskými	AAnp7x
afrokubánsky	afrokubánsky	AAms1x
afrokubánsky	afrokubánskeho	AAms2x
afrokubánsky	afrokubánskemu	AAms3x
afrokubánsky	afrokubánskeho	AAms4x
afrokubánsky	afrokubánsky	AAms5x
afrokubánsky	afrokubánskom	AAms6x
afrokubánsky	afrokubánskym	AAms7x
afrokubánsky	afrokubánski	AAmp1x
afrokubánsky	afrokubánskych	AAmp2x
afrokubánsky	afrokubánskym	AAmp3x
afrokubánsky	afrokubánskych	AAmp4x
afrokubánsky	afrokubánski	AAmp5x
afrokubánsky	afrokubánskych	AAmp6x
afrokubánsky	afrokubánskymi	AAmp7x
afrokubánsky	afrokubánsky	AAis1x
afrokubánsky	afrokubánskeho	AAis2x
afrokubánsky	afrokubánskemu	AAis3x
afrokubánsky	afrokubánsky	AAis4x
afrokubánsky	afrokubánsky	AAis5x
afrokubánsky	afrokubánskom	AAis6x
afrokubánsky	afrokubánskym	AAis7x
afrokubánsky	afrokubánske	AAip1x
afrokubánsky	afrokubánskych	AAip2x
afrokubánsky	afrokubánskym	AAip3x
afrokubánsky	afrokubánske	AAip4x
afrokubánsky	afrokubánske	AAip5x
afrokubánsky	afrokubánskych	AAip6x
afrokubánsky	afrokubánskymi	AAip7x
afrokubánsky	afrokubánska	AAfs1x
afrokubánsky	afrokubánskej	AAfs2x
afrokubánsky	afrokubánskej	AAfs3x
afrokubánsky	afrokubánsku	AAfs4x
afrokubánsky	afrokubánska	AAfs5x
afrokubánsky	afrokubánskej	AAfs6x
afrokubánsky	afrokubánskou	AAfs7x
afrokubánsky	afrokubánske	AAfp1x
afrokubánsky	afrokubánskych	AAfp2x
afrokubánsky	afrokubánskym	AAfp3x
afrokubánsky	afrokubánske	AAfp4x
afrokubánsky	afrokubánske	AAfp5x
afrokubánsky	afrokubánskych	AAfp6x
afrokubánsky	afrokubánskymi	AAfp7x
afrokubánsky	afrokubánske	AAns1x
afrokubánsky	afrokubánskeho	AAns2x
afrokubánsky	afrokubánskemu	AAns3x
afrokubánsky	afrokubánske	AAns4x
afrokubánsky	afrokubánske	AAns5x
afrokubánsky	afrokubánskom	AAns6x
afrokubánsky	afrokubánskym	AAns7x
afrokubánsky	afrokubánske	AAnp1x
afrokubánsky	afrokubánskych	AAnp2x
afrokubánsky	afrokubánskym	AAnp3x
afrokubánsky	afrokubánske	AAnp4x
afrokubánsky	afrokubánske	AAnp5x
afrokubánsky	afrokubánskych	AAnp6x
afrokubánsky	afrokubánskymi	AAnp7x
afrokubánsky	afrokubánsky	Dx
afropop	afropop	SSis1
afropop	afropopu	SSis2
afropop	afropopu	SSis3
afropop	afropop	SSis4
afropop	afropop	SSis5
afropop	afropope	SSis6
afropop	afropopom	SSis7
afropop	afropopy	SSip1
afropop	afropopov	SSip2
afropop	afropopom	SSip3
afropop	afropopy	SSip4
afropop	afropopy	SSip5
afropop	afropopoch	SSip6
afropop	afropopmi	SSip7
afropopový	afropopový	AAms1x
afropopový	afropopového	AAms2x
afropopový	afropopovému	AAms3x
afropopový	afropopového	AAms4x
afropopový	afropopový	AAms5x
afropopový	afropopovom	AAms6x
afropopový	afropopovým	AAms7x
afropopový	afropopoví	AAmp1x
afropopový	afropopových	AAmp2x
afropopový	afropopovým	AAmp3x
afropopový	afropopových	AAmp4x
afropopový	afropopoví	AAmp5x
afropopový	afropopových	AAmp6x
afropopový	afropopovými	AAmp7x
afropopový	afropopový	AAis1x
afropopový	afropopového	AAis2x
afropopový	afropopovému	AAis3x
afropopový	afropopový	AAis4x
afropopový	afropopový	AAis5x
afropopový	afropopovom	AAis6x
afropopový	afropopovým	AAis7x
afropopový	afropopové	AAip1x
afropopový	afropopových	AAip2x
afropopový	afropopovým	AAip3x
afropopový	afropopové	AAip4x
afropopový	afropopové	AAip5x
afropopový	afropopových	AAip6x
afropopový	afropopovými	AAip7x
afropopový	afropopová	AAfs1x
afropopový	afropopovej	AAfs2x
afropopový	afropopovej	AAfs3x
afropopový	afropopovú	AAfs4x
afropopový	afropopová	AAfs5x
afropopový	afropopovej	AAfs6x
afropopový	afropopovou	AAfs7x
afropopový	afropopové	AAfp1x
afropopový	afropopových	AAfp2x
afropopový	afropopovým	AAfp3x
afropopový	afropopové	AAfp4x
afropopový	afropopové	AAfp5x
afropopový	afropopových	AAfp6x
afropopový	afropopovými	AAfp7x
afropopový	afropopové	AAns1x
afropopový	afropopového	AAns2x
afropopový	afropopovému	AAns3x
afropopový	afropopové	AAns4x
afropopový	afropopové	AAns5x
afropopový	afropopovom	AAns6x
afropopový	afropopovým	AAns7x
afropopový	afropopové	AAnp1x
afropopový	afropopových	AAnp2x
afropopový	afropopovým	AAnp3x
afropopový	afropopové	AAnp4x
afropopový	afropopové	AAnp5x
afropopový	afropopových	AAnp6x
afropopový	afropopovými	AAnp7x
afroslovenský	afroslovenský	AAms1x
afroslovenský	afroslovenského	AAms2x
afroslovenský	afroslovenskému	AAms3x
afroslovenský	afroslovenského	AAms4x
afroslovenský	afroslovenský	AAms5x
afroslovenský	afroslovenskom	AAms6x
afroslovenský	afroslovenským	AAms7x
afroslovenský	afroslovenskí	AAmp1x
afroslovenský	afroslovenských	AAmp2x
afroslovenský	afroslovenským	AAmp3x
afroslovenský	afroslovenských	AAmp4x
afroslovenský	afroslovenskí	AAmp5x
afroslovenský	afroslovenských	AAmp6x
afroslovenský	afroslovenskými	AAmp7x
afroslovenský	afroslovenský	AAis1x
afroslovenský	afroslovenského	AAis2x
afroslovenský	afroslovenskému	AAis3x
afroslovenský	afroslovenský	AAis4x
afroslovenský	afroslovenský	AAis5x
afroslovenský	afroslovenskom	AAis6x
afroslovenský	afroslovenským	AAis7x
afroslovenský	afroslovenské	AAip1x
afroslovenský	afroslovenských	AAip2x
afroslovenský	afroslovenským	AAip3x
afroslovenský	afroslovenské	AAip4x
afroslovenský	afroslovenské	AAip5x
afroslovenský	afroslovenských	AAip6x
afroslovenský	afroslovenskými	AAip7x
afroslovenský	afroslovenská	AAfs1x
afroslovenský	afroslovenskej	AAfs2x
afroslovenský	afroslovenskej	AAfs3x
afroslovenský	afroslovenskú	AAfs4x
afroslovenský	afroslovenská	AAfs5x
afroslovenský	afroslovenskej	AAfs6x
afroslovenský	afroslovenskou	AAfs7x
afroslovenský	afroslovenské	AAfp1x
afroslovenský	afroslovenských	AAfp2x
afroslovenský	afroslovenským	AAfp3x
afroslovenský	afroslovenské	AAfp4x
afroslovenský	afroslovenské	AAfp5x
afroslovenský	afroslovenských	AAfp6x
afroslovenský	afroslovenskými	AAfp7x
afroslovenský	afroslovenské	AAns1x
afroslovenský	afroslovenského	AAns2x
afroslovenský	afroslovenskému	AAns3x
afroslovenský	afroslovenské	AAns4x
afroslovenský	afroslovenské	AAns5x
afroslovenský	afroslovenskom	AAns6x
afroslovenský	afroslovenským	AAns7x
afroslovenský	afroslovenské	AAnp1x
afroslovenský	afroslovenských	AAnp2x
afroslovenský	afroslovenským	AAnp3x
afroslovenský	afroslovenské	AAnp4x
afroslovenský	afroslovenské	AAnp5x
afroslovenský	afroslovenských	AAnp6x
afroslovenský	afroslovenskými	AAnp7x
afroázijský	afroázijský	AAms1x
afroázijský	afroázijského	AAms2x
afroázijský	afroázijskému	AAms3x
afroázijský	afroázijského	AAms4x
afroázijský	afroázijský	AAms5x
afroázijský	afroázijskom	AAms6x
afroázijský	afroázijským	AAms7x
afroázijský	afroázijskí	AAmp1x
afroázijský	afroázijských	AAmp2x
afroázijský	afroázijským	AAmp3x
afroázijský	afroázijských	AAmp4x
afroázijský	afroázijskí	AAmp5x
afroázijský	afroázijských	AAmp6x
afroázijský	afroázijskými	AAmp7x
afroázijský	afroázijský	AAis1x
afroázijský	afroázijského	AAis2x
afroázijský	afroázijskému	AAis3x
afroázijský	afroázijský	AAis4x
afroázijský	afroázijský	AAis5x
afroázijský	afroázijskom	AAis6x
afroázijský	afroázijským	AAis7x
afroázijský	afroázijské	AAip1x
afroázijský	afroázijských	AAip2x
afroázijský	afroázijským	AAip3x
afroázijský	afroázijské	AAip4x
afroázijský	afroázijské	AAip5x
afroázijský	afroázijských	AAip6x
afroázijský	afroázijskými	AAip7x
afroázijský	afroázijská	AAfs1x
afroázijský	afroázijskej	AAfs2x
afroázijský	afroázijskej	AAfs3x
afroázijský	afroázijskú	AAfs4x
afroázijský	afroázijská	AAfs5x
afroázijský	afroázijskej	AAfs6x
afroázijský	afroázijskou	AAfs7x
afroázijský	afroázijské	AAfp1x
afroázijský	afroázijských	AAfp2x
afroázijský	afroázijským	AAfp3x
afroázijský	afroázijské	AAfp4x
afroázijský	afroázijské	AAfp5x
afroázijský	afroázijských	AAfp6x
afroázijský	afroázijskými	AAfp7x
afroázijský	afroázijské	AAns1x
afroázijský	afroázijského	AAns2x
afroázijský	afroázijskému	AAns3x
afroázijský	afroázijské	AAns4x
afroázijský	afroázijské	AAns5x
afroázijský	afroázijskom	AAns6x
afroázijský	afroázijským	AAns7x
afroázijský	afroázijské	AAnp1x
afroázijský	afroázijských	AAnp2x
afroázijský	afroázijským	AAnp3x
afroázijský	afroázijské	AAnp4x
afroázijský	afroázijské	AAnp5x
afroázijský	afroázijských	AAnp6x
afroázijský	afroázijskými	AAnp7x
afroúčes	afroúčes	SSis1
afroúčes	afroúčesu	SSis2
afroúčes	afroúčesu	SSis3
afroúčes	afroúčes	SSis4
afroúčes	afroúčes	SSis5
afroúčes	afroúčese	SSis6
afroúčes	afroúčesom	SSis7
afroúčes	afroúčesy	SSip1
afroúčes	afroúčesov	SSip2
afroúčes	afroúčesom	SSip3
afroúčes	afroúčesy	SSip4
afroúčes	afroúčesy	SSip5
afroúčes	afroúčesoch	SSip6
afroúčes	afroúčesmi	SSip7
afta	afta	SSfs1
afta	afty	SSfs2
afta	afte	SSfs3
afta	aftu	SSfs4
afta	afta	SSfs5
afta	afte	SSfs6
afta	aftou	SSfs7
afta	afty	SSfp1
afta	áft	SSfp2
afta	aftám	SSfp3
afta	afty	SSfp4
afta	afty	SSfp5
afta	aftách	SSfp6
afta	aftami	SSfp7
afázia	afázia	SSfs1
afázia	afázie	SSfs2
afázia	afázii	SSfs3
afázia	afáziu	SSfs4
afázia	afázia	SSfs5
afázia	afázii	SSfs6
afázia	afáziou	SSfs7
afázia	afázie	SSfp1
afázia	afázií	SSfp2
afázia	afáziám	SSfp3
afázia	afázie	SSfp4
afázia	afázie	SSfp5
afázia	afáziách	SSfp6
afázia	afáziami	SSfp7
aféra	aféra	SSfs1
aféra	aféry	SSfs2
aféra	afére	SSfs3
aféra	aféru	SSfs4
aféra	aféra	SSfs5
aféra	afére	SSfs6
aféra	aférou	SSfs7
aféra	aféry	SSfp1
aféra	afér	SSfp2
aféra	aféram	SSfp3
aféra	aféry	SSfp4
aféra	aféry	SSfp5
aféra	aférach	SSfp6
aféra	aférami	SSfp7
aférista	aférista	SSms1
aférista	aféristu	SSms2
aférista	aféristovi	SSms3
aférista	aféristu	SSms4
aférista	aférista	SSms5
aférista	aféristovi	SSms6
aférista	aféristom	SSms7
aférista	aféristi	SSmp1
aférista	aféristov	SSmp2
aférista	aféristom	SSmp3
aférista	aféristov	SSmp4
aférista	aféristi	SSmp5
aférista	aféristoch	SSmp6
aférista	aféristami	SSmp7
aférka	aférka	SSfs1
aférka	aférky	SSfs2
aférka	aférke	SSfs3
aférka	aférku	SSfs4
aférka	aférka	SSfs5
aférka	aférke	SSfs6
aférka	aférkou	SSfs7
aférka	aférky	SSfp1
aférka	aférok	SSfp2
aférka	aférkam	SSfp3
aférka	aférky	SSfp4
aférka	aférky	SSfp5
aférka	aférkach	SSfp6
aférka	aférkami	SSfp7
