aorist	aorist	SSis1
aorist	aoristu	SSis2
aorist	aoristu	SSis3
aorist	aorist	SSis4
aorist	aorist	SSis5
aorist	aoriste	SSis6
aorist	aoristom	SSis7
aorist	aoristy	SSip1
aorist	aoristov	SSip2
aorist	aoristom	SSip3
aorist	aoristy	SSip4
aorist	aoristy	SSip5
aorist	aoristoch	SSip6
aorist	aoristmi	SSip7
aoristový	aoristový	AAms1x
aoristový	aoristového	AAms2x
aoristový	aoristovému	AAms3x
aoristový	aoristového	AAms4x
aoristový	aoristový	AAms5x
aoristový	aoristovom	AAms6x
aoristový	aoristovým	AAms7x
aoristový	aoristoví	AAmp1x
aoristový	aoristových	AAmp2x
aoristový	aoristovým	AAmp3x
aoristový	aoristových	AAmp4x
aoristový	aoristoví	AAmp5x
aoristový	aoristových	AAmp6x
aoristový	aoristovými	AAmp7x
aoristový	aoristový	AAis1x
aoristový	aoristového	AAis2x
aoristový	aoristovému	AAis3x
aoristový	aoristový	AAis4x
aoristový	aoristový	AAis5x
aoristový	aoristovom	AAis6x
aoristový	aoristovým	AAis7x
aoristový	aoristové	AAip1x
aoristový	aoristových	AAip2x
aoristový	aoristovým	AAip3x
aoristový	aoristové	AAip4x
aoristový	aoristové	AAip5x
aoristový	aoristových	AAip6x
aoristový	aoristovými	AAip7x
aoristový	aoristová	AAfs1x
aoristový	aoristovej	AAfs2x
aoristový	aoristovej	AAfs3x
aoristový	aoristovú	AAfs4x
aoristový	aoristová	AAfs5x
aoristový	aoristovej	AAfs6x
aoristový	aoristovou	AAfs7x
aoristový	aoristové	AAfp1x
aoristový	aoristových	AAfp2x
aoristový	aoristovým	AAfp3x
aoristový	aoristové	AAfp4x
aoristový	aoristové	AAfp5x
aoristový	aoristových	AAfp6x
aoristový	aoristovými	AAfp7x
aoristový	aoristové	AAns1x
aoristový	aoristového	AAns2x
aoristový	aoristovému	AAns3x
aoristový	aoristové	AAns4x
aoristový	aoristové	AAns5x
aoristový	aoristovom	AAns6x
aoristový	aoristovým	AAns7x
aoristový	aoristové	AAnp1x
aoristový	aoristových	AAnp2x
aoristový	aoristovým	AAnp3x
aoristový	aoristové	AAnp4x
aoristový	aoristové	AAnp5x
aoristový	aoristových	AAnp6x
aoristový	aoristovými	AAnp7x
aorta	aorta	SSfs1
aorta	aorty	SSfs2
aorta	aorte	SSfs3
aorta	aortu	SSfs4
aorta	aorta	SSfs5
aorta	aorte	SSfs6
aorta	aortou	SSfs7
aorta	aorty	SSfp1
aorta	aort	SSfp2
aorta	aortám	SSfp3
aorta	aorty	SSfp4
aorta	aorty	SSfp5
aorta	aortách	SSfp6
aorta	aortami	SSfp7
aortový	aortový	AAms1x
aortový	aortového	AAms2x
aortový	aortovému	AAms3x
aortový	aortového	AAms4x
aortový	aortový	AAms5x
aortový	aortovom	AAms6x
aortový	aortovým	AAms7x
aortový	aortoví	AAmp1x
aortový	aortových	AAmp2x
aortový	aortovým	AAmp3x
aortový	aortových	AAmp4x
aortový	aortoví	AAmp5x
aortový	aortových	AAmp6x
aortový	aortovými	AAmp7x
aortový	aortový	AAis1x
aortový	aortového	AAis2x
aortový	aortovému	AAis3x
aortový	aortový	AAis4x
aortový	aortový	AAis5x
aortový	aortovom	AAis6x
aortový	aortovým	AAis7x
aortový	aortové	AAip1x
aortový	aortových	AAip2x
aortový	aortovým	AAip3x
aortový	aortové	AAip4x
aortový	aortové	AAip5x
aortový	aortových	AAip6x
aortový	aortovými	AAip7x
aortový	aortová	AAfs1x
aortový	aortovej	AAfs2x
aortový	aortovej	AAfs3x
aortový	aortovú	AAfs4x
aortový	aortová	AAfs5x
aortový	aortovej	AAfs6x
aortový	aortovou	AAfs7x
aortový	aortové	AAfp1x
aortový	aortových	AAfp2x
aortový	aortovým	AAfp3x
aortový	aortové	AAfp4x
aortový	aortové	AAfp5x
aortový	aortových	AAfp6x
aortový	aortovými	AAfp7x
aortový	aortové	AAns1x
aortový	aortového	AAns2x
aortový	aortovému	AAns3x
aortový	aortové	AAns4x
aortový	aortové	AAns5x
aortový	aortovom	AAns6x
aortový	aortovým	AAns7x
aortový	aortové	AAnp1x
aortový	aortových	AAnp2x
aortový	aortovým	AAnp3x
aortový	aortové	AAnp4x
aortový	aortové	AAnp5x
aortový	aortových	AAnp6x
aortový	aortovými	AAnp7x
aortálny	aortálny	AAms1x
aortálny	aortálneho	AAms2x
aortálny	aortálnemu	AAms3x
aortálny	aortálneho	AAms4x
aortálny	aortálny	AAms5x
aortálny	aortálnom	AAms6x
aortálny	aortálnym	AAms7x
aortálny	aortálni	AAmp1x
aortálny	aortálnych	AAmp2x
aortálny	aortálnym	AAmp3x
aortálny	aortálnych	AAmp4x
aortálny	aortálni	AAmp5x
aortálny	aortálnych	AAmp6x
aortálny	aortálnymi	AAmp7x
aortálny	aortálny	AAis1x
aortálny	aortálneho	AAis2x
aortálny	aortálnemu	AAis3x
aortálny	aortálny	AAis4x
aortálny	aortálny	AAis5x
aortálny	aortálnom	AAis6x
aortálny	aortálnym	AAis7x
aortálny	aortálne	AAip1x
aortálny	aortálnych	AAip2x
aortálny	aortálnym	AAip3x
aortálny	aortálne	AAip4x
aortálny	aortálne	AAip5x
aortálny	aortálnych	AAip6x
aortálny	aortálnymi	AAip7x
aortálny	aortálna	AAfs1x
aortálny	aortálnej	AAfs2x
aortálny	aortálnej	AAfs3x
aortálny	aortálnu	AAfs4x
aortálny	aortálna	AAfs5x
aortálny	aortálnej	AAfs6x
aortálny	aortálnou	AAfs7x
aortálny	aortálne	AAfp1x
aortálny	aortálnych	AAfp2x
aortálny	aortálnym	AAfp3x
aortálny	aortálne	AAfp4x
aortálny	aortálne	AAfp5x
aortálny	aortálnych	AAfp6x
aortálny	aortálnymi	AAfp7x
aortálny	aortálne	AAns1x
aortálny	aortálneho	AAns2x
aortálny	aortálnemu	AAns3x
aortálny	aortálne	AAns4x
aortálny	aortálne	AAns5x
aortálny	aortálnom	AAns6x
aortálny	aortálnym	AAns7x
aortálny	aortálne	AAnp1x
aortálny	aortálnych	AAnp2x
aortálny	aortálnym	AAnp3x
aortálny	aortálne	AAnp4x
aortálny	aortálne	AAnp5x
aortálny	aortálnych	AAnp6x
aortálny	aortálnymi	AAnp7x
