axel	axel	SSis1
axel	axela	SSis2
axel	axelu	SSis3
axel	axel	SSis4
axel	axel	SSis5
axel	axele	SSis6
axel	axelom	SSis7
axel	axely	SSip1
axel	axelov	SSip2
axel	axelom	SSip3
axel	axely	SSip4
axel	axely	SSip5
axel	axeloch	SSip6
axel	axelmi	SSip7
axelpaulsen	axelpaulsen	SSis1
axelpaulsen	axelpaulsenu	SSis2
axelpaulsen	axelpaulsenu	SSis3
axelpaulsen	axelpaulsen	SSis4
axelpaulsen	axelpaulsen	SSis5
axelpaulsen	axelpaulsene	SSis6
axelpaulsen	axelpaulsenom	SSis7
axelpaulsen	axelpaulseny	SSip1
axelpaulsen	axelpaulsenov	SSip2
axelpaulsen	axelpaulsenom	SSip3
axelpaulsen	axelpaulseny	SSip4
axelpaulsen	axelpaulseny	SSip5
axelpaulsen	axelpaulsenoch	SSip6
axelpaulsen	axelpaulsenmi	SSip7
axiologicky	axiologicky	Dx
axiologický	axiologický	AAms1x
axiologický	axiologického	AAms2x
axiologický	axiologickému	AAms3x
axiologický	axiologického	AAms4x
axiologický	axiologický	AAms5x
axiologický	axiologickom	AAms6x
axiologický	axiologickým	AAms7x
axiologický	axiologickí	AAmp1x
axiologický	axiologických	AAmp2x
axiologický	axiologickým	AAmp3x
axiologický	axiologických	AAmp4x
axiologický	axiologickí	AAmp5x
axiologický	axiologických	AAmp6x
axiologický	axiologickými	AAmp7x
axiologický	axiologický	AAis1x
axiologický	axiologického	AAis2x
axiologický	axiologickému	AAis3x
axiologický	axiologický	AAis4x
axiologický	axiologický	AAis5x
axiologický	axiologickom	AAis6x
axiologický	axiologickým	AAis7x
axiologický	axiologické	AAip1x
axiologický	axiologických	AAip2x
axiologický	axiologickým	AAip3x
axiologický	axiologické	AAip4x
axiologický	axiologické	AAip5x
axiologický	axiologických	AAip6x
axiologický	axiologickými	AAip7x
axiologický	axiologická	AAfs1x
axiologický	axiologickej	AAfs2x
axiologický	axiologickej	AAfs3x
axiologický	axiologickú	AAfs4x
axiologický	axiologická	AAfs5x
axiologický	axiologickej	AAfs6x
axiologický	axiologickou	AAfs7x
axiologický	axiologické	AAfp1x
axiologický	axiologických	AAfp2x
axiologický	axiologickým	AAfp3x
axiologický	axiologické	AAfp4x
axiologický	axiologické	AAfp5x
axiologický	axiologických	AAfp6x
axiologický	axiologickými	AAfp7x
axiologický	axiologické	AAns1x
axiologický	axiologického	AAns2x
axiologický	axiologickému	AAns3x
axiologický	axiologické	AAns4x
axiologický	axiologické	AAns5x
axiologický	axiologickom	AAns6x
axiologický	axiologickým	AAns7x
axiologický	axiologické	AAnp1x
axiologický	axiologických	AAnp2x
axiologický	axiologickým	AAnp3x
axiologický	axiologické	AAnp4x
axiologický	axiologické	AAnp5x
axiologický	axiologických	AAnp6x
axiologický	axiologickými	AAnp7x
axiológia	axiológia	SSfs1
axiológia	axiológie	SSfs2
axiológia	axiológii	SSfs3
axiológia	axiológiu	SSfs4
axiológia	axiológia	SSfs5
axiológia	axiológii	SSfs6
axiológia	axiológiou	SSfs7
axiológia	axiológie	SSfp1
axiológia	axiológií	SSfp2
axiológia	axiológiám	SSfp3
axiológia	axiológie	SSfp4
axiológia	axiológie	SSfp5
axiológia	axiológiách	SSfp6
axiológia	axiológiami	SSfp7
axiomaticky	axiomaticky	Dx
axiomatický	axiomatický	AAms1x
axiomatický	axiomatického	AAms2x
axiomatický	axiomatickému	AAms3x
axiomatický	axiomatického	AAms4x
axiomatický	axiomatický	AAms5x
axiomatický	axiomatickom	AAms6x
axiomatický	axiomatickým	AAms7x
axiomatický	axiomatickí	AAmp1x
axiomatický	axiomatických	AAmp2x
axiomatický	axiomatickým	AAmp3x
axiomatický	axiomatických	AAmp4x
axiomatický	axiomatickí	AAmp5x
axiomatický	axiomatických	AAmp6x
axiomatický	axiomatickými	AAmp7x
axiomatický	axiomatický	AAis1x
axiomatický	axiomatického	AAis2x
axiomatický	axiomatickému	AAis3x
axiomatický	axiomatický	AAis4x
axiomatický	axiomatický	AAis5x
axiomatický	axiomatickom	AAis6x
axiomatický	axiomatickým	AAis7x
axiomatický	axiomatické	AAip1x
axiomatický	axiomatických	AAip2x
axiomatický	axiomatickým	AAip3x
axiomatický	axiomatické	AAip4x
axiomatický	axiomatické	AAip5x
axiomatický	axiomatických	AAip6x
axiomatický	axiomatickými	AAip7x
axiomatický	axiomatická	AAfs1x
axiomatický	axiomatickej	AAfs2x
axiomatický	axiomatickej	AAfs3x
axiomatický	axiomatickú	AAfs4x
axiomatický	axiomatická	AAfs5x
axiomatický	axiomatickej	AAfs6x
axiomatický	axiomatickou	AAfs7x
axiomatický	axiomatické	AAfp1x
axiomatický	axiomatických	AAfp2x
axiomatický	axiomatickým	AAfp3x
axiomatický	axiomatické	AAfp4x
axiomatický	axiomatické	AAfp5x
axiomatický	axiomatických	AAfp6x
axiomatický	axiomatickými	AAfp7x
axiomatický	axiomatické	AAns1x
axiomatický	axiomatického	AAns2x
axiomatický	axiomatickému	AAns3x
axiomatický	axiomatické	AAns4x
axiomatický	axiomatické	AAns5x
axiomatický	axiomatickom	AAns6x
axiomatický	axiomatickým	AAns7x
axiomatický	axiomatické	AAnp1x
axiomatický	axiomatických	AAnp2x
axiomatický	axiomatickým	AAnp3x
axiomatický	axiomatické	AAnp4x
axiomatický	axiomatické	AAnp5x
axiomatický	axiomatických	AAnp6x
axiomatický	axiomatickými	AAnp7x
axiomatika	axiomatika	SSfs1
axiomatika	axiomatiky	SSfs2
axiomatika	axiomatike	SSfs3
axiomatika	axiomatiku	SSfs4
axiomatika	axiomatika	SSfs5
axiomatika	axiomatike	SSfs6
axiomatika	axiomatikou	SSfs7
axiomatika	axiomatiky	SSfp1
axiomatika	axiomatík	SSfp2
axiomatika	axiomatikám	SSfp3
axiomatika	axiomatiky	SSfp4
axiomatika	axiomatiky	SSfp5
axiomatika	axiomatikách	SSfp6
axiomatika	axiomatikami	SSfp7
axiomatizačný	axiomatizačný	AAms1x
axiomatizačný	axiomatizačného	AAms2x
axiomatizačný	axiomatizačnému	AAms3x
axiomatizačný	axiomatizačného	AAms4x
axiomatizačný	axiomatizačný	AAms5x
axiomatizačný	axiomatizačnom	AAms6x
axiomatizačný	axiomatizačným	AAms7x
axiomatizačný	axiomatizační	AAmp1x
axiomatizačný	axiomatizačných	AAmp2x
axiomatizačný	axiomatizačným	AAmp3x
axiomatizačný	axiomatizačných	AAmp4x
axiomatizačný	axiomatizační	AAmp5x
axiomatizačný	axiomatizačných	AAmp6x
axiomatizačný	axiomatizačnými	AAmp7x
axiomatizačný	axiomatizačný	AAis1x
axiomatizačný	axiomatizačného	AAis2x
axiomatizačný	axiomatizačnému	AAis3x
axiomatizačný	axiomatizačný	AAis4x
axiomatizačný	axiomatizačný	AAis5x
axiomatizačný	axiomatizačnom	AAis6x
axiomatizačný	axiomatizačným	AAis7x
axiomatizačný	axiomatizačné	AAip1x
axiomatizačný	axiomatizačných	AAip2x
axiomatizačný	axiomatizačným	AAip3x
axiomatizačný	axiomatizačné	AAip4x
axiomatizačný	axiomatizačné	AAip5x
axiomatizačný	axiomatizačných	AAip6x
axiomatizačný	axiomatizačnými	AAip7x
axiomatizačný	axiomatizačná	AAfs1x
axiomatizačný	axiomatizačnej	AAfs2x
axiomatizačný	axiomatizačnej	AAfs3x
axiomatizačný	axiomatizačnú	AAfs4x
axiomatizačný	axiomatizačná	AAfs5x
axiomatizačný	axiomatizačnej	AAfs6x
axiomatizačný	axiomatizačnou	AAfs7x
axiomatizačný	axiomatizačné	AAfp1x
axiomatizačný	axiomatizačných	AAfp2x
axiomatizačný	axiomatizačným	AAfp3x
axiomatizačný	axiomatizačné	AAfp4x
axiomatizačný	axiomatizačné	AAfp5x
axiomatizačný	axiomatizačných	AAfp6x
axiomatizačný	axiomatizačnými	AAfp7x
axiomatizačný	axiomatizačné	AAns1x
axiomatizačný	axiomatizačného	AAns2x
axiomatizačný	axiomatizačnému	AAns3x
axiomatizačný	axiomatizačné	AAns4x
axiomatizačný	axiomatizačné	AAns5x
axiomatizačný	axiomatizačnom	AAns6x
axiomatizačný	axiomatizačným	AAns7x
axiomatizačný	axiomatizačné	AAnp1x
axiomatizačný	axiomatizačných	AAnp2x
axiomatizačný	axiomatizačným	AAnp3x
axiomatizačný	axiomatizačné	AAnp4x
axiomatizačný	axiomatizačné	AAnp5x
axiomatizačný	axiomatizačných	AAnp6x
axiomatizačný	axiomatizačnými	AAnp7x
axiomatizovanie	axiomatizovanie	SSns1
axiomatizovanie	axiomatizovania	SSns2
axiomatizovanie	axiomatizovaniu	SSns3
axiomatizovanie	axiomatizovanie	SSns4
axiomatizovanie	axiomatizovanie	SSns5
axiomatizovanie	axiomatizovaní	SSns6
axiomatizovanie	axiomatizovaním	SSns7
axiomatizovanie	axiomatizovania	SSnp1
axiomatizovanie	axiomatizovaní	SSnp2
axiomatizovanie	axiomatizovaniam	SSnp3
axiomatizovanie	axiomatizovania	SSnp4
axiomatizovanie	axiomatizovania	SSnp5
axiomatizovanie	axiomatizovaniach	SSnp6
axiomatizovanie	axiomatizovaniami	SSnp7
axiomatizovať	axiomatizovať	VIe+
axiomatizovať	axiomatizujem	VKesa+
axiomatizovať	axiomatizuješ	VKesb+
axiomatizovať	axiomatizuje	VKesc+
axiomatizovať	axiomatizujeme	VKepa+
axiomatizovať	axiomatizujete	VKepb+
axiomatizovať	axiomatizujú	VKepc+
axiomatizovať	axiomatizuj	VMesb+
axiomatizovať	axiomatizujme	VMepa+
axiomatizovať	axiomatizujte	VMepb+
axiomatizovať	axiomatizujúc	VHe+
axiomatizovať	axiomatizoval	VLesam+
axiomatizovať	axiomatizoval	VLesai+
axiomatizovať	axiomatizoval	VLesbm+
axiomatizovať	axiomatizoval	VLesbi+
axiomatizovať	axiomatizoval	VLescm+
axiomatizovať	axiomatizoval	VLesci+
axiomatizovať	axiomatizovala	VLesaf+
axiomatizovať	axiomatizovala	VLesbf+
axiomatizovať	axiomatizovala	VLescf+
axiomatizovať	axiomatizovalo	VLesan+
axiomatizovať	axiomatizovalo	VLesbn+
axiomatizovať	axiomatizovalo	VLescn+
axiomatizovať	axiomatizovali	VLepah+
axiomatizovať	axiomatizovali	VLepbh+
axiomatizovať	axiomatizovali	VLepcm+
axiomatizovať	axiomatizovali	VLepci+
axiomatizovať	axiomatizovali	VLepcf+
axiomatizovať	axiomatizovali	VLepcn+
axiomatizovať	axiomatizovali	VLepco+
axiomatizácia	axiomatizácia	SSfs1
axiomatizácia	axiomatizácie	SSfs2
axiomatizácia	axiomatizácii	SSfs3
axiomatizácia	axiomatizáciu	SSfs4
axiomatizácia	axiomatizácia	SSfs5
axiomatizácia	axiomatizácii	SSfs6
axiomatizácia	axiomatizáciou	SSfs7
axiomatizácia	axiomatizácie	SSfp1
axiomatizácia	axiomatizácií	SSfp2
axiomatizácia	axiomatizáciám	SSfp3
axiomatizácia	axiomatizácie	SSfp4
axiomatizácia	axiomatizácie	SSfp5
axiomatizácia	axiomatizáciách	SSfp6
axiomatizácia	axiomatizáciami	SSfp7
axiálne	axiálne	Dx
axiálny	axiálny	AAms1x
axiálny	axiálneho	AAms2x
axiálny	axiálnemu	AAms3x
axiálny	axiálneho	AAms4x
axiálny	axiálny	AAms5x
axiálny	axiálnom	AAms6x
axiálny	axiálnym	AAms7x
axiálny	axiálni	AAmp1x
axiálny	axiálnych	AAmp2x
axiálny	axiálnym	AAmp3x
axiálny	axiálnych	AAmp4x
axiálny	axiálni	AAmp5x
axiálny	axiálnych	AAmp6x
axiálny	axiálnymi	AAmp7x
axiálny	axiálny	AAis1x
axiálny	axiálneho	AAis2x
axiálny	axiálnemu	AAis3x
axiálny	axiálny	AAis4x
axiálny	axiálny	AAis5x
axiálny	axiálnom	AAis6x
axiálny	axiálnym	AAis7x
axiálny	axiálne	AAip1x
axiálny	axiálnych	AAip2x
axiálny	axiálnym	AAip3x
axiálny	axiálne	AAip4x
axiálny	axiálne	AAip5x
axiálny	axiálnych	AAip6x
axiálny	axiálnymi	AAip7x
axiálny	axiálna	AAfs1x
axiálny	axiálnej	AAfs2x
axiálny	axiálnej	AAfs3x
axiálny	axiálnu	AAfs4x
axiálny	axiálna	AAfs5x
axiálny	axiálnej	AAfs6x
axiálny	axiálnou	AAfs7x
axiálny	axiálne	AAfp1x
axiálny	axiálnych	AAfp2x
axiálny	axiálnym	AAfp3x
axiálny	axiálne	AAfp4x
axiálny	axiálne	AAfp5x
axiálny	axiálnych	AAfp6x
axiálny	axiálnymi	AAfp7x
axiálny	axiálne	AAns1x
axiálny	axiálneho	AAns2x
axiálny	axiálnemu	AAns3x
axiálny	axiálne	AAns4x
axiálny	axiálne	AAns5x
axiálny	axiálnom	AAns6x
axiálny	axiálnym	AAns7x
axiálny	axiálne	AAnp1x
axiálny	axiálnych	AAnp2x
axiálny	axiálnym	AAnp3x
axiálny	axiálne	AAnp4x
axiálny	axiálne	AAnp5x
axiálny	axiálnych	AAnp6x
axiálny	axiálnymi	AAnp7x
axióm	axióm	SSis1
axióm	axiómu	SSis2
axióm	axiómu	SSis3
axióm	axióm	SSis4
axióm	axióm	SSis5
axióm	axióme	SSis6
axióm	axiómom	SSis7
axióm	axiómy	SSip1
axióm	axiómov	SSip2
axióm	axiómom	SSip3
axióm	axiómy	SSip4
axióm	axiómy	SSip5
axióm	axiómoch	SSip6
axióm	axiómami	SSip7
axióma	axióma	SSfs1
axióma	axiómy	SSfs2
axióma	axióme	SSfs3
axióma	axiómu	SSfs4
axióma	axióma	SSfs5
axióma	axióme	SSfs6
axióma	axiómou	SSfs7
axióma	axiómy	SSfp1
axióma	axióm	SSfp2
axióma	axiómam	SSfp3
axióma	axiómy	SSfp4
axióma	axiómy	SSfp5
axióma	axiómach	SSfp6
axióma	axiómami	SSfp7
axiómový	axiómový	AAms1x
axiómový	axiómového	AAms2x
axiómový	axiómovému	AAms3x
axiómový	axiómového	AAms4x
axiómový	axiómový	AAms5x
axiómový	axiómovom	AAms6x
axiómový	axiómovým	AAms7x
axiómový	axiómoví	AAmp1x
axiómový	axiómových	AAmp2x
axiómový	axiómovým	AAmp3x
axiómový	axiómových	AAmp4x
axiómový	axiómoví	AAmp5x
axiómový	axiómových	AAmp6x
axiómový	axiómovými	AAmp7x
axiómový	axiómový	AAis1x
axiómový	axiómového	AAis2x
axiómový	axiómovému	AAis3x
axiómový	axiómový	AAis4x
axiómový	axiómový	AAis5x
axiómový	axiómovom	AAis6x
axiómový	axiómovým	AAis7x
axiómový	axiómové	AAip1x
axiómový	axiómových	AAip2x
axiómový	axiómovým	AAip3x
axiómový	axiómové	AAip4x
axiómový	axiómové	AAip5x
axiómový	axiómových	AAip6x
axiómový	axiómovými	AAip7x
axiómový	axiómová	AAfs1x
axiómový	axiómovej	AAfs2x
axiómový	axiómovej	AAfs3x
axiómový	axiómovú	AAfs4x
axiómový	axiómová	AAfs5x
axiómový	axiómovej	AAfs6x
axiómový	axiómovou	AAfs7x
axiómový	axiómové	AAfp1x
axiómový	axiómových	AAfp2x
axiómový	axiómovým	AAfp3x
axiómový	axiómové	AAfp4x
axiómový	axiómové	AAfp5x
axiómový	axiómových	AAfp6x
axiómový	axiómovými	AAfp7x
axiómový	axiómové	AAns1x
axiómový	axiómového	AAns2x
axiómový	axiómovému	AAns3x
axiómový	axiómové	AAns4x
axiómový	axiómové	AAns5x
axiómový	axiómovom	AAns6x
axiómový	axiómovým	AAns7x
axiómový	axiómové	AAnp1x
axiómový	axiómových	AAnp2x
axiómový	axiómovým	AAnp3x
axiómový	axiómové	AAnp4x
axiómový	axiómové	AAnp5x
axiómový	axiómových	AAnp6x
axiómový	axiómovými	AAnp7x
axonometria	axonometria	SSfs1
axonometria	axonometrie	SSfs2
axonometria	axonometrii	SSfs3
axonometria	axonometriu	SSfs4
axonometria	axonometria	SSfs5
axonometria	axonometrii	SSfs6
axonometria	axonometriou	SSfs7
axonometria	axonometrie	SSfp1
axonometria	axonometrií	SSfp2
axonometria	axonometriám	SSfp3
axonometria	axonometrie	SSfp4
axonometria	axonometrie	SSfp5
axonometria	axonometriách	SSfp6
axonometria	axonometriami	SSfp7
axonometrický	axonometrický	AAms1x
axonometrický	axonometrického	AAms2x
axonometrický	axonometrickému	AAms3x
axonometrický	axonometrického	AAms4x
axonometrický	axonometrický	AAms5x
axonometrický	axonometrickom	AAms6x
axonometrický	axonometrickým	AAms7x
axonometrický	axonometrickí	AAmp1x
axonometrický	axonometrických	AAmp2x
axonometrický	axonometrickým	AAmp3x
axonometrický	axonometrických	AAmp4x
axonometrický	axonometrickí	AAmp5x
axonometrický	axonometrických	AAmp6x
axonometrický	axonometrickými	AAmp7x
axonometrický	axonometrický	AAis1x
axonometrický	axonometrického	AAis2x
axonometrický	axonometrickému	AAis3x
axonometrický	axonometrický	AAis4x
axonometrický	axonometrický	AAis5x
axonometrický	axonometrickom	AAis6x
axonometrický	axonometrickým	AAis7x
axonometrický	axonometrické	AAip1x
axonometrický	axonometrických	AAip2x
axonometrický	axonometrickým	AAip3x
axonometrický	axonometrické	AAip4x
axonometrický	axonometrické	AAip5x
axonometrický	axonometrických	AAip6x
axonometrický	axonometrickými	AAip7x
axonometrický	axonometrická	AAfs1x
axonometrický	axonometrickej	AAfs2x
axonometrický	axonometrickej	AAfs3x
axonometrický	axonometrickú	AAfs4x
axonometrický	axonometrická	AAfs5x
axonometrický	axonometrickej	AAfs6x
axonometrický	axonometrickou	AAfs7x
axonometrický	axonometrické	AAfp1x
axonometrický	axonometrických	AAfp2x
axonometrický	axonometrickým	AAfp3x
axonometrický	axonometrické	AAfp4x
axonometrický	axonometrické	AAfp5x
axonometrický	axonometrických	AAfp6x
axonometrický	axonometrickými	AAfp7x
axonometrický	axonometrické	AAns1x
axonometrický	axonometrického	AAns2x
axonometrický	axonometrickému	AAns3x
axonometrický	axonometrické	AAns4x
axonometrický	axonometrické	AAns5x
axonometrický	axonometrickom	AAns6x
axonometrický	axonometrickým	AAns7x
axonometrický	axonometrické	AAnp1x
axonometrický	axonometrických	AAnp2x
axonometrický	axonometrickým	AAnp3x
axonometrický	axonometrické	AAnp4x
axonometrický	axonometrické	AAnp5x
axonometrický	axonometrických	AAnp6x
axonometrický	axonometrickými	AAnp7x
axón	axón	SSis1
axón	axónu	SSis2
axón	axónu	SSis3
axón	axón	SSis4
axón	axón	SSis5
axón	axóne	SSis6
axón	axónom	SSis7
axón	axóny	SSip1
axón	axónov	SSip2
axón	axónom	SSip3
axón	axóny	SSip4
axón	axóny	SSip5
axón	axónoch	SSip6
axón	axónmi	SSip7
axónový	axónový	AAms1x
axónový	axónového	AAms2x
axónový	axónovému	AAms3x
axónový	axónového	AAms4x
axónový	axónový	AAms5x
axónový	axónovom	AAms6x
axónový	axónovým	AAms7x
axónový	axónoví	AAmp1x
axónový	axónových	AAmp2x
axónový	axónovým	AAmp3x
axónový	axónových	AAmp4x
axónový	axónoví	AAmp5x
axónový	axónových	AAmp6x
axónový	axónovými	AAmp7x
axónový	axónový	AAis1x
axónový	axónového	AAis2x
axónový	axónovému	AAis3x
axónový	axónový	AAis4x
axónový	axónový	AAis5x
axónový	axónovom	AAis6x
axónový	axónovým	AAis7x
axónový	axónové	AAip1x
axónový	axónových	AAip2x
axónový	axónovým	AAip3x
axónový	axónové	AAip4x
axónový	axónové	AAip5x
axónový	axónových	AAip6x
axónový	axónovými	AAip7x
axónový	axónová	AAfs1x
axónový	axónovej	AAfs2x
axónový	axónovej	AAfs3x
axónový	axónovú	AAfs4x
axónový	axónová	AAfs5x
axónový	axónovej	AAfs6x
axónový	axónovou	AAfs7x
axónový	axónové	AAfp1x
axónový	axónových	AAfp2x
axónový	axónovým	AAfp3x
axónový	axónové	AAfp4x
axónový	axónové	AAfp5x
axónový	axónových	AAfp6x
axónový	axónovými	AAfp7x
axónový	axónové	AAns1x
axónový	axónového	AAns2x
axónový	axónovému	AAns3x
axónový	axónové	AAns4x
axónový	axónové	AAns5x
axónový	axónovom	AAns6x
axónový	axónovým	AAns7x
axónový	axónové	AAnp1x
axónový	axónových	AAnp2x
axónový	axónovým	AAnp3x
axónový	axónové	AAnp4x
axónový	axónové	AAnp5x
axónový	axónových	AAnp6x
axónový	axónovými	AAnp7x
