DC	DC	W
dcéra	dcéra	SSfs1
dcéra	dcéry	SSfs2
dcéra	dcére	SSfs3
dcéra	dcéru	SSfs4
dcéra	dcéra	SSfs5
dcéra	dcére	SSfs6
dcéra	dcérou	SSfs7
dcéra	dcéry	SSfp1
dcéra	dcér	SSfp2
dcéra	dcéram	SSfp3
dcéra	dcéry	SSfp4
dcéra	dcéry	SSfp5
dcéra	dcérach	SSfp6
dcéra	dcérami	SSfp7
dcérenka	dcérenka	SSfs1
dcérenka	dcérenky	SSfs2
dcérenka	dcérenke	SSfs3
dcérenka	dcérenku	SSfs4
dcérenka	dcérenka	SSfs5
dcérenka	dcérenke	SSfs6
dcérenka	dcérenkou	SSfs7
dcérenka	dcérenky	SSfp1
dcérenka	dcéreniek	SSfp2
dcérenka	dcérenkám	SSfp3
dcérenka	dcérenky	SSfp4
dcérenka	dcérenky	SSfp5
dcérenka	dcérenkách	SSfp6
dcérenka	dcérenkami	SSfp7
dcérin	dcérin	AFms1x
dcérin	dcérinho	AFms2x
dcérin	dcérinmu	AFms3x
dcérin	dcérinho	AFms4x
dcérin	dcérin	AFms5x
dcérin	dcérinom	AFms6x
dcérin	dcériným	AFms7x
dcérin	dcérini	AFmp1x
dcérin	dcériných	AFmp2x
dcérin	dcériným	AFmp3x
dcérin	dcériných	AFmp4x
dcérin	dcérini	AFmp5x
dcérin	dcériných	AFmp6x
dcérin	dcérinými	AFmp7x
dcérin	dcérin	AFis1x
dcérin	dcérinho	AFis2x
dcérin	dcérinmu	AFis3x
dcérin	dcérin	AFis4x
dcérin	dcérin	AFis5x
dcérin	dcérinom	AFis6x
dcérin	dcériným	AFis7x
dcérin	dcérine	AFip1x
dcérin	dcériných	AFip2x
dcérin	dcériným	AFip3x
dcérin	dcérine	AFip4x
dcérin	dcérine	AFip5x
dcérin	dcériných	AFip6x
dcérin	dcérinými	AFip7x
dcérin	dcérina	AFfs1x
dcérin	dcérinej	AFfs2x
dcérin	dcérinej	AFfs3x
dcérin	dcérinu	AFfs4x
dcérin	dcérina	AFfs5x
dcérin	dcérinej	AFfs6x
dcérin	dcérinou	AFfs7x
dcérin	dcérine	AFfp1x
dcérin	dcériných	AFfp2x
dcérin	dcériným	AFfp3x
dcérin	dcérine	AFfp4x
dcérin	dcérine	AFfp5x
dcérin	dcériných	AFfp6x
dcérin	dcérinými	AFfp7x
dcérin	dcérino	AFns1x
dcérin	dcérinho	AFns2x
dcérin	dcérinmu	AFns3x
dcérin	dcérino	AFns4x
dcérin	dcérino	AFns5x
dcérin	dcérinom	AFns6x
dcérin	dcériným	AFns7x
dcérin	dcérine	AFnp1x
dcérin	dcériných	AFnp2x
dcérin	dcériným	AFnp3x
dcérin	dcérine	AFnp4x
dcérin	dcérine	AFnp5x
dcérin	dcériných	AFnp6x
dcérin	dcérinými	AFnp7x
dcérka	dcérka	SSfs1
dcérka	dcérky	SSfs2
dcérka	dcérke	SSfs3
dcérka	dcérku	SSfs4
dcérka	dcérka	SSfs5
dcérka	dcérke	SSfs6
dcérka	dcérkou	SSfs7
dcérka	dcérky	SSfp1
dcérka	dcérok	SSfp2
dcérka	dcérkam	SSfp3
dcérka	dcérky	SSfp4
dcérka	dcérky	SSfp5
dcérka	dcérkach	SSfp6
dcérka	dcérkami	SSfp7
dcérkin	dcérkin	AFms1x
dcérkin	dcérkinho	AFms2x
dcérkin	dcérkinmu	AFms3x
dcérkin	dcérkinho	AFms4x
dcérkin	dcérkin	AFms5x
dcérkin	dcérkinom	AFms6x
dcérkin	dcérkiným	AFms7x
dcérkin	dcérkini	AFmp1x
dcérkin	dcérkiných	AFmp2x
dcérkin	dcérkiným	AFmp3x
dcérkin	dcérkiných	AFmp4x
dcérkin	dcérkini	AFmp5x
dcérkin	dcérkiných	AFmp6x
dcérkin	dcérkinými	AFmp7x
dcérkin	dcérkin	AFis1x
dcérkin	dcérkinho	AFis2x
dcérkin	dcérkinmu	AFis3x
dcérkin	dcérkin	AFis4x
dcérkin	dcérkin	AFis5x
dcérkin	dcérkinom	AFis6x
dcérkin	dcérkiným	AFis7x
dcérkin	dcérkine	AFip1x
dcérkin	dcérkiných	AFip2x
dcérkin	dcérkiným	AFip3x
dcérkin	dcérkine	AFip4x
dcérkin	dcérkine	AFip5x
dcérkin	dcérkiných	AFip6x
dcérkin	dcérkinými	AFip7x
dcérkin	dcérkina	AFfs1x
dcérkin	dcérkinej	AFfs2x
dcérkin	dcérkinej	AFfs3x
dcérkin	dcérkinu	AFfs4x
dcérkin	dcérkina	AFfs5x
dcérkin	dcérkinej	AFfs6x
dcérkin	dcérkinou	AFfs7x
dcérkin	dcérkine	AFfp1x
dcérkin	dcérkiných	AFfp2x
dcérkin	dcérkiným	AFfp3x
dcérkin	dcérkine	AFfp4x
dcérkin	dcérkine	AFfp5x
dcérkin	dcérkiných	AFfp6x
dcérkin	dcérkinými	AFfp7x
dcérkin	dcérkino	AFns1x
dcérkin	dcérkinho	AFns2x
dcérkin	dcérkinmu	AFns3x
dcérkin	dcérkino	AFns4x
dcérkin	dcérkino	AFns5x
dcérkin	dcérkinom	AFns6x
dcérkin	dcérkiným	AFns7x
dcérkin	dcérkine	AFnp1x
dcérkin	dcérkiných	AFnp2x
dcérkin	dcérkiným	AFnp3x
dcérkin	dcérkine	AFnp4x
dcérkin	dcérkine	AFnp5x
dcérkin	dcérkiných	AFnp6x
dcérkin	dcérkinými	AFnp7x
dcérocirkev	dcérocirkev	SSfs1
dcérocirkev	dcérocirkvi	SSfs2
dcérocirkev	dcérocirkvi	SSfs3
dcérocirkev	dcérocirkev	SSfs4
dcérocirkev	dcérocirkev	SSfs5
dcérocirkev	dcérocirkvi	SSfs6
dcérocirkev	dcérocirkvou	SSfs7
dcérocirkev	dcérocirkvi	SSfp1
dcérocirkev	dcérocirkví	SSfp2
dcérocirkev	dcérocirkvám	SSfp3
dcérocirkev	dcérocirkvi	SSfp4
dcérocirkev	dcérocirkvi	SSfp5
dcérocirkev	dcérocirkvách	SSfp6
dcérocirkev	dcérocirkvami	SSfp7
dcérsky	dcérsky	AAms1x
dcérsky	dcérskeho	AAms2x
dcérsky	dcérskemu	AAms3x
dcérsky	dcérskeho	AAms4x
dcérsky	dcérsky	AAms5x
dcérsky	dcérskom	AAms6x
dcérsky	dcérskym	AAms7x
dcérsky	dcérski	AAmp1x
dcérsky	dcérskych	AAmp2x
dcérsky	dcérskym	AAmp3x
dcérsky	dcérskych	AAmp4x
dcérsky	dcérski	AAmp5x
dcérsky	dcérskych	AAmp6x
dcérsky	dcérskymi	AAmp7x
dcérsky	dcérsky	AAis1x
dcérsky	dcérskeho	AAis2x
dcérsky	dcérskemu	AAis3x
dcérsky	dcérsky	AAis4x
dcérsky	dcérsky	AAis5x
dcérsky	dcérskom	AAis6x
dcérsky	dcérskym	AAis7x
dcérsky	dcérske	AAip1x
dcérsky	dcérskych	AAip2x
dcérsky	dcérskym	AAip3x
dcérsky	dcérske	AAip4x
dcérsky	dcérske	AAip5x
dcérsky	dcérskych	AAip6x
dcérsky	dcérskymi	AAip7x
dcérsky	dcérska	AAfs1x
dcérsky	dcérskej	AAfs2x
dcérsky	dcérskej	AAfs3x
dcérsky	dcérsku	AAfs4x
dcérsky	dcérska	AAfs5x
dcérsky	dcérskej	AAfs6x
dcérsky	dcérskou	AAfs7x
dcérsky	dcérske	AAfp1x
dcérsky	dcérskych	AAfp2x
dcérsky	dcérskym	AAfp3x
dcérsky	dcérske	AAfp4x
dcérsky	dcérske	AAfp5x
dcérsky	dcérskych	AAfp6x
dcérsky	dcérskymi	AAfp7x
dcérsky	dcérske	AAns1x
dcérsky	dcérskeho	AAns2x
dcérsky	dcérskemu	AAns3x
dcérsky	dcérske	AAns4x
dcérsky	dcérske	AAns5x
dcérsky	dcérskom	AAns6x
dcérsky	dcérskym	AAns7x
dcérsky	dcérske	AAnp1x
dcérsky	dcérskych	AAnp2x
dcérsky	dcérskym	AAnp3x
dcérsky	dcérske	AAnp4x
dcérsky	dcérske	AAnp5x
dcérsky	dcérskych	AAnp6x
dcérsky	dcérskymi	AAnp7x
dcéruška	dcéruška	SSfs1
dcéruška	dcérušky	SSfs2
dcéruška	dcéruške	SSfs3
dcéruška	dcérušku	SSfs4
dcéruška	dcéruška	SSfs5
dcéruška	dcéruške	SSfs6
dcéruška	dcéruškou	SSfs7
dcéruška	dcérušky	SSfp1
dcéruška	dcérušiek	SSfp2
dcéruška	dcéruškám	SSfp3
dcéruška	dcérušky	SSfp4
dcéruška	dcérušky	SSfp5
dcéruška	dcéruškách	SSfp6
dcéruška	dcéruškami	SSfp7
