ej	ej	J
ejakulačný	ejakulačný	AAms1x
ejakulačný	ejakulačného	AAms2x
ejakulačný	ejakulačnému	AAms3x
ejakulačný	ejakulačného	AAms4x
ejakulačný	ejakulačný	AAms5x
ejakulačný	ejakulačnom	AAms6x
ejakulačný	ejakulačným	AAms7x
ejakulačný	ejakulační	AAmp1x
ejakulačný	ejakulačných	AAmp2x
ejakulačný	ejakulačným	AAmp3x
ejakulačný	ejakulačných	AAmp4x
ejakulačný	ejakulační	AAmp5x
ejakulačný	ejakulačných	AAmp6x
ejakulačný	ejakulačnými	AAmp7x
ejakulačný	ejakulačný	AAis1x
ejakulačný	ejakulačného	AAis2x
ejakulačný	ejakulačnému	AAis3x
ejakulačný	ejakulačný	AAis4x
ejakulačný	ejakulačný	AAis5x
ejakulačný	ejakulačnom	AAis6x
ejakulačný	ejakulačným	AAis7x
ejakulačný	ejakulačné	AAip1x
ejakulačný	ejakulačných	AAip2x
ejakulačný	ejakulačným	AAip3x
ejakulačný	ejakulačné	AAip4x
ejakulačný	ejakulačné	AAip5x
ejakulačný	ejakulačných	AAip6x
ejakulačný	ejakulačnými	AAip7x
ejakulačný	ejakulačná	AAfs1x
ejakulačný	ejakulačnej	AAfs2x
ejakulačný	ejakulačnej	AAfs3x
ejakulačný	ejakulačnú	AAfs4x
ejakulačný	ejakulačná	AAfs5x
ejakulačný	ejakulačnej	AAfs6x
ejakulačný	ejakulačnou	AAfs7x
ejakulačný	ejakulačné	AAfp1x
ejakulačný	ejakulačných	AAfp2x
ejakulačný	ejakulačným	AAfp3x
ejakulačný	ejakulačné	AAfp4x
ejakulačný	ejakulačné	AAfp5x
ejakulačný	ejakulačných	AAfp6x
ejakulačný	ejakulačnými	AAfp7x
ejakulačný	ejakulačné	AAns1x
ejakulačný	ejakulačného	AAns2x
ejakulačný	ejakulačnému	AAns3x
ejakulačný	ejakulačné	AAns4x
ejakulačný	ejakulačné	AAns5x
ejakulačný	ejakulačnom	AAns6x
ejakulačný	ejakulačným	AAns7x
ejakulačný	ejakulačné	AAnp1x
ejakulačný	ejakulačných	AAnp2x
ejakulačný	ejakulačným	AAnp3x
ejakulačný	ejakulačné	AAnp4x
ejakulačný	ejakulačné	AAnp5x
ejakulačný	ejakulačných	AAnp6x
ejakulačný	ejakulačnými	AAnp7x
ejakulovať	ejakulovať	VIe+
ejakulovať	ejakulujem	VKesa+
ejakulovať	ejakuluješ	VKesb+
ejakulovať	ejakuluje	VKesc+
ejakulovať	ejakulujeme	VKepa+
ejakulovať	ejakulujete	VKepb+
ejakulovať	ejakulujú	VKepc+
ejakulovať	ejakuluj	VMesb+
ejakulovať	ejakulujme	VMepa+
ejakulovať	ejakulujte	VMepb+
ejakulovať	ejakulujúc	VHe+
ejakulovať	ejakuloval	VLesam+
ejakulovať	ejakuloval	VLesai+
ejakulovať	ejakuloval	VLesbm+
ejakulovať	ejakuloval	VLesbi+
ejakulovať	ejakuloval	VLescm+
ejakulovať	ejakuloval	VLesci+
ejakulovať	ejakulovala	VLesaf+
ejakulovať	ejakulovala	VLesbf+
ejakulovať	ejakulovala	VLescf+
ejakulovať	ejakulovalo	VLesan+
ejakulovať	ejakulovalo	VLesbn+
ejakulovať	ejakulovalo	VLescn+
ejakulovať	ejakulovali	VLepah+
ejakulovať	ejakulovali	VLepbh+
ejakulovať	ejakulovali	VLepcm+
ejakulovať	ejakulovali	VLepci+
ejakulovať	ejakulovali	VLepcf+
ejakulovať	ejakulovali	VLepcn+
ejakulovať	ejakulovali	VLepco+
ejakulácia	ejakulácia	SSfs1
ejakulácia	ejakulácie	SSfs2
ejakulácia	ejakulácii	SSfs3
ejakulácia	ejakuláciu	SSfs4
ejakulácia	ejakulácia	SSfs5
ejakulácia	ejakulácii	SSfs6
ejakulácia	ejakuláciou	SSfs7
ejakulácia	ejakulácie	SSfp1
ejakulácia	ejakulácií	SSfp2
ejakulácia	ejakuláciám	SSfp3
ejakulácia	ejakulácie	SSfp4
ejakulácia	ejakulácie	SSfp5
ejakulácia	ejakuláciách	SSfp6
ejakulácia	ejakuláciami	SSfp7
ejakulát	ejakulát	SSis1
ejakulát	ejakulátu	SSis2
ejakulát	ejakulátu	SSis3
ejakulát	ejakulát	SSis4
ejakulát	ejakulát	SSis5
ejakulát	ejakuláte	SSis6
ejakulát	ejakulátom	SSis7
ejakulát	ejakuláty	SSip1
ejakulát	ejakulátov	SSip2
ejakulát	ejakulátom	SSip3
ejakulát	ejakuláty	SSip4
ejakulát	ejakuláty	SSip5
ejakulát	ejakulátoch	SSip6
ejakulát	ejakulátmi	SSip7
ejej	ejej	J
ejektor	ejektor	SSis1
ejektor	ejektora	SSis2
ejektor	ejektoru	SSis3
ejektor	ejektor	SSis4
ejektor	ejektor	SSis5
ejektor	ejektore	SSis6
ejektor	ejektorom	SSis7
ejektor	ejektory	SSip1
ejektor	ejektorov	SSip2
ejektor	ejektorom	SSip3
ejektor	ejektory	SSip4
ejektor	ejektory	SSip5
ejektor	ejektoroch	SSip6
ejektor	ejektormi	SSip7
ejektorový	ejektorový	AAms1x
ejektorový	ejektorového	AAms2x
ejektorový	ejektorovému	AAms3x
ejektorový	ejektorového	AAms4x
ejektorový	ejektorový	AAms5x
ejektorový	ejektorovom	AAms6x
ejektorový	ejektorovým	AAms7x
ejektorový	ejektoroví	AAmp1x
ejektorový	ejektorových	AAmp2x
ejektorový	ejektorovým	AAmp3x
ejektorový	ejektorových	AAmp4x
ejektorový	ejektoroví	AAmp5x
ejektorový	ejektorových	AAmp6x
ejektorový	ejektorovými	AAmp7x
ejektorový	ejektorový	AAis1x
ejektorový	ejektorového	AAis2x
ejektorový	ejektorovému	AAis3x
ejektorový	ejektorový	AAis4x
ejektorový	ejektorový	AAis5x
ejektorový	ejektorovom	AAis6x
ejektorový	ejektorovým	AAis7x
ejektorový	ejektorové	AAip1x
ejektorový	ejektorových	AAip2x
ejektorový	ejektorovým	AAip3x
ejektorový	ejektorové	AAip4x
ejektorový	ejektorové	AAip5x
ejektorový	ejektorových	AAip6x
ejektorový	ejektorovými	AAip7x
ejektorový	ejektorová	AAfs1x
ejektorový	ejektorovej	AAfs2x
ejektorový	ejektorovej	AAfs3x
ejektorový	ejektorovú	AAfs4x
ejektorový	ejektorová	AAfs5x
ejektorový	ejektorovej	AAfs6x
ejektorový	ejektorovou	AAfs7x
ejektorový	ejektorové	AAfp1x
ejektorový	ejektorových	AAfp2x
ejektorový	ejektorovým	AAfp3x
ejektorový	ejektorové	AAfp4x
ejektorový	ejektorové	AAfp5x
ejektorový	ejektorových	AAfp6x
ejektorový	ejektorovými	AAfp7x
ejektorový	ejektorové	AAns1x
ejektorový	ejektorového	AAns2x
ejektorový	ejektorovému	AAns3x
ejektorový	ejektorové	AAns4x
ejektorový	ejektorové	AAns5x
ejektorový	ejektorovom	AAns6x
ejektorový	ejektorovým	AAns7x
ejektorový	ejektorové	AAnp1x
ejektorový	ejektorových	AAnp2x
ejektorový	ejektorovým	AAnp3x
ejektorový	ejektorové	AAnp4x
ejektorový	ejektorové	AAnp5x
ejektorový	ejektorových	AAnp6x
ejektorový	ejektorovými	AAnp7x
ejha	ejha	J
