FN	FN	W
FNM	FNM	W
FNsP	FNsP	W
fňuk	fňuk	J
fňukadlo	fňukadlo	SSns1
fňukadlo	fňukadla	SSns2
fňukadlo	fňukadlu	SSns3
fňukadlo	fňukadlo	SSns4
fňukadlo	fňukadlo	SSns5
fňukadlo	fňukadle	SSns6
fňukadlo	fňukadlom	SSns7
fňukadlo	fňukadlá	SSnp1
fňukadlo	fňukadiel	SSnp2
fňukadlo	fňukadlám	SSnp3
fňukadlo	fňukadlá	SSnp4
fňukadlo	fňukadlá	SSnp5
fňukadlo	fňukadlách	SSnp6
fňukadlo	fňukadlami	SSnp7
fňukavo	fňukavo	Dx
fňukavo	fňukavejšie	Dy
fňukavo	najfňukavejšie	Dz
fňukavý	fňukavý	AAms1x
fňukavý	fňukavého	AAms2x
fňukavý	fňukavému	AAms3x
fňukavý	fňukavého	AAms4x
fňukavý	fňukavý	AAms5x
fňukavý	fňukavom	AAms6x
fňukavý	fňukavým	AAms7x
fňukavý	fňukaví	AAmp1x
fňukavý	fňukavých	AAmp2x
fňukavý	fňukavým	AAmp3x
fňukavý	fňukavých	AAmp4x
fňukavý	fňukaví	AAmp5x
fňukavý	fňukavých	AAmp6x
fňukavý	fňukavými	AAmp7x
fňukavý	fňukavý	AAis1x
fňukavý	fňukavého	AAis2x
fňukavý	fňukavému	AAis3x
fňukavý	fňukavý	AAis4x
fňukavý	fňukavý	AAis5x
fňukavý	fňukavom	AAis6x
fňukavý	fňukavým	AAis7x
fňukavý	fňukavé	AAip1x
fňukavý	fňukavých	AAip2x
fňukavý	fňukavým	AAip3x
fňukavý	fňukavé	AAip4x
fňukavý	fňukavé	AAip5x
fňukavý	fňukavých	AAip6x
fňukavý	fňukavými	AAip7x
fňukavý	fňukavá	AAfs1x
fňukavý	fňukavej	AAfs2x
fňukavý	fňukavej	AAfs3x
fňukavý	fňukavú	AAfs4x
fňukavý	fňukavá	AAfs5x
fňukavý	fňukavej	AAfs6x
fňukavý	fňukavou	AAfs7x
fňukavý	fňukavé	AAfp1x
fňukavý	fňukavých	AAfp2x
fňukavý	fňukavým	AAfp3x
fňukavý	fňukavé	AAfp4x
fňukavý	fňukavé	AAfp5x
fňukavý	fňukavých	AAfp6x
fňukavý	fňukavými	AAfp7x
fňukavý	fňukavé	AAns1x
fňukavý	fňukavého	AAns2x
fňukavý	fňukavému	AAns3x
fňukavý	fňukavé	AAns4x
fňukavý	fňukavé	AAns5x
fňukavý	fňukavom	AAns6x
fňukavý	fňukavým	AAns7x
fňukavý	fňukavé	AAnp1x
fňukavý	fňukavých	AAnp2x
fňukavý	fňukavým	AAnp3x
fňukavý	fňukavé	AAnp4x
fňukavý	fňukavé	AAnp5x
fňukavý	fňukavých	AAnp6x
fňukavý	fňukavými	AAnp7x
fňukavý	fňukavejší	AAms1y
fňukavý	fňukavejšieho	AAms2y
fňukavý	fňukavejšiemu	AAms3y
fňukavý	fňukavejšieho	AAms4y
fňukavý	fňukavejší	AAms5y
fňukavý	fňukavejšom	AAms6y
fňukavý	fňukavejším	AAms7y
fňukavý	fňukavejší	AAmp1y
fňukavý	fňukavejších	AAmp2y
fňukavý	fňukavejším	AAmp3y
fňukavý	fňukavejších	AAmp4y
fňukavý	fňukavejší	AAmp5y
fňukavý	fňukavejších	AAmp6y
fňukavý	fňukavejšími	AAmp7y
fňukavý	fňukavejší	AAis1y
fňukavý	fňukavejšieho	AAis2y
fňukavý	fňukavejšiemu	AAis3y
fňukavý	fňukavejší	AAis4y
fňukavý	fňukavejší	AAis5y
fňukavý	fňukavejšom	AAis6y
fňukavý	fňukavejším	AAis7y
fňukavý	fňukavejšie	AAip1y
fňukavý	fňukavejších	AAip2y
fňukavý	fňukavejším	AAip3y
fňukavý	fňukavejšie	AAip4y
fňukavý	fňukavejšie	AAip5y
fňukavý	fňukavejších	AAip6y
fňukavý	fňukavejšími	AAip7y
fňukavý	fňukavejšia	AAfs1y
fňukavý	fňukavejšej	AAfs2y
fňukavý	fňukavejšej	AAfs3y
fňukavý	fňukavejšiu	AAfs4y
fňukavý	fňukavejšia	AAfs5y
fňukavý	fňukavejšej	AAfs6y
fňukavý	fňukavejšou	AAfs7y
fňukavý	fňukavejšie	AAfp1y
fňukavý	fňukavejších	AAfp2y
fňukavý	fňukavejším	AAfp3y
fňukavý	fňukavejšie	AAfp4y
fňukavý	fňukavejšie	AAfp5y
fňukavý	fňukavejších	AAfp6y
fňukavý	fňukavejšími	AAfp7y
fňukavý	fňukavejšie	AAns1y
fňukavý	fňukavejšieho	AAns2y
fňukavý	fňukavejšiemu	AAns3y
fňukavý	fňukavejšie	AAns4y
fňukavý	fňukavejšie	AAns5y
fňukavý	fňukavejšom	AAns6y
fňukavý	fňukavejším	AAns7y
fňukavý	fňukavejšie	AAnp1y
fňukavý	fňukavejších	AAnp2y
fňukavý	fňukavejším	AAnp3y
fňukavý	fňukavejšie	AAnp4y
fňukavý	fňukavejšie	AAnp5y
fňukavý	fňukavejších	AAnp6y
fňukavý	fňukavejšími	AAnp7y
fňukavý	najfňukavejší	AAms1z
fňukavý	najfňukavejšieho	AAms2z
fňukavý	najfňukavejšiemu	AAms3z
fňukavý	najfňukavejšieho	AAms4z
fňukavý	najfňukavejší	AAms5z
fňukavý	najfňukavejšom	AAms6z
fňukavý	najfňukavejším	AAms7z
fňukavý	najfňukavejší	AAmp1z
fňukavý	najfňukavejších	AAmp2z
fňukavý	najfňukavejším	AAmp3z
fňukavý	najfňukavejších	AAmp4z
fňukavý	najfňukavejší	AAmp5z
fňukavý	najfňukavejších	AAmp6z
fňukavý	najfňukavejšími	AAmp7z
fňukavý	najfňukavejší	AAis1z
fňukavý	najfňukavejšieho	AAis2z
fňukavý	najfňukavejšiemu	AAis3z
fňukavý	najfňukavejší	AAis4z
fňukavý	najfňukavejší	AAis5z
fňukavý	najfňukavejšom	AAis6z
fňukavý	najfňukavejším	AAis7z
fňukavý	najfňukavejšie	AAip1z
fňukavý	najfňukavejších	AAip2z
fňukavý	najfňukavejším	AAip3z
fňukavý	najfňukavejšie	AAip4z
fňukavý	najfňukavejšie	AAip5z
fňukavý	najfňukavejších	AAip6z
fňukavý	najfňukavejšími	AAip7z
fňukavý	najfňukavejšia	AAfs1z
fňukavý	najfňukavejšej	AAfs2z
fňukavý	najfňukavejšej	AAfs3z
fňukavý	najfňukavejšiu	AAfs4z
fňukavý	najfňukavejšia	AAfs5z
fňukavý	najfňukavejšej	AAfs6z
fňukavý	najfňukavejšou	AAfs7z
fňukavý	najfňukavejšie	AAfp1z
fňukavý	najfňukavejších	AAfp2z
fňukavý	najfňukavejším	AAfp3z
fňukavý	najfňukavejšie	AAfp4z
fňukavý	najfňukavejšie	AAfp5z
fňukavý	najfňukavejších	AAfp6z
fňukavý	najfňukavejšími	AAfp7z
fňukavý	najfňukavejšie	AAns1z
fňukavý	najfňukavejšieho	AAns2z
fňukavý	najfňukavejšiemu	AAns3z
fňukavý	najfňukavejšie	AAns4z
fňukavý	najfňukavejšie	AAns5z
fňukavý	najfňukavejšom	AAns6z
fňukavý	najfňukavejším	AAns7z
fňukavý	najfňukavejšie	AAnp1z
fňukavý	najfňukavejších	AAnp2z
fňukavý	najfňukavejším	AAnp3z
fňukavý	najfňukavejšie	AAnp4z
fňukavý	najfňukavejšie	AAnp5z
fňukavý	najfňukavejších	AAnp6z
fňukavý	najfňukavejšími	AAnp7z
fňukaňa	fňukaňa	SSfs1
fňukaňa	fňukane	SSfs2
fňukaňa	fňukani	SSfs3
fňukaňa	fňukaňu	SSfs4
fňukaňa	fňukaňa	SSfs5
fňukaňa	fňukani	SSfs6
fňukaňa	fňukaňou	SSfs7
fňukaňa	fňukane	SSfp1
fňukaňa	fňukaní	SSfp2
fňukaňa	fňukaniam	SSfp3
fňukaňa	fňukane	SSfp4
fňukaňa	fňukane	SSfp5
fňukaňa	fňukaniach	SSfp6
fňukaňa	fňukaňami	SSfp7
fňukať	fňukať	VIe+
fňukať	fňukám	VKesa+
fňukať	fňukáš	VKesb+
fňukať	fňuká	VKesc+
fňukať	fňukáme	VKepa+
fňukať	fňukáte	VKepb+
fňukať	fňukajú	VKepc+
fňukať	fňukaj	VMesb+
fňukať	fňukajme	VMepa+
fňukať	fňukajte	VMepb+
fňukať	fňukajúc	VHe+
fňukať	fňukal	VLesam+
fňukať	fňukal	VLesai+
fňukať	fňukal	VLesbm+
fňukať	fňukal	VLesbi+
fňukať	fňukal	VLescm+
fňukať	fňukal	VLesci+
fňukať	fňukala	VLesaf+
fňukať	fňukala	VLesbf+
fňukať	fňukala	VLescf+
fňukať	fňukalo	VLesan+
fňukať	fňukalo	VLesbn+
fňukať	fňukalo	VLescn+
fňukať	fňukali	VLepah+
fňukať	fňukali	VLepbh+
fňukať	fňukali	VLepcm+
fňukať	fňukali	VLepci+
fňukať	fňukali	VLepcf+
fňukať	fňukali	VLepcn+
fňukať	fňukali	VLepco+
fňukot	fňukot	SSis1
fňukot	fňukotu	SSis2
fňukot	fňukotu	SSis3
fňukot	fňukot	SSis4
fňukot	fňukot	SSis5
fňukot	fňukote	SSis6
fňukot	fňukotom	SSis7
fňukot	fňukoty	SSip1
fňukot	fňukotov	SSip2
fňukot	fňukotom	SSip3
fňukot	fňukoty	SSip4
fňukot	fňukoty	SSip5
fňukot	fňukotoch	SSip6
fňukot	fňukotmi	SSip7
fňukáč	fňukáč	SSms1
fňukáč	fňukáča	SSms2
fňukáč	fňukáčovi	SSms3
fňukáč	fňukáča	SSms4
fňukáč	fňukáč	SSms5
fňukáč	fňukáčovi	SSms6
fňukáč	fňukáčom	SSms7
fňukáč	fňukáči	SSmp1
fňukáč	fňukáčov	SSmp2
fňukáč	fňukáčom	SSmp3
fňukáč	fňukáčov	SSmp4
fňukáč	fňukáči	SSmp5
fňukáč	fňukáčoch	SSmp6
fňukáč	fňukáčmi	SSmp7
fňukáčik	fňukáčik	SSms1
fňukáčik	fňukáčika	SSms2
fňukáčik	fňukáčikovi	SSms3
fňukáčik	fňukáčika	SSms4
fňukáčik	fňukáčik	SSms5
fňukáčik	fňukáčikovi	SSms6
fňukáčik	fňukáčikom	SSms7
fňukáčik	fňukáčikovia	SSmp1
fňukáčik	fňukáčikov	SSmp2
fňukáčik	fňukáčikom	SSmp3
fňukáčik	fňukáčikov	SSmp4
fňukáčik	fňukáčikovia	SSmp5
fňukáčik	fňukáčikoch	SSmp6
fňukáčik	fňukáčikmi	SSmp7
