ftizeologický	ftizeologický	AAms1x
ftizeologický	ftizeologického	AAms2x
ftizeologický	ftizeologickému	AAms3x
ftizeologický	ftizeologického	AAms4x
ftizeologický	ftizeologický	AAms5x
ftizeologický	ftizeologickom	AAms6x
ftizeologický	ftizeologickým	AAms7x
ftizeologický	ftizeologickí	AAmp1x
ftizeologický	ftizeologických	AAmp2x
ftizeologický	ftizeologickým	AAmp3x
ftizeologický	ftizeologických	AAmp4x
ftizeologický	ftizeologickí	AAmp5x
ftizeologický	ftizeologických	AAmp6x
ftizeologický	ftizeologickými	AAmp7x
ftizeologický	ftizeologický	AAis1x
ftizeologický	ftizeologického	AAis2x
ftizeologický	ftizeologickému	AAis3x
ftizeologický	ftizeologický	AAis4x
ftizeologický	ftizeologický	AAis5x
ftizeologický	ftizeologickom	AAis6x
ftizeologický	ftizeologickým	AAis7x
ftizeologický	ftizeologické	AAip1x
ftizeologický	ftizeologických	AAip2x
ftizeologický	ftizeologickým	AAip3x
ftizeologický	ftizeologické	AAip4x
ftizeologický	ftizeologické	AAip5x
ftizeologický	ftizeologických	AAip6x
ftizeologický	ftizeologickými	AAip7x
ftizeologický	ftizeologická	AAfs1x
ftizeologický	ftizeologickej	AAfs2x
ftizeologický	ftizeologickej	AAfs3x
ftizeologický	ftizeologickú	AAfs4x
ftizeologický	ftizeologická	AAfs5x
ftizeologický	ftizeologickej	AAfs6x
ftizeologický	ftizeologickou	AAfs7x
ftizeologický	ftizeologické	AAfp1x
ftizeologický	ftizeologických	AAfp2x
ftizeologický	ftizeologickým	AAfp3x
ftizeologický	ftizeologické	AAfp4x
ftizeologický	ftizeologické	AAfp5x
ftizeologický	ftizeologických	AAfp6x
ftizeologický	ftizeologickými	AAfp7x
ftizeologický	ftizeologické	AAns1x
ftizeologický	ftizeologického	AAns2x
ftizeologický	ftizeologickému	AAns3x
ftizeologický	ftizeologické	AAns4x
ftizeologický	ftizeologické	AAns5x
ftizeologický	ftizeologickom	AAns6x
ftizeologický	ftizeologickým	AAns7x
ftizeologický	ftizeologické	AAnp1x
ftizeologický	ftizeologických	AAnp2x
ftizeologický	ftizeologickým	AAnp3x
ftizeologický	ftizeologické	AAnp4x
ftizeologický	ftizeologické	AAnp5x
ftizeologický	ftizeologických	AAnp6x
ftizeologický	ftizeologickými	AAnp7x
ftizeologička	ftizeologička	SSfs1
ftizeologička	ftizeologičky	SSfs2
ftizeologička	ftizeologičke	SSfs3
ftizeologička	ftizeologičku	SSfs4
ftizeologička	ftizeologička	SSfs5
ftizeologička	ftizeologičke	SSfs6
ftizeologička	ftizeologičkou	SSfs7
ftizeologička	ftizeologičky	SSfp1
ftizeologička	ftizeologičiek	SSfp2
ftizeologička	ftizeologičkám	SSfp3
ftizeologička	ftizeologičky	SSfp4
ftizeologička	ftizeologičky	SSfp5
ftizeologička	ftizeologičkách	SSfp6
ftizeologička	ftizeologičkami	SSfp7
ftizeológ	ftizeológ	SSms1
ftizeológ	ftizeológa	SSms2
ftizeológ	ftizeológovi	SSms3
ftizeológ	ftizeológa	SSms4
ftizeológ	ftizeológ	SSms5
ftizeológ	ftizeológovi	SSms6
ftizeológ	ftizeológom	SSms7
ftizeológ	ftizeológovia	SSmp1
ftizeológ	ftizeológov	SSmp2
ftizeológ	ftizeológom	SSmp3
ftizeológ	ftizeológov	SSmp4
ftizeológ	ftizeológovia	SSmp5
ftizeológ	ftizeológoch	SSmp6
ftizeológ	ftizeológmi	SSmp7
ftizeológia	ftizeológia	SSfs1
ftizeológia	ftizeológie	SSfs2
ftizeológia	ftizeológii	SSfs3
ftizeológia	ftizeológiu	SSfs4
ftizeológia	ftizeológia	SSfs5
ftizeológia	ftizeológii	SSfs6
ftizeológia	ftizeológiou	SSfs7
ftizeológia	ftizeológie	SSfp1
ftizeológia	ftizeológií	SSfp2
ftizeológia	ftizeológiám	SSfp3
ftizeológia	ftizeológie	SSfp4
ftizeológia	ftizeológie	SSfp5
ftizeológia	ftizeológiách	SSfp6
ftizeológia	ftizeológiami	SSfp7
ftíza	ftíza	SSfs1
ftíza	ftízy	SSfs2
ftíza	ftíze	SSfs3
ftíza	ftízu	SSfs4
ftíza	ftíza	SSfs5
ftíza	ftíze	SSfs6
ftíza	ftízou	SSfs7
ftíza	ftízy	SSfp1
ftíza	ftíz	SSfp2
ftíza	ftízam	SSfp3
ftíza	ftízy	SSfp4
ftíza	ftízy	SSfp5
ftíza	ftízach	SSfp6
ftíza	ftízami	SSfp7
ftízický	ftízický	AAms1x
ftízický	ftízického	AAms2x
ftízický	ftízickému	AAms3x
ftízický	ftízického	AAms4x
ftízický	ftízický	AAms5x
ftízický	ftízickom	AAms6x
ftízický	ftízickým	AAms7x
ftízický	ftízickí	AAmp1x
ftízický	ftízických	AAmp2x
ftízický	ftízickým	AAmp3x
ftízický	ftízických	AAmp4x
ftízický	ftízickí	AAmp5x
ftízický	ftízických	AAmp6x
ftízický	ftízickými	AAmp7x
ftízický	ftízický	AAis1x
ftízický	ftízického	AAis2x
ftízický	ftízickému	AAis3x
ftízický	ftízický	AAis4x
ftízický	ftízický	AAis5x
ftízický	ftízickom	AAis6x
ftízický	ftízickým	AAis7x
ftízický	ftízické	AAip1x
ftízický	ftízických	AAip2x
ftízický	ftízickým	AAip3x
ftízický	ftízické	AAip4x
ftízický	ftízické	AAip5x
ftízický	ftízických	AAip6x
ftízický	ftízickými	AAip7x
ftízický	ftízická	AAfs1x
ftízický	ftízickej	AAfs2x
ftízický	ftízickej	AAfs3x
ftízický	ftízickú	AAfs4x
ftízický	ftízická	AAfs5x
ftízický	ftízickej	AAfs6x
ftízický	ftízickou	AAfs7x
ftízický	ftízické	AAfp1x
ftízický	ftízických	AAfp2x
ftízický	ftízickým	AAfp3x
ftízický	ftízické	AAfp4x
ftízický	ftízické	AAfp5x
ftízický	ftízických	AAfp6x
ftízický	ftízickými	AAfp7x
ftízický	ftízické	AAns1x
ftízický	ftízického	AAns2x
ftízický	ftízickému	AAns3x
ftízický	ftízické	AAns4x
ftízický	ftízické	AAns5x
ftízický	ftízickom	AAns6x
ftízický	ftízickým	AAns7x
ftízický	ftízické	AAnp1x
ftízický	ftízických	AAnp2x
ftízický	ftízickým	AAnp3x
ftízický	ftízické	AAnp4x
ftízický	ftízické	AAnp5x
ftízický	ftízických	AAnp6x
ftízický	ftízickými	AAnp7x
