Gizela	Gizela	SSfs1
Gizela	Gizely	SSfs2
Gizela	Gizele	SSfs3
Gizela	Gizelu	SSfs4
Gizela	Gizela	SSfs5
Gizela	Gizele	SSfs6
Gizela	Gizelou	SSfs7
Gizela	Gizely	SSfp1
Gizela	Gizel	SSfp2
Gizela	Gizelám	SSfp3
Gizela	Gizely	SSfp4
Gizela	Gizely	SSfp5
Gizela	Gizelách	SSfp6
Gizela	Gizelami	SSfp7
gibon	gibon	SSms1
gibon	gibona	SSms2
gibon	gibonovi	SSms3
gibon	gibona	SSms4
gibon	gibon	SSms5
gibon	gibonovi	SSms6
gibon	gibonom	SSms7
gibon	gibony	SSip1
gibon	gibonov	SSip2
gibon	gibonom	SSip3
gibon	gibony	SSip4
gibon	gibony	SSip5
gibon	gibonoch	SSip6
gibon	gibonmi	SSip7
giboní	giboní	AAms1x
giboní	gibonieho	AAms2x
giboní	giboniemu	AAms3x
giboní	gibonieho	AAms4x
giboní	giboní	AAms5x
giboní	giboňom	AAms6x
giboní	giboním	AAms7x
giboní	giboní	AAmp1x
giboní	giboních	AAmp2x
giboní	giboním	AAmp3x
giboní	giboních	AAmp4x
giboní	giboní	AAmp5x
giboní	giboních	AAmp6x
giboní	giboními	AAmp7x
giboní	giboní	AAis1x
giboní	gibonieho	AAis2x
giboní	giboniemu	AAis3x
giboní	giboní	AAis4x
giboní	giboní	AAis5x
giboní	giboňom	AAis6x
giboní	giboním	AAis7x
giboní	gibonie	AAip1x
giboní	giboních	AAip2x
giboní	giboním	AAip3x
giboní	gibonie	AAip4x
giboní	gibonie	AAip5x
giboní	giboních	AAip6x
giboní	giboními	AAip7x
giboní	gibonia	AAfs1x
giboní	gibonej	AAfs2x
giboní	gibonej	AAfs3x
giboní	giboniu	AAfs4x
giboní	gibonia	AAfs5x
giboní	gibonej	AAfs6x
giboní	giboňou	AAfs7x
giboní	gibonie	AAfp1x
giboní	giboních	AAfp2x
giboní	giboním	AAfp3x
giboní	gibonie	AAfp4x
giboní	gibonie	AAfp5x
giboní	giboních	AAfp6x
giboní	giboními	AAfp7x
giboní	gibonie	AAns1x
giboní	gibonieho	AAns2x
giboní	giboniemu	AAns3x
giboní	gibonie	AAns4x
giboní	gibonie	AAns5x
giboní	giboňom	AAns6x
giboní	giboním	AAns7x
giboní	gibonie	AAnp1x
giboní	giboních	AAnp2x
giboní	giboním	AAnp3x
giboní	gibonie	AAnp4x
giboní	gibonie	AAnp5x
giboní	giboních	AAnp6x
giboní	giboními	AAnp7x
gibraltársky	gibraltársky	AAms1x
gibraltársky	gibraltárskeho	AAms2x
gibraltársky	gibraltárskemu	AAms3x
gibraltársky	gibraltárskeho	AAms4x
gibraltársky	gibraltársky	AAms5x
gibraltársky	gibraltárskom	AAms6x
gibraltársky	gibraltárskym	AAms7x
gibraltársky	gibraltárski	AAmp1x
gibraltársky	gibraltárskych	AAmp2x
gibraltársky	gibraltárskym	AAmp3x
gibraltársky	gibraltárskych	AAmp4x
gibraltársky	gibraltárski	AAmp5x
gibraltársky	gibraltárskych	AAmp6x
gibraltársky	gibraltárskymi	AAmp7x
gibraltársky	gibraltársky	AAis1x
gibraltársky	gibraltárskeho	AAis2x
gibraltársky	gibraltárskemu	AAis3x
gibraltársky	gibraltársky	AAis4x
gibraltársky	gibraltársky	AAis5x
gibraltársky	gibraltárskom	AAis6x
gibraltársky	gibraltárskym	AAis7x
gibraltársky	gibraltárske	AAip1x
gibraltársky	gibraltárskych	AAip2x
gibraltársky	gibraltárskym	AAip3x
gibraltársky	gibraltárske	AAip4x
gibraltársky	gibraltárske	AAip5x
gibraltársky	gibraltárskych	AAip6x
gibraltársky	gibraltárskymi	AAip7x
gibraltársky	gibraltárska	AAfs1x
gibraltársky	gibraltárskej	AAfs2x
gibraltársky	gibraltárskej	AAfs3x
gibraltársky	gibraltársku	AAfs4x
gibraltársky	gibraltárska	AAfs5x
gibraltársky	gibraltárskej	AAfs6x
gibraltársky	gibraltárskou	AAfs7x
gibraltársky	gibraltárske	AAfp1x
gibraltársky	gibraltárskych	AAfp2x
gibraltársky	gibraltárskym	AAfp3x
gibraltársky	gibraltárske	AAfp4x
gibraltársky	gibraltárske	AAfp5x
gibraltársky	gibraltárskych	AAfp6x
gibraltársky	gibraltárskymi	AAfp7x
gibraltársky	gibraltárske	AAns1x
gibraltársky	gibraltárskeho	AAns2x
gibraltársky	gibraltárskemu	AAns3x
gibraltársky	gibraltárske	AAns4x
gibraltársky	gibraltárske	AAns5x
gibraltársky	gibraltárskom	AAns6x
gibraltársky	gibraltárskym	AAns7x
gibraltársky	gibraltárske	AAnp1x
gibraltársky	gibraltárskych	AAnp2x
gibraltársky	gibraltárskym	AAnp3x
gibraltársky	gibraltárske	AAnp4x
gibraltársky	gibraltárske	AAnp5x
gibraltársky	gibraltárskych	AAnp6x
gibraltársky	gibraltárskymi	AAnp7x
gibsonka	gibsonka	SSfs1
gibsonka	gibsonky	SSfs2
gibsonka	gibsonke	SSfs3
gibsonka	gibsonku	SSfs4
gibsonka	gibsonka	SSfs5
gibsonka	gibsonke	SSfs6
gibsonka	gibsonkou	SSfs7
gibsonka	gibsonky	SSfp1
gibsonka	gibsoniek	SSfp2
gibsonka	gibsonkám	SSfp3
gibsonka	gibsonky	SSfp4
gibsonka	gibsonky	SSfp5
gibsonka	gibsonkách	SSfp6
gibsonka	gibsonkami	SSfp7
gigabajt	gigabajt	SSis1
gigabajt	gigabajtu	SSis2
gigabajt	gigabajtu	SSis3
gigabajt	gigabajt	SSis4
gigabajt	gigabajt	SSis5
gigabajt	gigabajte	SSis6
gigabajt	gigabajtom	SSis7
gigabajt	gigabajty	SSip1
gigabajt	gigabajtov	SSip2
gigabajt	gigabajtom	SSip3
gigabajt	gigabajty	SSip4
gigabajt	gigabajty	SSip5
gigabajt	gigabajtoch	SSip6
gigabajt	gigabajtmi	SSip7
gigabajtový	gigabajtový	AAms1x
gigabajtový	gigabajtového	AAms2x
gigabajtový	gigabajtovému	AAms3x
gigabajtový	gigabajtového	AAms4x
gigabajtový	gigabajtový	AAms5x
gigabajtový	gigabajtovom	AAms6x
gigabajtový	gigabajtovým	AAms7x
gigabajtový	gigabajtoví	AAmp1x
gigabajtový	gigabajtových	AAmp2x
gigabajtový	gigabajtovým	AAmp3x
gigabajtový	gigabajtových	AAmp4x
gigabajtový	gigabajtoví	AAmp5x
gigabajtový	gigabajtových	AAmp6x
gigabajtový	gigabajtovými	AAmp7x
gigabajtový	gigabajtový	AAis1x
gigabajtový	gigabajtového	AAis2x
gigabajtový	gigabajtovému	AAis3x
gigabajtový	gigabajtový	AAis4x
gigabajtový	gigabajtový	AAis5x
gigabajtový	gigabajtovom	AAis6x
gigabajtový	gigabajtovým	AAis7x
gigabajtový	gigabajtové	AAip1x
gigabajtový	gigabajtových	AAip2x
gigabajtový	gigabajtovým	AAip3x
gigabajtový	gigabajtové	AAip4x
gigabajtový	gigabajtové	AAip5x
gigabajtový	gigabajtových	AAip6x
gigabajtový	gigabajtovými	AAip7x
gigabajtový	gigabajtová	AAfs1x
gigabajtový	gigabajtovej	AAfs2x
gigabajtový	gigabajtovej	AAfs3x
gigabajtový	gigabajtovú	AAfs4x
gigabajtový	gigabajtová	AAfs5x
gigabajtový	gigabajtovej	AAfs6x
gigabajtový	gigabajtovou	AAfs7x
gigabajtový	gigabajtové	AAfp1x
gigabajtový	gigabajtových	AAfp2x
gigabajtový	gigabajtovým	AAfp3x
gigabajtový	gigabajtové	AAfp4x
gigabajtový	gigabajtové	AAfp5x
gigabajtový	gigabajtových	AAfp6x
gigabajtový	gigabajtovými	AAfp7x
gigabajtový	gigabajtové	AAns1x
gigabajtový	gigabajtového	AAns2x
gigabajtový	gigabajtovému	AAns3x
gigabajtový	gigabajtové	AAns4x
gigabajtový	gigabajtové	AAns5x
gigabajtový	gigabajtovom	AAns6x
gigabajtový	gigabajtovým	AAns7x
gigabajtový	gigabajtové	AAnp1x
gigabajtový	gigabajtových	AAnp2x
gigabajtový	gigabajtovým	AAnp3x
gigabajtový	gigabajtové	AAnp4x
gigabajtový	gigabajtové	AAnp5x
gigabajtový	gigabajtových	AAnp6x
gigabajtový	gigabajtovými	AAnp7x
gigahertz	gigahertz	SSis1
gigahertz	gigahertzu	SSis2
gigahertz	gigahertzu	SSis3
gigahertz	gigahertz	SSis4
gigahertz	gigahertz	SSis5
gigahertz	gigahertzi	SSis6
gigahertz	gigahertzom	SSis7
gigahertz	gigahertze	SSip1
gigahertz	gigahertzov	SSip2
gigahertz	gigahertzom	SSip3
gigahertz	gigahertze	SSip4
gigahertz	gigahertze	SSip5
gigahertz	gigahertzoch	SSip6
gigahertz	gigahertzmi	SSip7
gigant	gigant	SSms1
gigant	giganta	SSms2
gigant	gigantovi	SSms3
gigant	giganta	SSms4
gigant	gigant	SSms5
gigant	gigantovi	SSms6
gigant	gigantom	SSms7
gigant	giganti	SSmp1
gigant	gigantov	SSmp2
gigant	gigantom	SSmp3
gigant	gigantov	SSmp4
gigant	giganti	SSmp5
gigant	gigantoch	SSmp6
gigant	gigantmi	SSmp7
gigant	gigant	SSis1
gigant	gigantu	SSis2
gigant	gigantu	SSis3
gigant	gigant	SSis4
gigant	gigant	SSis5
gigant	gigante	SSis6
gigant	gigantom	SSis7
gigant	giganty	SSip1
gigant	gigantov	SSip2
gigant	gigantom	SSip3
gigant	giganty	SSip4
gigant	giganty	SSip5
gigant	gigantoch	SSip6
gigant	gigantmi	SSip7
gigantickosť	gigantickosť	SSfs1
gigantickosť	gigantickosti	SSfs2
gigantickosť	gigantickosti	SSfs3
gigantickosť	gigantickosť	SSfs4
gigantickosť	gigantickosť	SSfs5
gigantickosť	gigantickosti	SSfs6
gigantickosť	gigantickosťou	SSfs7
gigantickosť	gigantickosti	SSfp1
gigantickosť	gigantickostí	SSfp2
gigantickosť	gigantickostiam	SSfp3
gigantickosť	gigantickosti	SSfp4
gigantickosť	gigantickosti	SSfp5
gigantickosť	gigantickostiach	SSfp6
gigantickosť	gigantickosťami	SSfp7
giganticky	giganticky	Dx
giganticky	gigantickejšie	Dy
giganticky	najgigantickejšie	Dz
gigantický	gigantický	AAms1x
gigantický	gigantického	AAms2x
gigantický	gigantickému	AAms3x
gigantický	gigantického	AAms4x
gigantický	gigantický	AAms5x
gigantický	gigantickom	AAms6x
gigantický	gigantickým	AAms7x
gigantický	gigantickí	AAmp1x
gigantický	gigantických	AAmp2x
gigantický	gigantickým	AAmp3x
gigantický	gigantických	AAmp4x
gigantický	gigantickí	AAmp5x
gigantický	gigantických	AAmp6x
gigantický	gigantickými	AAmp7x
gigantický	gigantický	AAis1x
gigantický	gigantického	AAis2x
gigantický	gigantickému	AAis3x
gigantický	gigantický	AAis4x
gigantický	gigantický	AAis5x
gigantický	gigantickom	AAis6x
gigantický	gigantickým	AAis7x
gigantický	gigantické	AAip1x
gigantický	gigantických	AAip2x
gigantický	gigantickým	AAip3x
gigantický	gigantické	AAip4x
gigantický	gigantické	AAip5x
gigantický	gigantických	AAip6x
gigantický	gigantickými	AAip7x
gigantický	gigantická	AAfs1x
gigantický	gigantickej	AAfs2x
gigantický	gigantickej	AAfs3x
gigantický	gigantickú	AAfs4x
gigantický	gigantická	AAfs5x
gigantický	gigantickej	AAfs6x
gigantický	gigantickou	AAfs7x
gigantický	gigantické	AAfp1x
gigantický	gigantických	AAfp2x
gigantický	gigantickým	AAfp3x
gigantický	gigantické	AAfp4x
gigantický	gigantické	AAfp5x
gigantický	gigantických	AAfp6x
gigantický	gigantickými	AAfp7x
gigantický	gigantické	AAns1x
gigantický	gigantického	AAns2x
gigantický	gigantickému	AAns3x
gigantický	gigantické	AAns4x
gigantický	gigantické	AAns5x
gigantický	gigantickom	AAns6x
gigantický	gigantickým	AAns7x
gigantický	gigantické	AAnp1x
gigantický	gigantických	AAnp2x
gigantický	gigantickým	AAnp3x
gigantický	gigantické	AAnp4x
gigantický	gigantické	AAnp5x
gigantický	gigantických	AAnp6x
gigantický	gigantickými	AAnp7x
gigantický	gigantickejší	AAms1y
gigantický	gigantickejšieho	AAms2y
gigantický	gigantickejšiemu	AAms3y
gigantický	gigantickejšieho	AAms4y
gigantický	gigantickejší	AAms5y
gigantický	gigantickejšom	AAms6y
gigantický	gigantickejším	AAms7y
gigantický	gigantickejší	AAmp1y
gigantický	gigantickejších	AAmp2y
gigantický	gigantickejším	AAmp3y
gigantický	gigantickejších	AAmp4y
gigantický	gigantickejší	AAmp5y
gigantický	gigantickejších	AAmp6y
gigantický	gigantickejšími	AAmp7y
gigantický	gigantickejší	AAis1y
gigantický	gigantickejšieho	AAis2y
gigantický	gigantickejšiemu	AAis3y
gigantický	gigantickejší	AAis4y
gigantický	gigantickejší	AAis5y
gigantický	gigantickejšom	AAis6y
gigantický	gigantickejším	AAis7y
gigantický	gigantickejšie	AAip1y
gigantický	gigantickejších	AAip2y
gigantický	gigantickejším	AAip3y
gigantický	gigantickejšie	AAip4y
gigantický	gigantickejšie	AAip5y
gigantický	gigantickejších	AAip6y
gigantický	gigantickejšími	AAip7y
gigantický	gigantickejšia	AAfs1y
gigantický	gigantickejšej	AAfs2y
gigantický	gigantickejšej	AAfs3y
gigantický	gigantickejšiu	AAfs4y
gigantický	gigantickejšia	AAfs5y
gigantický	gigantickejšej	AAfs6y
gigantický	gigantickejšou	AAfs7y
gigantický	gigantickejšie	AAfp1y
gigantický	gigantickejších	AAfp2y
gigantický	gigantickejším	AAfp3y
gigantický	gigantickejšie	AAfp4y
gigantický	gigantickejšie	AAfp5y
gigantický	gigantickejších	AAfp6y
gigantický	gigantickejšími	AAfp7y
gigantický	gigantickejšie	AAns1y
gigantický	gigantickejšieho	AAns2y
gigantický	gigantickejšiemu	AAns3y
gigantický	gigantickejšie	AAns4y
gigantický	gigantickejšie	AAns5y
gigantický	gigantickejšom	AAns6y
gigantický	gigantickejším	AAns7y
gigantický	gigantickejšie	AAnp1y
gigantický	gigantickejších	AAnp2y
gigantický	gigantickejším	AAnp3y
gigantický	gigantickejšie	AAnp4y
gigantický	gigantickejšie	AAnp5y
gigantický	gigantickejších	AAnp6y
gigantický	gigantickejšími	AAnp7y
gigantický	najgigantickejší	AAms1z
gigantický	najgigantickejšieho	AAms2z
gigantický	najgigantickejšiemu	AAms3z
gigantický	najgigantickejšieho	AAms4z
gigantický	najgigantickejší	AAms5z
gigantický	najgigantickejšom	AAms6z
gigantický	najgigantickejším	AAms7z
gigantický	najgigantickejší	AAmp1z
gigantický	najgigantickejších	AAmp2z
gigantický	najgigantickejším	AAmp3z
gigantický	najgigantickejších	AAmp4z
gigantický	najgigantickejší	AAmp5z
gigantický	najgigantickejších	AAmp6z
gigantický	najgigantickejšími	AAmp7z
gigantický	najgigantickejší	AAis1z
gigantický	najgigantickejšieho	AAis2z
gigantický	najgigantickejšiemu	AAis3z
gigantický	najgigantickejší	AAis4z
gigantický	najgigantickejší	AAis5z
gigantický	najgigantickejšom	AAis6z
gigantický	najgigantickejším	AAis7z
gigantický	najgigantickejšie	AAip1z
gigantický	najgigantickejších	AAip2z
gigantický	najgigantickejším	AAip3z
gigantický	najgigantickejšie	AAip4z
gigantický	najgigantickejšie	AAip5z
gigantický	najgigantickejších	AAip6z
gigantický	najgigantickejšími	AAip7z
gigantický	najgigantickejšia	AAfs1z
gigantický	najgigantickejšej	AAfs2z
gigantický	najgigantickejšej	AAfs3z
gigantický	najgigantickejšiu	AAfs4z
gigantický	najgigantickejšia	AAfs5z
gigantický	najgigantickejšej	AAfs6z
gigantický	najgigantickejšou	AAfs7z
gigantický	najgigantickejšie	AAfp1z
gigantický	najgigantickejších	AAfp2z
gigantický	najgigantickejším	AAfp3z
gigantický	najgigantickejšie	AAfp4z
gigantický	najgigantickejšie	AAfp5z
gigantický	najgigantickejších	AAfp6z
gigantický	najgigantickejšími	AAfp7z
gigantický	najgigantickejšie	AAns1z
gigantický	najgigantickejšieho	AAns2z
gigantický	najgigantickejšiemu	AAns3z
gigantický	najgigantickejšie	AAns4z
gigantický	najgigantickejšie	AAns5z
gigantický	najgigantickejšom	AAns6z
gigantický	najgigantickejším	AAns7z
gigantický	najgigantickejšie	AAnp1z
gigantický	najgigantickejších	AAnp2z
gigantický	najgigantickejším	AAnp3z
gigantický	najgigantickejšie	AAnp4z
gigantický	najgigantickejšie	AAnp5z
gigantický	najgigantickejších	AAnp6z
gigantický	najgigantickejšími	AAnp7z
gigantizmus	gigantizmus	SSis1
gigantizmus	gigantizmu	SSis2
gigantizmus	gigantizmu	SSis3
gigantizmus	gigantizmus	SSis4
gigantizmus	gigantizmus	SSis5
gigantizmus	gigantizme	SSis6
gigantizmus	gigantizmom	SSis7
gigantizmus	gigantizmy	SSip1
gigantizmus	gigantizmov	SSip2
gigantizmus	gigantizmom	SSip3
gigantizmus	gigantizmy	SSip4
gigantizmus	gigantizmy	SSip5
gigantizmus	gigantizmoch	SSip6
gigantizmus	gigantizmami	SSip7
gigantocyt	gigantocyt	SSis1
gigantocyt	gigantocytu	SSis2
gigantocyt	gigantocytu	SSis3
gigantocyt	gigantocyt	SSis4
gigantocyt	gigantocyt	SSis5
gigantocyt	gigantocyte	SSis6
gigantocyt	gigantocytom	SSis7
gigantocyt	gigantocyty	SSip1
gigantocyt	gigantocytov	SSip2
gigantocyt	gigantocytom	SSip3
gigantocyt	gigantocyty	SSip4
gigantocyt	gigantocyty	SSip5
gigantocyt	gigantocytoch	SSip6
gigantocyt	gigantocytmi	SSip7
gigantománia	gigantománia	SSfs1
gigantománia	gigantománie	SSfs2
gigantománia	gigantománii	SSfs3
gigantománia	gigantomániu	SSfs4
gigantománia	gigantománia	SSfs5
gigantománia	gigantománii	SSfs6
gigantománia	gigantomániou	SSfs7
gigantománia	gigantománie	SSfp1
gigantománia	gigantománií	SSfp2
gigantománia	gigantomániám	SSfp3
gigantománia	gigantománie	SSfp4
gigantománia	gigantománie	SSfp5
gigantománia	gigantomániách	SSfp6
gigantománia	gigantomániami	SSfp7
gigantský	gigantský	AAms1x
gigantský	gigantského	AAms2x
gigantský	gigantskému	AAms3x
gigantský	gigantského	AAms4x
gigantský	gigantský	AAms5x
gigantský	gigantskom	AAms6x
gigantský	gigantským	AAms7x
gigantský	gigantskí	AAmp1x
gigantský	gigantských	AAmp2x
gigantský	gigantským	AAmp3x
gigantský	gigantských	AAmp4x
gigantský	gigantskí	AAmp5x
gigantský	gigantských	AAmp6x
gigantský	gigantskými	AAmp7x
gigantský	gigantský	AAis1x
gigantský	gigantského	AAis2x
gigantský	gigantskému	AAis3x
gigantský	gigantský	AAis4x
gigantský	gigantský	AAis5x
gigantský	gigantskom	AAis6x
gigantský	gigantským	AAis7x
gigantský	gigantské	AAip1x
gigantský	gigantských	AAip2x
gigantský	gigantským	AAip3x
gigantský	gigantské	AAip4x
gigantský	gigantské	AAip5x
gigantský	gigantských	AAip6x
gigantský	gigantskými	AAip7x
gigantský	gigantská	AAfs1x
gigantský	gigantskej	AAfs2x
gigantský	gigantskej	AAfs3x
gigantský	gigantskú	AAfs4x
gigantský	gigantská	AAfs5x
gigantský	gigantskej	AAfs6x
gigantský	gigantskou	AAfs7x
gigantský	gigantské	AAfp1x
gigantský	gigantských	AAfp2x
gigantský	gigantským	AAfp3x
gigantský	gigantské	AAfp4x
gigantský	gigantské	AAfp5x
gigantský	gigantských	AAfp6x
gigantský	gigantskými	AAfp7x
gigantský	gigantské	AAns1x
gigantský	gigantského	AAns2x
gigantský	gigantskému	AAns3x
gigantský	gigantské	AAns4x
gigantský	gigantské	AAns5x
gigantský	gigantskom	AAns6x
gigantský	gigantským	AAns7x
gigantský	gigantské	AAnp1x
gigantský	gigantských	AAnp2x
gigantský	gigantským	AAnp3x
gigantský	gigantské	AAnp4x
gigantský	gigantské	AAnp5x
gigantský	gigantských	AAnp6x
gigantský	gigantskými	AAnp7x
gigantstvo	gigantstvo	SSns1
gigantstvo	gigantstva	SSns2
gigantstvo	gigantstvu	SSns3
gigantstvo	gigantstvo	SSns4
gigantstvo	gigantstvo	SSns5
gigantstvo	gigantstve	SSns6
gigantstvo	gigantstvom	SSns7
gigantstvo	gigantstvá	SSnp1
gigantstvo	gigantstiev	SSnp2
gigantstvo	gigantstvám	SSnp3
gigantstvo	gigantstvá	SSnp4
gigantstvo	gigantstvá	SSnp5
gigantstvo	gigantstvách	SSnp6
gigantstvo	gigantstvami	SSnp7
gigawatt	gigawatt	SSis1
gigawatt	gigawattu	SSis2
gigawatt	gigawattu	SSis3
gigawatt	gigawatt	SSis4
gigawatt	gigawatt	SSis5
gigawatt	gigawatte	SSis6
gigawatt	gigawattom	SSis7
gigawatt	gigawatty	SSip1
gigawatt	gigawattov	SSip2
gigawatt	gigawattom	SSip3
gigawatt	gigawatty	SSip4
gigawatt	gigawatty	SSip5
gigawatt	gigawattoch	SSip6
gigawatt	gigawattmi	SSip7
gigawatthodina	gigawatthodina	SSfs1
gigawatthodina	gigawatthodiny	SSfs2
gigawatthodina	gigawatthodine	SSfs3
gigawatthodina	gigawatthodinu	SSfs4
gigawatthodina	gigawatthodina	SSfs5
gigawatthodina	gigawatthodine	SSfs6
gigawatthodina	gigawatthodinou	SSfs7
gigawatthodina	gigawatthodiny	SSfp1
gigawatthodina	gigawatthodín	SSfp2
gigawatthodina	gigawatthodinám	SSfp3
gigawatthodina	gigawatthodiny	SSfp4
gigawatthodina	gigawatthodiny	SSfp5
gigawatthodina	gigawatthodinách	SSfp6
gigawatthodina	gigawatthodinami	SSfp7
giglovský	giglovský	AAms1x
giglovský	giglovského	AAms2x
giglovský	giglovskému	AAms3x
giglovský	giglovského	AAms4x
giglovský	giglovský	AAms5x
giglovský	giglovskom	AAms6x
giglovský	giglovským	AAms7x
giglovský	giglovskí	AAmp1x
giglovský	giglovských	AAmp2x
giglovský	giglovským	AAmp3x
giglovský	giglovských	AAmp4x
giglovský	giglovskí	AAmp5x
giglovský	giglovských	AAmp6x
giglovský	giglovskými	AAmp7x
giglovský	giglovský	AAis1x
giglovský	giglovského	AAis2x
giglovský	giglovskému	AAis3x
giglovský	giglovský	AAis4x
giglovský	giglovský	AAis5x
giglovský	giglovskom	AAis6x
giglovský	giglovským	AAis7x
giglovský	giglovské	AAip1x
giglovský	giglovských	AAip2x
giglovský	giglovským	AAip3x
giglovský	giglovské	AAip4x
giglovský	giglovské	AAip5x
giglovský	giglovských	AAip6x
giglovský	giglovskými	AAip7x
giglovský	giglovská	AAfs1x
giglovský	giglovskej	AAfs2x
giglovský	giglovskej	AAfs3x
giglovský	giglovskú	AAfs4x
giglovský	giglovská	AAfs5x
giglovský	giglovskej	AAfs6x
giglovský	giglovskou	AAfs7x
giglovský	giglovské	AAfp1x
giglovský	giglovských	AAfp2x
giglovský	giglovským	AAfp3x
giglovský	giglovské	AAfp4x
giglovský	giglovské	AAfp5x
giglovský	giglovských	AAfp6x
giglovský	giglovskými	AAfp7x
giglovský	giglovské	AAns1x
giglovský	giglovského	AAns2x
giglovský	giglovskému	AAns3x
giglovský	giglovské	AAns4x
giglovský	giglovské	AAns5x
giglovský	giglovskom	AAns6x
giglovský	giglovským	AAns7x
giglovský	giglovské	AAnp1x
giglovský	giglovských	AAnp2x
giglovský	giglovským	AAnp3x
giglovský	giglovské	AAnp4x
giglovský	giglovské	AAnp5x
giglovský	giglovských	AAnp6x
giglovský	giglovskými	AAnp7x
gigolo	gigolo	SSms1
gigolo	gigola	SSms2
gigolo	gigolovi	SSms3
gigolo	gigola	SSms4
gigolo	gigolo	SSms5
gigolo	gigolovi	SSms6
gigolo	gigolom	SSms7
gigolo	gigolovia	SSmp1
gigolo	gigolov	SSmp2
gigolo	gigolom	SSmp3
gigolo	gigolov	SSmp4
gigolo	gigolovia	SSmp5
gigolo	gigoloch	SSmp6
gigolo	gigolami	SSmp7
gilda	gilda	SSfs1
gilda	gildy	SSfs2
gilda	gilde	SSfs3
gilda	gildu	SSfs4
gilda	gilda	SSfs5
gilda	gilde	SSfs6
gilda	gildou	SSfs7
gilda	gildy	SSfp1
gilda	gíld	SSfp2
gilda	gildám	SSfp3
gilda	gildy	SSfp4
gilda	gildy	SSfp5
gilda	gildách	SSfp6
gilda	gildami	SSfp7
gilotína	gilotína	SSfs1
gilotína	gilotíny	SSfs2
gilotína	gilotíne	SSfs3
gilotína	gilotínu	SSfs4
gilotína	gilotína	SSfs5
gilotína	gilotíne	SSfs6
gilotína	gilotínou	SSfs7
gilotína	gilotíny	SSfp1
gilotína	gilotín	SSfp2
gilotína	gilotínam	SSfp3
gilotína	gilotíny	SSfp4
gilotína	gilotíny	SSfp5
gilotína	gilotínach	SSfp6
gilotína	gilotínami	SSfp7
gilotínovať	gilotínovať	VIe+
gilotínovať	gilotínujem	VKesa+
gilotínovať	gilotínuješ	VKesb+
gilotínovať	gilotínuje	VKesc+
gilotínovať	gilotínujeme	VKepa+
gilotínovať	gilotínujete	VKepb+
gilotínovať	gilotínujú	VKepc+
gilotínovať	gilotínuj	VMesb+
gilotínovať	gilotínujme	VMepa+
gilotínovať	gilotínujte	VMepb+
gilotínovať	gilotínujúc	VHe+
gilotínovať	gilotínoval	VLesam+
gilotínovať	gilotínoval	VLesai+
gilotínovať	gilotínoval	VLesbm+
gilotínovať	gilotínoval	VLesbi+
gilotínovať	gilotínoval	VLescm+
gilotínovať	gilotínoval	VLesci+
gilotínovať	gilotínovala	VLesaf+
gilotínovať	gilotínovala	VLesbf+
gilotínovať	gilotínovala	VLescf+
gilotínovať	gilotínovalo	VLesan+
gilotínovať	gilotínovalo	VLesbn+
gilotínovať	gilotínovalo	VLescn+
gilotínovať	gilotínovali	VLepah+
gilotínovať	gilotínovali	VLepbh+
gilotínovať	gilotínovali	VLepcm+
gilotínovať	gilotínovali	VLepci+
gilotínovať	gilotínovali	VLepcf+
gilotínovať	gilotínovali	VLepcn+
gilotínovať	gilotínovali	VLepco+
gilotínový	gilotínový	AAms1x
gilotínový	gilotínového	AAms2x
gilotínový	gilotínovému	AAms3x
gilotínový	gilotínového	AAms4x
gilotínový	gilotínový	AAms5x
gilotínový	gilotínovom	AAms6x
gilotínový	gilotínovým	AAms7x
gilotínový	gilotínoví	AAmp1x
gilotínový	gilotínových	AAmp2x
gilotínový	gilotínovým	AAmp3x
gilotínový	gilotínových	AAmp4x
gilotínový	gilotínoví	AAmp5x
gilotínový	gilotínových	AAmp6x
gilotínový	gilotínovými	AAmp7x
gilotínový	gilotínový	AAis1x
gilotínový	gilotínového	AAis2x
gilotínový	gilotínovému	AAis3x
gilotínový	gilotínový	AAis4x
gilotínový	gilotínový	AAis5x
gilotínový	gilotínovom	AAis6x
gilotínový	gilotínovým	AAis7x
gilotínový	gilotínové	AAip1x
gilotínový	gilotínových	AAip2x
gilotínový	gilotínovým	AAip3x
gilotínový	gilotínové	AAip4x
gilotínový	gilotínové	AAip5x
gilotínový	gilotínových	AAip6x
gilotínový	gilotínovými	AAip7x
gilotínový	gilotínová	AAfs1x
gilotínový	gilotínovej	AAfs2x
gilotínový	gilotínovej	AAfs3x
gilotínový	gilotínovú	AAfs4x
gilotínový	gilotínová	AAfs5x
gilotínový	gilotínovej	AAfs6x
gilotínový	gilotínovou	AAfs7x
gilotínový	gilotínové	AAfp1x
gilotínový	gilotínových	AAfp2x
gilotínový	gilotínovým	AAfp3x
gilotínový	gilotínové	AAfp4x
gilotínový	gilotínové	AAfp5x
gilotínový	gilotínových	AAfp6x
gilotínový	gilotínovými	AAfp7x
gilotínový	gilotínové	AAns1x
gilotínový	gilotínového	AAns2x
gilotínový	gilotínovému	AAns3x
gilotínový	gilotínové	AAns4x
gilotínový	gilotínové	AAns5x
gilotínový	gilotínovom	AAns6x
gilotínový	gilotínovým	AAns7x
gilotínový	gilotínové	AAnp1x
gilotínový	gilotínových	AAnp2x
gilotínový	gilotínovým	AAnp3x
gilotínový	gilotínové	AAnp4x
gilotínový	gilotínové	AAnp5x
gilotínový	gilotínových	AAnp6x
gilotínový	gilotínovými	AAnp7x
giloš	giloš	SSfs1
giloš	giloše	SSfs2
giloš	giloši	SSfs3
giloš	giloš	SSfs4
giloš	giloš	SSfs5
giloš	giloši	SSfs6
giloš	gilošou	SSfs7
giloš	giloše	SSfp1
giloš	giloší	SSfp2
giloš	gilošiam	SSfp3
giloš	giloše	SSfp4
giloš	giloše	SSfp5
giloš	gilošiach	SSfp6
giloš	gilošmi	SSfp7
gilošovací	gilošovací	AAms1x
gilošovací	gilošovacieho	AAms2x
gilošovací	gilošovaciemu	AAms3x
gilošovací	gilošovacieho	AAms4x
gilošovací	gilošovací	AAms5x
gilošovací	gilošovacom	AAms6x
gilošovací	gilošovacím	AAms7x
gilošovací	gilošovací	AAmp1x
gilošovací	gilošovacích	AAmp2x
gilošovací	gilošovacím	AAmp3x
gilošovací	gilošovacích	AAmp4x
gilošovací	gilošovací	AAmp5x
gilošovací	gilošovacích	AAmp6x
gilošovací	gilošovacími	AAmp7x
gilošovací	gilošovací	AAis1x
gilošovací	gilošovacieho	AAis2x
gilošovací	gilošovaciemu	AAis3x
gilošovací	gilošovací	AAis4x
gilošovací	gilošovací	AAis5x
gilošovací	gilošovacom	AAis6x
gilošovací	gilošovacím	AAis7x
gilošovací	gilošovacie	AAip1x
gilošovací	gilošovacích	AAip2x
gilošovací	gilošovacím	AAip3x
gilošovací	gilošovacie	AAip4x
gilošovací	gilošovacie	AAip5x
gilošovací	gilošovacích	AAip6x
gilošovací	gilošovacími	AAip7x
gilošovací	gilošovacia	AAfs1x
gilošovací	gilošovacej	AAfs2x
gilošovací	gilošovacej	AAfs3x
gilošovací	gilošovaciu	AAfs4x
gilošovací	gilošovacia	AAfs5x
gilošovací	gilošovacej	AAfs6x
gilošovací	gilošovacou	AAfs7x
gilošovací	gilošovacie	AAfp1x
gilošovací	gilošovacích	AAfp2x
gilošovací	gilošovacím	AAfp3x
gilošovací	gilošovacie	AAfp4x
gilošovací	gilošovacie	AAfp5x
gilošovací	gilošovacích	AAfp6x
gilošovací	gilošovacími	AAfp7x
gilošovací	gilošovacie	AAns1x
gilošovací	gilošovacieho	AAns2x
gilošovací	gilošovaciemu	AAns3x
gilošovací	gilošovacie	AAns4x
gilošovací	gilošovacie	AAns5x
gilošovací	gilošovacom	AAns6x
gilošovací	gilošovacím	AAns7x
gilošovací	gilošovacie	AAnp1x
gilošovací	gilošovacích	AAnp2x
gilošovací	gilošovacím	AAnp3x
gilošovací	gilošovacie	AAnp4x
gilošovací	gilošovacie	AAnp5x
gilošovací	gilošovacích	AAnp6x
gilošovací	gilošovacími	AAnp7x
gilošovanie	gilošovanie	SSns1
gilošovanie	gilošovania	SSns2
gilošovanie	gilošovaniu	SSns3
gilošovanie	gilošovanie	SSns4
gilošovanie	gilošovanie	SSns5
gilošovanie	gilošovaní	SSns6
gilošovanie	gilošovaním	SSns7
gilošovanie	gilošovania	SSnp1
gilošovanie	gilošovaní	SSnp2
gilošovanie	gilošovaniam	SSnp3
gilošovanie	gilošovania	SSnp4
gilošovanie	gilošovania	SSnp5
gilošovanie	gilošovaniach	SSnp6
gilošovanie	gilošovaniami	SSnp7
gilošovať	gilošovať	VIe+
gilošovať	gilošujem	VKesa+
gilošovať	gilošuješ	VKesb+
gilošovať	gilošuje	VKesc+
gilošovať	gilošujeme	VKepa+
gilošovať	gilošujete	VKepb+
gilošovať	gilošujú	VKepc+
gilošovať	gilošuj	VMesb+
gilošovať	gilošujme	VMepa+
gilošovať	gilošujte	VMepb+
gilošovať	gilošujúc	VHe+
gilošovať	gilošoval	VLesam+
gilošovať	gilošoval	VLesai+
gilošovať	gilošoval	VLesbm+
gilošovať	gilošoval	VLesbi+
gilošovať	gilošoval	VLescm+
gilošovať	gilošoval	VLesci+
gilošovať	gilošovala	VLesaf+
gilošovať	gilošovala	VLesbf+
gilošovať	gilošovala	VLescf+
gilošovať	gilošovalo	VLesan+
gilošovať	gilošovalo	VLesbn+
gilošovať	gilošovalo	VLescn+
gilošovať	gilošovali	VLepah+
gilošovať	gilošovali	VLepbh+
gilošovať	gilošovali	VLepcm+
gilošovať	gilošovali	VLepci+
gilošovať	gilošovali	VLepcf+
gilošovať	gilošovali	VLepcn+
gilošovať	gilošovali	VLepco+
gilošový	gilošový	AAms1x
gilošový	gilošového	AAms2x
gilošový	gilošovému	AAms3x
gilošový	gilošového	AAms4x
gilošový	gilošový	AAms5x
gilošový	gilošovom	AAms6x
gilošový	gilošovým	AAms7x
gilošový	gilošoví	AAmp1x
gilošový	gilošových	AAmp2x
gilošový	gilošovým	AAmp3x
gilošový	gilošových	AAmp4x
gilošový	gilošoví	AAmp5x
gilošový	gilošových	AAmp6x
gilošový	gilošovými	AAmp7x
gilošový	gilošový	AAis1x
gilošový	gilošového	AAis2x
gilošový	gilošovému	AAis3x
gilošový	gilošový	AAis4x
gilošový	gilošový	AAis5x
gilošový	gilošovom	AAis6x
gilošový	gilošovým	AAis7x
gilošový	gilošové	AAip1x
gilošový	gilošových	AAip2x
gilošový	gilošovým	AAip3x
gilošový	gilošové	AAip4x
gilošový	gilošové	AAip5x
gilošový	gilošových	AAip6x
gilošový	gilošovými	AAip7x
gilošový	gilošová	AAfs1x
gilošový	gilošovej	AAfs2x
gilošový	gilošovej	AAfs3x
gilošový	gilošovú	AAfs4x
gilošový	gilošová	AAfs5x
gilošový	gilošovej	AAfs6x
gilošový	gilošovou	AAfs7x
gilošový	gilošové	AAfp1x
gilošový	gilošových	AAfp2x
gilošový	gilošovým	AAfp3x
gilošový	gilošové	AAfp4x
gilošový	gilošové	AAfp5x
gilošový	gilošových	AAfp6x
gilošový	gilošovými	AAfp7x
gilošový	gilošové	AAns1x
gilošový	gilošového	AAns2x
gilošový	gilošovému	AAns3x
gilošový	gilošové	AAns4x
gilošový	gilošové	AAns5x
gilošový	gilošovom	AAns6x
gilošový	gilošovým	AAns7x
gilošový	gilošové	AAnp1x
gilošový	gilošových	AAnp2x
gilošový	gilošovým	AAnp3x
gilošový	gilošové	AAnp4x
gilošový	gilošové	AAnp5x
gilošový	gilošových	AAnp6x
gilošový	gilošovými	AAnp7x
gilošér	gilošér	SSms1
gilošér	gilošéra	SSms2
gilošér	gilošérovi	SSms3
gilošér	gilošéra	SSms4
gilošér	gilošér	SSms5
gilošér	gilošérovi	SSms6
gilošér	gilošérom	SSms7
gilošér	gilošéri	SSmp1
gilošér	gilošérov	SSmp2
gilošér	gilošérom	SSmp3
gilošér	gilošérov	SSmp4
gilošér	gilošéri	SSmp5
gilošér	gilošéroch	SSmp6
gilošér	gilošérmi	SSmp7
gilošérka	gilošérka	SSfs1
gilošérka	gilošérky	SSfs2
gilošérka	gilošérke	SSfs3
gilošérka	gilošérku	SSfs4
gilošérka	gilošérka	SSfs5
gilošérka	gilošérke	SSfs6
gilošérka	gilošérkou	SSfs7
gilošérka	gilošérky	SSfp1
gilošérka	gilošérok	SSfp2
gilošérka	gilošérkam	SSfp3
gilošérka	gilošérky	SSfp4
gilošérka	gilošérky	SSfp5
gilošérka	gilošérkach	SSfp6
gilošérka	gilošérkami	SSfp7
gin	gin	SSis1
gin	ginu	SSis2
gin	ginu	SSis3
gin	gin	SSis4
gin	gin	SSis5
gin	gine	SSis6
gin	ginom	SSis7
gin	giny	SSip1
gin	ginov	SSip2
gin	ginom	SSip3
gin	giny	SSip4
gin	giny	SSip5
gin	ginoch	SSip6
gin	ginmi	SSip7
ginko	ginko	SSns1
ginko	ginka	SSns2
ginko	ginku	SSns3
ginko	ginko	SSns4
ginko	ginko	SSns5
ginko	ginku	SSns6
ginko	ginkom	SSns7
ginko	ginká	SSnp1
ginko	gínk	SSnp2
ginko	ginkám	SSnp3
ginko	ginká	SSnp4
ginko	ginká	SSnp5
ginko	ginkách	SSnp6
ginko	ginkami	SSnp7
ginkový	ginkový	AAms1x
ginkový	ginkového	AAms2x
ginkový	ginkovému	AAms3x
ginkový	ginkového	AAms4x
ginkový	ginkový	AAms5x
ginkový	ginkovom	AAms6x
ginkový	ginkovým	AAms7x
ginkový	ginkoví	AAmp1x
ginkový	ginkových	AAmp2x
ginkový	ginkovým	AAmp3x
ginkový	ginkových	AAmp4x
ginkový	ginkoví	AAmp5x
ginkový	ginkových	AAmp6x
ginkový	ginkovými	AAmp7x
ginkový	ginkový	AAis1x
ginkový	ginkového	AAis2x
ginkový	ginkovému	AAis3x
ginkový	ginkový	AAis4x
ginkový	ginkový	AAis5x
ginkový	ginkovom	AAis6x
ginkový	ginkovým	AAis7x
ginkový	ginkové	AAip1x
ginkový	ginkových	AAip2x
ginkový	ginkovým	AAip3x
ginkový	ginkové	AAip4x
ginkový	ginkové	AAip5x
ginkový	ginkových	AAip6x
ginkový	ginkovými	AAip7x
ginkový	ginková	AAfs1x
ginkový	ginkovej	AAfs2x
ginkový	ginkovej	AAfs3x
ginkový	ginkovú	AAfs4x
ginkový	ginková	AAfs5x
ginkový	ginkovej	AAfs6x
ginkový	ginkovou	AAfs7x
ginkový	ginkové	AAfp1x
ginkový	ginkových	AAfp2x
ginkový	ginkovým	AAfp3x
ginkový	ginkové	AAfp4x
ginkový	ginkové	AAfp5x
ginkový	ginkových	AAfp6x
ginkový	ginkovými	AAfp7x
ginkový	ginkové	AAns1x
ginkový	ginkového	AAns2x
ginkový	ginkovému	AAns3x
ginkový	ginkové	AAns4x
ginkový	ginkové	AAns5x
ginkový	ginkovom	AAns6x
ginkový	ginkovým	AAns7x
ginkový	ginkové	AAnp1x
ginkový	ginkových	AAnp2x
ginkový	ginkovým	AAnp3x
ginkový	ginkové	AAnp4x
ginkový	ginkové	AAnp5x
ginkový	ginkových	AAnp6x
ginkový	ginkovými	AAnp7x
giocoso	giocoso	Dx
giraltovský	giraltovský	AAms1x
giraltovský	giraltovského	AAms2x
giraltovský	giraltovskému	AAms3x
giraltovský	giraltovského	AAms4x
giraltovský	giraltovský	AAms5x
giraltovský	giraltovskom	AAms6x
giraltovský	giraltovským	AAms7x
giraltovský	giraltovskí	AAmp1x
giraltovský	giraltovských	AAmp2x
giraltovský	giraltovským	AAmp3x
giraltovský	giraltovských	AAmp4x
giraltovský	giraltovskí	AAmp5x
giraltovský	giraltovských	AAmp6x
giraltovský	giraltovskými	AAmp7x
giraltovský	giraltovský	AAis1x
giraltovský	giraltovského	AAis2x
giraltovský	giraltovskému	AAis3x
giraltovský	giraltovský	AAis4x
giraltovský	giraltovský	AAis5x
giraltovský	giraltovskom	AAis6x
giraltovský	giraltovským	AAis7x
giraltovský	giraltovské	AAip1x
giraltovský	giraltovských	AAip2x
giraltovský	giraltovským	AAip3x
giraltovský	giraltovské	AAip4x
giraltovský	giraltovské	AAip5x
giraltovský	giraltovských	AAip6x
giraltovský	giraltovskými	AAip7x
giraltovský	giraltovská	AAfs1x
giraltovský	giraltovskej	AAfs2x
giraltovský	giraltovskej	AAfs3x
giraltovský	giraltovskú	AAfs4x
giraltovský	giraltovská	AAfs5x
giraltovský	giraltovskej	AAfs6x
giraltovský	giraltovskou	AAfs7x
giraltovský	giraltovské	AAfp1x
giraltovský	giraltovských	AAfp2x
giraltovský	giraltovským	AAfp3x
giraltovský	giraltovské	AAfp4x
giraltovský	giraltovské	AAfp5x
giraltovský	giraltovských	AAfp6x
giraltovský	giraltovskými	AAfp7x
giraltovský	giraltovské	AAns1x
giraltovský	giraltovského	AAns2x
giraltovský	giraltovskému	AAns3x
giraltovský	giraltovské	AAns4x
giraltovský	giraltovské	AAns5x
giraltovský	giraltovskom	AAns6x
giraltovský	giraltovským	AAns7x
giraltovský	giraltovské	AAnp1x
giraltovský	giraltovských	AAnp2x
giraltovský	giraltovským	AAnp3x
giraltovský	giraltovské	AAnp4x
giraltovský	giraltovské	AAnp5x
giraltovský	giraltovských	AAnp6x
giraltovský	giraltovskými	AAnp7x
girl	girl	SUfs1
girl	girl	SUfs2
girl	girl	SUfs3
girl	girl	SUfs4
girl	girl	SUfs5
girl	girl	SUfs6
girl	girl	SUfs7
girl	girls	SUfp1
girl	girl	SUfp2
girl	girl	SUfp3
girl	girl	SUfp4
girl	girl	SUfp5
girl	girl	SUfp6
girl	girl	SUfp7
girlanda	girlanda	SSfs1
girlanda	girlandy	SSfs2
girlanda	girlande	SSfs3
girlanda	girlandu	SSfs4
girlanda	girlanda	SSfs5
girlanda	girlande	SSfs6
girlanda	girlandou	SSfs7
girlanda	girlandy	SSfp1
girlanda	girlánd	SSfp2
girlanda	girlandám	SSfp3
girlanda	girlandy	SSfp4
girlanda	girlandy	SSfp5
girlanda	girlandách	SSfp6
girlanda	girlandami	SSfp7
girlandovito	girlandovito	Dx
girlandovitý	girlandovitý	AAms1x
girlandovitý	girlandovitého	AAms2x
girlandovitý	girlandovitému	AAms3x
girlandovitý	girlandovitého	AAms4x
girlandovitý	girlandovitý	AAms5x
girlandovitý	girlandovitom	AAms6x
girlandovitý	girlandovitým	AAms7x
girlandovitý	girlandovití	AAmp1x
girlandovitý	girlandovitých	AAmp2x
girlandovitý	girlandovitým	AAmp3x
girlandovitý	girlandovitých	AAmp4x
girlandovitý	girlandovití	AAmp5x
girlandovitý	girlandovitých	AAmp6x
girlandovitý	girlandovitými	AAmp7x
girlandovitý	girlandovitý	AAis1x
girlandovitý	girlandovitého	AAis2x
girlandovitý	girlandovitému	AAis3x
girlandovitý	girlandovitý	AAis4x
girlandovitý	girlandovitý	AAis5x
girlandovitý	girlandovitom	AAis6x
girlandovitý	girlandovitým	AAis7x
girlandovitý	girlandovité	AAip1x
girlandovitý	girlandovitých	AAip2x
girlandovitý	girlandovitým	AAip3x
girlandovitý	girlandovité	AAip4x
girlandovitý	girlandovité	AAip5x
girlandovitý	girlandovitých	AAip6x
girlandovitý	girlandovitými	AAip7x
girlandovitý	girlandovitá	AAfs1x
girlandovitý	girlandovitej	AAfs2x
girlandovitý	girlandovitej	AAfs3x
girlandovitý	girlandovitú	AAfs4x
girlandovitý	girlandovitá	AAfs5x
girlandovitý	girlandovitej	AAfs6x
girlandovitý	girlandovitou	AAfs7x
girlandovitý	girlandovité	AAfp1x
girlandovitý	girlandovitých	AAfp2x
girlandovitý	girlandovitým	AAfp3x
girlandovitý	girlandovité	AAfp4x
girlandovitý	girlandovité	AAfp5x
girlandovitý	girlandovitých	AAfp6x
girlandovitý	girlandovitými	AAfp7x
girlandovitý	girlandovité	AAns1x
girlandovitý	girlandovitého	AAns2x
girlandovitý	girlandovitému	AAns3x
girlandovitý	girlandovité	AAns4x
girlandovitý	girlandovité	AAns5x
girlandovitý	girlandovitom	AAns6x
girlandovitý	girlandovitým	AAns7x
girlandovitý	girlandovité	AAnp1x
girlandovitý	girlandovitých	AAnp2x
girlandovitý	girlandovitým	AAnp3x
girlandovitý	girlandovité	AAnp4x
girlandovitý	girlandovité	AAnp5x
girlandovitý	girlandovitých	AAnp6x
girlandovitý	girlandovitými	AAnp7x
girlandový	girlandový	AAms1x
girlandový	girlandového	AAms2x
girlandový	girlandovému	AAms3x
girlandový	girlandového	AAms4x
girlandový	girlandový	AAms5x
girlandový	girlandovom	AAms6x
girlandový	girlandovým	AAms7x
girlandový	girlandoví	AAmp1x
girlandový	girlandových	AAmp2x
girlandový	girlandovým	AAmp3x
girlandový	girlandových	AAmp4x
girlandový	girlandoví	AAmp5x
girlandový	girlandových	AAmp6x
girlandový	girlandovými	AAmp7x
girlandový	girlandový	AAis1x
girlandový	girlandového	AAis2x
girlandový	girlandovému	AAis3x
girlandový	girlandový	AAis4x
girlandový	girlandový	AAis5x
girlandový	girlandovom	AAis6x
girlandový	girlandovým	AAis7x
girlandový	girlandové	AAip1x
girlandový	girlandových	AAip2x
girlandový	girlandovým	AAip3x
girlandový	girlandové	AAip4x
girlandový	girlandové	AAip5x
girlandový	girlandových	AAip6x
girlandový	girlandovými	AAip7x
girlandový	girlandová	AAfs1x
girlandový	girlandovej	AAfs2x
girlandový	girlandovej	AAfs3x
girlandový	girlandovú	AAfs4x
girlandový	girlandová	AAfs5x
girlandový	girlandovej	AAfs6x
girlandový	girlandovou	AAfs7x
girlandový	girlandové	AAfp1x
girlandový	girlandových	AAfp2x
girlandový	girlandovým	AAfp3x
girlandový	girlandové	AAfp4x
girlandový	girlandové	AAfp5x
girlandový	girlandových	AAfp6x
girlandový	girlandovými	AAfp7x
girlandový	girlandové	AAns1x
girlandový	girlandového	AAns2x
girlandový	girlandovému	AAns3x
girlandový	girlandové	AAns4x
girlandový	girlandové	AAns5x
girlandový	girlandovom	AAns6x
girlandový	girlandovým	AAns7x
girlandový	girlandové	AAnp1x
girlandový	girlandových	AAnp2x
girlandový	girlandovým	AAnp3x
girlandový	girlandové	AAnp4x
girlandový	girlandové	AAnp5x
girlandový	girlandových	AAnp6x
girlandový	girlandovými	AAnp7x
girondista	girondista	SSms1
girondista	girondistu	SSms2
girondista	girondistovi	SSms3
girondista	girondistu	SSms4
girondista	girondista	SSms5
girondista	girondistovi	SSms6
girondista	girondistom	SSms7
girondista	girondisti	SSmp1
girondista	girondistov	SSmp2
girondista	girondistom	SSmp3
girondista	girondistov	SSmp4
girondista	girondisti	SSmp5
girondista	girondistoch	SSmp6
girondista	girondistami	SSmp7
girondistický	girondistický	AAms1x
girondistický	girondistického	AAms2x
girondistický	girondistickému	AAms3x
girondistický	girondistického	AAms4x
girondistický	girondistický	AAms5x
girondistický	girondistickom	AAms6x
girondistický	girondistickým	AAms7x
girondistický	girondistickí	AAmp1x
girondistický	girondistických	AAmp2x
girondistický	girondistickým	AAmp3x
girondistický	girondistických	AAmp4x
girondistický	girondistickí	AAmp5x
girondistický	girondistických	AAmp6x
girondistický	girondistickými	AAmp7x
girondistický	girondistický	AAis1x
girondistický	girondistického	AAis2x
girondistický	girondistickému	AAis3x
girondistický	girondistický	AAis4x
girondistický	girondistický	AAis5x
girondistický	girondistickom	AAis6x
girondistický	girondistickým	AAis7x
girondistický	girondistické	AAip1x
girondistický	girondistických	AAip2x
girondistický	girondistickým	AAip3x
girondistický	girondistické	AAip4x
girondistický	girondistické	AAip5x
girondistický	girondistických	AAip6x
girondistický	girondistickými	AAip7x
girondistický	girondistická	AAfs1x
girondistický	girondistickej	AAfs2x
girondistický	girondistickej	AAfs3x
girondistický	girondistickú	AAfs4x
girondistický	girondistická	AAfs5x
girondistický	girondistickej	AAfs6x
girondistický	girondistickou	AAfs7x
girondistický	girondistické	AAfp1x
girondistický	girondistických	AAfp2x
girondistický	girondistickým	AAfp3x
girondistický	girondistické	AAfp4x
girondistický	girondistické	AAfp5x
girondistický	girondistických	AAfp6x
girondistický	girondistickými	AAfp7x
girondistický	girondistické	AAns1x
girondistický	girondistického	AAns2x
girondistický	girondistickému	AAns3x
girondistický	girondistické	AAns4x
girondistický	girondistické	AAns5x
girondistický	girondistickom	AAns6x
girondistický	girondistickým	AAns7x
girondistický	girondistické	AAnp1x
girondistický	girondistických	AAnp2x
girondistický	girondistickým	AAnp3x
girondistický	girondistické	AAnp4x
girondistický	girondistické	AAnp5x
girondistický	girondistických	AAnp6x
girondistický	girondistickými	AAnp7x
girovský	girovský	AAms1x
girovský	girovského	AAms2x
girovský	girovskému	AAms3x
girovský	girovského	AAms4x
girovský	girovský	AAms5x
girovský	girovskom	AAms6x
girovský	girovským	AAms7x
girovský	girovskí	AAmp1x
girovský	girovských	AAmp2x
girovský	girovským	AAmp3x
girovský	girovských	AAmp4x
girovský	girovskí	AAmp5x
girovský	girovských	AAmp6x
girovský	girovskými	AAmp7x
girovský	girovský	AAis1x
girovský	girovského	AAis2x
girovský	girovskému	AAis3x
girovský	girovský	AAis4x
girovský	girovský	AAis5x
girovský	girovskom	AAis6x
girovský	girovským	AAis7x
girovský	girovské	AAip1x
girovský	girovských	AAip2x
girovský	girovským	AAip3x
girovský	girovské	AAip4x
girovský	girovské	AAip5x
girovský	girovských	AAip6x
girovský	girovskými	AAip7x
girovský	girovská	AAfs1x
girovský	girovskej	AAfs2x
girovský	girovskej	AAfs3x
girovský	girovskú	AAfs4x
girovský	girovská	AAfs5x
girovský	girovskej	AAfs6x
girovský	girovskou	AAfs7x
girovský	girovské	AAfp1x
girovský	girovských	AAfp2x
girovský	girovským	AAfp3x
girovský	girovské	AAfp4x
girovský	girovské	AAfp5x
girovský	girovských	AAfp6x
girovský	girovskými	AAfp7x
girovský	girovské	AAns1x
girovský	girovského	AAns2x
girovský	girovskému	AAns3x
girovský	girovské	AAns4x
girovský	girovské	AAns5x
girovský	girovskom	AAns6x
girovský	girovským	AAns7x
girovský	girovské	AAnp1x
girovský	girovských	AAnp2x
girovský	girovským	AAnp3x
girovský	girovské	AAnp4x
girovský	girovské	AAnp5x
girovský	girovských	AAnp6x
girovský	girovskými	AAnp7x
gis	gis	SUns1
gis	gis	SUns2
gis	gis	SUns3
gis	gis	SUns4
gis	gis	SUns5
gis	gis	SUns6
gis	gis	SUns7
gis	gis	SUnp1
gis	gis	SUnp2
gis	gis	SUnp3
gis	gis	SUnp4
gis	gis	SUnp5
gis	gis	SUnp6
gis	gis	SUnp7
git	git	SSis1
git	gitu	SSis2
git	gitu	SSis3
git	git	SSis4
git	git	SSis5
git	gite	SSis6
git	gitom	SSis7
git	gity	SSip1
git	gitov	SSip2
git	gitom	SSip3
git	gity	SSip4
git	gity	SSip5
git	gitoch	SSip6
git	gitmi	SSip7
gitara	gitara	SSfs1
gitara	gitary	SSfs2
gitara	gitare	SSfs3
gitara	gitaru	SSfs4
gitara	gitara	SSfs5
gitara	gitare	SSfs6
gitara	gitarou	SSfs7
gitara	gitary	SSfp1
gitara	gitár	SSfp2
gitara	gitarám	SSfp3
gitara	gitary	SSfp4
gitara	gitary	SSfp5
gitara	gitarách	SSfp6
gitara	gitarami	SSfp7
gitarista	gitarista	SSms1
gitarista	gitaristu	SSms2
gitarista	gitaristovi	SSms3
gitarista	gitaristu	SSms4
gitarista	gitarista	SSms5
gitarista	gitaristovi	SSms6
gitarista	gitaristom	SSms7
gitarista	gitaristi	SSmp1
gitarista	gitaristov	SSmp2
gitarista	gitaristom	SSmp3
gitarista	gitaristov	SSmp4
gitarista	gitaristi	SSmp5
gitarista	gitaristoch	SSmp6
gitarista	gitaristami	SSmp7
gitaristka	gitaristka	SSfs1
gitaristka	gitaristky	SSfs2
gitaristka	gitaristke	SSfs3
gitaristka	gitaristku	SSfs4
gitaristka	gitaristka	SSfs5
gitaristka	gitaristke	SSfs6
gitaristka	gitaristkou	SSfs7
gitaristka	gitaristky	SSfp1
gitaristka	gitaristiek	SSfp2
gitaristka	gitaristkám	SSfp3
gitaristka	gitaristky	SSfp4
gitaristka	gitaristky	SSfp5
gitaristka	gitaristkách	SSfp6
gitaristka	gitaristkami	SSfp7
gitariáda	gitariáda	SSfs1
gitariáda	gitariády	SSfs2
gitariáda	gitariáde	SSfs3
gitariáda	gitariádu	SSfs4
gitariáda	gitariáda	SSfs5
gitariáda	gitariáde	SSfs6
gitariáda	gitariádou	SSfs7
gitariáda	gitariády	SSfp1
gitariáda	gitariád	SSfp2
gitariáda	gitariádam	SSfp3
gitariáda	gitariády	SSfp4
gitariáda	gitariády	SSfp5
gitariáda	gitariádach	SSfp6
gitariáda	gitariádami	SSfp7
gitarový	gitarový	AAms1x
gitarový	gitarového	AAms2x
gitarový	gitarovému	AAms3x
gitarový	gitarového	AAms4x
gitarový	gitarový	AAms5x
gitarový	gitarovom	AAms6x
gitarový	gitarovým	AAms7x
gitarový	gitaroví	AAmp1x
gitarový	gitarových	AAmp2x
gitarový	gitarovým	AAmp3x
gitarový	gitarových	AAmp4x
gitarový	gitaroví	AAmp5x
gitarový	gitarových	AAmp6x
gitarový	gitarovými	AAmp7x
gitarový	gitarový	AAis1x
gitarový	gitarového	AAis2x
gitarový	gitarovému	AAis3x
gitarový	gitarový	AAis4x
gitarový	gitarový	AAis5x
gitarový	gitarovom	AAis6x
gitarový	gitarovým	AAis7x
gitarový	gitarové	AAip1x
gitarový	gitarových	AAip2x
gitarový	gitarovým	AAip3x
gitarový	gitarové	AAip4x
gitarový	gitarové	AAip5x
gitarový	gitarových	AAip6x
gitarový	gitarovými	AAip7x
gitarový	gitarová	AAfs1x
gitarový	gitarovej	AAfs2x
gitarový	gitarovej	AAfs3x
gitarový	gitarovú	AAfs4x
gitarový	gitarová	AAfs5x
gitarový	gitarovej	AAfs6x
gitarový	gitarovou	AAfs7x
gitarový	gitarové	AAfp1x
gitarový	gitarových	AAfp2x
gitarový	gitarovým	AAfp3x
gitarový	gitarové	AAfp4x
gitarový	gitarové	AAfp5x
gitarový	gitarových	AAfp6x
gitarový	gitarovými	AAfp7x
gitarový	gitarové	AAns1x
gitarový	gitarového	AAns2x
gitarový	gitarovému	AAns3x
gitarový	gitarové	AAns4x
gitarový	gitarové	AAns5x
gitarový	gitarovom	AAns6x
gitarový	gitarovým	AAns7x
gitarový	gitarové	AAnp1x
gitarový	gitarových	AAnp2x
gitarový	gitarovým	AAnp3x
gitarový	gitarové	AAnp4x
gitarový	gitarové	AAnp5x
gitarový	gitarových	AAnp6x
gitarový	gitarovými	AAnp7x
gitovací	gitovací	AAms1x
gitovací	gitovacieho	AAms2x
gitovací	gitovaciemu	AAms3x
gitovací	gitovacieho	AAms4x
gitovací	gitovací	AAms5x
gitovací	gitovacom	AAms6x
gitovací	gitovacím	AAms7x
gitovací	gitovací	AAmp1x
gitovací	gitovacích	AAmp2x
gitovací	gitovacím	AAmp3x
gitovací	gitovacích	AAmp4x
gitovací	gitovací	AAmp5x
gitovací	gitovacích	AAmp6x
gitovací	gitovacími	AAmp7x
gitovací	gitovací	AAis1x
gitovací	gitovacieho	AAis2x
gitovací	gitovaciemu	AAis3x
gitovací	gitovací	AAis4x
gitovací	gitovací	AAis5x
gitovací	gitovacom	AAis6x
gitovací	gitovacím	AAis7x
gitovací	gitovacie	AAip1x
gitovací	gitovacích	AAip2x
gitovací	gitovacím	AAip3x
gitovací	gitovacie	AAip4x
gitovací	gitovacie	AAip5x
gitovací	gitovacích	AAip6x
gitovací	gitovacími	AAip7x
gitovací	gitovacia	AAfs1x
gitovací	gitovacej	AAfs2x
gitovací	gitovacej	AAfs3x
gitovací	gitovaciu	AAfs4x
gitovací	gitovacia	AAfs5x
gitovací	gitovacej	AAfs6x
gitovací	gitovacou	AAfs7x
gitovací	gitovacie	AAfp1x
gitovací	gitovacích	AAfp2x
gitovací	gitovacím	AAfp3x
gitovací	gitovacie	AAfp4x
gitovací	gitovacie	AAfp5x
gitovací	gitovacích	AAfp6x
gitovací	gitovacími	AAfp7x
gitovací	gitovacie	AAns1x
gitovací	gitovacieho	AAns2x
gitovací	gitovaciemu	AAns3x
gitovací	gitovacie	AAns4x
gitovací	gitovacie	AAns5x
gitovací	gitovacom	AAns6x
gitovací	gitovacím	AAns7x
gitovací	gitovacie	AAnp1x
gitovací	gitovacích	AAnp2x
gitovací	gitovacím	AAnp3x
gitovací	gitovacie	AAnp4x
gitovací	gitovacie	AAnp5x
gitovací	gitovacích	AAnp6x
gitovací	gitovacími	AAnp7x
gitovať	gitovať	VIe+
gitovať	gitujem	VKesa+
gitovať	gituješ	VKesb+
gitovať	gituje	VKesc+
gitovať	gitujeme	VKepa+
gitovať	gitujete	VKepb+
gitovať	gitujú	VKepc+
gitovať	gituj	VMesb+
gitovať	gitujme	VMepa+
gitovať	gitujte	VMepb+
gitovať	gitujúc	VHe+
gitovať	gitoval	VLesam+
gitovať	gitoval	VLesai+
gitovať	gitoval	VLesbm+
gitovať	gitoval	VLesbi+
gitovať	gitoval	VLescm+
gitovať	gitoval	VLesci+
gitovať	gitovala	VLesaf+
gitovať	gitovala	VLesbf+
gitovať	gitovala	VLescf+
gitovať	gitovalo	VLesan+
gitovať	gitovalo	VLesbn+
gitovať	gitovalo	VLescn+
gitovať	gitovali	VLepah+
gitovať	gitovali	VLepbh+
gitovať	gitovali	VLepcm+
gitovať	gitovali	VLepci+
gitovať	gitovali	VLepcf+
gitovať	gitovali	VLepcn+
gitovať	gitovali	VLepco+
gízsky	gízsky	AAms1x
gízsky	gízskeho	AAms2x
gízsky	gízskemu	AAms3x
gízsky	gízskeho	AAms4x
gízsky	gízsky	AAms5x
gízsky	gízskom	AAms6x
gízsky	gízskym	AAms7x
gízsky	gízski	AAmp1x
gízsky	gízskych	AAmp2x
gízsky	gízskym	AAmp3x
gízsky	gízskych	AAmp4x
gízsky	gízski	AAmp5x
gízsky	gízskych	AAmp6x
gízsky	gízskymi	AAmp7x
gízsky	gízsky	AAis1x
gízsky	gízskeho	AAis2x
gízsky	gízskemu	AAis3x
gízsky	gízsky	AAis4x
gízsky	gízsky	AAis5x
gízsky	gízskom	AAis6x
gízsky	gízskym	AAis7x
gízsky	gízske	AAip1x
gízsky	gízskych	AAip2x
gízsky	gízskym	AAip3x
gízsky	gízske	AAip4x
gízsky	gízske	AAip5x
gízsky	gízskych	AAip6x
gízsky	gízskymi	AAip7x
gízsky	gízska	AAfs1x
gízsky	gízskej	AAfs2x
gízsky	gízskej	AAfs3x
gízsky	gízsku	AAfs4x
gízsky	gízska	AAfs5x
gízsky	gízskej	AAfs6x
gízsky	gízskou	AAfs7x
gízsky	gízske	AAfp1x
gízsky	gízskych	AAfp2x
gízsky	gízskym	AAfp3x
gízsky	gízske	AAfp4x
gízsky	gízske	AAfp5x
gízsky	gízskych	AAfp6x
gízsky	gízskymi	AAfp7x
gízsky	gízske	AAns1x
gízsky	gízskeho	AAns2x
gízsky	gízskemu	AAns3x
gízsky	gízske	AAns4x
gízsky	gízske	AAns5x
gízsky	gízskom	AAns6x
gízsky	gízskym	AAns7x
gízsky	gízske	AAnp1x
gízsky	gízskych	AAnp2x
gízsky	gízskym	AAnp3x
gízsky	gízske	AAnp4x
gízsky	gízske	AAnp5x
gízsky	gízskych	AAnp6x
gízsky	gízskymi	AAnp7x
