Izabela	Izabela	SSfs1
Izabela	Izabely	SSfs2
Izabela	Izabele	SSfs3
Izabela	Izabelu	SSfs4
Izabela	Izabela	SSfs5
Izabela	Izabele	SSfs6
Izabela	Izabelou	SSfs7
Izabela	Izabely	SSfp1
Izabela	Izabel	SSfp2
Izabela	Izabelám	SSfp3
Izabela	Izabely	SSfp4
Izabela	Izabely	SSfp5
Izabela	Izabelách	SSfp6
Izabela	Izabelami	SSfp7
Izidor	Izidor	SSms1
Izidor	Izidora	SSms2
Izidor	Izidorovi	SSms3
Izidor	Izidora	SSms4
Izidor	Izidor	SSms5
Izidor	Izidorovi	SSms6
Izidor	Izidorom	SSms7
Izidor	Izidorovia	SSmp1
Izidor	Izidorov	SSmp2
Izidor	Izidorom	SSmp3
Izidor	Izidorov	SSmp4
Izidor	Izidorovia	SSmp5
Izidor	Izidoroch	SSmp6
Izidor	Izidormi	SSmp7
Izrael	Izrael	SSis1
Izrael	Izraela	SSis2
Izrael	Izraelu	SSis3
Izrael	Izrael	SSis4
Izrael	Izrael	SSis5
Izrael	Izraeli	SSis6
Izrael	Izraelom	SSis7
Izák	Izák	SSms1
Izák	Izáka	SSms2
Izák	Izákovi	SSms3
Izák	Izáka	SSms4
Izák	Izák	SSms5
Izák	Izákovi	SSms6
Izák	Izákom	SSms7
Izák	Izákovia	SSmp1
Izák	Izákov	SSmp2
Izák	Izákom	SSmp3
Izák	Izákov	SSmp4
Izák	Izákovia	SSmp5
Izák	Izákoch	SSmp6
Izák	Izákmi	SSmp7
izba	izba	SSfs1
izba	izby	SSfs2
izba	izbe	SSfs3
izba	izbu	SSfs4
izba	izba	SSfs5
izba	izbe	SSfs6
izba	izbou	SSfs7
izba	izby	SSfp1
izba	izieb	SSfp2
izba	izbám	SSfp3
izba	izby	SSfp4
izba	izby	SSfp5
izba	izbách	SSfp6
izba	izbami	SSfp7
izbica	izbica	SSfs1
izbica	izbice	SSfs2
izbica	izbici	SSfs3
izbica	izbicu	SSfs4
izbica	izbica	SSfs5
izbica	izbici	SSfs6
izbica	izbicou	SSfs7
izbica	izbice	SSfp1
izbica	izbíc	SSfp2
izbica	izbiciam	SSfp3
izbica	izbice	SSfp4
izbica	izbice	SSfp5
izbica	izbiciach	SSfp6
izbica	izbicami	SSfp7
izbietka	izbietka	SSfs1
izbietka	izbietky	SSfs2
izbietka	izbietke	SSfs3
izbietka	izbietku	SSfs4
izbietka	izbietka	SSfs5
izbietka	izbietke	SSfs6
izbietka	izbietkou	SSfs7
izbietka	izbietky	SSfp1
izbietka	izbietok	SSfp2
izbietka	izbietkam	SSfp3
izbietka	izbietky	SSfp4
izbietka	izbietky	SSfp5
izbietka	izbietkach	SSfp6
izbietka	izbietkami	SSfp7
izbisko	izbisko	SSns1
izbisko	izbiska	SSns2
izbisko	izbisku	SSns3
izbisko	izbisko	SSns4
izbisko	izbisko	SSns5
izbisko	izbisku	SSns6
izbisko	izbiskom	SSns7
izbisko	izbiská	SSnp1
izbisko	izbísk	SSnp2
izbisko	izbiskám	SSnp3
izbisko	izbiská	SSnp4
izbisko	izbiská	SSnp5
izbisko	izbiskách	SSnp6
izbisko	izbiskami	SSnp7
izbisko	izbisko	SSfs1
izbisko	izbisko	SSfs4
izbisko	izbisko	SSfs5
izbička	izbička	SSfs1
izbička	izbičky	SSfs2
izbička	izbičke	SSfs3
izbička	izbičku	SSfs4
izbička	izbička	SSfs5
izbička	izbičke	SSfs6
izbička	izbičkou	SSfs7
izbička	izbičky	SSfp1
izbička	izbičiek	SSfp2
izbička	izbičkám	SSfp3
izbička	izbičky	SSfp4
izbička	izbičky	SSfp5
izbička	izbičkách	SSfp6
izbička	izbičkami	SSfp7
izbový	izbový	AAms1x
izbový	izbového	AAms2x
izbový	izbovému	AAms3x
izbový	izbového	AAms4x
izbový	izbový	AAms5x
izbový	izbovom	AAms6x
izbový	izbovým	AAms7x
izbový	izboví	AAmp1x
izbový	izbových	AAmp2x
izbový	izbovým	AAmp3x
izbový	izbových	AAmp4x
izbový	izboví	AAmp5x
izbový	izbových	AAmp6x
izbový	izbovými	AAmp7x
izbový	izbový	AAis1x
izbový	izbového	AAis2x
izbový	izbovému	AAis3x
izbový	izbový	AAis4x
izbový	izbový	AAis5x
izbový	izbovom	AAis6x
izbový	izbovým	AAis7x
izbový	izbové	AAip1x
izbový	izbových	AAip2x
izbový	izbovým	AAip3x
izbový	izbové	AAip4x
izbový	izbové	AAip5x
izbový	izbových	AAip6x
izbový	izbovými	AAip7x
izbový	izbová	AAfs1x
izbový	izbovej	AAfs2x
izbový	izbovej	AAfs3x
izbový	izbovú	AAfs4x
izbový	izbová	AAfs5x
izbový	izbovej	AAfs6x
izbový	izbovou	AAfs7x
izbový	izbové	AAfp1x
izbový	izbových	AAfp2x
izbový	izbovým	AAfp3x
izbový	izbové	AAfp4x
izbový	izbové	AAfp5x
izbový	izbových	AAfp6x
izbový	izbovými	AAfp7x
izbový	izbové	AAns1x
izbový	izbového	AAns2x
izbový	izbovému	AAns3x
izbový	izbové	AAns4x
izbový	izbové	AAns5x
izbový	izbovom	AAns6x
izbový	izbovým	AAns7x
izbový	izbové	AAnp1x
izbový	izbových	AAnp2x
izbový	izbovým	AAnp3x
izbový	izbové	AAnp4x
izbový	izbové	AAnp5x
izbový	izbových	AAnp6x
izbový	izbovými	AAnp7x
izobara	izobara	SSfs1
izobara	izobary	SSfs2
izobara	izobare	SSfs3
izobara	izobaru	SSfs4
izobara	izobara	SSfs5
izobara	izobare	SSfs6
izobara	izobarou	SSfs7
izobara	izobary	SSfp1
izobara	izobár	SSfp2
izobara	izobarám	SSfp3
izobara	izobary	SSfp4
izobara	izobary	SSfp5
izobara	izobarách	SSfp6
izobara	izobarami	SSfp7
izobarický	izobarický	AAms1x
izobarický	izobarického	AAms2x
izobarický	izobarickému	AAms3x
izobarický	izobarického	AAms4x
izobarický	izobarický	AAms5x
izobarický	izobarickom	AAms6x
izobarický	izobarickým	AAms7x
izobarický	izobarickí	AAmp1x
izobarický	izobarických	AAmp2x
izobarický	izobarickým	AAmp3x
izobarický	izobarických	AAmp4x
izobarický	izobarickí	AAmp5x
izobarický	izobarických	AAmp6x
izobarický	izobarickými	AAmp7x
izobarický	izobarický	AAis1x
izobarický	izobarického	AAis2x
izobarický	izobarickému	AAis3x
izobarický	izobarický	AAis4x
izobarický	izobarický	AAis5x
izobarický	izobarickom	AAis6x
izobarický	izobarickým	AAis7x
izobarický	izobarické	AAip1x
izobarický	izobarických	AAip2x
izobarický	izobarickým	AAip3x
izobarický	izobarické	AAip4x
izobarický	izobarické	AAip5x
izobarický	izobarických	AAip6x
izobarický	izobarickými	AAip7x
izobarický	izobarická	AAfs1x
izobarický	izobarickej	AAfs2x
izobarický	izobarickej	AAfs3x
izobarický	izobarickú	AAfs4x
izobarický	izobarická	AAfs5x
izobarický	izobarickej	AAfs6x
izobarický	izobarickou	AAfs7x
izobarický	izobarické	AAfp1x
izobarický	izobarických	AAfp2x
izobarický	izobarickým	AAfp3x
izobarický	izobarické	AAfp4x
izobarický	izobarické	AAfp5x
izobarický	izobarických	AAfp6x
izobarický	izobarickými	AAfp7x
izobarický	izobarické	AAns1x
izobarický	izobarického	AAns2x
izobarický	izobarickému	AAns3x
izobarický	izobarické	AAns4x
izobarický	izobarické	AAns5x
izobarický	izobarickom	AAns6x
izobarický	izobarickým	AAns7x
izobarický	izobarické	AAnp1x
izobarický	izobarických	AAnp2x
izobarický	izobarickým	AAnp3x
izobarický	izobarické	AAnp4x
izobarický	izobarické	AAnp5x
izobarický	izobarických	AAnp6x
izobarický	izobarickými	AAnp7x
izobarový	izobarový	AAms1x
izobarový	izobarového	AAms2x
izobarový	izobarovému	AAms3x
izobarový	izobarového	AAms4x
izobarový	izobarový	AAms5x
izobarový	izobarovom	AAms6x
izobarový	izobarovým	AAms7x
izobarový	izobaroví	AAmp1x
izobarový	izobarových	AAmp2x
izobarový	izobarovým	AAmp3x
izobarový	izobarových	AAmp4x
izobarový	izobaroví	AAmp5x
izobarový	izobarových	AAmp6x
izobarový	izobarovými	AAmp7x
izobarový	izobarový	AAis1x
izobarový	izobarového	AAis2x
izobarový	izobarovému	AAis3x
izobarový	izobarový	AAis4x
izobarový	izobarový	AAis5x
izobarový	izobarovom	AAis6x
izobarový	izobarovým	AAis7x
izobarový	izobarové	AAip1x
izobarový	izobarových	AAip2x
izobarový	izobarovým	AAip3x
izobarový	izobarové	AAip4x
izobarový	izobarové	AAip5x
izobarový	izobarových	AAip6x
izobarový	izobarovými	AAip7x
izobarový	izobarová	AAfs1x
izobarový	izobarovej	AAfs2x
izobarový	izobarovej	AAfs3x
izobarový	izobarovú	AAfs4x
izobarový	izobarová	AAfs5x
izobarový	izobarovej	AAfs6x
izobarový	izobarovou	AAfs7x
izobarový	izobarové	AAfp1x
izobarový	izobarových	AAfp2x
izobarový	izobarovým	AAfp3x
izobarový	izobarové	AAfp4x
izobarový	izobarové	AAfp5x
izobarový	izobarových	AAfp6x
izobarový	izobarovými	AAfp7x
izobarový	izobarové	AAns1x
izobarový	izobarového	AAns2x
izobarový	izobarovému	AAns3x
izobarový	izobarové	AAns4x
izobarový	izobarové	AAns5x
izobarový	izobarovom	AAns6x
izobarový	izobarovým	AAns7x
izobarový	izobarové	AAnp1x
izobarový	izobarových	AAnp2x
izobarový	izobarovým	AAnp3x
izobarový	izobarové	AAnp4x
izobarový	izobarové	AAnp5x
izobarový	izobarových	AAnp6x
izobarový	izobarovými	AAnp7x
izochronický	izochronický	AAms1x
izochronický	izochronického	AAms2x
izochronický	izochronickému	AAms3x
izochronický	izochronického	AAms4x
izochronický	izochronický	AAms5x
izochronický	izochronickom	AAms6x
izochronický	izochronickým	AAms7x
izochronický	izochronickí	AAmp1x
izochronický	izochronických	AAmp2x
izochronický	izochronickým	AAmp3x
izochronický	izochronických	AAmp4x
izochronický	izochronickí	AAmp5x
izochronický	izochronických	AAmp6x
izochronický	izochronickými	AAmp7x
izochronický	izochronický	AAis1x
izochronický	izochronického	AAis2x
izochronický	izochronickému	AAis3x
izochronický	izochronický	AAis4x
izochronický	izochronický	AAis5x
izochronický	izochronickom	AAis6x
izochronický	izochronickým	AAis7x
izochronický	izochronické	AAip1x
izochronický	izochronických	AAip2x
izochronický	izochronickým	AAip3x
izochronický	izochronické	AAip4x
izochronický	izochronické	AAip5x
izochronický	izochronických	AAip6x
izochronický	izochronickými	AAip7x
izochronický	izochronická	AAfs1x
izochronický	izochronickej	AAfs2x
izochronický	izochronickej	AAfs3x
izochronický	izochronickú	AAfs4x
izochronický	izochronická	AAfs5x
izochronický	izochronickej	AAfs6x
izochronický	izochronickou	AAfs7x
izochronický	izochronické	AAfp1x
izochronický	izochronických	AAfp2x
izochronický	izochronickým	AAfp3x
izochronický	izochronické	AAfp4x
izochronický	izochronické	AAfp5x
izochronický	izochronických	AAfp6x
izochronický	izochronickými	AAfp7x
izochronický	izochronické	AAns1x
izochronický	izochronického	AAns2x
izochronický	izochronickému	AAns3x
izochronický	izochronické	AAns4x
izochronický	izochronické	AAns5x
izochronický	izochronickom	AAns6x
izochronický	izochronickým	AAns7x
izochronický	izochronické	AAnp1x
izochronický	izochronických	AAnp2x
izochronický	izochronickým	AAnp3x
izochronický	izochronické	AAnp4x
izochronický	izochronické	AAnp5x
izochronický	izochronických	AAnp6x
izochronický	izochronickými	AAnp7x
izochronizmus	izochronizmus	SSis1
izochronizmus	izochronizmu	SSis2
izochronizmus	izochronizmu	SSis3
izochronizmus	izochronizmus	SSis4
izochronizmus	izochronizmus	SSis5
izochronizmus	izochronizme	SSis6
izochronizmus	izochronizmom	SSis7
izochronizmus	izochronizmy	SSip1
izochronizmus	izochronizmov	SSip2
izochronizmus	izochronizmom	SSip3
izochronizmus	izochronizmy	SSip4
izochronizmus	izochronizmy	SSip5
izochronizmus	izochronizmoch	SSip6
izochronizmus	izochronizmami	SSip7
izoglosa	izoglosa	SSfs1
izoglosa	izoglosy	SSfs2
izoglosa	izoglose	SSfs3
izoglosa	izoglosu	SSfs4
izoglosa	izoglosa	SSfs5
izoglosa	izoglose	SSfs6
izoglosa	izoglosou	SSfs7
izoglosa	izoglosy	SSfp1
izoglosa	izoglos	SSfp2
izoglosa	izoglosám	SSfp3
izoglosa	izoglosy	SSfp4
izoglosa	izoglosy	SSfp5
izoglosa	izoglosách	SSfp6
izoglosa	izoglosami	SSfp7
izogóna	izogóna	SSfs1
izogóna	izogóny	SSfs2
izogóna	izogóne	SSfs3
izogóna	izogónu	SSfs4
izogóna	izogóna	SSfs5
izogóna	izogóne	SSfs6
izogóna	izogónou	SSfs7
izogóna	izogóny	SSfp1
izogóna	izogón	SSfp2
izogóna	izogónam	SSfp3
izogóna	izogóny	SSfp4
izogóna	izogóny	SSfp5
izogóna	izogónach	SSfp6
izogóna	izogónami	SSfp7
izolacionista	izolacionista	SSms1
izolacionista	izolacionistu	SSms2
izolacionista	izolacionistovi	SSms3
izolacionista	izolacionistu	SSms4
izolacionista	izolacionista	SSms5
izolacionista	izolacionistovi	SSms6
izolacionista	izolacionistom	SSms7
izolacionista	izolacionisti	SSmp1
izolacionista	izolacionistov	SSmp2
izolacionista	izolacionistom	SSmp3
izolacionista	izolacionistov	SSmp4
izolacionista	izolacionisti	SSmp5
izolacionista	izolacionistoch	SSmp6
izolacionista	izolacionistami	SSmp7
izolacionistický	izolacionistický	AAms1x
izolacionistický	izolacionistického	AAms2x
izolacionistický	izolacionistickému	AAms3x
izolacionistický	izolacionistického	AAms4x
izolacionistický	izolacionistický	AAms5x
izolacionistický	izolacionistickom	AAms6x
izolacionistický	izolacionistickým	AAms7x
izolacionistický	izolacionistickí	AAmp1x
izolacionistický	izolacionistických	AAmp2x
izolacionistický	izolacionistickým	AAmp3x
izolacionistický	izolacionistických	AAmp4x
izolacionistický	izolacionistickí	AAmp5x
izolacionistický	izolacionistických	AAmp6x
izolacionistický	izolacionistickými	AAmp7x
izolacionistický	izolacionistický	AAis1x
izolacionistický	izolacionistického	AAis2x
izolacionistický	izolacionistickému	AAis3x
izolacionistický	izolacionistický	AAis4x
izolacionistický	izolacionistický	AAis5x
izolacionistický	izolacionistickom	AAis6x
izolacionistický	izolacionistickým	AAis7x
izolacionistický	izolacionistické	AAip1x
izolacionistický	izolacionistických	AAip2x
izolacionistický	izolacionistickým	AAip3x
izolacionistický	izolacionistické	AAip4x
izolacionistický	izolacionistické	AAip5x
izolacionistický	izolacionistických	AAip6x
izolacionistický	izolacionistickými	AAip7x
izolacionistický	izolacionistická	AAfs1x
izolacionistický	izolacionistickej	AAfs2x
izolacionistický	izolacionistickej	AAfs3x
izolacionistický	izolacionistickú	AAfs4x
izolacionistický	izolacionistická	AAfs5x
izolacionistický	izolacionistickej	AAfs6x
izolacionistický	izolacionistickou	AAfs7x
izolacionistický	izolacionistické	AAfp1x
izolacionistický	izolacionistických	AAfp2x
izolacionistický	izolacionistickým	AAfp3x
izolacionistický	izolacionistické	AAfp4x
izolacionistický	izolacionistické	AAfp5x
izolacionistický	izolacionistických	AAfp6x
izolacionistický	izolacionistickými	AAfp7x
izolacionistický	izolacionistické	AAns1x
izolacionistický	izolacionistického	AAns2x
izolacionistický	izolacionistickému	AAns3x
izolacionistický	izolacionistické	AAns4x
izolacionistický	izolacionistické	AAns5x
izolacionistický	izolacionistickom	AAns6x
izolacionistický	izolacionistickým	AAns7x
izolacionistický	izolacionistické	AAnp1x
izolacionistický	izolacionistických	AAnp2x
izolacionistický	izolacionistickým	AAnp3x
izolacionistický	izolacionistické	AAnp4x
izolacionistický	izolacionistické	AAnp5x
izolacionistický	izolacionistických	AAnp6x
izolacionistický	izolacionistickými	AAnp7x
izolacionizmus	izolacionizmus	SSis1
izolacionizmus	izolacionizmu	SSis2
izolacionizmus	izolacionizmu	SSis3
izolacionizmus	izolacionizmus	SSis4
izolacionizmus	izolacionizmus	SSis5
izolacionizmus	izolacionizme	SSis6
izolacionizmus	izolacionizmom	SSis7
izolacionizmus	izolacionizmy	SSip1
izolacionizmus	izolacionizmov	SSip2
izolacionizmus	izolacionizmom	SSip3
izolacionizmus	izolacionizmy	SSip4
izolacionizmus	izolacionizmy	SSip5
izolacionizmus	izolacionizmoch	SSip6
izolacionizmus	izolacionizmami	SSip7
izolant	izolant	SSis1
izolant	izolantu	SSis2
izolant	izolantu	SSis3
izolant	izolant	SSis4
izolant	izolant	SSis5
izolant	izolante	SSis6
izolant	izolantom	SSis7
izolant	izolanty	SSip1
izolant	izolantov	SSip2
izolant	izolantom	SSip3
izolant	izolanty	SSip4
izolant	izolanty	SSip5
izolant	izolantoch	SSip6
izolant	izolantmi	SSip7
izolačka	izolačka	SSfs1
izolačka	izolačky	SSfs2
izolačka	izolačke	SSfs3
izolačka	izolačku	SSfs4
izolačka	izolačka	SSfs5
izolačka	izolačke	SSfs6
izolačka	izolačkou	SSfs7
izolačka	izolačky	SSfp1
izolačka	izolačiek	SSfp2
izolačka	izolačkám	SSfp3
izolačka	izolačky	SSfp4
izolačka	izolačky	SSfp5
izolačka	izolačkách	SSfp6
izolačka	izolačkami	SSfp7
izolačne	izolačne	Dx
izolačný	izolačný	AAms1x
izolačný	izolačného	AAms2x
izolačný	izolačnému	AAms3x
izolačný	izolačného	AAms4x
izolačný	izolačný	AAms5x
izolačný	izolačnom	AAms6x
izolačný	izolačným	AAms7x
izolačný	izolační	AAmp1x
izolačný	izolačných	AAmp2x
izolačný	izolačným	AAmp3x
izolačný	izolačných	AAmp4x
izolačný	izolační	AAmp5x
izolačný	izolačných	AAmp6x
izolačný	izolačnými	AAmp7x
izolačný	izolačný	AAis1x
izolačný	izolačného	AAis2x
izolačný	izolačnému	AAis3x
izolačný	izolačný	AAis4x
izolačný	izolačný	AAis5x
izolačný	izolačnom	AAis6x
izolačný	izolačným	AAis7x
izolačný	izolačné	AAip1x
izolačný	izolačných	AAip2x
izolačný	izolačným	AAip3x
izolačný	izolačné	AAip4x
izolačný	izolačné	AAip5x
izolačný	izolačných	AAip6x
izolačný	izolačnými	AAip7x
izolačný	izolačná	AAfs1x
izolačný	izolačnej	AAfs2x
izolačný	izolačnej	AAfs3x
izolačný	izolačnú	AAfs4x
izolačný	izolačná	AAfs5x
izolačný	izolačnej	AAfs6x
izolačný	izolačnou	AAfs7x
izolačný	izolačné	AAfp1x
izolačný	izolačných	AAfp2x
izolačný	izolačným	AAfp3x
izolačný	izolačné	AAfp4x
izolačný	izolačné	AAfp5x
izolačný	izolačných	AAfp6x
izolačný	izolačnými	AAfp7x
izolačný	izolačné	AAns1x
izolačný	izolačného	AAns2x
izolačný	izolačnému	AAns3x
izolačný	izolačné	AAns4x
izolačný	izolačné	AAns5x
izolačný	izolačnom	AAns6x
izolačný	izolačným	AAns7x
izolačný	izolačné	AAnp1x
izolačný	izolačných	AAnp2x
izolačný	izolačným	AAnp3x
izolačný	izolačné	AAnp4x
izolačný	izolačné	AAnp5x
izolačný	izolačných	AAnp6x
izolačný	izolačnými	AAnp7x
izolovane	izolovane	Dx
izolovane	izolovanejšie	Dy
izolovane	najizolovanejšie	Dz
izolovanosť	izolovanosť	SSfs1
izolovanosť	izolovanosti	SSfs2
izolovanosť	izolovanosti	SSfs3
izolovanosť	izolovanosť	SSfs4
izolovanosť	izolovanosť	SSfs5
izolovanosť	izolovanosti	SSfs6
izolovanosť	izolovanosťou	SSfs7
izolovanosť	izolovanosti	SSfp1
izolovanosť	izolovaností	SSfp2
izolovanosť	izolovanostiam	SSfp3
izolovanosť	izolovanosti	SSfp4
izolovanosť	izolovanosti	SSfp5
izolovanosť	izolovanostiach	SSfp6
izolovanosť	izolovanosťami	SSfp7
izolovaný	izolované	Gtfp1x
izolovaný	izolovanejšie	Gtfp1y
izolovaný	najizolovanejšie	Gtfp1z
izolovaný	izolovaných	Gtfp2x
izolovaný	izolovanejších	Gtfp2y
izolovaný	najizolovanejších	Gtfp2z
izolovaný	izolovaným	Gtfp3x
izolovaný	izolovanejším	Gtfp3y
izolovaný	najizolovanejším	Gtfp3z
izolovaný	izolované	Gtfp4x
izolovaný	izolovanejšie	Gtfp4y
izolovaný	najizolovanejšie	Gtfp4z
izolovaný	izolované	Gtfp5x
izolovaný	izolovanejšie	Gtfp5y
izolovaný	najizolovanejšie	Gtfp5z
izolovaný	izolovaných	Gtfp6x
izolovaný	izolovanejších	Gtfp6y
izolovaný	najizolovanejších	Gtfp6z
izolovaný	izolovanými	Gtfp7x
izolovaný	izolovanejšími	Gtfp7y
izolovaný	najizolovanejšími	Gtfp7z
izolovaný	izolovaná	Gtfs1x
izolovaný	izolovanejšia	Gtfs1y
izolovaný	najizolovanejšia	Gtfs1z
izolovaný	izolovanej	Gtfs2x
izolovaný	izolovanejšej	Gtfs2y
izolovaný	najizolovanejšej	Gtfs2z
izolovaný	izolovanej	Gtfs3x
izolovaný	izolovanejšej	Gtfs3y
izolovaný	najizolovanejšej	Gtfs3z
izolovaný	izolovanú	Gtfs4x
izolovaný	izolovanejšiu	Gtfs4y
izolovaný	najizolovanejšiu	Gtfs4z
izolovaný	izolovaná	Gtfs5x
izolovaný	izolovanejšia	Gtfs5y
izolovaný	najizolovanejšia	Gtfs5z
izolovaný	izolovanej	Gtfs6x
izolovaný	izolovanejšej	Gtfs6y
izolovaný	najizolovanejšej	Gtfs6z
izolovaný	izolovanou	Gtfs7x
izolovaný	izolovanejšou	Gtfs7y
izolovaný	najizolovanejšou	Gtfs7z
izolovaný	izolované	Gtip1x
izolovaný	izolovanejšie	Gtip1y
izolovaný	najizolovanejšie	Gtip1z
izolovaný	izolovaných	Gtip2x
izolovaný	izolovanejších	Gtip2y
izolovaný	najizolovanejších	Gtip2z
izolovaný	izolovaným	Gtip3x
izolovaný	izolovanejším	Gtip3y
izolovaný	najizolovanejším	Gtip3z
izolovaný	izolované	Gtip4x
izolovaný	izolovanejšie	Gtip4y
izolovaný	najizolovanejšie	Gtip4z
izolovaný	izolované	Gtip5x
izolovaný	izolovanejšie	Gtip5y
izolovaný	najizolovanejšie	Gtip5z
izolovaný	izolovaných	Gtip6x
izolovaný	izolovanejších	Gtip6y
izolovaný	najizolovanejších	Gtip6z
izolovaný	izolovanými	Gtip7x
izolovaný	izolovanejšími	Gtip7y
izolovaný	najizolovanejšími	Gtip7z
izolovaný	izolovaný	Gtis1x
izolovaný	izolovanejší	Gtis1y
izolovaný	najizolovanejší	Gtis1z
izolovaný	izolovaného	Gtis2x
izolovaný	izolovanejšieho	Gtis2y
izolovaný	najizolovanejšieho	Gtis2z
izolovaný	izolovanému	Gtis3x
izolovaný	izolovanejšiemu	Gtis3y
izolovaný	najizolovanejšiemu	Gtis3z
izolovaný	izolovaný	Gtis4x
izolovaný	izolovanejší	Gtis4y
izolovaný	najizolovanejší	Gtis4z
izolovaný	izolovaný	Gtis5x
izolovaný	izolovanejší	Gtis5y
izolovaný	najizolovanejší	Gtis5z
izolovaný	izolovanom	Gtis6x
izolovaný	izolovanejšom	Gtis6y
izolovaný	najizolovanejšom	Gtis6z
izolovaný	izolovaným	Gtis7x
izolovaný	izolovanejším	Gtis7y
izolovaný	najizolovanejším	Gtis7z
izolovaný	izolovaní	Gtmp1x
izolovaný	izolovanejší	Gtmp1y
izolovaný	najizolovanejší	Gtmp1z
izolovaný	izolovaných	Gtmp2x
izolovaný	izolovanejších	Gtmp2y
izolovaný	najizolovanejších	Gtmp2z
izolovaný	izolovaným	Gtmp3x
izolovaný	izolovanejším	Gtmp3y
izolovaný	najizolovanejším	Gtmp3z
izolovaný	izolovaných	Gtmp4x
izolovaný	izolovanejších	Gtmp4y
izolovaný	najizolovanejších	Gtmp4z
izolovaný	izolovaní	Gtmp5x
izolovaný	izolovanejší	Gtmp5y
izolovaný	najizolovanejší	Gtmp5z
izolovaný	izolovaných	Gtmp6x
izolovaný	izolovanejších	Gtmp6y
izolovaný	najizolovanejších	Gtmp6z
izolovaný	izolovanými	Gtmp7x
izolovaný	izolovanejšími	Gtmp7y
izolovaný	najizolovanejšími	Gtmp7z
izolovaný	izolovaný	Gtms1x
izolovaný	izolovanejší	Gtms1y
izolovaný	najizolovanejší	Gtms1z
izolovaný	izolovaného	Gtms2x
izolovaný	izolovanejšieho	Gtms2y
izolovaný	najizolovanejšieho	Gtms2z
izolovaný	izolovanému	Gtms3x
izolovaný	izolovanejšiemu	Gtms3y
izolovaný	najizolovanejšiemu	Gtms3z
izolovaný	izolovaného	Gtms4x
izolovaný	izolovanejšieho	Gtms4y
izolovaný	najizolovanejšieho	Gtms4z
izolovaný	izolovaný	Gtms5x
izolovaný	izolovanejší	Gtms5y
izolovaný	najizolovanejší	Gtms5z
izolovaný	izolovanom	Gtms6x
izolovaný	izolovanejšom	Gtms6y
izolovaný	najizolovanejšom	Gtms6z
izolovaný	izolovaným	Gtms7x
izolovaný	izolovanejším	Gtms7y
izolovaný	najizolovanejším	Gtms7z
izolovaný	izolované	Gtnp1x
izolovaný	izolovanejšie	Gtnp1y
izolovaný	najizolovanejšie	Gtnp1z
izolovaný	izolovaných	Gtnp2x
izolovaný	izolovanejších	Gtnp2y
izolovaný	najizolovanejších	Gtnp2z
izolovaný	izolovaným	Gtnp3x
izolovaný	izolovanejším	Gtnp3y
izolovaný	najizolovanejším	Gtnp3z
izolovaný	izolované	Gtnp4x
izolovaný	izolovanejšie	Gtnp4y
izolovaný	najizolovanejšie	Gtnp4z
izolovaný	izolované	Gtnp5x
izolovaný	izolovanejšie	Gtnp5y
izolovaný	najizolovanejšie	Gtnp5z
izolovaný	izolovaných	Gtnp6x
izolovaný	izolovanejších	Gtnp6y
izolovaný	najizolovanejších	Gtnp6z
izolovaný	izolovanými	Gtnp7x
izolovaný	izolovanejšími	Gtnp7y
izolovaný	najizolovanejšími	Gtnp7z
izolovaný	izolované	Gtns1x
izolovaný	izolovanejšie	Gtns1y
izolovaný	najizolovanejšie	Gtns1z
izolovaný	izolovaného	Gtns2x
izolovaný	izolovanejšieho	Gtns2y
izolovaný	najizolovanejšieho	Gtns2z
izolovaný	izolovanému	Gtns3x
izolovaný	izolovanejšiemu	Gtns3y
izolovaný	najizolovanejšiemu	Gtns3z
izolovaný	izolované	Gtns4x
izolovaný	izolovanejšie	Gtns4y
izolovaný	najizolovanejšie	Gtns4z
izolovaný	izolované	Gtns5x
izolovaný	izolovanejšie	Gtns5y
izolovaný	najizolovanejšie	Gtns5z
izolovaný	izolovanom	Gtns6x
izolovaný	izolovanejšom	Gtns6y
izolovaný	najizolovanejšom	Gtns6z
izolovaný	izolovaným	Gtns7x
izolovaný	izolovanejším	Gtns7y
izolovaný	najizolovanejším	Gtns7z
izolovať	izolovať	VIj+
izolovať	izolujem	VKjsa+
izolovať	izoluješ	VKjsb+
izolovať	izoluje	VKjsc+
izolovať	izolujeme	VKjpa+
izolovať	izolujete	VKjpb+
izolovať	izolujú	VKjpc+
izolovať	izoluj	VMjsb+
izolovať	izolujme	VMjpa+
izolovať	izolujte	VMjpb+
izolovať	izolujúc	VHj+
izolovať	izoloval	VLjsam+
izolovať	izoloval	VLjsai+
izolovať	izoloval	VLjsbm+
izolovať	izoloval	VLjsbi+
izolovať	izoloval	VLjscm+
izolovať	izoloval	VLjsci+
izolovať	izolovala	VLjsaf+
izolovať	izolovala	VLjsbf+
izolovať	izolovala	VLjscf+
izolovať	izolovalo	VLjsan+
izolovať	izolovalo	VLjsbn+
izolovať	izolovalo	VLjscn+
izolovať	izolovali	VLjpah+
izolovať	izolovali	VLjpbh+
izolovať	izolovali	VLjpcm+
izolovať	izolovali	VLjpci+
izolovať	izolovali	VLjpcf+
izolovať	izolovali	VLjpcn+
izolovať	izolovali	VLjpco+
izolácia	izolácia	SSfs1
izolácia	izolácie	SSfs2
izolácia	izolácii	SSfs3
izolácia	izoláciu	SSfs4
izolácia	izolácia	SSfs5
izolácia	izolácii	SSfs6
izolácia	izoláciou	SSfs7
izolácia	izolácie	SSfp1
izolácia	izolácií	SSfp2
izolácia	izoláciám	SSfp3
izolácia	izolácie	SSfp4
izolácia	izolácie	SSfp5
izolácia	izoláciách	SSfp6
izolácia	izoláciami	SSfp7
izolátor	izolátor	SSis1
izolátor	izolátora	SSis2
izolátor	izolátoru	SSis3
izolátor	izolátor	SSis4
izolátor	izolátor	SSis5
izolátor	izolátore	SSis6
izolátor	izolátorom	SSis7
izolátor	izolátory	SSip1
izolátor	izolátorov	SSip2
izolátor	izolátorom	SSip3
izolátor	izolátory	SSip4
izolátor	izolátory	SSip5
izolátor	izolátoroch	SSip6
izolátor	izolátormi	SSip7
izolátorový	izolátorový	AAms1x
izolátorový	izolátorového	AAms2x
izolátorový	izolátorovému	AAms3x
izolátorový	izolátorového	AAms4x
izolátorový	izolátorový	AAms5x
izolátorový	izolátorovom	AAms6x
izolátorový	izolátorovým	AAms7x
izolátorový	izolátoroví	AAmp1x
izolátorový	izolátorových	AAmp2x
izolátorový	izolátorovým	AAmp3x
izolátorový	izolátorových	AAmp4x
izolátorový	izolátoroví	AAmp5x
izolátorový	izolátorových	AAmp6x
izolátorový	izolátorovými	AAmp7x
izolátorový	izolátorový	AAis1x
izolátorový	izolátorového	AAis2x
izolátorový	izolátorovému	AAis3x
izolátorový	izolátorový	AAis4x
izolátorový	izolátorový	AAis5x
izolátorový	izolátorovom	AAis6x
izolátorový	izolátorovým	AAis7x
izolátorový	izolátorové	AAip1x
izolátorový	izolátorových	AAip2x
izolátorový	izolátorovým	AAip3x
izolátorový	izolátorové	AAip4x
izolátorový	izolátorové	AAip5x
izolátorový	izolátorových	AAip6x
izolátorový	izolátorovými	AAip7x
izolátorový	izolátorová	AAfs1x
izolátorový	izolátorovej	AAfs2x
izolátorový	izolátorovej	AAfs3x
izolátorový	izolátorovú	AAfs4x
izolátorový	izolátorová	AAfs5x
izolátorový	izolátorovej	AAfs6x
izolátorový	izolátorovou	AAfs7x
izolátorový	izolátorové	AAfp1x
izolátorový	izolátorových	AAfp2x
izolátorový	izolátorovým	AAfp3x
izolátorový	izolátorové	AAfp4x
izolátorový	izolátorové	AAfp5x
izolátorový	izolátorových	AAfp6x
izolátorový	izolátorovými	AAfp7x
izolátorový	izolátorové	AAns1x
izolátorový	izolátorového	AAns2x
izolátorový	izolátorovému	AAns3x
izolátorový	izolátorové	AAns4x
izolátorový	izolátorové	AAns5x
izolátorový	izolátorovom	AAns6x
izolátorový	izolátorovým	AAns7x
izolátorový	izolátorové	AAnp1x
izolátorový	izolátorových	AAnp2x
izolátorový	izolátorovým	AAnp3x
izolátorový	izolátorové	AAnp4x
izolátorový	izolátorové	AAnp5x
izolátorový	izolátorových	AAnp6x
izolátorový	izolátorovými	AAnp7x
izometria	izometria	SSfs1
izometria	izometrie	SSfs2
izometria	izometrii	SSfs3
izometria	izometriu	SSfs4
izometria	izometria	SSfs5
izometria	izometrii	SSfs6
izometria	izometriou	SSfs7
izometria	izometrie	SSfp1
izometria	izometrií	SSfp2
izometria	izometriám	SSfp3
izometria	izometrie	SSfp4
izometria	izometrie	SSfp5
izometria	izometriách	SSfp6
izometria	izometriami	SSfp7
izometrický	izometrický	AAms1x
izometrický	izometrického	AAms2x
izometrický	izometrickému	AAms3x
izometrický	izometrického	AAms4x
izometrický	izometrický	AAms5x
izometrický	izometrickom	AAms6x
izometrický	izometrickým	AAms7x
izometrický	izometrickí	AAmp1x
izometrický	izometrických	AAmp2x
izometrický	izometrickým	AAmp3x
izometrický	izometrických	AAmp4x
izometrický	izometrickí	AAmp5x
izometrický	izometrických	AAmp6x
izometrický	izometrickými	AAmp7x
izometrický	izometrický	AAis1x
izometrický	izometrického	AAis2x
izometrický	izometrickému	AAis3x
izometrický	izometrický	AAis4x
izometrický	izometrický	AAis5x
izometrický	izometrickom	AAis6x
izometrický	izometrickým	AAis7x
izometrický	izometrické	AAip1x
izometrický	izometrických	AAip2x
izometrický	izometrickým	AAip3x
izometrický	izometrické	AAip4x
izometrický	izometrické	AAip5x
izometrický	izometrických	AAip6x
izometrický	izometrickými	AAip7x
izometrický	izometrická	AAfs1x
izometrický	izometrickej	AAfs2x
izometrický	izometrickej	AAfs3x
izometrický	izometrickú	AAfs4x
izometrický	izometrická	AAfs5x
izometrický	izometrickej	AAfs6x
izometrický	izometrickou	AAfs7x
izometrický	izometrické	AAfp1x
izometrický	izometrických	AAfp2x
izometrický	izometrickým	AAfp3x
izometrický	izometrické	AAfp4x
izometrický	izometrické	AAfp5x
izometrický	izometrických	AAfp6x
izometrický	izometrickými	AAfp7x
izometrický	izometrické	AAns1x
izometrický	izometrického	AAns2x
izometrický	izometrickému	AAns3x
izometrický	izometrické	AAns4x
izometrický	izometrické	AAns5x
izometrický	izometrickom	AAns6x
izometrický	izometrickým	AAns7x
izometrický	izometrické	AAnp1x
izometrický	izometrických	AAnp2x
izometrický	izometrickým	AAnp3x
izometrický	izometrické	AAnp4x
izometrický	izometrické	AAnp5x
izometrický	izometrických	AAnp6x
izometrický	izometrickými	AAnp7x
izomorfizmus	izomorfizmus	SSis1
izomorfizmus	izomorfizmu	SSis2
izomorfizmus	izomorfizmu	SSis3
izomorfizmus	izomorfizmus	SSis4
izomorfizmus	izomorfizmus	SSis5
izomorfizmus	izomorfizme	SSis6
izomorfizmus	izomorfizmom	SSis7
izomorfizmus	izomorfizmy	SSip1
izomorfizmus	izomorfizmov	SSip2
izomorfizmus	izomorfizmom	SSip3
izomorfizmus	izomorfizmy	SSip4
izomorfizmus	izomorfizmy	SSip5
izomorfizmus	izomorfizmoch	SSip6
izomorfizmus	izomorfizmami	SSip7
izomorfný	izomorfný	AAms1x
izomorfný	izomorfného	AAms2x
izomorfný	izomorfnému	AAms3x
izomorfný	izomorfného	AAms4x
izomorfný	izomorfný	AAms5x
izomorfný	izomorfnom	AAms6x
izomorfný	izomorfným	AAms7x
izomorfný	izomorfní	AAmp1x
izomorfný	izomorfných	AAmp2x
izomorfný	izomorfným	AAmp3x
izomorfný	izomorfných	AAmp4x
izomorfný	izomorfní	AAmp5x
izomorfný	izomorfných	AAmp6x
izomorfný	izomorfnými	AAmp7x
izomorfný	izomorfný	AAis1x
izomorfný	izomorfného	AAis2x
izomorfný	izomorfnému	AAis3x
izomorfný	izomorfný	AAis4x
izomorfný	izomorfný	AAis5x
izomorfný	izomorfnom	AAis6x
izomorfný	izomorfným	AAis7x
izomorfný	izomorfné	AAip1x
izomorfný	izomorfných	AAip2x
izomorfný	izomorfným	AAip3x
izomorfný	izomorfné	AAip4x
izomorfný	izomorfné	AAip5x
izomorfný	izomorfných	AAip6x
izomorfný	izomorfnými	AAip7x
izomorfný	izomorfná	AAfs1x
izomorfný	izomorfnej	AAfs2x
izomorfný	izomorfnej	AAfs3x
izomorfný	izomorfnú	AAfs4x
izomorfný	izomorfná	AAfs5x
izomorfný	izomorfnej	AAfs6x
izomorfný	izomorfnou	AAfs7x
izomorfný	izomorfné	AAfp1x
izomorfný	izomorfných	AAfp2x
izomorfný	izomorfným	AAfp3x
izomorfný	izomorfné	AAfp4x
izomorfný	izomorfné	AAfp5x
izomorfný	izomorfných	AAfp6x
izomorfný	izomorfnými	AAfp7x
izomorfný	izomorfné	AAns1x
izomorfný	izomorfného	AAns2x
izomorfný	izomorfnému	AAns3x
izomorfný	izomorfné	AAns4x
izomorfný	izomorfné	AAns5x
izomorfný	izomorfnom	AAns6x
izomorfný	izomorfným	AAns7x
izomorfný	izomorfné	AAnp1x
izomorfný	izomorfných	AAnp2x
izomorfný	izomorfným	AAnp3x
izomorfný	izomorfné	AAnp4x
izomorfný	izomorfné	AAnp5x
izomorfný	izomorfných	AAnp6x
izomorfný	izomorfnými	AAnp7x
izoterma	izoterma	SSfs1
izoterma	izotermy	SSfs2
izoterma	izoterme	SSfs3
izoterma	izotermu	SSfs4
izoterma	izoterma	SSfs5
izoterma	izoterme	SSfs6
izoterma	izotermou	SSfs7
izoterma	izotermy	SSfp1
izoterma	izoterm	SSfp2
izoterma	izotermám	SSfp3
izoterma	izotermy	SSfp4
izoterma	izotermy	SSfp5
izoterma	izotermách	SSfp6
izoterma	izotermami	SSfp7
izotermický	izotermický	AAms1x
izotermický	izotermického	AAms2x
izotermický	izotermickému	AAms3x
izotermický	izotermického	AAms4x
izotermický	izotermický	AAms5x
izotermický	izotermickom	AAms6x
izotermický	izotermickým	AAms7x
izotermický	izotermickí	AAmp1x
izotermický	izotermických	AAmp2x
izotermický	izotermickým	AAmp3x
izotermický	izotermických	AAmp4x
izotermický	izotermickí	AAmp5x
izotermický	izotermických	AAmp6x
izotermický	izotermickými	AAmp7x
izotermický	izotermický	AAis1x
izotermický	izotermického	AAis2x
izotermický	izotermickému	AAis3x
izotermický	izotermický	AAis4x
izotermický	izotermický	AAis5x
izotermický	izotermickom	AAis6x
izotermický	izotermickým	AAis7x
izotermický	izotermické	AAip1x
izotermický	izotermických	AAip2x
izotermický	izotermickým	AAip3x
izotermický	izotermické	AAip4x
izotermický	izotermické	AAip5x
izotermický	izotermických	AAip6x
izotermický	izotermickými	AAip7x
izotermický	izotermická	AAfs1x
izotermický	izotermickej	AAfs2x
izotermický	izotermickej	AAfs3x
izotermický	izotermickú	AAfs4x
izotermický	izotermická	AAfs5x
izotermický	izotermickej	AAfs6x
izotermický	izotermickou	AAfs7x
izotermický	izotermické	AAfp1x
izotermický	izotermických	AAfp2x
izotermický	izotermickým	AAfp3x
izotermický	izotermické	AAfp4x
izotermický	izotermické	AAfp5x
izotermický	izotermických	AAfp6x
izotermický	izotermickými	AAfp7x
izotermický	izotermické	AAns1x
izotermický	izotermického	AAns2x
izotermický	izotermickému	AAns3x
izotermický	izotermické	AAns4x
izotermický	izotermické	AAns5x
izotermický	izotermickom	AAns6x
izotermický	izotermickým	AAns7x
izotermický	izotermické	AAnp1x
izotermický	izotermických	AAnp2x
izotermický	izotermickým	AAnp3x
izotermický	izotermické	AAnp4x
izotermický	izotermické	AAnp5x
izotermický	izotermických	AAnp6x
izotermický	izotermickými	AAnp7x
izotop	izotop	SSis1
izotop	izotopu	SSis2
izotop	izotopu	SSis3
izotop	izotop	SSis4
izotop	izotop	SSis5
izotop	izotope	SSis6
izotop	izotopom	SSis7
izotop	izotopy	SSip1
izotop	izotopov	SSip2
izotop	izotopom	SSip3
izotop	izotopy	SSip4
izotop	izotopy	SSip5
izotop	izotopoch	SSip6
izotop	izotopmi	SSip7
izotopový	izotopový	AAms1x
izotopový	izotopového	AAms2x
izotopový	izotopovému	AAms3x
izotopový	izotopového	AAms4x
izotopový	izotopový	AAms5x
izotopový	izotopovom	AAms6x
izotopový	izotopovým	AAms7x
izotopový	izotopoví	AAmp1x
izotopový	izotopových	AAmp2x
izotopový	izotopovým	AAmp3x
izotopový	izotopových	AAmp4x
izotopový	izotopoví	AAmp5x
izotopový	izotopových	AAmp6x
izotopový	izotopovými	AAmp7x
izotopový	izotopový	AAis1x
izotopový	izotopového	AAis2x
izotopový	izotopovému	AAis3x
izotopový	izotopový	AAis4x
izotopový	izotopový	AAis5x
izotopový	izotopovom	AAis6x
izotopový	izotopovým	AAis7x
izotopový	izotopové	AAip1x
izotopový	izotopových	AAip2x
izotopový	izotopovým	AAip3x
izotopový	izotopové	AAip4x
izotopový	izotopové	AAip5x
izotopový	izotopových	AAip6x
izotopový	izotopovými	AAip7x
izotopový	izotopová	AAfs1x
izotopový	izotopovej	AAfs2x
izotopový	izotopovej	AAfs3x
izotopový	izotopovú	AAfs4x
izotopový	izotopová	AAfs5x
izotopový	izotopovej	AAfs6x
izotopový	izotopovou	AAfs7x
izotopový	izotopové	AAfp1x
izotopový	izotopových	AAfp2x
izotopový	izotopovým	AAfp3x
izotopový	izotopové	AAfp4x
izotopový	izotopové	AAfp5x
izotopový	izotopových	AAfp6x
izotopový	izotopovými	AAfp7x
izotopový	izotopové	AAns1x
izotopový	izotopového	AAns2x
izotopový	izotopovému	AAns3x
izotopový	izotopové	AAns4x
izotopový	izotopové	AAns5x
izotopový	izotopovom	AAns6x
izotopový	izotopovým	AAns7x
izotopový	izotopové	AAnp1x
izotopový	izotopových	AAnp2x
izotopový	izotopovým	AAnp3x
izotopový	izotopové	AAnp4x
izotopový	izotopové	AAnp5x
izotopový	izotopových	AAnp6x
izotopový	izotopovými	AAnp7x
izotropia	izotropia	SSfs1
izotropia	izotropie	SSfs2
izotropia	izotropii	SSfs3
izotropia	izotropiu	SSfs4
izotropia	izotropia	SSfs5
izotropia	izotropii	SSfs6
izotropia	izotropiou	SSfs7
izotropia	izotropie	SSfp1
izotropia	izotropií	SSfp2
izotropia	izotropiám	SSfp3
izotropia	izotropie	SSfp4
izotropia	izotropie	SSfp5
izotropia	izotropiách	SSfp6
izotropia	izotropiami	SSfp7
izotropný	izotropný	AAms1x
izotropný	izotropného	AAms2x
izotropný	izotropnému	AAms3x
izotropný	izotropného	AAms4x
izotropný	izotropný	AAms5x
izotropný	izotropnom	AAms6x
izotropný	izotropným	AAms7x
izotropný	izotropní	AAmp1x
izotropný	izotropných	AAmp2x
izotropný	izotropným	AAmp3x
izotropný	izotropných	AAmp4x
izotropný	izotropní	AAmp5x
izotropný	izotropných	AAmp6x
izotropný	izotropnými	AAmp7x
izotropný	izotropný	AAis1x
izotropný	izotropného	AAis2x
izotropný	izotropnému	AAis3x
izotropný	izotropný	AAis4x
izotropný	izotropný	AAis5x
izotropný	izotropnom	AAis6x
izotropný	izotropným	AAis7x
izotropný	izotropné	AAip1x
izotropný	izotropných	AAip2x
izotropný	izotropným	AAip3x
izotropný	izotropné	AAip4x
izotropný	izotropné	AAip5x
izotropný	izotropných	AAip6x
izotropný	izotropnými	AAip7x
izotropný	izotropná	AAfs1x
izotropný	izotropnej	AAfs2x
izotropný	izotropnej	AAfs3x
izotropný	izotropnú	AAfs4x
izotropný	izotropná	AAfs5x
izotropný	izotropnej	AAfs6x
izotropný	izotropnou	AAfs7x
izotropný	izotropné	AAfp1x
izotropný	izotropných	AAfp2x
izotropný	izotropným	AAfp3x
izotropný	izotropné	AAfp4x
izotropný	izotropné	AAfp5x
izotropný	izotropných	AAfp6x
izotropný	izotropnými	AAfp7x
izotropný	izotropné	AAns1x
izotropný	izotropného	AAns2x
izotropný	izotropnému	AAns3x
izotropný	izotropné	AAns4x
izotropný	izotropné	AAns5x
izotropný	izotropnom	AAns6x
izotropný	izotropným	AAns7x
izotropný	izotropné	AAnp1x
izotropný	izotropných	AAnp2x
izotropný	izotropným	AAnp3x
izotropný	izotropné	AAnp4x
izotropný	izotropné	AAnp5x
izotropný	izotropných	AAnp6x
izotropný	izotropnými	AAnp7x
izraelita	izraelita	SSms1
izraelita	izraelitu	SSms2
izraelita	izraelitovi	SSms3
izraelita	izraelitu	SSms4
izraelita	izraelita	SSms5
izraelita	izraelitovi	SSms6
izraelita	izraelitom	SSms7
izraelita	izraeliti	SSmp1
izraelita	izraelitov	SSmp2
izraelita	izraelitom	SSmp3
izraelita	izraelitov	SSmp4
izraelita	izraeliti	SSmp5
izraelita	izraelitoch	SSmp6
izraelita	izraelitmi	SSmp7
izraelitka	izraelitka	SSfs1
izraelitka	izraelitky	SSfs2
izraelitka	izraelitke	SSfs3
izraelitka	izraelitku	SSfs4
izraelitka	izraelitka	SSfs5
izraelitka	izraelitke	SSfs6
izraelitka	izraelitkou	SSfs7
izraelitka	izraelitky	SSfp1
izraelitka	izraelitiek	SSfp2
izraelitka	izraelitkám	SSfp3
izraelitka	izraelitky	SSfp4
izraelitka	izraelitky	SSfp5
izraelitka	izraelitkách	SSfp6
izraelitka	izraelitkami	SSfp7
izraelitský	izraelitský	AAms1x
izraelitský	izraelitského	AAms2x
izraelitský	izraelitskému	AAms3x
izraelitský	izraelitského	AAms4x
izraelitský	izraelitský	AAms5x
izraelitský	izraelitskom	AAms6x
izraelitský	izraelitským	AAms7x
izraelitský	izraelitskí	AAmp1x
izraelitský	izraelitských	AAmp2x
izraelitský	izraelitským	AAmp3x
izraelitský	izraelitských	AAmp4x
izraelitský	izraelitskí	AAmp5x
izraelitský	izraelitských	AAmp6x
izraelitský	izraelitskými	AAmp7x
izraelitský	izraelitský	AAis1x
izraelitský	izraelitského	AAis2x
izraelitský	izraelitskému	AAis3x
izraelitský	izraelitský	AAis4x
izraelitský	izraelitský	AAis5x
izraelitský	izraelitskom	AAis6x
izraelitský	izraelitským	AAis7x
izraelitský	izraelitské	AAip1x
izraelitský	izraelitských	AAip2x
izraelitský	izraelitským	AAip3x
izraelitský	izraelitské	AAip4x
izraelitský	izraelitské	AAip5x
izraelitský	izraelitských	AAip6x
izraelitský	izraelitskými	AAip7x
izraelitský	izraelitská	AAfs1x
izraelitský	izraelitskej	AAfs2x
izraelitský	izraelitskej	AAfs3x
izraelitský	izraelitskú	AAfs4x
izraelitský	izraelitská	AAfs5x
izraelitský	izraelitskej	AAfs6x
izraelitský	izraelitskou	AAfs7x
izraelitský	izraelitské	AAfp1x
izraelitský	izraelitských	AAfp2x
izraelitský	izraelitským	AAfp3x
izraelitský	izraelitské	AAfp4x
izraelitský	izraelitské	AAfp5x
izraelitský	izraelitských	AAfp6x
izraelitský	izraelitskými	AAfp7x
izraelitský	izraelitské	AAns1x
izraelitský	izraelitského	AAns2x
izraelitský	izraelitskému	AAns3x
izraelitský	izraelitské	AAns4x
izraelitský	izraelitské	AAns5x
izraelitský	izraelitskom	AAns6x
izraelitský	izraelitským	AAns7x
izraelitský	izraelitské	AAnp1x
izraelitský	izraelitských	AAnp2x
izraelitský	izraelitským	AAnp3x
izraelitský	izraelitské	AAnp4x
izraelitský	izraelitské	AAnp5x
izraelitský	izraelitských	AAnp6x
izraelitský	izraelitskými	AAnp7x
izraelský	izraelský	AAms1x
izraelský	izraelského	AAms2x
izraelský	izraelskému	AAms3x
izraelský	izraelského	AAms4x
izraelský	izraelský	AAms5x
izraelský	izraelskom	AAms6x
izraelský	izraelským	AAms7x
izraelský	izraelskí	AAmp1x
izraelský	izraelských	AAmp2x
izraelský	izraelským	AAmp3x
izraelský	izraelských	AAmp4x
izraelský	izraelskí	AAmp5x
izraelský	izraelských	AAmp6x
izraelský	izraelskými	AAmp7x
izraelský	izraelský	AAis1x
izraelský	izraelského	AAis2x
izraelský	izraelskému	AAis3x
izraelský	izraelský	AAis4x
izraelský	izraelský	AAis5x
izraelský	izraelskom	AAis6x
izraelský	izraelským	AAis7x
izraelský	izraelské	AAip1x
izraelský	izraelských	AAip2x
izraelský	izraelským	AAip3x
izraelský	izraelské	AAip4x
izraelský	izraelské	AAip5x
izraelský	izraelských	AAip6x
izraelský	izraelskými	AAip7x
izraelský	izraelská	AAfs1x
izraelský	izraelskej	AAfs2x
izraelský	izraelskej	AAfs3x
izraelský	izraelskú	AAfs4x
izraelský	izraelská	AAfs5x
izraelský	izraelskej	AAfs6x
izraelský	izraelskou	AAfs7x
izraelský	izraelské	AAfp1x
izraelský	izraelských	AAfp2x
izraelský	izraelským	AAfp3x
izraelský	izraelské	AAfp4x
izraelský	izraelské	AAfp5x
izraelský	izraelských	AAfp6x
izraelský	izraelskými	AAfp7x
izraelský	izraelské	AAns1x
izraelský	izraelského	AAns2x
izraelský	izraelskému	AAns3x
izraelský	izraelské	AAns4x
izraelský	izraelské	AAns5x
izraelský	izraelskom	AAns6x
izraelský	izraelským	AAns7x
izraelský	izraelské	AAnp1x
izraelský	izraelských	AAnp2x
izraelský	izraelským	AAnp3x
izraelský	izraelské	AAnp4x
izraelský	izraelské	AAnp5x
izraelský	izraelských	AAnp6x
izraelský	izraelskými	AAnp7x
ižiansky	ižiansky	AAms1x
ižiansky	ižianskeho	AAms2x
ižiansky	ižianskemu	AAms3x
ižiansky	ižianskeho	AAms4x
ižiansky	ižiansky	AAms5x
ižiansky	ižianskom	AAms6x
ižiansky	ižianskym	AAms7x
ižiansky	ižianski	AAmp1x
ižiansky	ižianskych	AAmp2x
ižiansky	ižianskym	AAmp3x
ižiansky	ižianskych	AAmp4x
ižiansky	ižianski	AAmp5x
ižiansky	ižianskych	AAmp6x
ižiansky	ižianskymi	AAmp7x
ižiansky	ižiansky	AAis1x
ižiansky	ižianskeho	AAis2x
ižiansky	ižianskemu	AAis3x
ižiansky	ižiansky	AAis4x
ižiansky	ižiansky	AAis5x
ižiansky	ižianskom	AAis6x
ižiansky	ižianskym	AAis7x
ižiansky	ižianske	AAip1x
ižiansky	ižianskych	AAip2x
ižiansky	ižianskym	AAip3x
ižiansky	ižianske	AAip4x
ižiansky	ižianske	AAip5x
ižiansky	ižianskych	AAip6x
ižiansky	ižianskymi	AAip7x
ižiansky	ižianska	AAfs1x
ižiansky	ižianskej	AAfs2x
ižiansky	ižianskej	AAfs3x
ižiansky	ižiansku	AAfs4x
ižiansky	ižianska	AAfs5x
ižiansky	ižianskej	AAfs6x
ižiansky	ižianskou	AAfs7x
ižiansky	ižianske	AAfp1x
ižiansky	ižianskych	AAfp2x
ižiansky	ižianskym	AAfp3x
ižiansky	ižianske	AAfp4x
ižiansky	ižianske	AAfp5x
ižiansky	ižianskych	AAfp6x
ižiansky	ižianskymi	AAfp7x
ižiansky	ižianske	AAns1x
ižiansky	ižianskeho	AAns2x
ižiansky	ižianskemu	AAns3x
ižiansky	ižianske	AAns4x
ižiansky	ižianske	AAns5x
ižiansky	ižianskom	AAns6x
ižiansky	ižianskym	AAns7x
ižiansky	ižianske	AAnp1x
ižiansky	ižianskych	AAnp2x
ižiansky	ižianskym	AAnp3x
ižiansky	ižianske	AAnp4x
ižiansky	ižianske	AAnp5x
ižiansky	ižianskych	AAnp6x
ižiansky	ižianskymi	AAnp7x
ižiansky	ižianskejší	AAms1y
ižiansky	ižianskejšieho	AAms2y
ižiansky	ižianskejšiemu	AAms3y
ižiansky	ižianskejšieho	AAms4y
ižiansky	ižianskejší	AAms5y
ižiansky	ižianskejšom	AAms6y
ižiansky	ižianskejším	AAms7y
ižiansky	ižianskejší	AAmp1y
ižiansky	ižianskejších	AAmp2y
ižiansky	ižianskejším	AAmp3y
ižiansky	ižianskejších	AAmp4y
ižiansky	ižianskejší	AAmp5y
ižiansky	ižianskejších	AAmp6y
ižiansky	ižianskejšími	AAmp7y
ižiansky	ižianskejší	AAis1y
ižiansky	ižianskejšieho	AAis2y
ižiansky	ižianskejšiemu	AAis3y
ižiansky	ižianskejší	AAis4y
ižiansky	ižianskejší	AAis5y
ižiansky	ižianskejšom	AAis6y
ižiansky	ižianskejším	AAis7y
ižiansky	ižianskejšie	AAip1y
ižiansky	ižianskejších	AAip2y
ižiansky	ižianskejším	AAip3y
ižiansky	ižianskejšie	AAip4y
ižiansky	ižianskejšie	AAip5y
ižiansky	ižianskejších	AAip6y
ižiansky	ižianskejšími	AAip7y
ižiansky	ižianskejšia	AAfs1y
ižiansky	ižianskejšej	AAfs2y
ižiansky	ižianskejšej	AAfs3y
ižiansky	ižianskejšiu	AAfs4y
ižiansky	ižianskejšia	AAfs5y
ižiansky	ižianskejšej	AAfs6y
ižiansky	ižianskejšou	AAfs7y
ižiansky	ižianskejšie	AAfp1y
ižiansky	ižianskejších	AAfp2y
ižiansky	ižianskejším	AAfp3y
ižiansky	ižianskejšie	AAfp4y
ižiansky	ižianskejšie	AAfp5y
ižiansky	ižianskejších	AAfp6y
ižiansky	ižianskejšími	AAfp7y
ižiansky	ižianskejšie	AAns1y
ižiansky	ižianskejšieho	AAns2y
ižiansky	ižianskejšiemu	AAns3y
ižiansky	ižianskejšie	AAns4y
ižiansky	ižianskejšie	AAns5y
ižiansky	ižianskejšom	AAns6y
ižiansky	ižianskejším	AAns7y
ižiansky	ižianskejšie	AAnp1y
ižiansky	ižianskejších	AAnp2y
ižiansky	ižianskejším	AAnp3y
ižiansky	ižianskejšie	AAnp4y
ižiansky	ižianskejšie	AAnp5y
ižiansky	ižianskejších	AAnp6y
ižiansky	ižianskejšími	AAnp7y
ižiansky	najižianskejší	AAms1z
ižiansky	najižianskejšieho	AAms2z
ižiansky	najižianskejšiemu	AAms3z
ižiansky	najižianskejšieho	AAms4z
ižiansky	najižianskejší	AAms5z
ižiansky	najižianskejšom	AAms6z
ižiansky	najižianskejším	AAms7z
ižiansky	najižianskejší	AAmp1z
ižiansky	najižianskejších	AAmp2z
ižiansky	najižianskejším	AAmp3z
ižiansky	najižianskejších	AAmp4z
ižiansky	najižianskejší	AAmp5z
ižiansky	najižianskejších	AAmp6z
ižiansky	najižianskejšími	AAmp7z
ižiansky	najižianskejší	AAis1z
ižiansky	najižianskejšieho	AAis2z
ižiansky	najižianskejšiemu	AAis3z
ižiansky	najižianskejší	AAis4z
ižiansky	najižianskejší	AAis5z
ižiansky	najižianskejšom	AAis6z
ižiansky	najižianskejším	AAis7z
ižiansky	najižianskejšie	AAip1z
ižiansky	najižianskejších	AAip2z
ižiansky	najižianskejším	AAip3z
ižiansky	najižianskejšie	AAip4z
ižiansky	najižianskejšie	AAip5z
ižiansky	najižianskejších	AAip6z
ižiansky	najižianskejšími	AAip7z
ižiansky	najižianskejšia	AAfs1z
ižiansky	najižianskejšej	AAfs2z
ižiansky	najižianskejšej	AAfs3z
ižiansky	najižianskejšiu	AAfs4z
ižiansky	najižianskejšia	AAfs5z
ižiansky	najižianskejšej	AAfs6z
ižiansky	najižianskejšou	AAfs7z
ižiansky	najižianskejšie	AAfp1z
ižiansky	najižianskejších	AAfp2z
ižiansky	najižianskejším	AAfp3z
ižiansky	najižianskejšie	AAfp4z
ižiansky	najižianskejšie	AAfp5z
ižiansky	najižianskejších	AAfp6z
ižiansky	najižianskejšími	AAfp7z
ižiansky	najižianskejšie	AAns1z
ižiansky	najižianskejšieho	AAns2z
ižiansky	najižianskejšiemu	AAns3z
ižiansky	najižianskejšie	AAns4z
ižiansky	najižianskejšie	AAns5z
ižiansky	najižianskejšom	AAns6z
ižiansky	najižianskejším	AAns7z
ižiansky	najižianskejšie	AAnp1z
ižiansky	najižianskejších	AAnp2z
ižiansky	najižianskejším	AAnp3z
ižiansky	najižianskejšie	AAnp4z
ižiansky	najižianskejšie	AAnp5z
ižiansky	najižianskejších	AAnp6z
ižiansky	najižianskejšími	AAnp7z
ižiansky	ižiansky	Dx
ižipovský	ižipovský	AAms1x
ižipovský	ižipovského	AAms2x
ižipovský	ižipovskému	AAms3x
ižipovský	ižipovského	AAms4x
ižipovský	ižipovský	AAms5x
ižipovský	ižipovskom	AAms6x
ižipovský	ižipovským	AAms7x
ižipovský	ižipovskí	AAmp1x
ižipovský	ižipovských	AAmp2x
ižipovský	ižipovským	AAmp3x
ižipovský	ižipovských	AAmp4x
ižipovský	ižipovskí	AAmp5x
ižipovský	ižipovských	AAmp6x
ižipovský	ižipovskými	AAmp7x
ižipovský	ižipovský	AAis1x
ižipovský	ižipovského	AAis2x
ižipovský	ižipovskému	AAis3x
ižipovský	ižipovský	AAis4x
ižipovský	ižipovský	AAis5x
ižipovský	ižipovskom	AAis6x
ižipovský	ižipovským	AAis7x
ižipovský	ižipovské	AAip1x
ižipovský	ižipovských	AAip2x
ižipovský	ižipovským	AAip3x
ižipovský	ižipovské	AAip4x
ižipovský	ižipovské	AAip5x
ižipovský	ižipovských	AAip6x
ižipovský	ižipovskými	AAip7x
ižipovský	ižipovská	AAfs1x
ižipovský	ižipovskej	AAfs2x
ižipovský	ižipovskej	AAfs3x
ižipovský	ižipovskú	AAfs4x
ižipovský	ižipovská	AAfs5x
ižipovský	ižipovskej	AAfs6x
ižipovský	ižipovskou	AAfs7x
ižipovský	ižipovské	AAfp1x
ižipovský	ižipovských	AAfp2x
ižipovský	ižipovským	AAfp3x
ižipovský	ižipovské	AAfp4x
ižipovský	ižipovské	AAfp5x
ižipovský	ižipovských	AAfp6x
ižipovský	ižipovskými	AAfp7x
ižipovský	ižipovské	AAns1x
ižipovský	ižipovského	AAns2x
ižipovský	ižipovskému	AAns3x
ižipovský	ižipovské	AAns4x
ižipovský	ižipovské	AAns5x
ižipovský	ižipovskom	AAns6x
ižipovský	ižipovským	AAns7x
ižipovský	ižipovské	AAnp1x
ižipovský	ižipovských	AAnp2x
ižipovský	ižipovským	AAnp3x
ižipovský	ižipovské	AAnp4x
ižipovský	ižipovské	AAnp5x
ižipovský	ižipovských	AAnp6x
ižipovský	ižipovskými	AAnp7x
ižkovský	ižkovský	AAms1x
ižkovský	ižkovského	AAms2x
ižkovský	ižkovskému	AAms3x
ižkovský	ižkovského	AAms4x
ižkovský	ižkovský	AAms5x
ižkovský	ižkovskom	AAms6x
ižkovský	ižkovským	AAms7x
ižkovský	ižkovskí	AAmp1x
ižkovský	ižkovských	AAmp2x
ižkovský	ižkovským	AAmp3x
ižkovský	ižkovských	AAmp4x
ižkovský	ižkovskí	AAmp5x
ižkovský	ižkovských	AAmp6x
ižkovský	ižkovskými	AAmp7x
ižkovský	ižkovský	AAis1x
ižkovský	ižkovského	AAis2x
ižkovský	ižkovskému	AAis3x
ižkovský	ižkovský	AAis4x
ižkovský	ižkovský	AAis5x
ižkovský	ižkovskom	AAis6x
ižkovský	ižkovským	AAis7x
ižkovský	ižkovské	AAip1x
ižkovský	ižkovských	AAip2x
ižkovský	ižkovským	AAip3x
ižkovský	ižkovské	AAip4x
ižkovský	ižkovské	AAip5x
ižkovský	ižkovských	AAip6x
ižkovský	ižkovskými	AAip7x
ižkovský	ižkovská	AAfs1x
ižkovský	ižkovskej	AAfs2x
ižkovský	ižkovskej	AAfs3x
ižkovský	ižkovskú	AAfs4x
ižkovský	ižkovská	AAfs5x
ižkovský	ižkovskej	AAfs6x
ižkovský	ižkovskou	AAfs7x
ižkovský	ižkovské	AAfp1x
ižkovský	ižkovských	AAfp2x
ižkovský	ižkovským	AAfp3x
ižkovský	ižkovské	AAfp4x
ižkovský	ižkovské	AAfp5x
ižkovský	ižkovských	AAfp6x
ižkovský	ižkovskými	AAfp7x
ižkovský	ižkovské	AAns1x
ižkovský	ižkovského	AAns2x
ižkovský	ižkovskému	AAns3x
ižkovský	ižkovské	AAns4x
ižkovský	ižkovské	AAns5x
ižkovský	ižkovskom	AAns6x
ižkovský	ižkovským	AAns7x
ižkovský	ižkovské	AAnp1x
ižkovský	ižkovských	AAnp2x
ižkovský	ižkovským	AAnp3x
ižkovský	ižkovské	AAnp4x
ižkovský	ižkovské	AAnp5x
ižkovský	ižkovských	AAnp6x
ižkovský	ižkovskými	AAnp7x
