N	N	W
n	n	SUnp1
n	n	SUnp2
n	n	SUnp3
n	n	SUnp4
n	n	SUnp5
n	n	SUnp6
n	n	SUnp7
n	n	SUns1
n	n	SUns2
n	n	SUns3
n	n	SUns4
n	n	SUns5
n	n	SUns6
n	n	SUns7
n	n	W
ň	ň	SUnp1
ň	ň	SUnp2
ň	ň	SUnp3
ň	ň	SUnp4
ň	ň	SUnp5
ň	ň	SUnp6
ň	ň	SUnp7
ň	ň	SUns1
ň	ň	SUns2
ň	ň	SUns3
ň	ň	SUns4
ň	ň	SUns5
ň	ň	SUns6
ň	ň	SUns7
