RW	RW	W
Rwanda	Rwanda	SSfs1
Rwanda	Rwandy	SSfs2
Rwanda	Rwande	SSfs3
Rwanda	Rwandu	SSfs4
Rwanda	Rwanda	SSfs5
Rwanda	Rwande	SSfs6
Rwanda	Rwandou	SSfs7
rwandský	rwandský	AAms1x
rwandský	rwandského	AAms2x
rwandský	rwandskému	AAms3x
rwandský	rwandského	AAms4x
rwandský	rwandský	AAms5x
rwandský	rwandskom	AAms6x
rwandský	rwandským	AAms7x
rwandský	rwandskí	AAmp1x
rwandský	rwandských	AAmp2x
rwandský	rwandským	AAmp3x
rwandský	rwandských	AAmp4x
rwandský	rwandskí	AAmp5x
rwandský	rwandských	AAmp6x
rwandský	rwandskými	AAmp7x
rwandský	rwandský	AAis1x
rwandský	rwandského	AAis2x
rwandský	rwandskému	AAis3x
rwandský	rwandský	AAis4x
rwandský	rwandský	AAis5x
rwandský	rwandskom	AAis6x
rwandský	rwandským	AAis7x
rwandský	rwandské	AAip1x
rwandský	rwandských	AAip2x
rwandský	rwandským	AAip3x
rwandský	rwandské	AAip4x
rwandský	rwandské	AAip5x
rwandský	rwandských	AAip6x
rwandský	rwandskými	AAip7x
rwandský	rwandská	AAfs1x
rwandský	rwandskej	AAfs2x
rwandský	rwandskej	AAfs3x
rwandský	rwandskú	AAfs4x
rwandský	rwandská	AAfs5x
rwandský	rwandskej	AAfs6x
rwandský	rwandskou	AAfs7x
rwandský	rwandské	AAfp1x
rwandský	rwandských	AAfp2x
rwandský	rwandským	AAfp3x
rwandský	rwandské	AAfp4x
rwandský	rwandské	AAfp5x
rwandský	rwandských	AAfp6x
rwandský	rwandskými	AAfp7x
rwandský	rwandské	AAns1x
rwandský	rwandského	AAns2x
rwandský	rwandskému	AAns3x
rwandský	rwandské	AAns4x
rwandský	rwandské	AAns5x
rwandský	rwandskom	AAns6x
rwandský	rwandským	AAns7x
rwandský	rwandské	AAnp1x
rwandský	rwandských	AAnp2x
rwandský	rwandským	AAnp3x
rwandský	rwandské	AAnp4x
rwandský	rwandské	AAnp5x
rwandský	rwandských	AAnp6x
rwandský	rwandskými	AAnp7x
