VP	VP	W
VPN	VPN	W
VPP	VPP	W
vpadnúť	vpadnúť	VId+
vpadnúť	vpadnem	VKdsa+
vpadnúť	vpadneš	VKdsb+
vpadnúť	vpadne	VKdsc+
vpadnúť	vpadneme	VKdpa+
vpadnúť	vpadnete	VKdpb+
vpadnúť	vpadnú	VKdpc+
vpadnúť	vpadni	VMdsb+
vpadnúť	vpadnime	VMdpa+
vpadnúť	vpadnite	VMdpb+
vpadnúť	vpadnúc	VHd+
vpadnúť	vpadol	VLdsam+
vpadnúť	vpadol	VLdsai+
vpadnúť	vpadol	VLdsbm+
vpadnúť	vpadol	VLdsbi+
vpadnúť	vpadol	VLdscm+
vpadnúť	vpadol	VLdsci+
vpadnúť	vpadla	VLdsaf+
vpadnúť	vpadla	VLdsbf+
vpadnúť	vpadla	VLdscf+
vpadnúť	vpadlo	VLdsan+
vpadnúť	vpadlo	VLdsbn+
vpadnúť	vpadlo	VLdscn+
vpadnúť	vpadli	VLdpah+
vpadnúť	vpadli	VLdpbh+
vpadnúť	vpadli	VLdpcm+
vpadnúť	vpadli	VLdpci+
vpadnúť	vpadli	VLdpcf+
vpadnúť	vpadli	VLdpcn+
vpadnúť	vpadli	VLdpco+
vpaľovať	vpaľovať	VIe+
vpaľovať	vpaľujem	VKesa+
vpaľovať	vpaľuješ	VKesb+
vpaľovať	vpaľuje	VKesc+
vpaľovať	vpaľujeme	VKepa+
vpaľovať	vpaľujete	VKepb+
vpaľovať	vpaľujú	VKepc+
vpaľovať	vpaľuj	VMesb+
vpaľovať	vpaľujme	VMepa+
vpaľovať	vpaľujte	VMepb+
vpaľovať	vpaľujúc	VHe+
vpaľovať	vpaľoval	VLesam+
vpaľovať	vpaľoval	VLesai+
vpaľovať	vpaľoval	VLesbm+
vpaľovať	vpaľoval	VLesbi+
vpaľovať	vpaľoval	VLescm+
vpaľovať	vpaľoval	VLesci+
vpaľovať	vpaľovala	VLesaf+
vpaľovať	vpaľovala	VLesbf+
vpaľovať	vpaľovala	VLescf+
vpaľovať	vpaľovalo	VLesan+
vpaľovať	vpaľovalo	VLesbn+
vpaľovať	vpaľovalo	VLescn+
vpaľovať	vpaľovali	VLepah+
vpaľovať	vpaľovali	VLepbh+
vpaľovať	vpaľovali	VLepcm+
vpaľovať	vpaľovali	VLepci+
vpaľovať	vpaľovali	VLepcf+
vpaľovať	vpaľovali	VLepcn+
vpaľovať	vpaľovali	VLepco+
vpašovať	vpašovať	VId+
vpašovať	vpašujem	VKdsa+
vpašovať	vpašuješ	VKdsb+
vpašovať	vpašuje	VKdsc+
vpašovať	vpašujeme	VKdpa+
vpašovať	vpašujete	VKdpb+
vpašovať	vpašujú	VKdpc+
vpašovať	vpašuj	VMdsb+
vpašovať	vpašujme	VMdpa+
vpašovať	vpašujte	VMdpb+
vpašovať	vpašujúc	VHd+
vpašovať	vpašoval	VLdsam+
vpašovať	vpašoval	VLdsai+
vpašovať	vpašoval	VLdsbm+
vpašovať	vpašoval	VLdsbi+
vpašovať	vpašoval	VLdscm+
vpašovať	vpašoval	VLdsci+
vpašovať	vpašovala	VLdsaf+
vpašovať	vpašovala	VLdsbf+
vpašovať	vpašovala	VLdscf+
vpašovať	vpašovalo	VLdsan+
vpašovať	vpašovalo	VLdsbn+
vpašovať	vpašovalo	VLdscn+
vpašovať	vpašovali	VLdpah+
vpašovať	vpašovali	VLdpbh+
vpašovať	vpašovali	VLdpcm+
vpašovať	vpašovali	VLdpci+
vpašovať	vpašovali	VLdpcf+
vpašovať	vpašovali	VLdpcn+
vpašovať	vpašovali	VLdpco+
vpich	vpich	SSis1
vpich	vpichu	SSis2
vpich	vpichu	SSis3
vpich	vpich	SSis4
vpich	vpich	SSis5
vpich	vpichu	SSis6
vpich	vpichom	SSis7
vpich	vpichy	SSip1
vpich	vpichov	SSip2
vpich	vpichom	SSip3
vpich	vpichy	SSip4
vpich	vpichy	SSip5
vpich	vpichoch	SSip6
vpich	vpichmi	SSip7
vpichnúť	vpichnúť	VId+
vpichnúť	vpichnem	VKdsa+
vpichnúť	vpichneš	VKdsb+
vpichnúť	vpichne	VKdsc+
vpichnúť	vpichneme	VKdpa+
vpichnúť	vpichnete	VKdpb+
vpichnúť	vpichnú	VKdpc+
vpichnúť	vpichni	VMdsb+
vpichnúť	vpichnime	VMdpa+
vpichnúť	vpichnite	VMdpb+
vpichnúť	vpichnúc	VHd+
vpichnúť	vpichol	VLdsam+
vpichnúť	vpichol	VLdsai+
vpichnúť	vpichol	VLdsbm+
vpichnúť	vpichol	VLdsbi+
vpichnúť	vpichol	VLdscm+
vpichnúť	vpichol	VLdsci+
vpichnúť	vpichla	VLdsaf+
vpichnúť	vpichla	VLdsbf+
vpichnúť	vpichla	VLdscf+
vpichnúť	vpichlo	VLdsan+
vpichnúť	vpichlo	VLdsbn+
vpichnúť	vpichlo	VLdscn+
vpichnúť	vpichli	VLdpah+
vpichnúť	vpichli	VLdpbh+
vpichnúť	vpichli	VLdpcm+
vpichnúť	vpichli	VLdpci+
vpichnúť	vpichli	VLdpcf+
vpichnúť	vpichli	VLdpcn+
vpichnúť	vpichli	VLdpco+
vpichovať	vpichovať	VIe+
vpichovať	vpichujem	VKesa+
vpichovať	vpichuješ	VKesb+
vpichovať	vpichuje	VKesc+
vpichovať	vpichujeme	VKepa+
vpichovať	vpichujete	VKepb+
vpichovať	vpichujú	VKepc+
vpichovať	vpichuj	VMesb+
vpichovať	vpichujme	VMepa+
vpichovať	vpichujte	VMepb+
vpichovať	vpichujúc	VHe+
vpichovať	vpichoval	VLesam+
vpichovať	vpichoval	VLesai+
vpichovať	vpichoval	VLesbm+
vpichovať	vpichoval	VLesbi+
vpichovať	vpichoval	VLescm+
vpichovať	vpichoval	VLesci+
vpichovať	vpichovala	VLesaf+
vpichovať	vpichovala	VLesbf+
vpichovať	vpichovala	VLescf+
vpichovať	vpichovalo	VLesan+
vpichovať	vpichovalo	VLesbn+
vpichovať	vpichovalo	VLescn+
vpichovať	vpichovali	VLepah+
vpichovať	vpichovali	VLepbh+
vpichovať	vpichovali	VLepcm+
vpichovať	vpichovali	VLepci+
vpichovať	vpichovali	VLepcf+
vpichovať	vpichovali	VLepcn+
vpichovať	vpichovali	VLepco+
vpichový	vpichový	AAms1x
vpichový	vpichového	AAms2x
vpichový	vpichovému	AAms3x
vpichový	vpichového	AAms4x
vpichový	vpichový	AAms5x
vpichový	vpichovom	AAms6x
vpichový	vpichovým	AAms7x
vpichový	vpichoví	AAmp1x
vpichový	vpichových	AAmp2x
vpichový	vpichovým	AAmp3x
vpichový	vpichových	AAmp4x
vpichový	vpichoví	AAmp5x
vpichový	vpichových	AAmp6x
vpichový	vpichovými	AAmp7x
vpichový	vpichový	AAis1x
vpichový	vpichového	AAis2x
vpichový	vpichovému	AAis3x
vpichový	vpichový	AAis4x
vpichový	vpichový	AAis5x
vpichový	vpichovom	AAis6x
vpichový	vpichovým	AAis7x
vpichový	vpichové	AAip1x
vpichový	vpichových	AAip2x
vpichový	vpichovým	AAip3x
vpichový	vpichové	AAip4x
vpichový	vpichové	AAip5x
vpichový	vpichových	AAip6x
vpichový	vpichovými	AAip7x
vpichový	vpichová	AAfs1x
vpichový	vpichovej	AAfs2x
vpichový	vpichovej	AAfs3x
vpichový	vpichovú	AAfs4x
vpichový	vpichová	AAfs5x
vpichový	vpichovej	AAfs6x
vpichový	vpichovou	AAfs7x
vpichový	vpichové	AAfp1x
vpichový	vpichových	AAfp2x
vpichový	vpichovým	AAfp3x
vpichový	vpichové	AAfp4x
vpichový	vpichové	AAfp5x
vpichový	vpichových	AAfp6x
vpichový	vpichovými	AAfp7x
vpichový	vpichové	AAns1x
vpichový	vpichového	AAns2x
vpichový	vpichovému	AAns3x
vpichový	vpichové	AAns4x
vpichový	vpichové	AAns5x
vpichový	vpichovom	AAns6x
vpichový	vpichovým	AAns7x
vpichový	vpichové	AAnp1x
vpichový	vpichových	AAnp2x
vpichový	vpichovým	AAnp3x
vpichový	vpichové	AAnp4x
vpichový	vpichové	AAnp5x
vpichový	vpichových	AAnp6x
vpichový	vpichovými	AAnp7x
vpichávať	vpichávať	VIe+
vpichávať	vpichávam	VKesa+
vpichávať	vpichávaš	VKesb+
vpichávať	vpicháva	VKesc+
vpichávať	vpichávame	VKepa+
vpichávať	vpichávate	VKepb+
vpichávať	vpichávajú	VKepc+
vpichávať	vpichávaj	VMesb+
vpichávať	vpichávajme	VMepa+
vpichávať	vpichávajte	VMepb+
vpichávať	vpichávajúc	VHe+
vpichávať	vpichával	VLesam+
vpichávať	vpichával	VLesai+
vpichávať	vpichával	VLesbm+
vpichávať	vpichával	VLesbi+
vpichávať	vpichával	VLescm+
vpichávať	vpichával	VLesci+
vpichávať	vpichávala	VLesaf+
vpichávať	vpichávala	VLesbf+
vpichávať	vpichávala	VLescf+
vpichávať	vpichávalo	VLesan+
vpichávať	vpichávalo	VLesbn+
vpichávať	vpichávalo	VLescn+
vpichávať	vpichávali	VLepah+
vpichávať	vpichávali	VLepbh+
vpichávať	vpichávali	VLepcm+
vpichávať	vpichávali	VLepci+
vpichávať	vpichávali	VLepcf+
vpichávať	vpichávali	VLepcn+
vpichávať	vpichávali	VLepco+
vpisovať	vpisovať	VIe+
vpisovať	vpisujem	VKesa+
vpisovať	vpisuješ	VKesb+
vpisovať	vpisuje	VKesc+
vpisovať	vpisujeme	VKepa+
vpisovať	vpisujete	VKepb+
vpisovať	vpisujú	VKepc+
vpisovať	vpisuj	VMesb+
vpisovať	vpisujme	VMepa+
vpisovať	vpisujte	VMepb+
vpisovať	vpisujúc	VHe+
vpisovať	vpisoval	VLesam+
vpisovať	vpisoval	VLesai+
vpisovať	vpisoval	VLesbm+
vpisovať	vpisoval	VLesbi+
vpisovať	vpisoval	VLescm+
vpisovať	vpisoval	VLesci+
vpisovať	vpisovala	VLesaf+
vpisovať	vpisovala	VLesbf+
vpisovať	vpisovala	VLescf+
vpisovať	vpisovalo	VLesan+
vpisovať	vpisovalo	VLesbn+
vpisovať	vpisovalo	VLescn+
vpisovať	vpisovali	VLepah+
vpisovať	vpisovali	VLepbh+
vpisovať	vpisovali	VLepcm+
vpisovať	vpisovali	VLepci+
vpisovať	vpisovali	VLepcf+
vpisovať	vpisovali	VLepcn+
vpisovať	vpisovali	VLepco+
vpiť	vpiť	VId+
vpiť	vpijem	VKdsa+
vpiť	vpiješ	VKdsb+
vpiť	vpije	VKdsc+
vpiť	vpijeme	VKdpa+
vpiť	vpijete	VKdpb+
vpiť	vpijú	VKdpc+
vpiť	vpi	VMdsb+
vpiť	vpime	VMdpa+
vpiť	vpite	VMdpb+
vpiť	vpijúc	VHd+
vpiť	vpil	VLdsam+
vpiť	vpil	VLdsai+
vpiť	vpil	VLdsbm+
vpiť	vpil	VLdsbi+
vpiť	vpil	VLdscm+
vpiť	vpil	VLdsci+
vpiť	vpila	VLdsaf+
vpiť	vpila	VLdsbf+
vpiť	vpila	VLdscf+
vpiť	vpilo	VLdsan+
vpiť	vpilo	VLdsbn+
vpiť	vpilo	VLdscn+
vpiť	vpili	VLdpah+
vpiť	vpili	VLdpbh+
vpiť	vpili	VLdpcm+
vpiť	vpili	VLdpci+
vpiť	vpili	VLdpcf+
vpiť	vpili	VLdpcn+
vpiť	vpili	VLdpco+
vpletať	vpletať	VIe+
vpletať	vpletám	VKesa+
vpletať	vpletáš	VKesb+
vpletať	vpletá	VKesc+
vpletať	vpletáme	VKepa+
vpletať	vpletáte	VKepb+
vpletať	vpletajú	VKepc+
vpletať	vpletaj	VMesb+
vpletať	vpletajme	VMepa+
vpletať	vpletajte	VMepb+
vpletať	vpletajúc	VHe+
vpletať	vpletal	VLesam+
vpletať	vpletal	VLesai+
vpletať	vpletal	VLesbm+
vpletať	vpletal	VLesbi+
vpletať	vpletal	VLescm+
vpletať	vpletal	VLesci+
vpletať	vpletala	VLesaf+
vpletať	vpletala	VLesbf+
vpletať	vpletala	VLescf+
vpletať	vpletalo	VLesan+
vpletať	vpletalo	VLesbn+
vpletať	vpletalo	VLescn+
vpletať	vpletali	VLepah+
vpletať	vpletali	VLepbh+
vpletať	vpletali	VLepcm+
vpletať	vpletali	VLepci+
vpletať	vpletali	VLepcf+
vpletať	vpletali	VLepcn+
vpletať	vpletali	VLepco+
vpliesť	vpliesť	VId+
vpliesť	vpletiem	VKdsa+
vpliesť	vpletieš	VKdsb+
vpliesť	vpletie	VKdsc+
vpliesť	vpletieme	VKdpa+
vpliesť	vpletiete	VKdpb+
vpliesť	vpletú	VKdpc+
vpliesť	vpleť	VMdsb+
vpliesť	vpleťme	VMdpa+
vpliesť	vpleťte	VMdpb+
vpliesť	vpletúc	VHd+
vpliesť	vplietol	VLdsam+
vpliesť	vplietol	VLdsai+
vpliesť	vplietol	VLdsbm+
vpliesť	vplietol	VLdsbi+
vpliesť	vplietol	VLdscm+
vpliesť	vplietol	VLdsci+
vpliesť	vplietla	VLdsaf+
vpliesť	vplietla	VLdsbf+
vpliesť	vplietla	VLdscf+
vpliesť	vplietlo	VLdsan+
vpliesť	vplietlo	VLdsbn+
vpliesť	vplietlo	VLdscn+
vpliesť	vplietli	VLdpah+
vpliesť	vplietli	VLdpbh+
vpliesť	vplietli	VLdpcm+
vpliesť	vplietli	VLdpci+
vpliesť	vplietli	VLdpcf+
vpliesť	vplietli	VLdpcn+
vpliesť	vplietli	VLdpco+
vplyv	vplyv	SSis1
vplyv	vplyvu	SSis2
vplyv	vplyvu	SSis3
vplyv	vplyv	SSis4
vplyv	vplyv	SSis5
vplyv	vplyve	SSis6
vplyv	vplyvom	SSis7
vplyv	vplyvy	SSip1
vplyv	vplyvov	SSip2
vplyv	vplyvom	SSip3
vplyv	vplyvy	SSip4
vplyv	vplyvy	SSip5
vplyv	vplyvoch	SSip6
vplyv	vplyvmi	SSip7
vplyvne	vplyvne	Dx
vplyvne	vplyvnejšie	Dy
vplyvne	najvplyvnejšie	Dz
vplyvný	vplyvný	AAms1x
vplyvný	vplyvného	AAms2x
vplyvný	vplyvnému	AAms3x
vplyvný	vplyvného	AAms4x
vplyvný	vplyvný	AAms5x
vplyvný	vplyvnom	AAms6x
vplyvný	vplyvným	AAms7x
vplyvný	vplyvní	AAmp1x
vplyvný	vplyvných	AAmp2x
vplyvný	vplyvným	AAmp3x
vplyvný	vplyvných	AAmp4x
vplyvný	vplyvní	AAmp5x
vplyvný	vplyvných	AAmp6x
vplyvný	vplyvnými	AAmp7x
vplyvný	vplyvný	AAis1x
vplyvný	vplyvného	AAis2x
vplyvný	vplyvnému	AAis3x
vplyvný	vplyvný	AAis4x
vplyvný	vplyvný	AAis5x
vplyvný	vplyvnom	AAis6x
vplyvný	vplyvným	AAis7x
vplyvný	vplyvné	AAip1x
vplyvný	vplyvných	AAip2x
vplyvný	vplyvným	AAip3x
vplyvný	vplyvné	AAip4x
vplyvný	vplyvné	AAip5x
vplyvný	vplyvných	AAip6x
vplyvný	vplyvnými	AAip7x
vplyvný	vplyvná	AAfs1x
vplyvný	vplyvnej	AAfs2x
vplyvný	vplyvnej	AAfs3x
vplyvný	vplyvnú	AAfs4x
vplyvný	vplyvná	AAfs5x
vplyvný	vplyvnej	AAfs6x
vplyvný	vplyvnou	AAfs7x
vplyvný	vplyvné	AAfp1x
vplyvný	vplyvných	AAfp2x
vplyvný	vplyvným	AAfp3x
vplyvný	vplyvné	AAfp4x
vplyvný	vplyvné	AAfp5x
vplyvný	vplyvných	AAfp6x
vplyvný	vplyvnými	AAfp7x
vplyvný	vplyvné	AAns1x
vplyvný	vplyvného	AAns2x
vplyvný	vplyvnému	AAns3x
vplyvný	vplyvné	AAns4x
vplyvný	vplyvné	AAns5x
vplyvný	vplyvnom	AAns6x
vplyvný	vplyvným	AAns7x
vplyvný	vplyvné	AAnp1x
vplyvný	vplyvných	AAnp2x
vplyvný	vplyvným	AAnp3x
vplyvný	vplyvné	AAnp4x
vplyvný	vplyvné	AAnp5x
vplyvný	vplyvných	AAnp6x
vplyvný	vplyvnými	AAnp7x
vplyvný	vplyvnejší	AAms1y
vplyvný	vplyvnejšieho	AAms2y
vplyvný	vplyvnejšiemu	AAms3y
vplyvný	vplyvnejšieho	AAms4y
vplyvný	vplyvnejší	AAms5y
vplyvný	vplyvnejšom	AAms6y
vplyvný	vplyvnejším	AAms7y
vplyvný	vplyvnejší	AAmp1y
vplyvný	vplyvnejších	AAmp2y
vplyvný	vplyvnejším	AAmp3y
vplyvný	vplyvnejších	AAmp4y
vplyvný	vplyvnejší	AAmp5y
vplyvný	vplyvnejších	AAmp6y
vplyvný	vplyvnejšími	AAmp7y
vplyvný	vplyvnejší	AAis1y
vplyvný	vplyvnejšieho	AAis2y
vplyvný	vplyvnejšiemu	AAis3y
vplyvný	vplyvnejší	AAis4y
vplyvný	vplyvnejší	AAis5y
vplyvný	vplyvnejšom	AAis6y
vplyvný	vplyvnejším	AAis7y
vplyvný	vplyvnejšie	AAip1y
vplyvný	vplyvnejších	AAip2y
vplyvný	vplyvnejším	AAip3y
vplyvný	vplyvnejšie	AAip4y
vplyvný	vplyvnejšie	AAip5y
vplyvný	vplyvnejších	AAip6y
vplyvný	vplyvnejšími	AAip7y
vplyvný	vplyvnejšia	AAfs1y
vplyvný	vplyvnejšej	AAfs2y
vplyvný	vplyvnejšej	AAfs3y
vplyvný	vplyvnejšiu	AAfs4y
vplyvný	vplyvnejšia	AAfs5y
vplyvný	vplyvnejšej	AAfs6y
vplyvný	vplyvnejšou	AAfs7y
vplyvný	vplyvnejšie	AAfp1y
vplyvný	vplyvnejších	AAfp2y
vplyvný	vplyvnejším	AAfp3y
vplyvný	vplyvnejšie	AAfp4y
vplyvný	vplyvnejšie	AAfp5y
vplyvný	vplyvnejších	AAfp6y
vplyvný	vplyvnejšími	AAfp7y
vplyvný	vplyvnejšie	AAns1y
vplyvný	vplyvnejšieho	AAns2y
vplyvný	vplyvnejšiemu	AAns3y
vplyvný	vplyvnejšie	AAns4y
vplyvný	vplyvnejšie	AAns5y
vplyvný	vplyvnejšom	AAns6y
vplyvný	vplyvnejším	AAns7y
vplyvný	vplyvnejšie	AAnp1y
vplyvný	vplyvnejších	AAnp2y
vplyvný	vplyvnejším	AAnp3y
vplyvný	vplyvnejšie	AAnp4y
vplyvný	vplyvnejšie	AAnp5y
vplyvný	vplyvnejších	AAnp6y
vplyvný	vplyvnejšími	AAnp7y
vplyvný	najvplyvnejší	AAms1z
vplyvný	najvplyvnejšieho	AAms2z
vplyvný	najvplyvnejšiemu	AAms3z
vplyvný	najvplyvnejšieho	AAms4z
vplyvný	najvplyvnejší	AAms5z
vplyvný	najvplyvnejšom	AAms6z
vplyvný	najvplyvnejším	AAms7z
vplyvný	najvplyvnejší	AAmp1z
vplyvný	najvplyvnejších	AAmp2z
vplyvný	najvplyvnejším	AAmp3z
vplyvný	najvplyvnejších	AAmp4z
vplyvný	najvplyvnejší	AAmp5z
vplyvný	najvplyvnejších	AAmp6z
vplyvný	najvplyvnejšími	AAmp7z
vplyvný	najvplyvnejší	AAis1z
vplyvný	najvplyvnejšieho	AAis2z
vplyvný	najvplyvnejšiemu	AAis3z
vplyvný	najvplyvnejší	AAis4z
vplyvný	najvplyvnejší	AAis5z
vplyvný	najvplyvnejšom	AAis6z
vplyvný	najvplyvnejším	AAis7z
vplyvný	najvplyvnejšie	AAip1z
vplyvný	najvplyvnejších	AAip2z
vplyvný	najvplyvnejším	AAip3z
vplyvný	najvplyvnejšie	AAip4z
vplyvný	najvplyvnejšie	AAip5z
vplyvný	najvplyvnejších	AAip6z
vplyvný	najvplyvnejšími	AAip7z
vplyvný	najvplyvnejšia	AAfs1z
vplyvný	najvplyvnejšej	AAfs2z
vplyvný	najvplyvnejšej	AAfs3z
vplyvný	najvplyvnejšiu	AAfs4z
vplyvný	najvplyvnejšia	AAfs5z
vplyvný	najvplyvnejšej	AAfs6z
vplyvný	najvplyvnejšou	AAfs7z
vplyvný	najvplyvnejšie	AAfp1z
vplyvný	najvplyvnejších	AAfp2z
vplyvný	najvplyvnejším	AAfp3z
vplyvný	najvplyvnejšie	AAfp4z
vplyvný	najvplyvnejšie	AAfp5z
vplyvný	najvplyvnejších	AAfp6z
vplyvný	najvplyvnejšími	AAfp7z
vplyvný	najvplyvnejšie	AAns1z
vplyvný	najvplyvnejšieho	AAns2z
vplyvný	najvplyvnejšiemu	AAns3z
vplyvný	najvplyvnejšie	AAns4z
vplyvný	najvplyvnejšie	AAns5z
vplyvný	najvplyvnejšom	AAns6z
vplyvný	najvplyvnejším	AAns7z
vplyvný	najvplyvnejšie	AAnp1z
vplyvný	najvplyvnejších	AAnp2z
vplyvný	najvplyvnejším	AAnp3z
vplyvný	najvplyvnejšie	AAnp4z
vplyvný	najvplyvnejšie	AAnp5z
vplyvný	najvplyvnejších	AAnp6z
vplyvný	najvplyvnejšími	AAnp7z
vplyvom	vplyvom	Eu2
vplávať	vplávať	VId+
vplávať	vplávam	VKdsa+
vplávať	vplávaš	VKdsb+
vplávať	vpláva	VKdsc+
vplávať	vplávame	VKdpa+
vplávať	vplávate	VKdpb+
vplávať	vplávajú	VKdpc+
vplávať	vplávaj	VMdsb+
vplávať	vplávajme	VMdpa+
vplávať	vplávajte	VMdpb+
vplávať	vplávajúc	VHd+
vplávať	vplával	VLdsam+
vplávať	vplával	VLdsai+
vplávať	vplával	VLdsbm+
vplávať	vplával	VLdsbi+
vplávať	vplával	VLdscm+
vplávať	vplával	VLdsci+
vplávať	vplávala	VLdsaf+
vplávať	vplávala	VLdsbf+
vplávať	vplávala	VLdscf+
vplávať	vplávalo	VLdsan+
vplávať	vplávalo	VLdsbn+
vplávať	vplávalo	VLdscn+
vplávať	vplávali	VLdpah+
vplávať	vplávali	VLdpbh+
vplávať	vplávali	VLdpcm+
vplávať	vplávali	VLdpci+
vplávať	vplávali	VLdpcf+
vplávať	vplávali	VLdpcn+
vplávať	vplávali	VLdpco+
vplývať	vplývať	VIe+
vplývať	vplývam	VKesa+
vplývať	vplývaš	VKesb+
vplývať	vplýva	VKesc+
vplývať	vplývame	VKepa+
vplývať	vplývate	VKepb+
vplývať	vplývajú	VKepc+
vplývať	vplývaj	VMesb+
vplývať	vplývajme	VMepa+
vplývať	vplývajte	VMepb+
vplývať	vplývajúc	VHe+
vplývať	vplýval	VLesam+
vplývať	vplýval	VLesai+
vplývať	vplýval	VLesbm+
vplývať	vplýval	VLesbi+
vplývať	vplýval	VLescm+
vplývať	vplýval	VLesci+
vplývať	vplývala	VLesaf+
vplývať	vplývala	VLesbf+
vplývať	vplývala	VLescf+
vplývať	vplývalo	VLesan+
vplývať	vplývalo	VLesbn+
vplývať	vplývalo	VLescn+
vplývať	vplývali	VLepah+
vplývať	vplývali	VLepbh+
vplývať	vplývali	VLepcm+
vplývať	vplývali	VLepci+
vplývať	vplývali	VLepcf+
vplývať	vplývali	VLepcn+
vplývať	vplývali	VLepco+
vpochodovať	vpochodovať	VId+
vpochodovať	vpochodujem	VKdsa+
vpochodovať	vpochoduješ	VKdsb+
vpochodovať	vpochoduje	VKdsc+
vpochodovať	vpochodujeme	VKdpa+
vpochodovať	vpochodujete	VKdpb+
vpochodovať	vpochodujú	VKdpc+
vpochodovať	vpochoduj	VMdsb+
vpochodovať	vpochodujme	VMdpa+
vpochodovať	vpochodujte	VMdpb+
vpochodovať	vpochodujúc	VHd+
vpochodovať	vpochodoval	VLdsam+
vpochodovať	vpochodoval	VLdsai+
vpochodovať	vpochodoval	VLdsbm+
vpochodovať	vpochodoval	VLdsbi+
vpochodovať	vpochodoval	VLdscm+
vpochodovať	vpochodoval	VLdsci+
vpochodovať	vpochodovala	VLdsaf+
vpochodovať	vpochodovala	VLdsbf+
vpochodovať	vpochodovala	VLdscf+
vpochodovať	vpochodovalo	VLdsan+
vpochodovať	vpochodovalo	VLdsbn+
vpochodovať	vpochodovalo	VLdscn+
vpochodovať	vpochodovali	VLdpah+
vpochodovať	vpochodovali	VLdpbh+
vpochodovať	vpochodovali	VLdpcm+
vpochodovať	vpochodovali	VLdpci+
vpochodovať	vpochodovali	VLdpcf+
vpochodovať	vpochodovali	VLdpcn+
vpochodovať	vpochodovali	VLdpco+
vpratať	vpratať	VId+
vpratať	vpracem	VKdsa+
vpratať	vpraceš	VKdsb+
vpratať	vprace	VKdsc+
vpratať	vpraceme	VKdpa+
vpratať	vpracete	VKdpb+
vpratať	vpracú	VKdpc+
vpratať	vprac	VMdsb+
vpratať	vpracme	VMdpa+
vpratať	vpracte	VMdpb+
vpratať	vpracúc	VHd+
vpratať	vpratal	VLdsam+
vpratať	vpratal	VLdsai+
vpratať	vpratal	VLdsbm+
vpratať	vpratal	VLdsbi+
vpratať	vpratal	VLdscm+
vpratať	vpratal	VLdsci+
vpratať	vpratala	VLdsaf+
vpratať	vpratala	VLdsbf+
vpratať	vpratala	VLdscf+
vpratať	vpratalo	VLdsan+
vpratať	vpratalo	VLdsbn+
vpratať	vpratalo	VLdscn+
vpratať	vpratali	VLdpah+
vpratať	vpratali	VLdpbh+
vpratať	vpratali	VLdpcm+
vpratať	vpratali	VLdpci+
vpratať	vpratali	VLdpcf+
vpratať	vpratali	VLdpcn+
vpratať	vpratali	VLdpco+
vpraviť	vpraviť	VId+
vpraviť	vpravím	VKdsa+
vpraviť	vpravíš	VKdsb+
vpraviť	vpraví	VKdsc+
vpraviť	vpravíme	VKdpa+
vpraviť	vpravíte	VKdpb+
vpraviť	vpravia	VKdpc+
vpraviť	vprav	VMdsb+
vpraviť	vpravme	VMdpa+
vpraviť	vpravte	VMdpb+
vpraviť	vpraviac	VHd+
vpraviť	vpravil	VLdsam+
vpraviť	vpravil	VLdsai+
vpraviť	vpravil	VLdsbm+
vpraviť	vpravil	VLdsbi+
vpraviť	vpravil	VLdscm+
vpraviť	vpravil	VLdsci+
vpraviť	vpravila	VLdsaf+
vpraviť	vpravila	VLdsbf+
vpraviť	vpravila	VLdscf+
vpraviť	vpravilo	VLdsan+
vpraviť	vpravilo	VLdsbn+
vpraviť	vpravilo	VLdscn+
vpraviť	vpravili	VLdpah+
vpraviť	vpravili	VLdpbh+
vpraviť	vpravili	VLdpcm+
vpraviť	vpravili	VLdpci+
vpraviť	vpravili	VLdpcf+
vpraviť	vpravili	VLdpcn+
vpraviť	vpravili	VLdpco+
vpravo	vpravo	Dx
vpred	vpred	Dx
vpredu	vpredu	Dx
vpust	vpust	SSis1
vpust	vpustu	SSis2
vpust	vpustu	SSis3
vpust	vpust	SSis4
vpust	vpust	SSis5
vpust	vpuste	SSis6
vpust	vpustom	SSis7
vpust	vpusty	SSip1
vpust	vpustov	SSip2
vpust	vpustom	SSip3
vpust	vpusty	SSip4
vpust	vpusty	SSip5
vpust	vpustoch	SSip6
vpust	vpustami	SSip7
vpustiť	vpustiť	VId+
vpustiť	vpustím	VKdsa+
vpustiť	vpustíš	VKdsb+
vpustiť	vpustí	VKdsc+
vpustiť	vpustíme	VKdpa+
vpustiť	vpustíte	VKdpb+
vpustiť	vpustia	VKdpc+
vpustiť	vpusti	VMdsb+
vpustiť	vpusť	VMdsb+
vpustiť	vpustime	VMdpa+
vpustiť	vpusťme	VMdpa+
vpustiť	vpusťte	VMdpb+
vpustiť	vpustite	VMdpb+
vpustiť	vpustiac	VHd+
vpustiť	vpustil	VLdsam+
vpustiť	vpustil	VLdsai+
vpustiť	vpustil	VLdsbm+
vpustiť	vpustil	VLdsbi+
vpustiť	vpustil	VLdscm+
vpustiť	vpustil	VLdsci+
vpustiť	vpustila	VLdsaf+
vpustiť	vpustila	VLdsbf+
vpustiť	vpustila	VLdscf+
vpustiť	vpustilo	VLdsan+
vpustiť	vpustilo	VLdsbn+
vpustiť	vpustilo	VLdscn+
vpustiť	vpustili	VLdpah+
vpustiť	vpustili	VLdpbh+
vpustiť	vpustili	VLdpcm+
vpustiť	vpustili	VLdpci+
vpustiť	vpustili	VLdpcf+
vpustiť	vpustili	VLdpcn+
vpustiť	vpustili	VLdpco+
vpád	vpád	SSis1
vpád	vpádu	SSis2
vpád	vpádu	SSis3
vpád	vpád	SSis4
vpád	vpád	SSis5
vpád	vpáde	SSis6
vpád	vpádom	SSis7
vpád	vpády	SSip1
vpád	vpádov	SSip2
vpád	vpádom	SSip3
vpád	vpády	SSip4
vpád	vpády	SSip5
vpád	vpádoch	SSip6
vpád	vpádmi	SSip7
vpáliť	vpáliť	VId+
vpáliť	vpálim	VKdsa+
vpáliť	vpáliš	VKdsb+
vpáliť	vpáli	VKdsc+
vpáliť	vpálime	VKdpa+
vpáliť	vpálite	VKdpb+
vpáliť	vpália	VKdpc+
vpáliť	vpáľ	VMdsb+
vpáliť	vpáľme	VMdpa+
vpáliť	vpáľte	VMdpb+
vpáliť	vpáliac	VHd+
vpáliť	vpálil	VLdsam+
vpáliť	vpálil	VLdsai+
vpáliť	vpálil	VLdsbm+
vpáliť	vpálil	VLdsbi+
vpáliť	vpálil	VLdscm+
vpáliť	vpálil	VLdsci+
vpáliť	vpálila	VLdsaf+
vpáliť	vpálila	VLdsbf+
vpáliť	vpálila	VLdscf+
vpáliť	vpálilo	VLdsan+
vpáliť	vpálilo	VLdsbn+
vpáliť	vpálilo	VLdscn+
vpáliť	vpálili	VLdpah+
vpáliť	vpálili	VLdpbh+
vpáliť	vpálili	VLdpcm+
vpáliť	vpálili	VLdpci+
vpáliť	vpálili	VLdpcf+
vpáliť	vpálili	VLdpcn+
vpáliť	vpálili	VLdpco+
vpíjať	vpíjať	VIe+
vpíjať	vpíjam	VKesa+
vpíjať	vpíjaš	VKesb+
vpíjať	vpíja	VKesc+
vpíjať	vpíjame	VKepa+
vpíjať	vpíjate	VKepb+
vpíjať	vpíjajú	VKepc+
vpíjať	vpíjaj	VMesb+
vpíjať	vpíjajme	VMepa+
vpíjať	vpíjajte	VMepb+
vpíjať	vpíjajúc	VHe+
vpíjať	vpíjal	VLesam+
vpíjať	vpíjal	VLesai+
vpíjať	vpíjal	VLesbm+
vpíjať	vpíjal	VLesbi+
vpíjať	vpíjal	VLescm+
vpíjať	vpíjal	VLesci+
vpíjať	vpíjala	VLesaf+
vpíjať	vpíjala	VLesbf+
vpíjať	vpíjala	VLescf+
vpíjať	vpíjalo	VLesan+
vpíjať	vpíjalo	VLesbn+
vpíjať	vpíjalo	VLescn+
vpíjať	vpíjali	VLepah+
vpíjať	vpíjali	VLepbh+
vpíjať	vpíjali	VLepcm+
vpíjať	vpíjali	VLepci+
vpíjať	vpíjali	VLepcf+
vpíjať	vpíjali	VLepcn+
vpíjať	vpíjali	VLepco+
vpísať	vpísať	VId+
vpísať	vpíšem	VKdsa+
vpísať	vpíšeš	VKdsb+
vpísať	vpíše	VKdsc+
vpísať	vpíšeme	VKdpa+
vpísať	vpíšete	VKdpb+
vpísať	vpíšu	VKdpc+
vpísať	vpíš	VMdsb+
vpísať	vpíšme	VMdpa+
vpísať	vpíšte	VMdpb+
vpísať	vpíšuc	VHd+
vpísať	vpísal	VLdsam+
vpísať	vpísal	VLdsai+
vpísať	vpísal	VLdsbm+
vpísať	vpísal	VLdsbi+
vpísať	vpísal	VLdscm+
vpísať	vpísal	VLdsci+
vpísať	vpísala	VLdsaf+
vpísať	vpísala	VLdsbf+
vpísať	vpísala	VLdscf+
vpísať	vpísalo	VLdsan+
vpísať	vpísalo	VLdsbn+
vpísať	vpísalo	VLdscn+
vpísať	vpísali	VLdpah+
vpísať	vpísali	VLdpbh+
vpísať	vpísali	VLdpcm+
vpísať	vpísali	VLdpci+
vpísať	vpísali	VLdpcf+
vpísať	vpísali	VLdpcn+
vpísať	vpísali	VLdpco+
vpúšťať	vpúšťať	VIe+
vpúšťať	vpúšťam	VKesa+
vpúšťať	vpúšťaš	VKesb+
vpúšťať	vpúšťa	VKesc+
vpúšťať	vpúšťame	VKepa+
vpúšťať	vpúšťate	VKepb+
vpúšťať	vpúšťajú	VKepc+
vpúšťať	vpúšťaj	VMesb+
vpúšťať	vpúšťajme	VMepa+
vpúšťať	vpúšťajte	VMepb+
vpúšťať	vpúšťajúc	VHe+
vpúšťať	vpúšťal	VLesam+
vpúšťať	vpúšťal	VLesai+
vpúšťať	vpúšťal	VLesbm+
vpúšťať	vpúšťal	VLesbi+
vpúšťať	vpúšťal	VLescm+
vpúšťať	vpúšťal	VLesci+
vpúšťať	vpúšťala	VLesaf+
vpúšťať	vpúšťala	VLesbf+
vpúšťať	vpúšťala	VLescf+
vpúšťať	vpúšťalo	VLesan+
vpúšťať	vpúšťalo	VLesbn+
vpúšťať	vpúšťalo	VLescn+
vpúšťať	vpúšťali	VLepah+
vpúšťať	vpúšťali	VLepbh+
vpúšťať	vpúšťali	VLepcm+
vpúšťať	vpúšťali	VLepci+
vpúšťať	vpúšťali	VLepcf+
vpúšťať	vpúšťali	VLepcn+
vpúšťať	vpúšťali	VLepco+
