xantipa	xantipa	SSfs1
xantipa	xantipy	SSfs2
xantipa	xantipe	SSfs3
xantipa	xantipu	SSfs4
xantipa	xantipa	SSfs5
xantipa	xantipe	SSfs6
xantipa	xantipou	SSfs7
xantipa	xantipy	SSfp1
xantipa	xantíp	SSfp2
xantipa	xantipám	SSfp3
xantipa	xantipy	SSfp4
xantipa	xantipy	SSfp5
xantipa	xantipách	SSfp6
xantipa	xantipami	SSfp7
