yamoussoukriansky	yamoussoukriansky	AAms1x
yamoussoukriansky	yamoussoukrianskeho	AAms2x
yamoussoukriansky	yamoussoukrianskemu	AAms3x
yamoussoukriansky	yamoussoukrianskeho	AAms4x
yamoussoukriansky	yamoussoukriansky	AAms5x
yamoussoukriansky	yamoussoukrianskom	AAms6x
yamoussoukriansky	yamoussoukrianskym	AAms7x
yamoussoukriansky	yamoussoukrianski	AAmp1x
yamoussoukriansky	yamoussoukrianskych	AAmp2x
yamoussoukriansky	yamoussoukrianskym	AAmp3x
yamoussoukriansky	yamoussoukrianskych	AAmp4x
yamoussoukriansky	yamoussoukrianski	AAmp5x
yamoussoukriansky	yamoussoukrianskych	AAmp6x
yamoussoukriansky	yamoussoukrianskymi	AAmp7x
yamoussoukriansky	yamoussoukriansky	AAis1x
yamoussoukriansky	yamoussoukrianskeho	AAis2x
yamoussoukriansky	yamoussoukrianskemu	AAis3x
yamoussoukriansky	yamoussoukriansky	AAis4x
yamoussoukriansky	yamoussoukriansky	AAis5x
yamoussoukriansky	yamoussoukrianskom	AAis6x
yamoussoukriansky	yamoussoukrianskym	AAis7x
yamoussoukriansky	yamoussoukrianske	AAip1x
yamoussoukriansky	yamoussoukrianskych	AAip2x
yamoussoukriansky	yamoussoukrianskym	AAip3x
yamoussoukriansky	yamoussoukrianske	AAip4x
yamoussoukriansky	yamoussoukrianske	AAip5x
yamoussoukriansky	yamoussoukrianskych	AAip6x
yamoussoukriansky	yamoussoukrianskymi	AAip7x
yamoussoukriansky	yamoussoukrianska	AAfs1x
yamoussoukriansky	yamoussoukrianskej	AAfs2x
yamoussoukriansky	yamoussoukrianskej	AAfs3x
yamoussoukriansky	yamoussoukriansku	AAfs4x
yamoussoukriansky	yamoussoukrianska	AAfs5x
yamoussoukriansky	yamoussoukrianskej	AAfs6x
yamoussoukriansky	yamoussoukrianskou	AAfs7x
yamoussoukriansky	yamoussoukrianske	AAfp1x
yamoussoukriansky	yamoussoukrianskych	AAfp2x
yamoussoukriansky	yamoussoukrianskym	AAfp3x
yamoussoukriansky	yamoussoukrianske	AAfp4x
yamoussoukriansky	yamoussoukrianske	AAfp5x
yamoussoukriansky	yamoussoukrianskych	AAfp6x
yamoussoukriansky	yamoussoukrianskymi	AAfp7x
yamoussoukriansky	yamoussoukrianske	AAns1x
yamoussoukriansky	yamoussoukrianskeho	AAns2x
yamoussoukriansky	yamoussoukrianskemu	AAns3x
yamoussoukriansky	yamoussoukrianske	AAns4x
yamoussoukriansky	yamoussoukrianske	AAns5x
yamoussoukriansky	yamoussoukrianskom	AAns6x
yamoussoukriansky	yamoussoukrianskym	AAns7x
yamoussoukriansky	yamoussoukrianske	AAnp1x
yamoussoukriansky	yamoussoukrianskych	AAnp2x
yamoussoukriansky	yamoussoukrianskym	AAnp3x
yamoussoukriansky	yamoussoukrianske	AAnp4x
yamoussoukriansky	yamoussoukrianske	AAnp5x
yamoussoukriansky	yamoussoukrianskych	AAnp6x
yamoussoukriansky	yamoussoukrianskymi	AAnp7x
yamoussoukriansky	yamoussoukriansky	Dx
yankeeovský	yankeeovský	AAms1x
yankeeovský	yankeeovského	AAms2x
yankeeovský	yankeeovskému	AAms3x
yankeeovský	yankeeovského	AAms4x
yankeeovský	yankeeovský	AAms5x
yankeeovský	yankeeovskom	AAms6x
yankeeovský	yankeeovským	AAms7x
yankeeovský	yankeeovskí	AAmp1x
yankeeovský	yankeeovských	AAmp2x
yankeeovský	yankeeovským	AAmp3x
yankeeovský	yankeeovských	AAmp4x
yankeeovský	yankeeovskí	AAmp5x
yankeeovský	yankeeovských	AAmp6x
yankeeovský	yankeeovskými	AAmp7x
yankeeovský	yankeeovský	AAis1x
yankeeovský	yankeeovského	AAis2x
yankeeovský	yankeeovskému	AAis3x
yankeeovský	yankeeovský	AAis4x
yankeeovský	yankeeovský	AAis5x
yankeeovský	yankeeovskom	AAis6x
yankeeovský	yankeeovským	AAis7x
yankeeovský	yankeeovské	AAip1x
yankeeovský	yankeeovských	AAip2x
yankeeovský	yankeeovským	AAip3x
yankeeovský	yankeeovské	AAip4x
yankeeovský	yankeeovské	AAip5x
yankeeovský	yankeeovských	AAip6x
yankeeovský	yankeeovskými	AAip7x
yankeeovský	yankeeovská	AAfs1x
yankeeovský	yankeeovskej	AAfs2x
yankeeovský	yankeeovskej	AAfs3x
yankeeovský	yankeeovskú	AAfs4x
yankeeovský	yankeeovská	AAfs5x
yankeeovský	yankeeovskej	AAfs6x
yankeeovský	yankeeovskou	AAfs7x
yankeeovský	yankeeovské	AAfp1x
yankeeovský	yankeeovských	AAfp2x
yankeeovský	yankeeovským	AAfp3x
yankeeovský	yankeeovské	AAfp4x
yankeeovský	yankeeovské	AAfp5x
yankeeovský	yankeeovských	AAfp6x
yankeeovský	yankeeovskými	AAfp7x
yankeeovský	yankeeovské	AAns1x
yankeeovský	yankeeovského	AAns2x
yankeeovský	yankeeovskému	AAns3x
yankeeovský	yankeeovské	AAns4x
yankeeovský	yankeeovské	AAns5x
yankeeovský	yankeeovskom	AAns6x
yankeeovský	yankeeovským	AAns7x
yankeeovský	yankeeovské	AAnp1x
yankeeovský	yankeeovských	AAnp2x
yankeeovský	yankeeovským	AAnp3x
yankeeovský	yankeeovské	AAnp4x
yankeeovský	yankeeovské	AAnp5x
yankeeovský	yankeeovských	AAnp6x
yankeeovský	yankeeovskými	AAnp7x
yaoundésky	yaoundésky	AAms1x
yaoundésky	yaoundéskeho	AAms2x
yaoundésky	yaoundéskemu	AAms3x
yaoundésky	yaoundéskeho	AAms4x
yaoundésky	yaoundésky	AAms5x
yaoundésky	yaoundéskom	AAms6x
yaoundésky	yaoundéskym	AAms7x
yaoundésky	yaoundéski	AAmp1x
yaoundésky	yaoundéskych	AAmp2x
yaoundésky	yaoundéskym	AAmp3x
yaoundésky	yaoundéskych	AAmp4x
yaoundésky	yaoundéski	AAmp5x
yaoundésky	yaoundéskych	AAmp6x
yaoundésky	yaoundéskymi	AAmp7x
yaoundésky	yaoundésky	AAis1x
yaoundésky	yaoundéskeho	AAis2x
yaoundésky	yaoundéskemu	AAis3x
yaoundésky	yaoundésky	AAis4x
yaoundésky	yaoundésky	AAis5x
yaoundésky	yaoundéskom	AAis6x
yaoundésky	yaoundéskym	AAis7x
yaoundésky	yaoundéske	AAip1x
yaoundésky	yaoundéskych	AAip2x
yaoundésky	yaoundéskym	AAip3x
yaoundésky	yaoundéske	AAip4x
yaoundésky	yaoundéske	AAip5x
yaoundésky	yaoundéskych	AAip6x
yaoundésky	yaoundéskymi	AAip7x
yaoundésky	yaoundéska	AAfs1x
yaoundésky	yaoundéskej	AAfs2x
yaoundésky	yaoundéskej	AAfs3x
yaoundésky	yaoundésku	AAfs4x
yaoundésky	yaoundéska	AAfs5x
yaoundésky	yaoundéskej	AAfs6x
yaoundésky	yaoundéskou	AAfs7x
yaoundésky	yaoundéske	AAfp1x
yaoundésky	yaoundéskych	AAfp2x
yaoundésky	yaoundéskym	AAfp3x
yaoundésky	yaoundéske	AAfp4x
yaoundésky	yaoundéske	AAfp5x
yaoundésky	yaoundéskych	AAfp6x
yaoundésky	yaoundéskymi	AAfp7x
yaoundésky	yaoundéske	AAns1x
yaoundésky	yaoundéskeho	AAns2x
yaoundésky	yaoundéskemu	AAns3x
yaoundésky	yaoundéske	AAns4x
yaoundésky	yaoundéske	AAns5x
yaoundésky	yaoundéskom	AAns6x
yaoundésky	yaoundéskym	AAns7x
yaoundésky	yaoundéske	AAnp1x
yaoundésky	yaoundéskych	AAnp2x
yaoundésky	yaoundéskym	AAnp3x
yaoundésky	yaoundéske	AAnp4x
yaoundésky	yaoundéske	AAnp5x
yaoundésky	yaoundéskych	AAnp6x
yaoundésky	yaoundéskymi	AAnp7x
yard	yard	SSis1
yard	yardu	SSis2
yard	yardu	SSis3
yard	yard	SSis4
yard	yard	SSis5
yard	yardu	SSis6
yard	yardom	SSis7
yard	yardy	SSip1
yard	yardov	SSip2
yard	yardom	SSip3
yard	yardy	SSip4
yard	yardy	SSip5
yard	yardoch	SSip6
yard	yardami	SSip7
yarenský	yarenský	AAms1x
yarenský	yarenského	AAms2x
yarenský	yarenskému	AAms3x
yarenský	yarenského	AAms4x
yarenský	yarenský	AAms5x
yarenský	yarenskom	AAms6x
yarenský	yarenským	AAms7x
yarenský	yarenskí	AAmp1x
yarenský	yarenských	AAmp2x
yarenský	yarenským	AAmp3x
yarenský	yarenských	AAmp4x
yarenský	yarenskí	AAmp5x
yarenský	yarenských	AAmp6x
yarenský	yarenskými	AAmp7x
yarenský	yarenský	AAis1x
yarenský	yarenského	AAis2x
yarenský	yarenskému	AAis3x
yarenský	yarenský	AAis4x
yarenský	yarenský	AAis5x
yarenský	yarenskom	AAis6x
yarenský	yarenským	AAis7x
yarenský	yarenské	AAip1x
yarenský	yarenských	AAip2x
yarenský	yarenským	AAip3x
yarenský	yarenské	AAip4x
yarenský	yarenské	AAip5x
yarenský	yarenských	AAip6x
yarenský	yarenskými	AAip7x
yarenský	yarenská	AAfs1x
yarenský	yarenskej	AAfs2x
yarenský	yarenskej	AAfs3x
yarenský	yarenskú	AAfs4x
yarenský	yarenská	AAfs5x
yarenský	yarenskej	AAfs6x
yarenský	yarenskou	AAfs7x
yarenský	yarenské	AAfp1x
yarenský	yarenských	AAfp2x
yarenský	yarenským	AAfp3x
yarenský	yarenské	AAfp4x
yarenský	yarenské	AAfp5x
yarenský	yarenských	AAfp6x
yarenský	yarenskými	AAfp7x
yarenský	yarenské	AAns1x
yarenský	yarenského	AAns2x
yarenský	yarenskému	AAns3x
yarenský	yarenské	AAns4x
yarenský	yarenské	AAns5x
yarenský	yarenskom	AAns6x
yarenský	yarenským	AAns7x
yarenský	yarenské	AAnp1x
yarenský	yarenských	AAnp2x
yarenský	yarenským	AAnp3x
yarenský	yarenské	AAnp4x
yarenský	yarenské	AAnp5x
yarenský	yarenských	AAnp6x
yarenský	yarenskými	AAnp7x
