yperit	yperit	SSis1
yperit	yperitu	SSis2
yperit	yperitu	SSis3
yperit	yperit	SSis4
yperit	yperit	SSis5
yperit	yperite	SSis6
yperit	yperitom	SSis7
yperit	yperity	SSip1
yperit	yperitov	SSip2
yperit	yperitom	SSip3
yperit	yperity	SSip4
yperit	yperity	SSip5
yperit	yperitoch	SSip6
yperit	yperitmi	SSip7
yperitový	yperitový	AAms1x
yperitový	yperitového	AAms2x
yperitový	yperitovému	AAms3x
yperitový	yperitového	AAms4x
yperitový	yperitový	AAms5x
yperitový	yperitovom	AAms6x
yperitový	yperitovým	AAms7x
yperitový	yperitoví	AAmp1x
yperitový	yperitových	AAmp2x
yperitový	yperitovým	AAmp3x
yperitový	yperitových	AAmp4x
yperitový	yperitoví	AAmp5x
yperitový	yperitových	AAmp6x
yperitový	yperitovými	AAmp7x
yperitový	yperitový	AAis1x
yperitový	yperitového	AAis2x
yperitový	yperitovému	AAis3x
yperitový	yperitový	AAis4x
yperitový	yperitový	AAis5x
yperitový	yperitovom	AAis6x
yperitový	yperitovým	AAis7x
yperitový	yperitové	AAip1x
yperitový	yperitových	AAip2x
yperitový	yperitovým	AAip3x
yperitový	yperitové	AAip4x
yperitový	yperitové	AAip5x
yperitový	yperitových	AAip6x
yperitový	yperitovými	AAip7x
yperitový	yperitová	AAfs1x
yperitový	yperitovej	AAfs2x
yperitový	yperitovej	AAfs3x
yperitový	yperitovú	AAfs4x
yperitový	yperitová	AAfs5x
yperitový	yperitovej	AAfs6x
yperitový	yperitovou	AAfs7x
yperitový	yperitové	AAfp1x
yperitový	yperitových	AAfp2x
yperitový	yperitovým	AAfp3x
yperitový	yperitové	AAfp4x
yperitový	yperitové	AAfp5x
yperitový	yperitových	AAfp6x
yperitový	yperitovými	AAfp7x
yperitový	yperitové	AAns1x
yperitový	yperitového	AAns2x
yperitový	yperitovému	AAns3x
yperitový	yperitové	AAns4x
yperitový	yperitové	AAns5x
yperitový	yperitovom	AAns6x
yperitový	yperitovým	AAns7x
yperitový	yperitové	AAnp1x
yperitový	yperitových	AAnp2x
yperitový	yperitovým	AAnp3x
yperitový	yperitové	AAnp4x
yperitový	yperitové	AAnp5x
yperitový	yperitových	AAnp6x
yperitový	yperitovými	AAnp7x
ypsilon	ypsilon	SSis1
ypsilon	ypsilonu	SSis2
ypsilon	ypsilonu	SSis3
ypsilon	ypsilon	SSis4
ypsilon	ypsilon	SSis5
ypsilon	ypsilone	SSis6
ypsilon	ypsilonom	SSis7
ypsilon	ypsilony	SSip1
ypsilon	ypsilonov	SSip2
ypsilon	ypsilonom	SSip3
ypsilon	ypsilony	SSip4
ypsilon	ypsilony	SSip5
ypsilon	ypsilonoch	SSip6
ypsilon	ypsilonmi	SSip7
ypsilon	ypsilon	SUns1
ypsilon	ypsilon	SUns2
ypsilon	ypsilon	SUns3
ypsilon	ypsilon	SUns4
ypsilon	ypsilon	SUns5
ypsilon	ypsilon	SUns6
ypsilon	ypsilon	SUns7
ypsilon	ypsilon	SUnp1
ypsilon	ypsilon	SUnp2
ypsilon	ypsilon	SUnp3
ypsilon	ypsilon	SUnp4
ypsilon	ypsilon	SUnp5
ypsilon	ypsilon	SUnp6
ypsilon	ypsilon	SUnp7
ypsilonista	ypsilonista	SSms1
ypsilonista	ypsilonistu	SSms2
ypsilonista	ypsilonistovi	SSms3
ypsilonista	ypsilonistu	SSms4
ypsilonista	ypsilonista	SSms5
ypsilonista	ypsilonistovi	SSms6
ypsilonista	ypsilonistom	SSms7
ypsilonista	ypsilonisti	SSmp1
ypsilonista	ypsilonistov	SSmp2
ypsilonista	ypsilonistom	SSmp3
ypsilonista	ypsilonistov	SSmp4
ypsilonista	ypsilonisti	SSmp5
ypsilonista	ypsilonistoch	SSmp6
ypsilonista	ypsilonistami	SSmp7
ypsilonový	ypsilonový	AAms1x
ypsilonový	ypsilonového	AAms2x
ypsilonový	ypsilonovému	AAms3x
ypsilonový	ypsilonového	AAms4x
ypsilonový	ypsilonový	AAms5x
ypsilonový	ypsilonovom	AAms6x
ypsilonový	ypsilonovým	AAms7x
ypsilonový	ypsilonoví	AAmp1x
ypsilonový	ypsilonových	AAmp2x
ypsilonový	ypsilonovým	AAmp3x
ypsilonový	ypsilonových	AAmp4x
ypsilonový	ypsilonoví	AAmp5x
ypsilonový	ypsilonových	AAmp6x
ypsilonový	ypsilonovými	AAmp7x
ypsilonový	ypsilonový	AAis1x
ypsilonový	ypsilonového	AAis2x
ypsilonový	ypsilonovému	AAis3x
ypsilonový	ypsilonový	AAis4x
ypsilonový	ypsilonový	AAis5x
ypsilonový	ypsilonovom	AAis6x
ypsilonový	ypsilonovým	AAis7x
ypsilonový	ypsilonové	AAip1x
ypsilonový	ypsilonových	AAip2x
ypsilonový	ypsilonovým	AAip3x
ypsilonový	ypsilonové	AAip4x
ypsilonový	ypsilonové	AAip5x
ypsilonový	ypsilonových	AAip6x
ypsilonový	ypsilonovými	AAip7x
ypsilonový	ypsilonová	AAfs1x
ypsilonový	ypsilonovej	AAfs2x
ypsilonový	ypsilonovej	AAfs3x
ypsilonový	ypsilonovú	AAfs4x
ypsilonový	ypsilonová	AAfs5x
ypsilonový	ypsilonovej	AAfs6x
ypsilonový	ypsilonovou	AAfs7x
ypsilonový	ypsilonové	AAfp1x
ypsilonový	ypsilonových	AAfp2x
ypsilonový	ypsilonovým	AAfp3x
ypsilonový	ypsilonové	AAfp4x
ypsilonový	ypsilonové	AAfp5x
ypsilonový	ypsilonových	AAfp6x
ypsilonový	ypsilonovými	AAfp7x
ypsilonový	ypsilonové	AAns1x
ypsilonový	ypsilonového	AAns2x
ypsilonový	ypsilonovému	AAns3x
ypsilonový	ypsilonové	AAns4x
ypsilonový	ypsilonové	AAns5x
ypsilonový	ypsilonovom	AAns6x
ypsilonový	ypsilonovým	AAns7x
ypsilonový	ypsilonové	AAnp1x
ypsilonový	ypsilonových	AAnp2x
ypsilonový	ypsilonovým	AAnp3x
ypsilonový	ypsilonové	AAnp4x
ypsilonový	ypsilonové	AAnp5x
ypsilonový	ypsilonových	AAnp6x
ypsilonový	ypsilonovými	AAnp7x
